{"hash":"6d1e7dd52e8c17cf4930f349c6afc1a78b2e1c5e","data":{"records":{"id":"Health & Fitness","title":"Health & Fitness","belongsTo":{"totalCount":37,"pageInfo":{"totalPages":5,"currentPage":3},"edges":[{"node":{"__typename":"Course","id":"3772c3d4-3ef1-11ea-9791-1b580a556b4a","title":"Improve Your Physical and Mental Success with Tai Chi","slug":"improve-your-physical-and-mental-success-with-tai-chi","headline":"Learn Tai Chi to improve your physical performance and balance your emotions. Tai Chi for beginners course.","created":"24th January 2020","tags":[{"title":"Health & Fitness","path":"/tag/Health%20%26%20Fitness/"},{"title":"Fitness","path":"/tag/Fitness/"},{"title":"Tai Chi","path":"/tag/Tai%20Chi/"}]}},{"node":{"__typename":"Course","id":"3772eae5-3ef1-11ea-9791-1b580a556b4a","title":"30 Day Yoga Challenge & Detox Diet Transformation System","slug":"30-day-yoga-challenge-and-detox-diet-transformation-system","headline":"Learn the Most Powerful Yoga, Health & Healing Program Online: Hours of Proven Effective Practices Guaranteed.","created":"24th January 2020","tags":[{"title":"Health & Fitness","path":"/tag/Health%20%26%20Fitness/"},{"title":"Yoga","path":"/tag/Yoga/"}]}},{"node":{"__typename":"Course","id":"377311f2-3ef1-11ea-9791-1b580a556b4a","title":"Danielle Vardakas: Brand New Beginners Yoga","slug":"danielle-vardakas-brand-new-beginners-yoga","headline":"This course will help you understand why and how the postures are practiced, build strength, stamina & flexibility.","created":"24th January 2020","tags":[{"title":"Health & Fitness","path":"/tag/Health%20%26%20Fitness/"},{"title":"Yoga","path":"/tag/Yoga/"}]}},{"node":{"__typename":"Course","id":"37729cc3-3ef1-11ea-9791-1b580a556b4a","title":"Real Pilates 7 Day Core Strength & Stamina Transformation","slug":"real-pilates-7-day-core-strength-and-stamina-transformation","headline":"Learn Simple moves to change your body and strengthen your core for everyday life with Real Pilates.","created":"24th January 2020","tags":[{"title":"Health & Fitness","path":"/tag/Health%20%26%20Fitness/"},{"title":"Fitness","path":"/tag/Fitness/"}]}},{"node":{"__typename":"Course","id":"37729cc9-3ef1-11ea-9791-1b580a556b4a","title":"Ayurvedic Yoga for your Dosha","slug":"ayurvedic-yoga-for-your-dosha","headline":"Learn how Ayurveda yoga practice can support specific Ayurvedic dosha or body type, bringing great health and balance.","created":"24th January 2020","tags":[{"title":"Health & Fitness","path":"/tag/Health%20%26%20Fitness/"},{"title":"Yoga","path":"/tag/Yoga/"}]}},{"node":{"__typename":"Course","id":"377275b3-3ef1-11ea-9791-1b580a556b4a","title":"Authentic Yoga Experience Series 2","slug":"authentic-yoga-experience-series-2","headline":"Immerse Yourself, FROM SCRATCH, into the most authentic Yoga Experience","created":"24th January 2020","tags":[{"title":"Health & Fitness","path":"/tag/Health%20%26%20Fitness/"},{"title":"Yoga","path":"/tag/Yoga/"}]}},{"node":{"__typename":"Course","id":"3772279a-3ef1-11ea-9791-1b580a556b4a","title":"Authentic Yoga Experience Series 1","slug":"authentic-yoga-experience-series-1","headline":"Immerse Yourself, FROM SCRATCH, into the most authentic Yoga Experience","created":"24th January 2020","tags":[{"title":"Health & Fitness","path":"/tag/Health%20%26%20Fitness/"},{"title":"Yoga","path":"/tag/Yoga/"}]}},{"node":{"__typename":"Course","id":"37722793-3ef1-11ea-9791-1b580a556b4a","title":"Pole Dancing Video Course with Noelle Wood","slug":"pole-dancing-video-course-with-noelle-wood","headline":"Learn beginner through expert pole dancing moves for fun and fitness from a champion instructor.","created":"24th January 2020","tags":[{"title":"Health & Fitness","path":"/tag/Health%20%26%20Fitness/"},{"title":"Fitness","path":"/tag/Fitness/"},{"title":"Pole Dancing","path":"/tag/Pole%20Dancing/"}]}},{"node":{"__typename":"Course","id":"37722794-3ef1-11ea-9791-1b580a556b4a","title":"Prenatal Yoga - Basic Class","slug":"prenatal-yoga-basic-class","headline":"A step-by-step approach to teach you the basics of Prenatal Yoga and Prenatal Yoga Poses.","created":"24th January 2020","tags":[{"title":"Health & Fitness","path":"/tag/Health%20%26%20Fitness/"},{"title":"Yoga","path":"/tag/Yoga/"},{"title":"Prenatal Yoga","path":"/tag/Prenatal%20Yoga/"}]}}]}}},"context":{}}