{"hash":"6d1e7dd52e8c17cf4930f349c6afc1a78b2e1c5e","data":{"records":{"id":"Personal Development","title":"Personal Development","belongsTo":{"totalCount":58,"pageInfo":{"totalPages":7,"currentPage":5},"edges":[{"node":{"__typename":"Course","id":"3773fc51-3ef1-11ea-9791-1b580a556b4a","title":"Breathing Made Easy - To Manage Stress and Reduce Anxiety","slug":"breathing-made-easy-to-manage-stress-and-reduce-anxiety","headline":"Learn and use diaphragmatic breathing to manage stress, reduce anxiety, and become more focused and effective.","created":"24th January 2020","tags":[{"title":"Personal Development","path":"/tag/Personal%20Development/"},{"title":"Stress Management","path":"/tag/Stress%20Management/"},{"title":"Breathing Techniques","path":"/tag/Breathing%20Techniques/"}]}},{"node":{"__typename":"Course","id":"3773fc53-3ef1-11ea-9791-1b580a556b4a","title":"How to get a new job in 30 days (or get a refund)","slug":"how-to-get-a-new-job-in-30-days-or-get-a-refund","headline":"An A-Z guide to find and secure a new job in 30 days. Includes +4 hours of step by step content to land a new job!","created":"24th January 2020","tags":[{"title":"Personal Development","path":"/tag/Personal%20Development/"},{"title":"Career Development","path":"/tag/Career%20Development/"},{"title":"Job Search","path":"/tag/Job%20Search/"}]}},{"node":{"__typename":"Course","id":"3773ae38-3ef1-11ea-9791-1b580a556b4a","title":"Access Your Genius with Richard Wilkins","slug":"access-your-genius-with-richard-wilkins","headline":"Learn how to easily access your Inner Greatness and how to become a genius.","created":"24th January 2020","tags":[{"title":"Personal Development","path":"/tag/Personal%20Development/"},{"title":"Personal Transformation","path":"/tag/Personal%20Transformation/"}]}},{"node":{"__typename":"Course","id":"3773d544-3ef1-11ea-9791-1b580a556b4a","title":"Career Mind Mastery: Interview Success Blueprint","slug":"career-mind-mastery-interview-success-blueprint","headline":"A simple, science-based system for interview success focusing on the art of story telling and the magic of metaphors","created":"24th January 2020","tags":[{"title":"Personal Development","path":"/tag/Personal%20Development/"},{"title":"Career Development","path":"/tag/Career%20Development/"},{"title":"Interviewing Skills","path":"/tag/Interviewing%20Skills/"}]}},{"node":{"__typename":"Course","id":"3773d547-3ef1-11ea-9791-1b580a556b4a","title":"Take Inventory of Your Self & Gain Authentic Self-Knowledge","slug":"take-inventory-of-your-self-and-gain-authentic-self-knowledge","headline":"Find, live and share the real you!","created":"24th January 2020","tags":[{"title":"Personal Development","path":"/tag/Personal%20Development/"},{"title":"Personal Transformation","path":"/tag/Personal%20Transformation/"}]}},{"node":{"__typename":"Course","id":"37736011-3ef1-11ea-9791-1b580a556b4a","title":"Career Mind Mastery: Bring Who You Are to What You Do","slug":"career-mind-mastery-bring-who-you-are-to-what-you-do","headline":"Your Talents + This System = Total Awesomeness.","created":"24th January 2020","tags":[{"title":"Personal Development","path":"/tag/Personal%20Development/"},{"title":"Career Development","path":"/tag/Career%20Development/"},{"title":"Career Coaching","path":"/tag/Career%20Coaching/"}]}},{"node":{"__typename":"Course","id":"37736012-3ef1-11ea-9791-1b580a556b4a","title":"Effective Online Dating","slug":"effective-online-dating","headline":"Frustrated? Bored? Confused? Learn How To Get The Most From Your Online Dating Experience","created":"24th January 2020","tags":[{"title":"Personal Development","path":"/tag/Personal%20Development/"},{"title":"Parenting & Relationships","path":"/tag/Parenting%20%26%20Relationships/"},{"title":"Dating","path":"/tag/Dating/"}]}},{"node":{"__typename":"Course","id":"377311f1-3ef1-11ea-9791-1b580a556b4a","title":"Atendimento 2.0 - A Arte de Encantar Clientes","slug":"atendimento-2-0-a-arte-de-encantar-clientes","headline":"Como Capturar a Mente e o Coração dos Clientes Presenciais e Online","created":"24th January 2020","tags":[{"title":"Personal Development","path":"/tag/Personal%20Development/"},{"title":"Career Development","path":"/tag/Career%20Development/"},{"title":"Customer Service","path":"/tag/Customer%20Service/"}]}},{"node":{"__typename":"Course","id":"37724ea5-3ef1-11ea-9791-1b580a556b4a","title":"How To Make a Short Film - a step-by-step filmmaking course","slug":"how-to-make-a-short-film-a-step-by-step-filmmaking-course","headline":"Enjoy a hilarious short comedy \"Dinner Date\" and learn how it was made. Develop your skills and make your own short film","created":"24th January 2020","tags":[{"title":"Personal Development","path":"/tag/Personal%20Development/"},{"title":"Creativity","path":"/tag/Creativity/"},{"title":"Filmmaking","path":"/tag/Filmmaking/"}]}}]}}},"context":{}}