{"hash":"6d1e7dd52e8c17cf4930f349c6afc1a78b2e1c5e","data":{"records":{"id":"Teaching & Academics","title":"Teaching & Academics","belongsTo":{"totalCount":57,"pageInfo":{"totalPages":7,"currentPage":7},"edges":[{"node":{"__typename":"Course","id":"376c3422-3ef1-11ea-9791-1b580a556b4a","title":"Learn Serbian 102","slug":"learn-serbian-102","headline":"Perfect for false beginners in Serbian, Bosnian, Croatian, Montenegrin. It covers all essential situations and grammar.","created":"24th January 2020","tags":[{"title":"Teaching & Academics","path":"/tag/Teaching%20%26%20Academics/"},{"title":"Language","path":"/tag/Language/"},{"title":"Serbian Language","path":"/tag/Serbian%20Language/"}]}},{"node":{"__typename":"Course","id":"376afba0-3ef1-11ea-9791-1b580a556b4a","title":"Apps for Librarians & Educators","slug":"apps-for-librarians-and-educators","headline":"Become an expert in the best mobile apps for education and content creation.","created":"24th January 2020","tags":[{"title":"Teaching & Academics","path":"/tag/Teaching%20%26%20Academics/"},{"title":"Teacher Training","path":"/tag/Teacher%20Training/"},{"title":"Productivity Apps","path":"/tag/Productivity%20Apps/"}]}},{"node":{"__typename":"Course","id":"376b22b1-3ef1-11ea-9791-1b580a556b4a","title":"Navigating the MBA Admissions Process","slug":"navigating-the-mba-admissions-process","headline":"MBA Admission: The Complete Course on How to Get into Business School.","created":"24th January 2020","tags":[{"title":"Teaching & Academics","path":"/tag/Teaching%20%26%20Academics/"},{"title":"Teacher Training","path":"/tag/Teacher%20Training/"},{"title":"MBA Admissions","path":"/tag/MBA%20Admissions/"}]}}]}}},"context":{}}