{"hash":"6d1e7dd52e8c17cf4930f349c6afc1a78b2e1c5e","data":{"records":{"id":"IT & Software","title":"IT & Software","belongsTo":{"totalCount":122,"pageInfo":{"totalPages":14,"currentPage":6},"edges":[{"node":{"__typename":"Course","id":"3778de56-3ef1-11ea-9791-1b580a556b4a","title":"SD Card Interfacing with Arduino","slug":"sd-card-interfacing-with-arduino","headline":"You will enter SD Card World, Write Anything and save it to your SD Card without having to worry about size","created":"24th January 2020","tags":[{"title":"IT & Software","path":"/tag/IT%20%26%20Software/"},{"title":"Hardware","path":"/tag/Hardware/"},{"title":"Arduino","path":"/tag/Arduino/"}]}},{"node":{"__typename":"Course","id":"3778de58-3ef1-11ea-9791-1b580a556b4a","title":"Certified Cloud Security Professional (CCSP) practice Tests","slug":"certified-cloud-security-professional-ccsp-practice-tests","headline":"Know if you are really ready for the exam: Certified Cloud Security Professional (CCSP)","created":"24th January 2020","tags":[{"title":"IT & Software","path":"/tag/IT%20%26%20Software/"},{"title":"IT Certification","path":"/tag/IT%20Certification/"},{"title":"CCSP - Certified Cloud Security Professional","path":"/tag/CCSP%20-%20Certified%20Cloud%20Security%20Professional/"}]}},{"node":{"__typename":"Course","id":"37790560-3ef1-11ea-9791-1b580a556b4a","title":"Recuperar archivos borrados eliminados formateados, etc.","slug":"recuperar-archivos-borrados-eliminados-formateados-etc","headline":"Curso para recuperar archivos borrados, eliminados, formateados de: discos duros, memorias USB, SD, computadoras, laptop","created":"24th January 2020","tags":[{"title":"IT & Software","path":"/tag/IT%20%26%20Software/"},{"title":"Operating Systems","path":"/tag/Operating%20Systems/"},{"title":"Computer Repair","path":"/tag/Computer%20Repair/"}]}},{"node":{"__typename":"Course","id":"3778b748-3ef1-11ea-9791-1b580a556b4a","title":"Bluetooth module Interfacing with PIC Microcontroller","slug":"bluetooth-module-interfacing-with-pic-microcontroller","headline":"You will enter Bluetooth world of wonders, Write Anything and Send it wireless","created":"24th January 2020","tags":[{"title":"IT & Software","path":"/tag/IT%20%26%20Software/"},{"title":"Hardware","path":"/tag/Hardware/"},{"title":"PIC Microcontroller","path":"/tag/PIC%20Microcontroller/"}]}},{"node":{"__typename":"Course","id":"3778b74a-3ef1-11ea-9791-1b580a556b4a","title":"Teste prático certificação Azure AZ-900 (Simulado)","slug":"teste-pratico-certificacao-azure-az-900-simulado","headline":"Teste Prático (Simulado) Exame AZ-900: Microsoft Azure Fundamentals (Português & Inglês)","created":"24th January 2020","tags":[{"title":"IT & Software","path":"/tag/IT%20%26%20Software/"},{"title":"IT Certification","path":"/tag/IT%20Certification/"}]}},{"node":{"__typename":"Course","id":"37786927-3ef1-11ea-9791-1b580a556b4a","title":"AWS Certified Security - Specialty Practice Test 2020","slug":"aws-certified-security-specialty-practice-test-2020","headline":"200 + AWS Certified Security Specialty Practice Test Questions Latest 2020","created":"24th January 2020","tags":[{"title":"IT & Software","path":"/tag/IT%20%26%20Software/"},{"title":"Network & Security","path":"/tag/Network%20%26%20Security/"}]}},{"node":{"__typename":"Course","id":"37789030-3ef1-11ea-9791-1b580a556b4a","title":"ST0-248 Symantec Foundation UNIX Technical Assessment Exam","slug":"s-t0-248-symantec-foundation-unix-technical-assessment-exam","headline":"ST0-248 Symantec Foundation UNIX Technical Assessment Practice Exam || Get Certification","created":"24th January 2020","tags":[{"title":"IT & Software","path":"/tag/IT%20%26%20Software/"},{"title":"IT Certification","path":"/tag/IT%20Certification/"},{"title":"Data Storage","path":"/tag/Data%20Storage/"}]}},{"node":{"__typename":"Course","id":"37789033-3ef1-11ea-9791-1b580a556b4a","title":"156-215.70 Check Point Certified Security Administrator Exam","slug":"156-215-70-check-point-certified-security-administrator-exam","headline":"156-215.70 Check Point Certified Security Administrator Practice Exam || Get Certification","created":"24th January 2020","tags":[{"title":"IT & Software","path":"/tag/IT%20%26%20Software/"},{"title":"IT Certification","path":"/tag/IT%20Certification/"},{"title":"Check Point Certified Security Administrator (CCSA)","path":"/tag/Check%20Point%20Certified%20Security%20Administrator%20(CCSA)/"}]}},{"node":{"__typename":"Course","id":"37789034-3ef1-11ea-9791-1b580a556b4a","title":"156-215.71 Check Certify Security Administrator R71 Exam","slug":"156-215-71-check-certify-security-administrator-r71-exam","headline":"156-215.71 Check Certify Security Administrator R71 Practice Exam || Get Certification","created":"24th January 2020","tags":[{"title":"IT & Software","path":"/tag/IT%20%26%20Software/"},{"title":"IT Certification","path":"/tag/IT%20Certification/"},{"title":"Check Point Certified Security Administrator (CCSA)","path":"/tag/Check%20Point%20Certified%20Security%20Administrator%20(CCSA)/"}]}}]}}},"context":{}}