{"hash":"6d1e7dd52e8c17cf4930f349c6afc1a78b2e1c5e","data":{"records":{"id":"Digital Marketing","title":"Digital Marketing","belongsTo":{"totalCount":11,"pageInfo":{"totalPages":2,"currentPage":2},"edges":[{"node":{"__typename":"Course","id":"3770a0f5-3ef1-11ea-9791-1b580a556b4a","title":"Landing Page Design & Optimization - build pages that work!","slug":"landing-page-design-and-optimization-build-pages-that-work","headline":"Learn the fine art of conversion rate optimization and making killer landing pages. Convert, succeed, win!","created":"24th January 2020","tags":[{"title":"Marketing","path":"/tag/Marketing/"},{"title":"Digital Marketing","path":"/tag/Digital%20Marketing/"},{"title":"Landing Page Optimization","path":"/tag/Landing%20Page%20Optimization/"}]}},{"node":{"__typename":"Course","id":"376c0d13-3ef1-11ea-9791-1b580a556b4a","title":"Learn How to Get Your First Million Users","slug":"learn-how-to-get-your-first-million-users","headline":"This course will teach you how to find all viral elements in your product and then use them to gain millions of users","created":"24th January 2020","tags":[{"title":"Marketing","path":"/tag/Marketing/"},{"title":"Digital Marketing","path":"/tag/Digital%20Marketing/"},{"title":"Growth Hacking","path":"/tag/Growth%20Hacking/"}]}}]}}},"context":{}}