{"hash":"6d1e7dd52e8c17cf4930f349c6afc1a78b2e1c5e","data":{"records":{"id":"Business","title":"Business","belongsTo":{"totalCount":119,"pageInfo":{"totalPages":14,"currentPage":12},"edges":[{"node":{"__typename":"Course","id":"376ea522-3ef1-11ea-9791-1b580a556b4a","title":"Powerful Business Writing #2 – How to Write in Fewer Words","slug":"powerful-business-writing-2-how-to-write-in-fewer-words","headline":"Boost your business writing skills – tips & cheat sheets for concise, professional and powerful writing.","created":"24th January 2020","tags":[{"title":"Business","path":"/tag/Business/"},{"title":"Communications","path":"/tag/Communications/"},{"title":"Business Writing","path":"/tag/Business%20Writing/"}]}},{"node":{"__typename":"Course","id":"376e7e15-3ef1-11ea-9791-1b580a556b4a","title":"Professional Self-Publishing","slug":"professional-self-publishing","headline":"How to self-publish a professional book without the help of traditional publishers.","created":"24th January 2020","tags":[{"title":"Business","path":"/tag/Business/"},{"title":"Media","path":"/tag/Media/"},{"title":"Self-Publishing","path":"/tag/Self-Publishing/"}]}},{"node":{"__typename":"Course","id":"376e5705-3ef1-11ea-9791-1b580a556b4a","title":"Building Your Platform","slug":"building-your-platform","headline":"What Businesses of All Sizes and Types Can Learn from Amazon, Apple, Facebook, and Google","created":"24th January 2020","tags":[{"title":"Business","path":"/tag/Business/"},{"title":"Other","path":"/tag/Other/"},{"title":"Online Business","path":"/tag/Online%20Business/"}]}},{"node":{"__typename":"Course","id":"376e2ff4-3ef1-11ea-9791-1b580a556b4a","title":"EU funding: How to access programmes and projects - Module 1","slug":"eu-funding-how-to-access-programmes-and-projects-module-1","headline":"An Introduction to EU grants programmes. This is the first of three Modules on how to access EU Programmes","created":"24th January 2020","tags":[{"title":"Business","path":"/tag/Business/"},{"title":"Industry","path":"/tag/Industry/"},{"title":"Grant Writing","path":"/tag/Grant%20Writing/"}]}},{"node":{"__typename":"Course","id":"376e2ff5-3ef1-11ea-9791-1b580a556b4a","title":"Foundations of Business Strategy","slug":"foundations-of-business-strategy","headline":"Foundations of Business Strategy introduces strategic analysis frameworks and their underlying theory.","created":"24th January 2020","tags":[{"title":"Business","path":"/tag/Business/"},{"title":"Strategy","path":"/tag/Strategy/"},{"title":"Business Strategy","path":"/tag/Business%20Strategy/"}]}},{"node":{"__typename":"Course","id":"376e2ff8-3ef1-11ea-9791-1b580a556b4a","title":"How to Make a Podcast with Garageband","slug":"how-to-make-a-podcast-with-garageband","headline":"Learn how to create and start a podcast with Garageband, Wordpress, and iTunes","created":"24th January 2020","tags":[{"title":"Business","path":"/tag/Business/"},{"title":"Media","path":"/tag/Media/"},{"title":"GarageBand","path":"/tag/GarageBand/"}]}},{"node":{"__typename":"Course","id":"376e5701-3ef1-11ea-9791-1b580a556b4a","title":"Operations Management","slug":"operations-management","headline":"Gain fundamental insights to world of Operations Management from award winning Professor Gad Allon","created":"24th January 2020","tags":[{"title":"Business","path":"/tag/Business/"},{"title":"Operations","path":"/tag/Operations/"},{"title":"Management Skills","path":"/tag/Management%20Skills/"}]}},{"node":{"__typename":"Course","id":"376de1d5-3ef1-11ea-9791-1b580a556b4a","title":"How to Make Killer Green Screen Videos","slug":"how-to-make-killer-green-screen-videos","headline":"Learn how to make green screen videos to promote your product and increase your sales,using iMovie green screen tutorial","created":"24th January 2020","tags":[{"title":"Business","path":"/tag/Business/"},{"title":"Media","path":"/tag/Media/"},{"title":"Video Creation","path":"/tag/Video%20Creation/"}]}},{"node":{"__typename":"Course","id":"376de1d6-3ef1-11ea-9791-1b580a556b4a","title":"Sell Ebooks on Amazon Kindle and Global Retailers","slug":"sell-ebooks-on-amazon-kindle-and-global-retailers","headline":"Self publishing made easy. Sell ebooks at Amazon, Apple, Google, B&N, Kobo, Smashwords, Scribd and major retailers.","created":"24th January 2020","tags":[{"title":"Business","path":"/tag/Business/"},{"title":"Media","path":"/tag/Media/"},{"title":"Amazon Kindle","path":"/tag/Amazon%20Kindle/"}]}}]}}},"context":{}}