{"hash":"6d1e7dd52e8c17cf4930f349c6afc1a78b2e1c5e","data":{"records":{"id":"Yoga","title":"Yoga","belongsTo":{"totalCount":16,"pageInfo":{"totalPages":2,"currentPage":1},"edges":[{"node":{"__typename":"Course","id":"37770994-3ef1-11ea-9791-1b580a556b4a","title":"Easy Instructional Harmonium for Yoga, Kirtans, Meditations","slug":"easy-instructional-harmonium-for-yoga-kirtans-meditations","headline":"Easy instructional harmonium for yoga classes, kirtans and personal meditations.","created":"24th January 2020","tags":[{"title":"Health & Fitness","path":"/tag/Health%20%26%20Fitness/"},{"title":"Yoga","path":"/tag/Yoga/"},{"title":"Harmonium","path":"/tag/Harmonium/"}]}},{"node":{"__typename":"Course","id":"37761f33-3ef1-11ea-9791-1b580a556b4a","title":"The Flow State Transformational Training Video Course","slug":"the-flow-state-transformational-training-video-course","headline":"Unique Flow State Workshops including Yoga,Chakra Balancing, Guided Meditation, Nutrition, Acro & Thai Massage Healing.","created":"24th January 2020","tags":[{"title":"Health & Fitness","path":"/tag/Health%20%26%20Fitness/"},{"title":"Yoga","path":"/tag/Yoga/"}]}},{"node":{"__typename":"Course","id":"37750dc7-3ef1-11ea-9791-1b580a556b4a","title":"Intro to Yoga Fun for Kids","slug":"intro-to-yoga-fun-for-kids","headline":"Where kids and the young at heart can have fun learning yoga","created":"24th January 2020","tags":[{"title":"Health & Fitness","path":"/tag/Health%20%26%20Fitness/"},{"title":"Yoga","path":"/tag/Yoga/"},{"title":"Yoga for Kids","path":"/tag/Yoga%20for%20Kids/"}]}},{"node":{"__typename":"Course","id":"37742363-3ef1-11ea-9791-1b580a556b4a","title":"Yoga For Insomnia: The 4-week Cure","slug":"yoga-for-insomnia-the-4-week-cure","headline":"Learn a variety of simple (yet potent) yogic techniques involving breath, movement and meditation to overcome insomnia.","created":"24th January 2020","tags":[{"title":"Health & Fitness","path":"/tag/Health%20%26%20Fitness/"},{"title":"Yoga","path":"/tag/Yoga/"}]}},{"node":{"__typename":"Course","id":"37733905-3ef1-11ea-9791-1b580a556b4a","title":"Postnatal Yoga - Basic Class","slug":"postnatal-yoga-basic-class","headline":"Postnatal Yoga Classes: A step-by-step approach to teach you the basics of Postnatal Yoga with baby.","created":"24th January 2020","tags":[{"title":"Health & Fitness","path":"/tag/Health%20%26%20Fitness/"},{"title":"Yoga","path":"/tag/Yoga/"}]}},{"node":{"__typename":"Course","id":"3772eae5-3ef1-11ea-9791-1b580a556b4a","title":"30 Day Yoga Challenge & Detox Diet Transformation System","slug":"30-day-yoga-challenge-and-detox-diet-transformation-system","headline":"Learn the Most Powerful Yoga, Health & Healing Program Online: Hours of Proven Effective Practices Guaranteed.","created":"24th January 2020","tags":[{"title":"Health & Fitness","path":"/tag/Health%20%26%20Fitness/"},{"title":"Yoga","path":"/tag/Yoga/"}]}},{"node":{"__typename":"Course","id":"377311f2-3ef1-11ea-9791-1b580a556b4a","title":"Danielle Vardakas: Brand New Beginners Yoga","slug":"danielle-vardakas-brand-new-beginners-yoga","headline":"This course will help you understand why and how the postures are practiced, build strength, stamina & flexibility.","created":"24th January 2020","tags":[{"title":"Health & Fitness","path":"/tag/Health%20%26%20Fitness/"},{"title":"Yoga","path":"/tag/Yoga/"}]}},{"node":{"__typename":"Course","id":"37729cc9-3ef1-11ea-9791-1b580a556b4a","title":"Ayurvedic Yoga for your Dosha","slug":"ayurvedic-yoga-for-your-dosha","headline":"Learn how Ayurveda yoga practice can support specific Ayurvedic dosha or body type, bringing great health and balance.","created":"24th January 2020","tags":[{"title":"Health & Fitness","path":"/tag/Health%20%26%20Fitness/"},{"title":"Yoga","path":"/tag/Yoga/"}]}},{"node":{"__typename":"Course","id":"377275b3-3ef1-11ea-9791-1b580a556b4a","title":"Authentic Yoga Experience Series 2","slug":"authentic-yoga-experience-series-2","headline":"Immerse Yourself, FROM SCRATCH, into the most authentic Yoga Experience","created":"24th January 2020","tags":[{"title":"Health & Fitness","path":"/tag/Health%20%26%20Fitness/"},{"title":"Yoga","path":"/tag/Yoga/"}]}}]}}},"context":{}}