{"hash":"6d1e7dd52e8c17cf4930f349c6afc1a78b2e1c5e","data":{"records":{"id":"Development","title":"Development","belongsTo":{"totalCount":129,"pageInfo":{"totalPages":15,"currentPage":5},"edges":[{"node":{"__typename":"Course","id":"377534d4-3ef1-11ea-9791-1b580a556b4a","title":"Curso de Joomla 2.5 Paso a Paso","slug":"curso-de-joomla-2-5-paso-a-paso","headline":"Dise침o Web Paso a Paso con Joomla - Curso completo de joomla 2.5 en Espa침ol","created":"24th January 2020","tags":[{"title":"Development","path":"/tag/Development/"},{"title":"Web Development","path":"/tag/Web%20Development/"},{"title":"Joomla","path":"/tag/Joomla/"}]}},{"node":{"__typename":"Course","id":"377534d5-3ef1-11ea-9791-1b580a556b4a","title":"Login and Registration from Scratch with PHP and MySQL","slug":"login-and-registration-from-scratch-with-php-and-my-sql","headline":"Create a PHP login system including user sign-up, login, \"remember me\", password reset and user administration.","created":"24th January 2020","tags":[{"title":"Development","path":"/tag/Development/"},{"title":"Web Development","path":"/tag/Web%20Development/"},{"title":"MySQL","path":"/tag/MySQL/"}]}},{"node":{"__typename":"Course","id":"3774e6b6-3ef1-11ea-9791-1b580a556b4a","title":"Learn To Program with Pascal","slug":"learn-to-program-with-pascal","headline":"Master programming on Windows or Mac OS X with Lazarus & Free Pascal or Delphi","created":"24th January 2020","tags":[{"title":"Development","path":"/tag/Development/"},{"title":"Programming Languages","path":"/tag/Programming%20Languages/"},{"title":"Pascal Programming Language","path":"/tag/Pascal%20Programming%20Language/"}]}},{"node":{"__typename":"Course","id":"37750dc3-3ef1-11ea-9791-1b580a556b4a","title":"Todo PHP7 y MySQL, de b치sico a experto","slug":"todo-ph-p7-y-my-sql-de-basico-a-experto","headline":"Aprende a programar de forma sencilla y amena en el lenguaje de servidor m치s extendido y poderoso del mundo: PHP y MySQL","created":"24th January 2020","tags":[{"title":"Development","path":"/tag/Development/"},{"title":"Programming Languages","path":"/tag/Programming%20Languages/"},{"title":"MySQL","path":"/tag/MySQL/"}]}},{"node":{"__typename":"Course","id":"37750dc4-3ef1-11ea-9791-1b580a556b4a","title":"HTML5 and CreateJS Tutorial - Learn Interactive Development","slug":"htm-l5-and-create-js-tutorial-learn-interactive-development","headline":"Learn how to build Interactive content with HTML5 and CreateJS. An essential training course for all Web Developers","created":"24th January 2020","tags":[{"title":"Development","path":"/tag/Development/"},{"title":"Web Development","path":"/tag/Web%20Development/"},{"title":"CreateJS","path":"/tag/CreateJS/"}]}},{"node":{"__typename":"Course","id":"37750dc6-3ef1-11ea-9791-1b580a556b4a","title":"Java Tutorial for Complete Beginners","slug":"java-tutorial-for-complete-beginners","headline":"Learn to program using the Java programming language","created":"24th January 2020","tags":[{"title":"Development","path":"/tag/Development/"},{"title":"Programming Languages","path":"/tag/Programming%20Languages/"},{"title":"Java","path":"/tag/Java/"}]}},{"node":{"__typename":"Course","id":"3774e6b2-3ef1-11ea-9791-1b580a556b4a","title":"CSS Development (with CSS3!)","slug":"css-development-with-cs-s3","headline":"Create Flexible, Interesting, and Usable Designs for Desktop &Mobile Websites with CSS tutorial for beginners using CSS3","created":"24th January 2020","tags":[{"title":"Development","path":"/tag/Development/"},{"title":"Web Development","path":"/tag/Web%20Development/"},{"title":"CSS","path":"/tag/CSS/"}]}},{"node":{"__typename":"Course","id":"3774989a-3ef1-11ea-9791-1b580a556b4a","title":"HTML5","slug":"htm-l5","headline":"Aprenda a la poderosa herramienta que ha revolucionado la Internet","created":"24th January 2020","tags":[{"title":"Development","path":"/tag/Development/"},{"title":"Web Development","path":"/tag/Web%20Development/"},{"title":"HTML5","path":"/tag/HTML5/"}]}},{"node":{"__typename":"Course","id":"37749896-3ef1-11ea-9791-1b580a556b4a","title":"How to add In App Purchases to your iPhone app the easy way","slug":"how-to-add-in-app-purchases-to-your-i-phone-app-the-easy-way","headline":"The fastest and easiest way to implement MKStoreKit and boost your sales! Learn how to monetize your app now!","created":"24th January 2020","tags":[{"title":"Development","path":"/tag/Development/"},{"title":"Mobile Apps","path":"/tag/Mobile%20Apps/"},{"title":"iOS Development","path":"/tag/iOS%20Development/"}]}}]}}},"context":{}}