{"hash":"6d1e7dd52e8c17cf4930f349c6afc1a78b2e1c5e","data":{"records":{"id":"Excel","title":"Excel","belongsTo":{"totalCount":10,"pageInfo":{"totalPages":2,"currentPage":1},"edges":[{"node":{"__typename":"Course","id":"3778b740-3ef1-11ea-9791-1b580a556b4a","title":"Tự tin trong công việc với Excel 2019 / Excel 365","slug":"tu-tin-trong-cong-viec-voi-excel-2019-excel-365","headline":"Những kiến thức bạn cần biết để làm việc hiệu quả với Excel 2019 / Excel 365","created":"24th January 2020","tags":[{"title":"Office Productivity","path":"/tag/Office%20Productivity/"},{"title":"Microsoft","path":"/tag/Microsoft/"},{"title":"Excel","path":"/tag/Excel/"}]}},{"node":{"__typename":"Course","id":"3776bb7a-3ef1-11ea-9791-1b580a556b4a","title":"MICROSOFT EXCEL 2010 EN ESPAÑOL","slug":"microsoft-excel-2010-en-espanol","headline":"MICROSOFT EXCEL 2010 EN ESPAÑOL","created":"24th January 2020","tags":[{"title":"Office Productivity","path":"/tag/Office%20Productivity/"},{"title":"Microsoft","path":"/tag/Microsoft/"},{"title":"Excel","path":"/tag/Excel/"}]}},{"node":{"__typename":"Course","id":"3775d114-3ef1-11ea-9791-1b580a556b4a","title":"Presenting Financials with Excel and PowerPoint","slug":"presenting-financials-with-excel-and-power-point","headline":"Learn special tricks in Excel and PowerPoint designed specifically for presenting to \"numbers people\".","created":"24th January 2020","tags":[{"title":"Office Productivity","path":"/tag/Office%20Productivity/"},{"title":"Microsoft","path":"/tag/Microsoft/"},{"title":"Excel","path":"/tag/Excel/"}]}},{"node":{"__typename":"Course","id":"377582f3-3ef1-11ea-9791-1b580a556b4a","title":"Todo sobre Excel - De conocimientos básicos a profesionales","slug":"todo-sobre-excel-de-conocimientos-basicos-a-profesionales","headline":"Aprenderás como pasar de los conceptos básicos de Excel a las funcionalidades más \"pro\" como formulas, macros...","created":"24th January 2020","tags":[{"title":"Office Productivity","path":"/tag/Office%20Productivity/"},{"title":"Microsoft","path":"/tag/Microsoft/"},{"title":"Excel","path":"/tag/Excel/"}]}},{"node":{"__typename":"Course","id":"37733901-3ef1-11ea-9791-1b580a556b4a","title":"Excel Essentials","slug":"excel-essentials","headline":"Learn Excel the FUN way! By working through exercises along with the video tutorial.","created":"24th January 2020","tags":[{"title":"Office Productivity","path":"/tag/Office%20Productivity/"},{"title":"Microsoft","path":"/tag/Microsoft/"},{"title":"Excel","path":"/tag/Excel/"}]}},{"node":{"__typename":"Course","id":"37713d32-3ef1-11ea-9791-1b580a556b4a","title":"Introduction to Microsoft Excel 2010","slug":"introduction-to-microsoft-excel-2010","headline":"Learn the basics of Microsoft Excel 2010 in this interactive course!","created":"24th January 2020","tags":[{"title":"Office Productivity","path":"/tag/Office%20Productivity/"},{"title":"Microsoft","path":"/tag/Microsoft/"},{"title":"Excel","path":"/tag/Excel/"}]}},{"node":{"__typename":"Course","id":"3770a0f7-3ef1-11ea-9791-1b580a556b4a","title":"Microsoft Excel 2011 for Mac Tutorial - Learn The Easy Way.","slug":"microsoft-excel-2011-for-mac-tutorial-learn-the-easy-way","headline":"Learn Microsoft Excel 2011 for Mac at your own pace. Comes with Certificate of Completion","created":"24th January 2020","tags":[{"title":"Office Productivity","path":"/tag/Office%20Productivity/"},{"title":"Microsoft","path":"/tag/Microsoft/"},{"title":"Excel","path":"/tag/Excel/"}]}},{"node":{"__typename":"Course","id":"376fdda1-3ef1-11ea-9791-1b580a556b4a","title":"Learn Microsoft Excel 2010 by Example","slug":"learn-microsoft-excel-2010-by-example","headline":"Spend less time in Excel and get more from your data. Learn Excel 2010 (Formulas, Macros, Charts & more). Start Now!","created":"24th January 2020","tags":[{"title":"Office Productivity","path":"/tag/Office%20Productivity/"},{"title":"Microsoft","path":"/tag/Microsoft/"},{"title":"Excel","path":"/tag/Excel/"}]}},{"node":{"__typename":"Course","id":"376be603-3ef1-11ea-9791-1b580a556b4a","title":"Microsoft Excel 2010 Course Beginners/ Intermediate Training","slug":"microsoft-excel-2010-course-beginners-intermediate-training","headline":"Learn to Invoke the Power of Microsoft Excel in easy to follow stages","created":"24th January 2020","tags":[{"title":"Office Productivity","path":"/tag/Office%20Productivity/"},{"title":"Microsoft","path":"/tag/Microsoft/"},{"title":"Excel","path":"/tag/Excel/"}]}}]}}},"context":{}}