{"hash":"6d1e7dd52e8c17cf4930f349c6afc1a78b2e1c5e","data":{"records":{"id":"Design","title":"Design","belongsTo":{"totalCount":115,"pageInfo":{"totalPages":13,"currentPage":7},"edges":[{"node":{"__typename":"Course","id":"3772c3d5-3ef1-11ea-9791-1b580a556b4a","title":"Learn Step-by-Step How to Build a Smart Home System","slug":"learn-step-by-step-how-to-build-a-smart-home-system","headline":"Discover how to use your Smartphone or Tablet to Control your Home Lighting, Thermostats, IP cameras, Music & Security.","created":"24th January 2020","tags":[{"title":"Design","path":"/tag/Design/"},{"title":"Interior Design","path":"/tag/Interior%20Design/"},{"title":"Home Automation","path":"/tag/Home%20Automation/"}]}},{"node":{"__typename":"Course","id":"3772c3d7-3ef1-11ea-9791-1b580a556b4a","title":"Logo, Header and Image Basics for Online Business/Wordpress","slug":"logo-header-and-image-basics-for-online-business-wordpress","headline":"Tactics for the beginner to cut the crap and launch an idea, not work with a designer. How-to, tips, and tricks.","created":"24th January 2020","tags":[{"title":"Design","path":"/tag/Design/"},{"title":"Web Design","path":"/tag/Web%20Design/"},{"title":"Logo Design","path":"/tag/Logo%20Design/"}]}},{"node":{"__typename":"Course","id":"3772eae4-3ef1-11ea-9791-1b580a556b4a","title":"Mastering 2D Animation","slug":"mastering-2-d-animation","headline":"Learn to be a master 2D animator, using hand-drawn and digital techniques.","created":"24th January 2020","tags":[{"title":"Design","path":"/tag/Design/"},{"title":"3D & Animation","path":"/tag/3D%20%26%20Animation/"},{"title":"2D Animation","path":"/tag/2D%20Animation/"}]}},{"node":{"__typename":"Course","id":"377311f0-3ef1-11ea-9791-1b580a556b4a","title":"Enhanced WordPress Strategies For Business","slug":"enhanced-word-press-strategies-for-business","headline":"Supercharge Any Website With These Inside Tips, Tweaks and Tools For WordPress That Drive Traffic and Attract Customers","created":"24th January 2020","tags":[{"title":"Design","path":"/tag/Design/"},{"title":"Web Design","path":"/tag/Web%20Design/"},{"title":"WordPress","path":"/tag/WordPress/"}]}},{"node":{"__typename":"Course","id":"377275b9-3ef1-11ea-9791-1b580a556b4a","title":"Pro Tools 10 Tutorial - Makes Learning Pro Tools Easy","slug":"pro-tools-10-tutorial-makes-learning-pro-tools-easy","headline":"Master Avid Pro Tools 10. Learn the Audio Production Secrets used by the Pros. An easy to follow Pro Tools tutorial.","created":"24th January 2020","tags":[{"title":"Design","path":"/tag/Design/"},{"title":"Design Tools","path":"/tag/Design%20Tools/"},{"title":"Pro Tools","path":"/tag/Pro%20Tools/"}]}},{"node":{"__typename":"Course","id":"37729cc1-3ef1-11ea-9791-1b580a556b4a","title":"Photoshop Explained: The Pen Tool","slug":"photoshop-explained-the-pen-tool","headline":"Learn to use the pen tool and its related tools!","created":"24th January 2020","tags":[{"title":"Design","path":"/tag/Design/"},{"title":"Design Tools","path":"/tag/Design%20Tools/"},{"title":"Photoshop","path":"/tag/Photoshop/"}]}},{"node":{"__typename":"Course","id":"37729cc2-3ef1-11ea-9791-1b580a556b4a","title":"Digital Photoshop Compositing For Advertising Campaigns","slug":"digital-photoshop-compositing-for-advertising-campaigns","headline":"This Adobe Photoshop Compositing Course will teach a Beginner Photoshop user to Master Digital Photoshop Compositing.","created":"24th January 2020","tags":[{"title":"Design","path":"/tag/Design/"},{"title":"Design Tools","path":"/tag/Design%20Tools/"},{"title":"Photoshop Retouching","path":"/tag/Photoshop%20Retouching/"}]}},{"node":{"__typename":"Course","id":"377275b0-3ef1-11ea-9791-1b580a556b4a","title":"Master Photoshop Elements 10 the Easy Way - 12 Hours","slug":"master-photoshop-elements-10-the-easy-way-12-hours","headline":"Learn Photoshop Elements 10 - 12 hours of training tutorials. Make your photos lookmagnificent!","created":"24th January 2020","tags":[{"title":"Design","path":"/tag/Design/"},{"title":"Design Tools","path":"/tag/Design%20Tools/"},{"title":"Photoshop","path":"/tag/Photoshop/"}]}},{"node":{"__typename":"Course","id":"37724ea3-3ef1-11ea-9791-1b580a556b4a","title":"How to Design a Logo - a Beginners Course","slug":"how-to-design-a-logo-a-beginners-course","headline":"Learn how to design a logo from client brief to finished design.","created":"24th January 2020","tags":[{"title":"Design","path":"/tag/Design/"},{"title":"Graphic Design","path":"/tag/Graphic%20Design/"},{"title":"Logo Design","path":"/tag/Logo%20Design/"}]}}]}}},"context":{}}