{"hash":"6d1e7dd52e8c17cf4930f349c6afc1a78b2e1c5e","data":{"records":{"id":"IT Certification","title":"IT Certification","belongsTo":{"totalCount":88,"pageInfo":{"totalPages":10,"currentPage":5},"edges":[{"node":{"__typename":"Course","id":"37792c78-3ef1-11ea-9791-1b580a556b4a","title":"OFFICIAL Microsoft Dynamics CRM Sales (MB2-713)","slug":"official-microsoft-dynamics-crm-sales-m-b2-713","headline":"The most complete MB2-713 (Microsoft Dynamics CRM 2016 Sales) certification preparation you've ever seen!","created":"24th January 2020","tags":[{"title":"IT & Software","path":"/tag/IT%20%26%20Software/"},{"title":"IT Certification","path":"/tag/IT%20Certification/"},{"title":"Microsoft Dynamics","path":"/tag/Microsoft%20Dynamics/"}]}},{"node":{"__typename":"Course","id":"3778de58-3ef1-11ea-9791-1b580a556b4a","title":"Certified Cloud Security Professional (CCSP) practice Tests","slug":"certified-cloud-security-professional-ccsp-practice-tests","headline":"Know if you are really ready for the exam: Certified Cloud Security Professional (CCSP)","created":"24th January 2020","tags":[{"title":"IT & Software","path":"/tag/IT%20%26%20Software/"},{"title":"IT Certification","path":"/tag/IT%20Certification/"},{"title":"CCSP - Certified Cloud Security Professional","path":"/tag/CCSP%20-%20Certified%20Cloud%20Security%20Professional/"}]}},{"node":{"__typename":"Course","id":"3778b74a-3ef1-11ea-9791-1b580a556b4a","title":"Teste prático certificação Azure AZ-900 (Simulado)","slug":"teste-pratico-certificacao-azure-az-900-simulado","headline":"Teste Prático (Simulado) Exame AZ-900: Microsoft Azure Fundamentals (Português & Inglês)","created":"24th January 2020","tags":[{"title":"IT & Software","path":"/tag/IT%20%26%20Software/"},{"title":"IT Certification","path":"/tag/IT%20Certification/"}]}},{"node":{"__typename":"Course","id":"37789030-3ef1-11ea-9791-1b580a556b4a","title":"ST0-248 Symantec Foundation UNIX Technical Assessment Exam","slug":"s-t0-248-symantec-foundation-unix-technical-assessment-exam","headline":"ST0-248 Symantec Foundation UNIX Technical Assessment Practice Exam || Get Certification","created":"24th January 2020","tags":[{"title":"IT & Software","path":"/tag/IT%20%26%20Software/"},{"title":"IT Certification","path":"/tag/IT%20Certification/"},{"title":"Data Storage","path":"/tag/Data%20Storage/"}]}},{"node":{"__typename":"Course","id":"37789033-3ef1-11ea-9791-1b580a556b4a","title":"156-215.70 Check Point Certified Security Administrator Exam","slug":"156-215-70-check-point-certified-security-administrator-exam","headline":"156-215.70 Check Point Certified Security Administrator Practice Exam || Get Certification","created":"24th January 2020","tags":[{"title":"IT & Software","path":"/tag/IT%20%26%20Software/"},{"title":"IT Certification","path":"/tag/IT%20Certification/"},{"title":"Check Point Certified Security Administrator (CCSA)","path":"/tag/Check%20Point%20Certified%20Security%20Administrator%20(CCSA)/"}]}},{"node":{"__typename":"Course","id":"37789034-3ef1-11ea-9791-1b580a556b4a","title":"156-215.71 Check Certify Security Administrator R71 Exam","slug":"156-215-71-check-certify-security-administrator-r71-exam","headline":"156-215.71 Check Certify Security Administrator R71 Practice Exam || Get Certification","created":"24th January 2020","tags":[{"title":"IT & Software","path":"/tag/IT%20%26%20Software/"},{"title":"IT Certification","path":"/tag/IT%20Certification/"},{"title":"Check Point Certified Security Administrator (CCSA)","path":"/tag/Check%20Point%20Certified%20Security%20Administrator%20(CCSA)/"}]}},{"node":{"__typename":"Course","id":"37789035-3ef1-11ea-9791-1b580a556b4a","title":"Application Delivery Fundamentals","slug":"application-delivery-fundamentals","headline":"Prepare for Application Delivery Fundamentals Certification by practicing on test exams","created":"24th January 2020","tags":[{"title":"IT & Software","path":"/tag/IT%20%26%20Software/"},{"title":"IT Certification","path":"/tag/IT%20Certification/"},{"title":"IT Networking Fundamentals","path":"/tag/IT%20Networking%20Fundamentals/"}]}},{"node":{"__typename":"Course","id":"37789036-3ef1-11ea-9791-1b580a556b4a","title":"AWS Certified Big Data Specialty Practice Test 2020","slug":"aws-certified-big-data-specialty-practice-test-2020","headline":"400 AWS Certified Big Data Specialty Practice Test Questions Latest 2020","created":"24th January 2020","tags":[{"title":"IT & Software","path":"/tag/IT%20%26%20Software/"},{"title":"IT Certification","path":"/tag/IT%20Certification/"}]}},{"node":{"__typename":"Course","id":"37784210-3ef1-11ea-9791-1b580a556b4a","title":"AWS Certified Cloud Practitioner CLF-C01 Practice Exam NEW","slug":"aws-certified-cloud-practitioner-clf-c01-practice-exam-new","headline":"AWS Certified Cloud Practitioner CLF-C01 Practice Exam 100% Pass Guarantee NEW","created":"24th January 2020","tags":[{"title":"IT & Software","path":"/tag/IT%20%26%20Software/"},{"title":"IT Certification","path":"/tag/IT%20Certification/"}]}}]}}},"context":{}}