{"hash":"6d1e7dd52e8c17cf4930f349c6afc1a78b2e1c5e","data":{"records":{"id":"Personal Development","title":"Personal Development","belongsTo":{"totalCount":58,"pageInfo":{"totalPages":7,"currentPage":4},"edges":[{"node":{"__typename":"Course","id":"37755be3-3ef1-11ea-9791-1b580a556b4a","title":"Personal Finance Management Skills for Young Adults","slug":"personal-finance-management-skills-for-young-adults","headline":"Essential Skills that young adults need to know. Tips to have avoid problems, and skills to build a solid future.","created":"24th January 2020","tags":[{"title":"Personal Development","path":"/tag/Personal%20Development/"},{"title":"Personal Finance","path":"/tag/Personal%20Finance/"},{"title":"Management Skills","path":"/tag/Management%20Skills/"}]}},{"node":{"__typename":"Course","id":"3774e6b9-3ef1-11ea-9791-1b580a556b4a","title":"Your Future Is In the Cards","slug":"your-future-is-in-the-cards","headline":"Become a Fortune Teller in 7 Days....Learn fortune telling with a step-by-step system by card reading training","created":"24th January 2020","tags":[{"title":"Personal Development","path":"/tag/Personal%20Development/"},{"title":"Religion & Spirituality","path":"/tag/Religion%20%26%20Spirituality/"},{"title":"Clairvoyance","path":"/tag/Clairvoyance/"}]}},{"node":{"__typename":"Course","id":"3774e6ba-3ef1-11ea-9791-1b580a556b4a","title":"Ayurveda Lifestyle Practices for Balance and Bliss","slug":"ayurveda-lifestyle-practices-for-balance-and-bliss","headline":"Live Your Healthiest and Happiest Life with the Wisdom of Ayurveda","created":"24th January 2020","tags":[{"title":"Personal Development","path":"/tag/Personal%20Development/"},{"title":"Happiness","path":"/tag/Happiness/"},{"title":"Ayurvedic Medicine","path":"/tag/Ayurvedic%20Medicine/"}]}},{"node":{"__typename":"Course","id":"3774bfa9-3ef1-11ea-9791-1b580a556b4a","title":"Autoliderazgo","slug":"autoliderazgo","headline":"\"Descubre y usa tu verdadero potencial\" Reúne las mejores técnicas Coaching para ayudarte a alcanzar tus metas.","created":"24th January 2020","tags":[{"title":"Personal Development","path":"/tag/Personal%20Development/"},{"title":"Motivation","path":"/tag/Motivation/"}]}},{"node":{"__typename":"Course","id":"3774bfaa-3ef1-11ea-9791-1b580a556b4a","title":"Career Mind Mastery: Discover Brand You","slug":"career-mind-mastery-discover-brand-you","headline":"You are unique. Let's find out how! Angela & Tom help you on how to brand yourself.","created":"24th January 2020","tags":[{"title":"Personal Development","path":"/tag/Personal%20Development/"},{"title":"Career Development","path":"/tag/Career%20Development/"},{"title":"Career Coaching","path":"/tag/Career%20Coaching/"}]}},{"node":{"__typename":"Course","id":"3774e6b3-3ef1-11ea-9791-1b580a556b4a","title":"Find Me A Job: How to Score a Job Before Your Friends","slug":"find-me-a-job-how-to-score-a-job-before-your-friends","headline":"Finding internships for college students is not hard when you know these secrets. FInd an entry level job easily.","created":"24th January 2020","tags":[{"title":"Personal Development","path":"/tag/Personal%20Development/"},{"title":"Career Development","path":"/tag/Career%20Development/"},{"title":"Job Search","path":"/tag/Job%20Search/"}]}},{"node":{"__typename":"Course","id":"37749893-3ef1-11ea-9791-1b580a556b4a","title":"Be Happier Now, Easy Tips to Finding Joy Every Day","slug":"be-happier-now-easy-tips-to-finding-joy-every-day","headline":"Get out of your rut and enjoy life EVERY DAY! Replace the trouble spots in your day with new skills. Happiness is now.","created":"24th January 2020","tags":[{"title":"Personal Development","path":"/tag/Personal%20Development/"},{"title":"Happiness","path":"/tag/Happiness/"}]}},{"node":{"__typename":"Course","id":"37747181-3ef1-11ea-9791-1b580a556b4a","title":"Break into IT - How to Land Your Dream Job in IT","slug":"break-into-it-how-to-land-your-dream-job-in-it","headline":"Trying to get a cool role in IT but getting nowhere? I know how you feel but I found out how to land your dream job.","created":"24th January 2020","tags":[{"title":"Personal Development","path":"/tag/Personal%20Development/"},{"title":"Career Development","path":"/tag/Career%20Development/"},{"title":"Job Search","path":"/tag/Job%20Search/"}]}},{"node":{"__typename":"Course","id":"3773d549-3ef1-11ea-9791-1b580a556b4a","title":"Thawing the Inner Family of Self","slug":"thawing-the-inner-family-of-self","headline":"Meet Your Inner Family of Self, Heal the Past, Increase Self Esteem and Enrich Your Relationships with Others!","created":"24th January 2020","tags":[{"title":"Personal Development","path":"/tag/Personal%20Development/"},{"title":"Personal Transformation","path":"/tag/Personal%20Transformation/"},{"title":"Self-Esteem","path":"/tag/Self-Esteem/"}]}}]}}},"context":{}}