{"hash":"6d1e7dd52e8c17cf4930f349c6afc1a78b2e1c5e","data":{"records":{"id":"Design","title":"Design","belongsTo":{"totalCount":115,"pageInfo":{"totalPages":13,"currentPage":13},"edges":[{"node":{"__typename":"Course","id":"376c5b32-3ef1-11ea-9791-1b580a556b4a","title":"Beginners Adobe Illustrator CS5 Tutorial","slug":"beginners-adobe-illustrator-c-s5-tutorial","headline":"Learn Adobe Illustrator CS5 at your own pace. Over 10 hours of tutorial videos from a leading Adobe Expert.","created":"24th January 2020","tags":[{"title":"Design","path":"/tag/Design/"},{"title":"Design Tools","path":"/tag/Design%20Tools/"},{"title":"Adobe Illustrator","path":"/tag/Adobe%20Illustrator/"}]}},{"node":{"__typename":"Course","id":"376c5b33-3ef1-11ea-9791-1b580a556b4a","title":"Beginner Adobe Premiere Pro CS5 Tutorial","slug":"beginner-adobe-premiere-pro-c-s5-tutorial","headline":"Learn how to use Adobe Premiere with Expert Film Maker Phil Hawkins","created":"24th January 2020","tags":[{"title":"Design","path":"/tag/Design/"},{"title":"Design Tools","path":"/tag/Design%20Tools/"},{"title":"Adobe Premiere","path":"/tag/Adobe%20Premiere/"}]}},{"node":{"__typename":"Course","id":"376be602-3ef1-11ea-9791-1b580a556b4a","title":"Creating Responsive Web Design","slug":"creating-responsive-web-design","headline":"Learn how to optimize your webpages for different screen sizes and platforms.","created":"24th January 2020","tags":[{"title":"Design","path":"/tag/Design/"},{"title":"Web Design","path":"/tag/Web%20Design/"},{"title":"Responsive Design","path":"/tag/Responsive%20Design/"}]}},{"node":{"__typename":"Course","id":"376b70d2-3ef1-11ea-9791-1b580a556b4a","title":"Intro to Adobe InDesign","slug":"intro-to-adobe-in-design","headline":"Learn Adobe InDesign with design expert Joseph Caserto","created":"24th January 2020","tags":[{"title":"Design","path":"/tag/Design/"},{"title":"Design Tools","path":"/tag/Design%20Tools/"},{"title":"InDesign","path":"/tag/InDesign/"}]}},{"node":{"__typename":"Course","id":"376bbef2-3ef1-11ea-9791-1b580a556b4a","title":"AutoCAD Tutorial","slug":"auto-cad-tutorial","headline":"An innovative AutoCAD course that will help you learn AutoCAD quickly and effectively.","created":"24th January 2020","tags":[{"title":"Design","path":"/tag/Design/"},{"title":"Design Tools","path":"/tag/Design%20Tools/"},{"title":"AutoCAD","path":"/tag/AutoCAD/"}]}},{"node":{"__typename":"Course","id":"376ad491-3ef1-11ea-9791-1b580a556b4a","title":"Beginners Adobe Photoshop CS5 Tutorial","slug":"beginners-adobe-photoshop-c-s5-tutorial","headline":"Andy Anderson's Adobe Photoshop cs5 tutorials for beginners teaches you how to master Photoshop quickly and completely.","created":"24th January 2020","tags":[{"title":"Design","path":"/tag/Design/"},{"title":"Design Tools","path":"/tag/Design%20Tools/"},{"title":"Photoshop","path":"/tag/Photoshop/"}]}},{"node":{"__typename":"Course","id":"376aad81-3ef1-11ea-9791-1b580a556b4a","title":"Web Design from the Ground Up","slug":"web-design-from-the-ground-up","headline":"Learn web design online: Everything you need to know about XHTML and CSS, the basic building blocks of web design.","created":"24th January 2020","tags":[{"title":"Design","path":"/tag/Design/"},{"title":"Web Design","path":"/tag/Web%20Design/"}]}}]}}},"context":{}}