{"hash":"6d1e7dd52e8c17cf4930f349c6afc1a78b2e1c5e","data":{"records":{"id":"Sales","title":"Sales","belongsTo":{"totalCount":14,"pageInfo":{"totalPages":2,"currentPage":1},"edges":[{"node":{"__typename":"Course","id":"377a64f6-3ef1-11ea-9791-1b580a556b4a","title":"Generate thousands of high-qualified leads with Instagram","slug":"generate-thousands-of-high-qualified-leads-with-instagram","headline":"How to 10X your business in the next 6 months","created":"24th January 2020","tags":[{"title":"Business","path":"/tag/Business/"},{"title":"Sales","path":"/tag/Sales/"},{"title":"Lead Generation","path":"/tag/Lead%20Generation/"}]}},{"node":{"__typename":"Course","id":"37795385-3ef1-11ea-9791-1b580a556b4a","title":"Formation négociation","slug":"formation-negociation","headline":"Comment négocier pour obtenir plus","created":"24th January 2020","tags":[{"title":"Business","path":"/tag/Business/"},{"title":"Sales","path":"/tag/Sales/"},{"title":"Negotiation","path":"/tag/Negotiation/"}]}},{"node":{"__typename":"Course","id":"37781b02-3ef1-11ea-9791-1b580a556b4a","title":"Vente d'assurance automobile et habitation","slug":"vente-d-assurance-automobile-et-habitation","headline":"Comment augmenter vos ventes d'assurance avec des techniques simples","created":"24th January 2020","tags":[{"title":"Business","path":"/tag/Business/"},{"title":"Sales","path":"/tag/Sales/"},{"title":"Insurance","path":"/tag/Insurance/"}]}},{"node":{"__typename":"Course","id":"3777cce4-3ef1-11ea-9791-1b580a556b4a","title":"Formation vente","slug":"formation-vente","headline":"Comment augmenter facilement vos ventes et vos revenus","created":"24th January 2020","tags":[{"title":"Business","path":"/tag/Business/"},{"title":"Sales","path":"/tag/Sales/"}]}},{"node":{"__typename":"Course","id":"3777cce1-3ef1-11ea-9791-1b580a556b4a","title":"Sollicitation produits et services financiers","slug":"sollicitation-produits-et-services-financiers","headline":"Comment solliciter de manière efficace pour vendre des produits et services financiers.","created":"24th January 2020","tags":[{"title":"Business","path":"/tag/Business/"},{"title":"Sales","path":"/tag/Sales/"}]}},{"node":{"__typename":"Course","id":"37747183-3ef1-11ea-9791-1b580a556b4a","title":"Cold Calling: A New Approach","slug":"cold-calling-a-new-approach","headline":"Cold calling leads to failure, fatigue, and more failure - it's time to adopt a new strategy. Start with this course.","created":"24th January 2020","tags":[{"title":"Business","path":"/tag/Business/"},{"title":"Sales","path":"/tag/Sales/"},{"title":"Cold Calling","path":"/tag/Cold%20Calling/"}]}},{"node":{"__typename":"Course","id":"37747185-3ef1-11ea-9791-1b580a556b4a","title":"Deliver Value: A Cash Source Crash Course","slug":"deliver-value-a-cash-source-crash-course","headline":"Staying in touch with customers isn't enough. You must engage them from day one with value -here's the sales techniques.","created":"24th January 2020","tags":[{"title":"Business","path":"/tag/Business/"},{"title":"Sales","path":"/tag/Sales/"},{"title":"Value Investing","path":"/tag/Value%20Investing/"}]}},{"node":{"__typename":"Course","id":"37747186-3ef1-11ea-9791-1b580a556b4a","title":"Differentiate or Die","slug":"differentiate-or-die","headline":"In business and sales, standing out is do or die. This course is your complete how to for differentiation success.","created":"24th January 2020","tags":[{"title":"Business","path":"/tag/Business/"},{"title":"Sales","path":"/tag/Sales/"},{"title":"Business Strategy","path":"/tag/Business%20Strategy/"}]}},{"node":{"__typename":"Course","id":"37742360-3ef1-11ea-9791-1b580a556b4a","title":"Success Beyond Sales","slug":"success-beyond-sales","headline":"A Breakthrough in Influence and Persuasion","created":"24th January 2020","tags":[{"title":"Business","path":"/tag/Business/"},{"title":"Sales","path":"/tag/Sales/"},{"title":"Sales Skills","path":"/tag/Sales%20Skills/"}]}}]}}},"context":{}}