{"hash":"6d1e7dd52e8c17cf4930f349c6afc1a78b2e1c5e","data":{"records":{"id":"Health & Fitness","title":"Health & Fitness","belongsTo":{"totalCount":37,"pageInfo":{"totalPages":5,"currentPage":4},"edges":[{"node":{"__typename":"Course","id":"37718b52-3ef1-11ea-9791-1b580a556b4a","title":"Authentic Yoga Experience Series 1 - 3","slug":"authentic-yoga-experience-series-1-3","headline":"Immerse Yourself, Learn Yoga Online FROM SCRATCH, into the most authentic Yoga Experience","created":"24th January 2020","tags":[{"title":"Health & Fitness","path":"/tag/Health%20%26%20Fitness/"},{"title":"Yoga","path":"/tag/Yoga/"}]}},{"node":{"__typename":"Course","id":"37713d34-3ef1-11ea-9791-1b580a556b4a","title":"7 Day Yoga Routine: Increase Energy & Balance Your Chakras","slug":"7-day-yoga-routine-increase-energy-and-balance-your-chakras","headline":"Chakras for beginners course, 7 days of Study, Yoga Practice, and Meditation for chakra balancing and raising energy.","created":"24th January 2020","tags":[{"title":"Health & Fitness","path":"/tag/Health%20%26%20Fitness/"},{"title":"Yoga","path":"/tag/Yoga/"}]}},{"node":{"__typename":"Course","id":"37711627-3ef1-11ea-9791-1b580a556b4a","title":"The Complete Radiant Meditation 'Do Your Egg' Course","slug":"the-complete-radiant-meditation-do-your-egg-course","headline":"Why Meditate? To clear your issues, free your heart, creativity and inner spirit...just to start. Great with Ganja!","created":"24th January 2020","tags":[{"title":"Health & Fitness","path":"/tag/Health%20%26%20Fitness/"},{"title":"Meditation","path":"/tag/Meditation/"}]}},{"node":{"__typename":"Course","id":"37711620-3ef1-11ea-9791-1b580a556b4a","title":"The Yoga Of Laughter: From Stressed Out To Blissed Out!","slug":"the-yoga-of-laughter-from-stressed-out-to-blissed-out","headline":"This simple, fun and laughter-filled Yogic practice will help you achieve emotional detox and personal empowerment.","created":"24th January 2020","tags":[{"title":"Health & Fitness","path":"/tag/Health%20%26%20Fitness/"},{"title":"Yoga","path":"/tag/Yoga/"}]}},{"node":{"__typename":"Course","id":"3770a0f3-3ef1-11ea-9791-1b580a556b4a","title":"Fundamentos de Jiujitsu Brasileño","slug":"fundamentos-de-jiujitsu-brasileno","headline":"Aprende de una manera fácil y sencilla los fundamentos de Jiujitsu Brasileño para defensa personal.","created":"24th January 2020","tags":[{"title":"Health & Fitness","path":"/tag/Health%20%26%20Fitness/"},{"title":"Self Defense","path":"/tag/Self%20Defense/"},{"title":"Brazilian Jiu-Jitsu","path":"/tag/Brazilian%20Jiu-Jitsu/"}]}},{"node":{"__typename":"Course","id":"377052da-3ef1-11ea-9791-1b580a556b4a","title":"How To Perform Instant and Rapid Hypnotic Inductions","slug":"how-to-perform-instant-and-rapid-hypnotic-inductions","headline":"Learn Instant and Rapid Hypnosis Inductions with Michael C. White, C.Ht.","created":"24th January 2020","tags":[{"title":"Health & Fitness","path":"/tag/Health%20%26%20Fitness/"},{"title":"Other","path":"/tag/Other/"},{"title":"Hypnosis","path":"/tag/Hypnosis/"}]}},{"node":{"__typename":"Course","id":"376c3420-3ef1-11ea-9791-1b580a556b4a","title":"Learn SALSA in 5 Hours and Dance Your Way to Fun & Excitement!","slug":"learn-salsa-in-5-hours-and-dance-your-way-to-fun-and-excitement","headline":"Five Hours of Expert Instruction That Will Bring You Endless Hours of Fun & Excitement.","created":"24th January 2020","tags":[{"title":"Health & Fitness","path":"/tag/Health%20%26%20Fitness/"},{"title":"Dance","path":"/tag/Dance/"},{"title":"Salsa Dancing","path":"/tag/Salsa%20Dancing/"}]}},{"node":{"__typename":"Course","id":"376c0d12-3ef1-11ea-9791-1b580a556b4a","title":"Kinesiology Taping - Self application course","slug":"kinesiology-taping-self-application-course","headline":"Learn to apply Kinesiology tape to yourself or family/friends/patients.","created":"24th January 2020","tags":[{"title":"Health & Fitness","path":"/tag/Health%20%26%20Fitness/"},{"title":"General Health","path":"/tag/General%20Health/"},{"title":"Kinesiology Taping","path":"/tag/Kinesiology%20Taping/"}]}},{"node":{"__typename":"Course","id":"376b70d3-3ef1-11ea-9791-1b580a556b4a","title":"Kundalini Yoga to Heal Stress and Anxiety by Valinda~Viriam","slug":"kundalini-yoga-to-heal-stress-and-anxiety-by-valinda-viriam","headline":"Kundalini Yoga is an ancient & highly effective yoga that transforms a person quickly & effectively in just 30 minutes!","created":"24th January 2020","tags":[{"title":"Health & Fitness","path":"/tag/Health%20%26%20Fitness/"},{"title":"Yoga","path":"/tag/Yoga/"},{"title":"Kundalini","path":"/tag/Kundalini/"}]}}]}}},"context":{}}