{"hash":"6d1e7dd52e8c17cf4930f349c6afc1a78b2e1c5e","data":{"records":{"id":"IT Certification","title":"IT Certification","belongsTo":{"totalCount":88,"pageInfo":{"totalPages":10,"currentPage":6},"edges":[{"node":{"__typename":"Course","id":"37784213-3ef1-11ea-9791-1b580a556b4a","title":"OFFICIAL Microsoft Dynamics 365 Finance (MB-310)","slug":"official-microsoft-dynamics-365-finance-mb-310","headline":"The most complete Microsoft Dynamics 365 Finance (MB-310) certification preparation you've ever seen!","created":"24th January 2020","tags":[{"title":"IT & Software","path":"/tag/IT%20%26%20Software/"},{"title":"IT Certification","path":"/tag/IT%20Certification/"}]}},{"node":{"__typename":"Course","id":"37784214-3ef1-11ea-9791-1b580a556b4a","title":"OFFICIAL Mobility and Devices Fundamentals (98-368)","slug":"official-mobility-and-devices-fundamentals-98-368","headline":"The most complete 98-368 (Mobility and Devices Fundamentals) certification preparation you've ever seen!","created":"24th January 2020","tags":[{"title":"IT & Software","path":"/tag/IT%20%26%20Software/"},{"title":"IT Certification","path":"/tag/IT%20Certification/"}]}},{"node":{"__typename":"Course","id":"37784218-3ef1-11ea-9791-1b580a556b4a","title":"OFFICIAL MA0-100 (Certified McAfee Security Specialist - ePO","slug":"official-m-a0-100-certified-mc-afee-security-specialist-e-po","headline":"The most complete MA0-100 (Certified McAfee Security Specialist - ePO certification preparation you've ever seen!","created":"24th January 2020","tags":[{"title":"IT & Software","path":"/tag/IT%20%26%20Software/"},{"title":"IT Certification","path":"/tag/IT%20Certification/"},{"title":"IT Service Management","path":"/tag/IT%20Service%20Management/"}]}},{"node":{"__typename":"Course","id":"37784219-3ef1-11ea-9791-1b580a556b4a","title":"OFFICIAL Oracle Siebel 8 Consultant - CRM/CX (1Z0-202)","slug":"official-oracle-siebel-8-consultant-crm-cx-1-z0-202","headline":"The most complete Oracle Siebel 8 Consultant - CRM/CX (1Z0-202) certification preparation you've ever seen!","created":"24th January 2020","tags":[{"title":"IT & Software","path":"/tag/IT%20%26%20Software/"},{"title":"IT Certification","path":"/tag/IT%20Certification/"},{"title":"CRM","path":"/tag/CRM/"}]}},{"node":{"__typename":"Course","id":"3778421a-3ef1-11ea-9791-1b580a556b4a","title":"OFFICIAL SolarWinds Certified Professional (SCP-500)","slug":"official-solar-winds-certified-professional-scp-500","headline":"The most complete SCP-500 (SolarWinds Certified Professional) certification preparation you've ever seen!","created":"24th January 2020","tags":[{"title":"IT & Software","path":"/tag/IT%20%26%20Software/"},{"title":"IT Certification","path":"/tag/IT%20Certification/"},{"title":"Solarwinds Certification","path":"/tag/Solarwinds%20Certification/"}]}},{"node":{"__typename":"Course","id":"3778421b-3ef1-11ea-9791-1b580a556b4a","title":"OFFICIAL Upgrading to MCSA Windows Server 2016 (70-743)","slug":"official-upgrading-to-mcsa-windows-server-2016-70-743","headline":"The most complete Upgrading to MCSA Windows Server 2016 (70-743) certification preparation you've ever seen!","created":"24th January 2020","tags":[{"title":"IT & Software","path":"/tag/IT%20%26%20Software/"},{"title":"IT Certification","path":"/tag/IT%20Certification/"},{"title":"Windows Server","path":"/tag/Windows%20Server/"}]}},{"node":{"__typename":"Course","id":"37786923-3ef1-11ea-9791-1b580a556b4a","title":"ServiceNow Implementation Specialist -ITSM NewYork Mock Test","slug":"service-now-implementation-specialist-itsm-new-york-mock-test","headline":"ServiceNow Implementation Specialist - ITSM NewYork Delta exam Mock Test","created":"24th January 2020","tags":[{"title":"IT & Software","path":"/tag/IT%20%26%20Software/"},{"title":"IT Certification","path":"/tag/IT%20Certification/"},{"title":"ServiceNow Certified Implementation Specialist - IT Service Management (ITSM)","path":"/tag/ServiceNow%20Certified%20Implementation%20Specialist%20-%20IT%20Service%20Management%20(ITSM)/"}]}},{"node":{"__typename":"Course","id":"37786926-3ef1-11ea-9791-1b580a556b4a","title":"156-215.13 Check Point Certified Security Administrator Exam","slug":"156-215-13-check-point-certified-security-administrator-exam","headline":"156-215.13 Check Point Certified Security Administrator Practice Exam || Get Certification","created":"24th January 2020","tags":[{"title":"IT & Software","path":"/tag/IT%20%26%20Software/"},{"title":"IT Certification","path":"/tag/IT%20Certification/"},{"title":"Check Point Certified Security Administrator (CCSA)","path":"/tag/Check%20Point%20Certified%20Security%20Administrator%20(CCSA)/"}]}},{"node":{"__typename":"Course","id":"3777f3f0-3ef1-11ea-9791-1b580a556b4a","title":"Veeam Certified Engineer (VMCE) Certification","slug":"veeam-certified-engineer-vmce-certification","headline":"Pass Veeam Certified Engineer (VMCE) Certification by Practicing on High Quality Questions.","created":"24th January 2020","tags":[{"title":"IT & Software","path":"/tag/IT%20%26%20Software/"},{"title":"IT Certification","path":"/tag/IT%20Certification/"}]}}]}}},"context":{}}