{"hash":"6d1e7dd52e8c17cf4930f349c6afc1a78b2e1c5e","data":{"records":{"id":"Design Tools","title":"Design Tools","belongsTo":{"totalCount":63,"pageInfo":{"totalPages":7,"currentPage":7},"edges":[{"node":{"__typename":"Course","id":"376dbac1-3ef1-11ea-9791-1b580a556b4a","title":"Beginners Adobe Dreamweaver Tutorial","slug":"beginners-adobe-dreamweaver-tutorial","headline":"Go hands-on with web design skills in Adobe Dreamweaver CS5.5 with one of the world's top software trainers!","created":"24th January 2020","tags":[{"title":"Design","path":"/tag/Design/"},{"title":"Design Tools","path":"/tag/Design%20Tools/"},{"title":"Dreamweaver","path":"/tag/Dreamweaver/"}]}},{"node":{"__typename":"Course","id":"376ca952-3ef1-11ea-9791-1b580a556b4a","title":"Adobe Acrobat X Professional Tutorial - Learn The Easy Way","slug":"adobe-acrobat-x-professional-tutorial-learn-the-easy-way","headline":"Master Acrobat X. Create a PDF then edit and share it. Acrobat X does so much more than you think.","created":"24th January 2020","tags":[{"title":"Design","path":"/tag/Design/"},{"title":"Design Tools","path":"/tag/Design%20Tools/"},{"title":"Adobe Acrobat","path":"/tag/Adobe%20Acrobat/"}]}},{"node":{"__typename":"Course","id":"376ca953-3ef1-11ea-9791-1b580a556b4a","title":"Adobe Photoshop for Photographers","slug":"adobe-photoshop-for-photographers","headline":"Take Your Digital Photographs to The Next Level with this Adobe Photoshop CS5 Tutorial.","created":"24th January 2020","tags":[{"title":"Design","path":"/tag/Design/"},{"title":"Design Tools","path":"/tag/Design%20Tools/"},{"title":"Photoshop","path":"/tag/Photoshop/"}]}},{"node":{"__typename":"Course","id":"376c5b31-3ef1-11ea-9791-1b580a556b4a","title":"Learning Autodesk AutoCAD - Crash Course","slug":"learning-autodesk-auto-cad-crash-course","headline":"Autocad - Crash Course is for people looking to get a handle on this powerful software in a short amount of time.","created":"24th January 2020","tags":[{"title":"Design","path":"/tag/Design/"},{"title":"Design Tools","path":"/tag/Design%20Tools/"},{"title":"AutoCAD","path":"/tag/AutoCAD/"}]}},{"node":{"__typename":"Course","id":"376c5b32-3ef1-11ea-9791-1b580a556b4a","title":"Beginners Adobe Illustrator CS5 Tutorial","slug":"beginners-adobe-illustrator-c-s5-tutorial","headline":"Learn Adobe Illustrator CS5 at your own pace. Over 10 hours of tutorial videos from a leading Adobe Expert.","created":"24th January 2020","tags":[{"title":"Design","path":"/tag/Design/"},{"title":"Design Tools","path":"/tag/Design%20Tools/"},{"title":"Adobe Illustrator","path":"/tag/Adobe%20Illustrator/"}]}},{"node":{"__typename":"Course","id":"376c5b33-3ef1-11ea-9791-1b580a556b4a","title":"Beginner Adobe Premiere Pro CS5 Tutorial","slug":"beginner-adobe-premiere-pro-c-s5-tutorial","headline":"Learn how to use Adobe Premiere with Expert Film Maker Phil Hawkins","created":"24th January 2020","tags":[{"title":"Design","path":"/tag/Design/"},{"title":"Design Tools","path":"/tag/Design%20Tools/"},{"title":"Adobe Premiere","path":"/tag/Adobe%20Premiere/"}]}},{"node":{"__typename":"Course","id":"376b70d2-3ef1-11ea-9791-1b580a556b4a","title":"Intro to Adobe InDesign","slug":"intro-to-adobe-in-design","headline":"Learn Adobe InDesign with design expert Joseph Caserto","created":"24th January 2020","tags":[{"title":"Design","path":"/tag/Design/"},{"title":"Design Tools","path":"/tag/Design%20Tools/"},{"title":"InDesign","path":"/tag/InDesign/"}]}},{"node":{"__typename":"Course","id":"376bbef2-3ef1-11ea-9791-1b580a556b4a","title":"AutoCAD Tutorial","slug":"auto-cad-tutorial","headline":"An innovative AutoCAD course that will help you learn AutoCAD quickly and effectively.","created":"24th January 2020","tags":[{"title":"Design","path":"/tag/Design/"},{"title":"Design Tools","path":"/tag/Design%20Tools/"},{"title":"AutoCAD","path":"/tag/AutoCAD/"}]}},{"node":{"__typename":"Course","id":"376ad491-3ef1-11ea-9791-1b580a556b4a","title":"Beginners Adobe Photoshop CS5 Tutorial","slug":"beginners-adobe-photoshop-c-s5-tutorial","headline":"Andy Anderson's Adobe Photoshop cs5 tutorials for beginners teaches you how to master Photoshop quickly and completely.","created":"24th January 2020","tags":[{"title":"Design","path":"/tag/Design/"},{"title":"Design Tools","path":"/tag/Design%20Tools/"},{"title":"Photoshop","path":"/tag/Photoshop/"}]}}]}}},"context":{}}