{"hash":"6d1e7dd52e8c17cf4930f349c6afc1a78b2e1c5e","data":{"records":{"id":"Photography","title":"Photography","belongsTo":{"totalCount":17,"pageInfo":{"totalPages":2,"currentPage":2},"edges":[{"node":{"__typename":"Course","id":"37733907-3ef1-11ea-9791-1b580a556b4a","title":"The Art of Black and White Photography","slug":"the-art-of-black-and-white-photography","headline":"Learn how to create dramatic and compelling black and white images using a range of powerful Photoshop techniques.","created":"24th January 2020","tags":[{"title":"Photography","path":"/tag/Photography/"},{"title":"Other","path":"/tag/Other/"},{"title":"Black and White Photography","path":"/tag/Black%20and%20White%20Photography/"}]}},{"node":{"__typename":"Course","id":"3772eae2-3ef1-11ea-9791-1b580a556b4a","title":"How to Be a Commercial Photographer","slug":"how-to-be-a-commercial-photographer","headline":"Learn how I thrived for 35+ years photography people, products, and places for Fortune 500 companies and top maazines","created":"24th January 2020","tags":[{"title":"Photography","path":"/tag/Photography/"},{"title":"Commercial Photography","path":"/tag/Commercial%20Photography/"}]}},{"node":{"__typename":"Course","id":"3772eae3-3ef1-11ea-9791-1b580a556b4a","title":"10 Steps to Dramatic Nature Photography","slug":"10-steps-to-dramatic-nature-photography","headline":"Take your nature photography to a new level by learning what goes into making striking images.","created":"24th January 2020","tags":[{"title":"Photography","path":"/tag/Photography/"},{"title":"Other","path":"/tag/Other/"},{"title":"Nature Photography","path":"/tag/Nature%20Photography/"}]}},{"node":{"__typename":"Course","id":"377275b8-3ef1-11ea-9791-1b580a556b4a","title":"How to Shoot Portraits on a Budget with Off-Camera Flash","slug":"how-to-shoot-portraits-on-a-budget-with-off-camera-flash","headline":"Learn to Shoot Studio-Quality Headshots and Portraits with Your SLR and Flash","created":"24th January 2020","tags":[{"title":"Photography","path":"/tag/Photography/"},{"title":"Portraits","path":"/tag/Portraits/"},{"title":"Portrait Photography","path":"/tag/Portrait%20Photography/"}]}},{"node":{"__typename":"Course","id":"37724ea1-3ef1-11ea-9791-1b580a556b4a","title":"Create a Gorgeous Photography Site with SmugMug in 90 mins","slug":"create-a-gorgeous-photography-site-with-smug-mug-in-90-mins","headline":"Easy to Follow Screencasts with Step-By-Step Instructions for creating your own custom photography website.","created":"24th January 2020","tags":[{"title":"Photography","path":"/tag/Photography/"},{"title":"Commercial Photography","path":"/tag/Commercial%20Photography/"}]}},{"node":{"__typename":"Course","id":"3771d973-3ef1-11ea-9791-1b580a556b4a","title":"EasyDSLR Digital Photography Course: Advanced","slug":"easy-dslr-digital-photography-course-advanced","headline":"Go beyond the Basics with advanced digital photography course. Learn Creative Scenarios, Image Editing and HD Videos.","created":"24th January 2020","tags":[{"title":"Photography","path":"/tag/Photography/"},{"title":"Digital Photography","path":"/tag/Digital%20Photography/"},{"title":"DSLR","path":"/tag/DSLR/"}]}},{"node":{"__typename":"Course","id":"3771b260-3ef1-11ea-9791-1b580a556b4a","title":"EasyDSLR Digital Photography Course for Beginners","slug":"easy-dslr-digital-photography-course-for-beginners","headline":"Take dramatically better photos by learning the basic principles you need to master your DSLR camera","created":"24th January 2020","tags":[{"title":"Photography","path":"/tag/Photography/"},{"title":"Digital Photography","path":"/tag/Digital%20Photography/"},{"title":"DSLR","path":"/tag/DSLR/"}]}},{"node":{"__typename":"Course","id":"376ef342-3ef1-11ea-9791-1b580a556b4a","title":"Photography - Become a Better Photographer - Part I","slug":"photography-become-a-better-photographer-part-i","headline":"See results today! 50 photography tips for taking amazing photos with your DSLR, Mirrorless or compact camera.","created":"24th January 2020","tags":[{"title":"Photography","path":"/tag/Photography/"},{"title":"Photography Fundamentals","path":"/tag/Photography%20Fundamentals/"}]}}]}}},"context":{}}