{"hash":"6d1e7dd52e8c17cf4930f349c6afc1a78b2e1c5e","data":{"records":{"id":"Network & Security","title":"Network & Security","belongsTo":{"totalCount":18,"pageInfo":{"totalPages":2,"currentPage":1},"edges":[{"node":{"__typename":"Course","id":"377a8c01-3ef1-11ea-9791-1b580a556b4a","title":"Hands-On IP Subnetting","slug":"hands-on-ip-subnetting","headline":"Improve network performance and speed with the power of subnetting","created":"24th January 2020","tags":[{"title":"IT & Software","path":"/tag/IT%20%26%20Software/"},{"title":"Network & Security","path":"/tag/Network%20%26%20Security/"},{"title":"Subnetting","path":"/tag/Subnetting/"}]}},{"node":{"__typename":"Course","id":"377a8c0b-3ef1-11ea-9791-1b580a556b4a","title":"CISSP - Certified Information Systems Security Professional","slug":"cissp-certified-information-systems-security-professional","headline":"CISSP - Certified Information Systems Security Practice Questions to Help You Prepare For the CISSP 2020 Exam","created":"24th January 2020","tags":[{"title":"IT & Software","path":"/tag/IT%20%26%20Software/"},{"title":"Network & Security","path":"/tag/Network%20%26%20Security/"}]}},{"node":{"__typename":"Course","id":"3779a1a7-3ef1-11ea-9791-1b580a556b4a","title":"A Guide to Security Information and Event Management - SIEM","slug":"a-guide-to-security-information-and-event-management-siem","headline":"An Introduction to SIEM","created":"24th January 2020","tags":[{"title":"IT & Software","path":"/tag/IT%20%26%20Software/"},{"title":"Network & Security","path":"/tag/Network%20%26%20Security/"},{"title":"Network Security","path":"/tag/Network%20Security/"}]}},{"node":{"__typename":"Course","id":"37792c7b-3ef1-11ea-9791-1b580a556b4a","title":"AWS Certified Solutions Architect - Professional Latest 2020","slug":"aws-certified-solutions-architect-professional-latest-2020","headline":"350 + AWS Certified Solutions Architect - Professional Practice Test Latest 2020","created":"24th January 2020","tags":[{"title":"IT & Software","path":"/tag/IT%20%26%20Software/"},{"title":"Network & Security","path":"/tag/Network%20%26%20Security/"}]}},{"node":{"__typename":"Course","id":"3778de54-3ef1-11ea-9791-1b580a556b4a","title":"Practice Test AZ-500: Microsoft Azure Security Technologies","slug":"practice-test-az-500-microsoft-azure-security-technologies","headline":"Nourish Your knowledge","created":"24th January 2020","tags":[{"title":"IT & Software","path":"/tag/IT%20%26%20Software/"},{"title":"Network & Security","path":"/tag/Network%20%26%20Security/"},{"title":"Microsoft AZ-500","path":"/tag/Microsoft%20AZ-500/"}]}},{"node":{"__typename":"Course","id":"37786927-3ef1-11ea-9791-1b580a556b4a","title":"AWS Certified Security - Specialty Practice Test 2020","slug":"aws-certified-security-specialty-practice-test-2020","headline":"200 + AWS Certified Security Specialty Practice Test Questions Latest 2020","created":"24th January 2020","tags":[{"title":"IT & Software","path":"/tag/IT%20%26%20Software/"},{"title":"Network & Security","path":"/tag/Network%20%26%20Security/"}]}},{"node":{"__typename":"Course","id":"37789037-3ef1-11ea-9791-1b580a556b4a","title":"CompTIA Cybersecurity Analyst CySA+ Practice Test 2020","slug":"comp-tia-cybersecurity-analyst-cy-sa-practice-test-2020","headline":"250 + CompTIA Cybersecurity Analyst CySA+ Practice Test Questions Latest 2020","created":"24th January 2020","tags":[{"title":"IT & Software","path":"/tag/IT%20%26%20Software/"},{"title":"Network & Security","path":"/tag/Network%20%26%20Security/"}]}},{"node":{"__typename":"Course","id":"3777a5d1-3ef1-11ea-9791-1b580a556b4a","title":"Ethical Hacking: Complete Course of Sniffing","slug":"ethical-hacking-complete-course-of-sniffing","headline":"From the OSI Model & VLANs to Ethical Hacking and Network Security topics & Sniffer Detection methods","created":"24th January 2020","tags":[{"title":"IT & Software","path":"/tag/IT%20%26%20Software/"},{"title":"Network & Security","path":"/tag/Network%20%26%20Security/"},{"title":"Ethical Hacking","path":"/tag/Ethical%20Hacking/"}]}},{"node":{"__typename":"Course","id":"3777a5d6-3ef1-11ea-9791-1b580a556b4a","title":"ABC of VMWARE NSX-T 2.4 Part1","slug":"abc-of-vmware-nsx-t-2-4-part1","headline":"Learn NSX with Ratnesh K 2xCCIE","created":"24th January 2020","tags":[{"title":"IT & Software","path":"/tag/IT%20%26%20Software/"},{"title":"Network & Security","path":"/tag/Network%20%26%20Security/"},{"title":"VMware Nsx","path":"/tag/VMware%20Nsx/"}]}}]}}},"context":{}}