{"hash":"6d1e7dd52e8c17cf4930f349c6afc1a78b2e1c5e","data":{"records":{"id":"Digital Marketing","title":"Digital Marketing","belongsTo":{"totalCount":11,"pageInfo":{"totalPages":2,"currentPage":1},"edges":[{"node":{"__typename":"Course","id":"377a64f9-3ef1-11ea-9791-1b580a556b4a","title":"Intro to Getresponse - Tutorial for Beginners","slug":"intro-to-getresponse-tutorial-for-beginners","headline":"A Free introduction to Getresponse for beginners. A Getresponse Tutorial for complete beginners","created":"24th January 2020","tags":[{"title":"Marketing","path":"/tag/Marketing/"},{"title":"Digital Marketing","path":"/tag/Digital%20Marketing/"},{"title":"GetResponse","path":"/tag/GetResponse/"}]}},{"node":{"__typename":"Course","id":"3779c8b5-3ef1-11ea-9791-1b580a556b4a","title":"Create A STUNNING Wix Website|Wix Website Tutorial","slug":"create-a-stunning-wix-website-wix-website-tutorial","headline":"Wix Website Design For Complete Beginners | Become a Wix Website Design Pro","created":"24th January 2020","tags":[{"title":"Marketing","path":"/tag/Marketing/"},{"title":"Digital Marketing","path":"/tag/Digital%20Marketing/"},{"title":"Wix","path":"/tag/Wix/"}]}},{"node":{"__typename":"Course","id":"377730a7-3ef1-11ea-9791-1b580a556b4a","title":"HypeBomb - Growth Hacking for Startups","slug":"hype-bomb-growth-hacking-for-startups","headline":"Acquiring new users for your startup is not an unobtainable fantasy. Learn how to get more clients.","created":"24th January 2020","tags":[{"title":"Marketing","path":"/tag/Marketing/"},{"title":"Digital Marketing","path":"/tag/Digital%20Marketing/"},{"title":"Growth Hacking","path":"/tag/Growth%20Hacking/"}]}},{"node":{"__typename":"Course","id":"37769460-3ef1-11ea-9791-1b580a556b4a","title":"Digital Marketing: The Ultimate Guide to Strategic Marketing","slug":"digital-marketing-the-ultimate-guide-to-strategic-marketing","headline":"Master Digital Marketing: Instagram, Optimization, Social Media, Analytics, SEO, PPC, Email, WebCopy, UX, Content Mkt","created":"24th January 2020","tags":[{"title":"Marketing","path":"/tag/Marketing/"},{"title":"Digital Marketing","path":"/tag/Digital%20Marketing/"}]}},{"node":{"__typename":"Course","id":"37769461-3ef1-11ea-9791-1b580a556b4a","title":"Email Marketing: Become a Lead & Sales Machine","slug":"email-marketing-become-a-lead-and-sales-machine","headline":"Learn how to use one of the most powerful direct marketing method to generate consistent business results.","created":"24th January 2020","tags":[{"title":"Marketing","path":"/tag/Marketing/"},{"title":"Digital Marketing","path":"/tag/Digital%20Marketing/"},{"title":"Email Marketing","path":"/tag/Email%20Marketing/"}]}},{"node":{"__typename":"Course","id":"3775aa02-3ef1-11ea-9791-1b580a556b4a","title":"Top 10 herramientas de Internet","slug":"top-10-herramientas-de-internet","headline":"Aprende a utilizar de forma profesional las 10 mejores herramientas de Internet y da el salto al mundo digital.","created":"24th January 2020","tags":[{"title":"Marketing","path":"/tag/Marketing/"},{"title":"Digital Marketing","path":"/tag/Digital%20Marketing/"},{"title":"Computer Skills","path":"/tag/Computer%20Skills/"}]}},{"node":{"__typename":"Course","id":"3773d541-3ef1-11ea-9791-1b580a556b4a","title":"Cómo tener una Web Efectiva en tu Empresa y Posicionarla","slug":"como-tener-una-web-efectiva-en-tu-empresa-y-posicionarla","headline":"Curso de 1 hora para aprender a tener una web efectivapara tu negocio","created":"24th January 2020","tags":[{"title":"Marketing","path":"/tag/Marketing/"},{"title":"Digital Marketing","path":"/tag/Digital%20Marketing/"},{"title":"Web Design","path":"/tag/Web%20Design/"}]}},{"node":{"__typename":"Course","id":"37720088-3ef1-11ea-9791-1b580a556b4a","title":"Static Urls, Meta tags and Re-send activation for E-commerce","slug":"static-urls-meta-tags-and-re-send-activation-for-e-commerce","headline":"An add-on series for the E-commerce course explaining how to improve the SEO of our on-line store.","created":"24th January 2020","tags":[{"title":"Marketing","path":"/tag/Marketing/"},{"title":"Digital Marketing","path":"/tag/Digital%20Marketing/"},{"title":"E-Commerce","path":"/tag/E-Commerce/"}]}},{"node":{"__typename":"Course","id":"37720089-3ef1-11ea-9791-1b580a556b4a","title":"Faster Smarter Better (Ultimate Online Marketing Blueprint)","slug":"faster-smarter-better-ultimate-online-marketing-blueprint","headline":"Internet Marketing Training Course Teaching Tried & Tested Strategies Anyone Can Apply To Grow A Rock-Solid 6 Figure","created":"24th January 2020","tags":[{"title":"Marketing","path":"/tag/Marketing/"},{"title":"Digital Marketing","path":"/tag/Digital%20Marketing/"},{"title":"Internet Marketing","path":"/tag/Internet%20Marketing/"}]}}]}}},"context":{}}