{"hash":"6d1e7dd52e8c17cf4930f349c6afc1a78b2e1c5e","data":{"records":{"id":"IT Certification","title":"IT Certification","belongsTo":{"totalCount":88,"pageInfo":{"totalPages":10,"currentPage":3},"edges":[{"node":{"__typename":"Course","id":"3779a1a5-3ef1-11ea-9791-1b580a556b4a","title":"ST0-237 Symantec Data Prevention Technical Assessment Exam","slug":"s-t0-237-symantec-data-prevention-technical-assessment-exam","headline":"ST0-237 Symantec Data Prevention Technical Assessment Practice Exam || Get Certification","created":"24th January 2020","tags":[{"title":"IT & Software","path":"/tag/IT%20%26%20Software/"},{"title":"IT Certification","path":"/tag/IT%20Certification/"},{"title":"Data Storage","path":"/tag/Data%20Storage/"}]}},{"node":{"__typename":"Course","id":"3779a1a8-3ef1-11ea-9791-1b580a556b4a","title":"AWS Machine Learning Certification practice exams 2020","slug":"aws-machine-learning-certification-practice-exams-2020","headline":"NEW 2020 AWS CertifiedMachine Learning Practice Exams | Full multiple practice tests |MLS-C01","created":"24th January 2020","tags":[{"title":"IT & Software","path":"/tag/IT%20%26%20Software/"},{"title":"IT Certification","path":"/tag/IT%20Certification/"},{"title":"AWS Certified Machine Learning - Specialty","path":"/tag/AWS%20Certified%20Machine%20Learning%20-%20Specialty/"}]}},{"node":{"__typename":"Course","id":"37792c7c-3ef1-11ea-9791-1b580a556b4a","title":"Oracle Communications Session Border Controller 7 | 1Z0-404","slug":"oracle-communications-session-border-controller-7-1-z0-404","headline":"Pass Oracle Communications Session Border Controller 7 Basic Implementation Essentials Exam on the first attempt.","created":"24th January 2020","tags":[{"title":"IT & Software","path":"/tag/IT%20%26%20Software/"},{"title":"IT Certification","path":"/tag/IT%20Certification/"},{"title":"Oracle Certification","path":"/tag/Oracle%20Certification/"}]}},{"node":{"__typename":"Course","id":"37795380-3ef1-11ea-9791-1b580a556b4a","title":"Oracle Exadata X5 Administration | 1Z0-070","slug":"oracle-exadata-x5-administration-1-z0-070","headline":"Pass Oracle Exadata X5 Administration | 1Z0-070 on the first attempt. 2 Practice test.","created":"24th January 2020","tags":[{"title":"IT & Software","path":"/tag/IT%20%26%20Software/"},{"title":"IT Certification","path":"/tag/IT%20Certification/"},{"title":"Oracle Certification","path":"/tag/Oracle%20Certification/"}]}},{"node":{"__typename":"Course","id":"37795381-3ef1-11ea-9791-1b580a556b4a","title":"Oracle Financial Consolidation and Close Cloud | 1Z0-983","slug":"oracle-financial-consolidation-and-close-cloud-1-z0-983","headline":"Pass Oracle Financial Consolidation and Close Cloud Service 2017 Certified Implementation Specialist Exam.","created":"24th January 2020","tags":[{"title":"IT & Software","path":"/tag/IT%20%26%20Software/"},{"title":"IT Certification","path":"/tag/IT%20Certification/"},{"title":"Oracle Certification","path":"/tag/Oracle%20Certification/"}]}},{"node":{"__typename":"Course","id":"37795382-3ef1-11ea-9791-1b580a556b4a","title":"Oracle Linux 6 Advanced System Administration | 1Z0-105","slug":"oracle-linux-6-advanced-system-administration-1-z0-105","headline":"Pass Oracle Linux 6 Advanced System Administration | 1Z0-105 on the first attempt. 2 Practice test.","created":"24th January 2020","tags":[{"title":"IT & Software","path":"/tag/IT%20%26%20Software/"},{"title":"IT Certification","path":"/tag/IT%20Certification/"},{"title":"Oracle Certification","path":"/tag/Oracle%20Certification/"}]}},{"node":{"__typename":"Course","id":"37795384-3ef1-11ea-9791-1b580a556b4a","title":"CISA Certified Information Systems Auditor Practice Test","slug":"cisa-certified-information-systems-auditor-practice-test","headline":"Test your Skills while Attend this CISA Certified Information Systems Auditor Certification Practice Test","created":"24th January 2020","tags":[{"title":"IT & Software","path":"/tag/IT%20%26%20Software/"},{"title":"IT Certification","path":"/tag/IT%20Certification/"}]}},{"node":{"__typename":"Course","id":"37797a90-3ef1-11ea-9791-1b580a556b4a","title":"OFFICIAL HTML5 App Development Fundamentals (98-375)","slug":"official-htm-l5-app-development-fundamentals-98-375","headline":"The most complete 98-375 (HTML5 App Development Fundamentals) certification preparation you've ever seen!","created":"24th January 2020","tags":[{"title":"IT & Software","path":"/tag/IT%20%26%20Software/"},{"title":"IT Certification","path":"/tag/IT%20Certification/"}]}},{"node":{"__typename":"Course","id":"37797a92-3ef1-11ea-9791-1b580a556b4a","title":"CISM Certified Information Security Manager Practice Test","slug":"cism-certified-information-security-manager-practice-test","headline":"Test your Skills while Attend this CISM Certified Information Security Manager Certification Practice Test","created":"24th January 2020","tags":[{"title":"IT & Software","path":"/tag/IT%20%26%20Software/"},{"title":"IT Certification","path":"/tag/IT%20Certification/"}]}}]}}},"context":{}}