{"hash":"6d1e7dd52e8c17cf4930f349c6afc1a78b2e1c5e","data":{"records":{"id":"Other","title":"Other","belongsTo":{"totalCount":26,"pageInfo":{"totalPages":3,"currentPage":1},"edges":[{"node":{"__typename":"Course","id":"377a8c0a-3ef1-11ea-9791-1b580a556b4a","title":"SUPPLIER RELATIONSHIP- PRACTICE TESTS-CIPS LEVEL 4 DIPLOMA","slug":"supplier-relationship-practice-tests-cips-level-4-diploma","headline":"PROCUREMENT AND SUPPLY PRACTICE TEST - CIPS  LEVEL 4 DIPLOMA","created":"24th January 2020","tags":[{"title":"Office Productivity","path":"/tag/Office%20Productivity/"},{"title":"Other","path":"/tag/Other/"}]}},{"node":{"__typename":"Course","id":"377a64f1-3ef1-11ea-9791-1b580a556b4a","title":"Learn to Preach","slug":"learn-to-preach","headline":"Becoming More Effective In Your Sermons","created":"24th January 2020","tags":[{"title":"Lifestyle","path":"/tag/Lifestyle/"},{"title":"Other","path":"/tag/Other/"},{"title":"Public Speaking","path":"/tag/Public%20Speaking/"}]}},{"node":{"__typename":"Course","id":"377a64f4-3ef1-11ea-9791-1b580a556b4a","title":"Learn Wordpress Engagement Boost","slug":"learn-wordpress-engagement-boost","headline":"More leads, sales, and profits from engagement boosted wordpress site","created":"24th January 2020","tags":[{"title":"IT & Software","path":"/tag/IT%20%26%20Software/"},{"title":"Other","path":"/tag/Other/"},{"title":"WordPress","path":"/tag/WordPress/"}]}},{"node":{"__typename":"Course","id":"3779efc3-3ef1-11ea-9791-1b580a556b4a","title":"Creating Custom Grunge Brushes In Photoshop","slug":"creating-custom-grunge-brushes-in-photoshop","headline":"Experiment with textures, filters, and layer blend modes.","created":"24th January 2020","tags":[{"title":"Photography","path":"/tag/Photography/"},{"title":"Other","path":"/tag/Other/"},{"title":"Photoshop","path":"/tag/Photoshop/"}]}},{"node":{"__typename":"Course","id":"3779a1a3-3ef1-11ea-9791-1b580a556b4a","title":"Carnatic Music, South Indian Classical Music Theory","slug":"carnatic-music-south-indian-classical-music-theory","headline":"Musical Theory of Carnatic Music","created":"24th January 2020","tags":[{"title":"Music","path":"/tag/Music/"},{"title":"Other","path":"/tag/Other/"},{"title":"Carnatic Music","path":"/tag/Carnatic%20Music/"}]}},{"node":{"__typename":"Course","id":"37790566-3ef1-11ea-9791-1b580a556b4a","title":"How to Create a Wordpress Website & Sales Page in 1 Hour","slug":"how-to-create-a-wordpress-website-and-sales-page-in-1-hour","headline":"Creating a professionally designed sales page that can accept credit cards has never been easier thanks to technology!","created":"24th January 2020","tags":[{"title":"Marketing","path":"/tag/Marketing/"},{"title":"Other","path":"/tag/Other/"},{"title":"WordPress","path":"/tag/WordPress/"}]}},{"node":{"__typename":"Course","id":"37792c75-3ef1-11ea-9791-1b580a556b4a","title":"Aprenda a administrar seu tempo","slug":"aprenda-a-administrar-seu-tempo","headline":"Aprenda a gerenciar seu tempo e ser mais produtivo","created":"24th January 2020","tags":[{"title":"Office Productivity","path":"/tag/Office%20Productivity/"},{"title":"Other","path":"/tag/Other/"},{"title":"Time Management","path":"/tag/Time%20Management/"}]}},{"node":{"__typename":"Course","id":"3778b741-3ef1-11ea-9791-1b580a556b4a","title":"Arte final para estampas","slug":"arte-final-para-estampas","headline":"Crie arte final para estampas de sublimação, silk digital e serigrafia.","created":"24th January 2020","tags":[{"title":"Design","path":"/tag/Design/"},{"title":"Other","path":"/tag/Other/"},{"title":"Digital Art","path":"/tag/Digital%20Art/"}]}},{"node":{"__typename":"Course","id":"37784212-3ef1-11ea-9791-1b580a556b4a","title":"Extracción y edición de datos con Dynamo","slug":"extraccion-y-edicion-de-datos-con-dynamo","headline":"Dynamo para hojas de calculo | Extrae y edita tu información","created":"24th January 2020","tags":[{"title":"IT & Software","path":"/tag/IT%20%26%20Software/"},{"title":"Other","path":"/tag/Other/"},{"title":"Dynamo BIM","path":"/tag/Dynamo%20BIM/"}]}}]}}},"context":{}}