{"hash":"6d1e7dd52e8c17cf4930f349c6afc1a78b2e1c5e","data":{"records":{"id":"Network & Security","title":"Network & Security","belongsTo":{"totalCount":18,"pageInfo":{"totalPages":2,"currentPage":2},"edges":[{"node":{"__typename":"Course","id":"377757b9-3ef1-11ea-9791-1b580a556b4a","title":"[NEW] Cyber Security 2020","slug":"new-cyber-security-2020","headline":"web security and clever attacks, defenses, and techniques for writing secure code","created":"24th January 2020","tags":[{"title":"IT & Software","path":"/tag/IT%20%26%20Software/"},{"title":"Network & Security","path":"/tag/Network%20%26%20Security/"},{"title":"Web Security","path":"/tag/Web%20Security/"}]}},{"node":{"__typename":"Course","id":"37764644-3ef1-11ea-9791-1b580a556b4a","title":"Operador Debian GNU/Linux","slug":"operador-debian-gnu-linux","headline":"Aprenda como usar Debian GNU/Linux a nivel básico, explicado paso a paso.","created":"24th January 2020","tags":[{"title":"IT & Software","path":"/tag/IT%20%26%20Software/"},{"title":"Network & Security","path":"/tag/Network%20%26%20Security/"},{"title":"GNU","path":"/tag/GNU/"}]}},{"node":{"__typename":"Course","id":"3775d117-3ef1-11ea-9791-1b580a556b4a","title":"Whitehat Hacking and Penetration Testing Tutorial Video","slug":"whitehat-hacking-and-penetration-testing-tutorial-video","headline":"Learn how to test and protect your network using Ethical Hacking and Penetration Testing Techniques.","created":"24th January 2020","tags":[{"title":"IT & Software","path":"/tag/IT%20%26%20Software/"},{"title":"Network & Security","path":"/tag/Network%20%26%20Security/"},{"title":"Ethical Hacking","path":"/tag/Ethical%20Hacking/"}]}},{"node":{"__typename":"Course","id":"37742361-3ef1-11ea-9791-1b580a556b4a","title":"The Cloud and You","slug":"the-cloud-and-you","headline":"The Cloud explained - exploit the benefits, avoid the pitfalls","created":"24th January 2020","tags":[{"title":"IT & Software","path":"/tag/IT%20%26%20Software/"},{"title":"Network & Security","path":"/tag/Network%20%26%20Security/"},{"title":"Computer Skills","path":"/tag/Computer%20Skills/"}]}},{"node":{"__typename":"Course","id":"37738728-3ef1-11ea-9791-1b580a556b4a","title":"Introduction To Fiber Optic Cabling","slug":"introduction-to-fiber-optic-cabling","headline":"Welcome! This course is designed to give you a good understand of fiber optics and fiber data transmission.","created":"24th January 2020","tags":[{"title":"IT & Software","path":"/tag/IT%20%26%20Software/"},{"title":"Network & Security","path":"/tag/Network%20%26%20Security/"},{"title":"Telecom","path":"/tag/Telecom/"}]}},{"node":{"__typename":"Course","id":"37724ea2-3ef1-11ea-9791-1b580a556b4a","title":"Computer and Network Hacking Mastery: Practical Techniques","slug":"computer-and-network-hacking-mastery-practical-techniques","headline":"Ethical Hacking Unleashed! How to Get to Know Proven Hacking Techniques... Fast","created":"24th January 2020","tags":[{"title":"IT & Software","path":"/tag/IT%20%26%20Software/"},{"title":"Network & Security","path":"/tag/Network%20%26%20Security/"},{"title":"Ethical Hacking","path":"/tag/Ethical%20Hacking/"}]}},{"node":{"__typename":"Course","id":"37711621-3ef1-11ea-9791-1b580a556b4a","title":"Apple Mac OS X Lion Server Tutorial - A Definitive Guide","slug":"apple-mac-os-x-lion-server-tutorial-a-definitive-guide","headline":"Learn how to unleash the power of OS X Lion Server","created":"24th January 2020","tags":[{"title":"IT & Software","path":"/tag/IT%20%26%20Software/"},{"title":"Network & Security","path":"/tag/Network%20%26%20Security/"},{"title":"macOS","path":"/tag/macOS/"}]}},{"node":{"__typename":"Course","id":"377052d6-3ef1-11ea-9791-1b580a556b4a","title":"Eli the Computer Guy Collection","slug":"eli-the-computer-guy-collection","headline":"This is the entire collection of classes created by Eli the Computer Guy (tm).","created":"24th January 2020","tags":[{"title":"IT & Software","path":"/tag/IT%20%26%20Software/"},{"title":"Network & Security","path":"/tag/Network%20%26%20Security/"},{"title":"Computer Skills","path":"/tag/Computer%20Skills/"}]}},{"node":{"__typename":"Course","id":"376ecc33-3ef1-11ea-9791-1b580a556b4a","title":"OpenBSD快速入门","slug":"open-bsd","headline":"关注网络安全? 开始学习OpenBSD吧！","created":"24th January 2020","tags":[{"title":"IT & Software","path":"/tag/IT%20%26%20Software/"},{"title":"Network & Security","path":"/tag/Network%20%26%20Security/"},{"title":"Configuration","path":"/tag/Configuration/"}]}}]}}},"context":{}}