{"hash":"6d1e7dd52e8c17cf4930f349c6afc1a78b2e1c5e","data":{"records":{"id":"Web Development","title":"Web Development","belongsTo":{"totalCount":55,"pageInfo":{"totalPages":7,"currentPage":5},"edges":[{"node":{"__typename":"Course","id":"377052d2-3ef1-11ea-9791-1b580a556b4a","title":"Two-layered online form validation with jQuery and PHP","slug":"two-layered-online-form-validation-with-j-query-and-php","headline":"Learn how to apply two layers of validation to your online forms with this jQuery form validation tutorial","created":"24th January 2020","tags":[{"title":"Development","path":"/tag/Development/"},{"title":"Web Development","path":"/tag/Web%20Development/"},{"title":"PHP","path":"/tag/PHP/"}]}},{"node":{"__typename":"Course","id":"37702bc7-3ef1-11ea-9791-1b580a556b4a","title":"Multilingual CMS Website with PHP, MySQL, jQuery","slug":"multilingual-cms-website-with-php-my-sql-j-query","headline":"Learn how to build a Multilingual Content Management System with PHP, MySQL and jQuery.","created":"24th January 2020","tags":[{"title":"Development","path":"/tag/Development/"},{"title":"Web Development","path":"/tag/Web%20Development/"},{"title":"CMS","path":"/tag/CMS/"}]}},{"node":{"__typename":"Course","id":"37702bc2-3ef1-11ea-9791-1b580a556b4a","title":"Web Development For Beginners: Get A Website Live in Hours","slug":"web-development-for-beginners-get-a-website-live-in-hours","headline":"Web Development can be expensive. Learn how to unleash the power of Blogger to build your own websites in a few hours.","created":"24th January 2020","tags":[{"title":"Marketing","path":"/tag/Marketing/"},{"title":"Content Marketing","path":"/tag/Content%20Marketing/"},{"title":"Web Development","path":"/tag/Web%20Development/"}]}},{"node":{"__typename":"Course","id":"37702bc3-3ef1-11ea-9791-1b580a556b4a","title":"Joomla 2.5 Template Design","slug":"joomla-2-5-template-design","headline":"The basics of designing your own Joomla templates from scratch.","created":"24th January 2020","tags":[{"title":"Development","path":"/tag/Development/"},{"title":"Web Development","path":"/tag/Web%20Development/"},{"title":"Joomla","path":"/tag/Joomla/"}]}},{"node":{"__typename":"Course","id":"37702bc4-3ef1-11ea-9791-1b580a556b4a","title":"Learning JQuery Mobile The Easy Way","slug":"learning-j-query-mobile-the-easy-way","headline":"Learn JQuery for Mobile.","created":"24th January 2020","tags":[{"title":"Development","path":"/tag/Development/"},{"title":"Web Development","path":"/tag/Web%20Development/"},{"title":"jQuery","path":"/tag/jQuery/"}]}},{"node":{"__typename":"Course","id":"377004b6-3ef1-11ea-9791-1b580a556b4a","title":"AJAX Development","slug":"ajax-development","headline":"Create Elegant, Powerful Web and Mobile Applications Using AJAX.","created":"24th January 2020","tags":[{"title":"Development","path":"/tag/Development/"},{"title":"Web Development","path":"/tag/Web%20Development/"},{"title":"AJAX","path":"/tag/AJAX/"}]}},{"node":{"__typename":"Course","id":"377004b7-3ef1-11ea-9791-1b580a556b4a","title":"Build E-commerce website with PHP, MySQL, jQuery and PayPal","slug":"build-e-commerce-website-with-php-my-sql-j-query-and-pay-pal","headline":"Learn how to build a fully functional E-commerce website with Object Oriented PHP, MySQL, jQuery and PayPal.","created":"24th January 2020","tags":[{"title":"Development","path":"/tag/Development/"},{"title":"Web Development","path":"/tag/Web%20Development/"},{"title":"PHP","path":"/tag/PHP/"}]}},{"node":{"__typename":"Course","id":"376ea527-3ef1-11ea-9791-1b580a556b4a","title":"CSS Fundamentals","slug":"css-fundamentals","headline":"Gain Massive CSS Skills & Learn A Ton Of Techniques!","created":"24th January 2020","tags":[{"title":"Development","path":"/tag/Development/"},{"title":"Web Development","path":"/tag/Web%20Development/"},{"title":"CSS","path":"/tag/CSS/"}]}},{"node":{"__typename":"Course","id":"376ecc31-3ef1-11ea-9791-1b580a556b4a","title":"HTML Workshop","slug":"html-workshop","headline":"Learn HTML from scratch with this HTML Workshop","created":"24th January 2020","tags":[{"title":"Development","path":"/tag/Development/"},{"title":"Web Development","path":"/tag/Web%20Development/"},{"title":"HTML","path":"/tag/HTML/"}]}}]}}},"context":{}}