{"hash":"6d1e7dd52e8c17cf4930f349c6afc1a78b2e1c5e","data":{"records":{"id":"Development","title":"Development","belongsTo":{"totalCount":129,"pageInfo":{"totalPages":15,"currentPage":1},"edges":[{"node":{"__typename":"Course","id":"377a8c03-3ef1-11ea-9791-1b580a556b4a","title":"Troubleshooting Kubernetes","slug":"troubleshooting-kubernetes","headline":"Practical solutions to common issues faced while deploying, managing, and operating your Kubernetes clusters","created":"24th January 2020","tags":[{"title":"Development","path":"/tag/Development/"},{"title":"Software Engineering","path":"/tag/Software%20Engineering/"},{"title":"Kubernetes","path":"/tag/Kubernetes/"}]}},{"node":{"__typename":"Course","id":"377a8c05-3ef1-11ea-9791-1b580a556b4a","title":"Exploratory Data Analysis with R","slug":"exploratory-data-analysis-with-r","headline":"Harness the skills to analyze your data effectively with EDA and R","created":"24th January 2020","tags":[{"title":"Development","path":"/tag/Development/"},{"title":"Data Science","path":"/tag/Data%20Science/"},{"title":"Data Analysis","path":"/tag/Data%20Analysis/"}]}},{"node":{"__typename":"Course","id":"377a8c09-3ef1-11ea-9791-1b580a556b4a","title":"RESTful Services with Delphi","slug":"res-tful-services-with-delphi","headline":"Create RESTFul services with the power of Delphi IDE to solve a practical business problem","created":"24th January 2020","tags":[{"title":"Development","path":"/tag/Development/"},{"title":"Programming Languages","path":"/tag/Programming%20Languages/"},{"title":"Delphi","path":"/tag/Delphi/"}]}},{"node":{"__typename":"Course","id":"377a64fb-3ef1-11ea-9791-1b580a556b4a","title":"Modern Java Web Applications with Spring Boot 2.x","slug":"modern-java-web-applications-with-spring-boot-2-x","headline":"Learn how to build, test, and deploy enterprise-grade Java applications","created":"24th January 2020","tags":[{"title":"Development","path":"/tag/Development/"},{"title":"Software Engineering","path":"/tag/Software%20Engineering/"},{"title":"Spring Boot","path":"/tag/Spring%20Boot/"}]}},{"node":{"__typename":"Course","id":"377a3de1-3ef1-11ea-9791-1b580a556b4a","title":"Top Python and Django Web Development Bundle!","slug":"top-python-and-django-web-development-bundle","headline":"Learn Python Programming and The Django Web Framework In One Awesome Bundle! Learn How To Build Websites Fast!","created":"24th January 2020","tags":[{"title":"Development","path":"/tag/Development/"},{"title":"Web Development","path":"/tag/Web%20Development/"},{"title":"Django","path":"/tag/Django/"}]}},{"node":{"__typename":"Course","id":"3779c8b7-3ef1-11ea-9791-1b580a556b4a","title":"AWS CI/CD CodePipeline,CodeCommit,CodeBuild,CodeDeploy","slug":"aws-ci-cd-code-pipeline-code-commit-code-build-code-deploy","headline":"CI/CD AWS, Automatizaremos Servicio Rest Spring y NodeJS, Aprenderás en corto tiempo, Para Principiantes e intermedio.","created":"24th January 2020","tags":[{"title":"Development","path":"/tag/Development/"},{"title":"Programming Languages","path":"/tag/Programming%20Languages/"}]}},{"node":{"__typename":"Course","id":"3779c8bb-3ef1-11ea-9791-1b580a556b4a","title":"Frontend Developer Interview Questions & Answers","slug":"frontend-developer-interview-questions-and-answers","headline":"Javascript, CSS, and HTML Interview Prep","created":"24th January 2020","tags":[{"title":"Development","path":"/tag/Development/"},{"title":"Web Development","path":"/tag/Web%20Development/"},{"title":"Front End Web Development","path":"/tag/Front%20End%20Web%20Development/"}]}},{"node":{"__typename":"Course","id":"3779a1a9-3ef1-11ea-9791-1b580a556b4a","title":"Boosting Machine Learning Models in Python","slug":"boosting-machine-learning-models-in-python","headline":"Leverage ensemble techniques to maximize your machine learning models in Python","created":"24th January 2020","tags":[{"title":"Development","path":"/tag/Development/"},{"title":"Data Science","path":"/tag/Data%20Science/"},{"title":"Python","path":"/tag/Python/"}]}},{"node":{"__typename":"Course","id":"3779a1ab-3ef1-11ea-9791-1b580a556b4a","title":"Dart POO Pra quem gosta de aprender","slug":"dart-poo-pra-quem-gosta-de-aprender","headline":"Aprenda a desenvolver um sistema parecido com o sistema bancário","created":"24th January 2020","tags":[{"title":"Development","path":"/tag/Development/"},{"title":"Programming Languages","path":"/tag/Programming%20Languages/"},{"title":"Dart Programming Language","path":"/tag/Dart%20Programming%20Language/"}]}}]}}},"context":{}}