{"hash":"6d1e7dd52e8c17cf4930f349c6afc1a78b2e1c5e","data":{"records":{"id":"Design","title":"Design","belongsTo":{"totalCount":115,"pageInfo":{"totalPages":13,"currentPage":12},"edges":[{"node":{"__typename":"Course","id":"376dbac3-3ef1-11ea-9791-1b580a556b4a","title":"Photoshop Selections and Masks","slug":"photoshop-selections-and-masks","headline":"Learn all the tools to make better selections and masks.","created":"24th January 2020","tags":[{"title":"Design","path":"/tag/Design/"},{"title":"Design Tools","path":"/tag/Design%20Tools/"},{"title":"Photoshop","path":"/tag/Photoshop/"}]}},{"node":{"__typename":"Course","id":"376de1d1-3ef1-11ea-9791-1b580a556b4a","title":"Building Custom WordPress Sites from Scratch","slug":"building-custom-word-press-sites-from-scratch","headline":"Learn how to build customized WordPress Sites. Over 9 hours of training from an leading expert","created":"24th January 2020","tags":[{"title":"Design","path":"/tag/Design/"},{"title":"Web Design","path":"/tag/Web%20Design/"},{"title":"WordPress","path":"/tag/WordPress/"}]}},{"node":{"__typename":"Course","id":"376de1d4-3ef1-11ea-9791-1b580a556b4a","title":"How to Create a Successful WordPress Site","slug":"how-to-create-a-successful-word-press-site","headline":"Learn how to create an awesome WordPress site and a bunch of cool tricks to drive traffic to make it super successful!","created":"24th January 2020","tags":[{"title":"Design","path":"/tag/Design/"},{"title":"Web Design","path":"/tag/Web%20Design/"},{"title":"WordPress","path":"/tag/WordPress/"}]}},{"node":{"__typename":"Course","id":"376dbac0-3ef1-11ea-9791-1b580a556b4a","title":"Adobe Flash CS5.5 for Beginners","slug":"adobe-flash-c-s5-5-for-beginners","headline":"Learn how to use Flash CS5.5 with ultimate flash cs5 tutorials to create Interactive Content.","created":"24th January 2020","tags":[{"title":"Design","path":"/tag/Design/"},{"title":"Design Tools","path":"/tag/Design%20Tools/"},{"title":"Adobe Flash","path":"/tag/Adobe%20Flash/"}]}},{"node":{"__typename":"Course","id":"376dbac1-3ef1-11ea-9791-1b580a556b4a","title":"Beginners Adobe Dreamweaver Tutorial","slug":"beginners-adobe-dreamweaver-tutorial","headline":"Go hands-on with web design skills in Adobe Dreamweaver CS5.5 with one of the world's top software trainers!","created":"24th January 2020","tags":[{"title":"Design","path":"/tag/Design/"},{"title":"Design Tools","path":"/tag/Design%20Tools/"},{"title":"Dreamweaver","path":"/tag/Dreamweaver/"}]}},{"node":{"__typename":"Course","id":"376ca952-3ef1-11ea-9791-1b580a556b4a","title":"Adobe Acrobat X Professional Tutorial - Learn The Easy Way","slug":"adobe-acrobat-x-professional-tutorial-learn-the-easy-way","headline":"Master Acrobat X. Create a PDF then edit and share it. Acrobat X does so much more than you think.","created":"24th January 2020","tags":[{"title":"Design","path":"/tag/Design/"},{"title":"Design Tools","path":"/tag/Design%20Tools/"},{"title":"Adobe Acrobat","path":"/tag/Adobe%20Acrobat/"}]}},{"node":{"__typename":"Course","id":"376ca953-3ef1-11ea-9791-1b580a556b4a","title":"Adobe Photoshop for Photographers","slug":"adobe-photoshop-for-photographers","headline":"Take Your Digital Photographs to The Next Level with this Adobe Photoshop CS5 Tutorial.","created":"24th January 2020","tags":[{"title":"Design","path":"/tag/Design/"},{"title":"Design Tools","path":"/tag/Design%20Tools/"},{"title":"Photoshop","path":"/tag/Photoshop/"}]}},{"node":{"__typename":"Course","id":"376cd063-3ef1-11ea-9791-1b580a556b4a","title":"WordPress for Beginners","slug":"word-press-for-beginners","headline":"Wordpress tutorial for beginners focusing on the essential concepts and knowledge you need to get started with WordPress","created":"24th January 2020","tags":[{"title":"Design","path":"/tag/Design/"},{"title":"Web Design","path":"/tag/Web%20Design/"},{"title":"WordPress","path":"/tag/WordPress/"}]}},{"node":{"__typename":"Course","id":"376c5b31-3ef1-11ea-9791-1b580a556b4a","title":"Learning Autodesk AutoCAD - Crash Course","slug":"learning-autodesk-auto-cad-crash-course","headline":"Autocad - Crash Course is for people looking to get a handle on this powerful software in a short amount of time.","created":"24th January 2020","tags":[{"title":"Design","path":"/tag/Design/"},{"title":"Design Tools","path":"/tag/Design%20Tools/"},{"title":"AutoCAD","path":"/tag/AutoCAD/"}]}}]}}},"context":{}}