{"hash":"6d1e7dd52e8c17cf4930f349c6afc1a78b2e1c5e","data":{"records":{"id":"Microsoft","title":"Microsoft","belongsTo":{"totalCount":38,"pageInfo":{"totalPages":5,"currentPage":1},"edges":[{"node":{"__typename":"Course","id":"3779efc2-3ef1-11ea-9791-1b580a556b4a","title":"Create 4 Visually Effective Dashboards in Microsoft Excel","slug":"create-4-visually-effective-dashboards-in-microsoft-excel","headline":"Create Dynamic & Interactive Financial & Sales Dashboards (Templates Included) in MS Excel (2010-2019) and Office 365.","created":"24th January 2020","tags":[{"title":"Office Productivity","path":"/tag/Office%20Productivity/"},{"title":"Microsoft","path":"/tag/Microsoft/"}]}},{"node":{"__typename":"Course","id":"3778b740-3ef1-11ea-9791-1b580a556b4a","title":"Tự tin trong công việc với Excel 2019 / Excel 365","slug":"tu-tin-trong-cong-viec-voi-excel-2019-excel-365","headline":"Những kiến thức bạn cần biết để làm việc hiệu quả với Excel 2019 / Excel 365","created":"24th January 2020","tags":[{"title":"Office Productivity","path":"/tag/Office%20Productivity/"},{"title":"Microsoft","path":"/tag/Microsoft/"},{"title":"Excel","path":"/tag/Excel/"}]}},{"node":{"__typename":"Course","id":"37770999-3ef1-11ea-9791-1b580a556b4a","title":"Microsoft Access 2010 Training - Advanced","slug":"microsoft-access-2010-training-advanced","headline":"Upgrading your Microsoft Access skills is a smart move for any professional.","created":"24th January 2020","tags":[{"title":"Office Productivity","path":"/tag/Office%20Productivity/"},{"title":"Microsoft","path":"/tag/Microsoft/"},{"title":"Microsoft Access","path":"/tag/Microsoft%20Access/"}]}},{"node":{"__typename":"Course","id":"377730a0-3ef1-11ea-9791-1b580a556b4a","title":"Microsoft Access 2010 Training - Beginners/Intermediate","slug":"microsoft-access-2010-training-beginners-intermediate","headline":"Upgrading your Microsoft Access skills is a smart move for any professional.","created":"24th January 2020","tags":[{"title":"Office Productivity","path":"/tag/Office%20Productivity/"},{"title":"Microsoft","path":"/tag/Microsoft/"},{"title":"Microsoft Access","path":"/tag/Microsoft%20Access/"}]}},{"node":{"__typename":"Course","id":"3776e286-3ef1-11ea-9791-1b580a556b4a","title":"Windows 8 For Dummies Video Training","slug":"windows-8-for-dummies-video-training","headline":"Online Video Windows 8 Training Course","created":"24th January 2020","tags":[{"title":"Office Productivity","path":"/tag/Office%20Productivity/"},{"title":"Microsoft","path":"/tag/Microsoft/"},{"title":"Microsoft Windows","path":"/tag/Microsoft%20Windows/"}]}},{"node":{"__typename":"Course","id":"3776bb7a-3ef1-11ea-9791-1b580a556b4a","title":"MICROSOFT EXCEL 2010 EN ESPAÑOL","slug":"microsoft-excel-2010-en-espanol","headline":"MICROSOFT EXCEL 2010 EN ESPAÑOL","created":"24th January 2020","tags":[{"title":"Office Productivity","path":"/tag/Office%20Productivity/"},{"title":"Microsoft","path":"/tag/Microsoft/"},{"title":"Excel","path":"/tag/Excel/"}]}},{"node":{"__typename":"Course","id":"37761f38-3ef1-11ea-9791-1b580a556b4a","title":"Microsoft Project: The Five Keys - Key 1 Navigation","slug":"microsoft-project-the-five-keys-key-1-navigation","headline":"To be able to use MS Project you have to know the essentials on how to navigate the user interface.That is covered here","created":"24th January 2020","tags":[{"title":"Office Productivity","path":"/tag/Office%20Productivity/"},{"title":"Microsoft","path":"/tag/Microsoft/"},{"title":"Microsoft Project","path":"/tag/Microsoft%20Project/"}]}},{"node":{"__typename":"Course","id":"3775d11b-3ef1-11ea-9791-1b580a556b4a","title":"Microsoft Project 2010 Tutorial Video - Beginners - Advanced","slug":"microsoft-project-2010-tutorial-video-beginners-advanced","headline":"Learn Microsoft Project At Your Own Pace. A Practical Hands-on Tutorial Aimed At All Levels Of Microsoft Project Users.","created":"24th January 2020","tags":[{"title":"Office Productivity","path":"/tag/Office%20Productivity/"},{"title":"Microsoft","path":"/tag/Microsoft/"},{"title":"Microsoft Project","path":"/tag/Microsoft%20Project/"}]}},{"node":{"__typename":"Course","id":"3775d113-3ef1-11ea-9791-1b580a556b4a","title":"Office 2013 New Features - Learn Now!","slug":"office-2013-new-features-learn-now","headline":"Explore the innovative new features of Microsoft’s Office 2013.","created":"24th January 2020","tags":[{"title":"Office Productivity","path":"/tag/Office%20Productivity/"},{"title":"Microsoft","path":"/tag/Microsoft/"},{"title":"Microsoft Office","path":"/tag/Microsoft%20Office/"}]}}]}}},"context":{}}