{"hash":"6d1e7dd52e8c17cf4930f349c6afc1a78b2e1c5e","data":{"records":{"id":"Language","title":"Language","belongsTo":{"totalCount":13,"pageInfo":{"totalPages":2,"currentPage":1},"edges":[{"node":{"__typename":"Course","id":"3778de51-3ef1-11ea-9791-1b580a556b4a","title":"Deutsch Für Mediziner | German For Doctors","slug":"deutsch-fuer-mediziner-german-for-doctors","headline":"Improve Your German Skills And Prepare For The German Medical Language Exam.","created":"24th January 2020","tags":[{"title":"Teaching & Academics","path":"/tag/Teaching%20%26%20Academics/"},{"title":"Language","path":"/tag/Language/"},{"title":"German Language","path":"/tag/German%20Language/"}]}},{"node":{"__typename":"Course","id":"37777ec4-3ef1-11ea-9791-1b580a556b4a","title":"English| Intermediate-Advanced intensive spoken course","slug":"english-intermediate-advanced-intensive-spoken-course","headline":"Complete spoken English course. Learn to speak English from intermediate to advanced. Over 50 hours of English speaking","created":"24th January 2020","tags":[{"title":"Teaching & Academics","path":"/tag/Teaching%20%26%20Academics/"},{"title":"Language","path":"/tag/Language/"},{"title":"English Conversation","path":"/tag/English%20Conversation/"}]}},{"node":{"__typename":"Course","id":"37770991-3ef1-11ea-9791-1b580a556b4a","title":"Business English Course for ESL Students","slug":"business-english-course-for-esl-students","headline":"Learn essential Business English vocabulary for presentations, meetings, negotiations, phone calls, e-mails, and more!","created":"24th January 2020","tags":[{"title":"Teaching & Academics","path":"/tag/Teaching%20%26%20Academics/"},{"title":"Language","path":"/tag/Language/"},{"title":"Business English","path":"/tag/Business%20English/"}]}},{"node":{"__typename":"Course","id":"37770995-3ef1-11ea-9791-1b580a556b4a","title":"Learn Korean Writing - Hana Hana Hangul","slug":"learn-korean-writing-hana-hana-hangul","headline":"With this video series from KoreanClass101, in twenty lessons you will learn the Korean alphabet, known as Hangul.","created":"24th January 2020","tags":[{"title":"Teaching & Academics","path":"/tag/Teaching%20%26%20Academics/"},{"title":"Language","path":"/tag/Language/"},{"title":"Korean Language","path":"/tag/Korean%20Language/"}]}},{"node":{"__typename":"Course","id":"37761f34-3ef1-11ea-9791-1b580a556b4a","title":"Accent Reduction Made Fast and Easy","slug":"accent-reduction-made-fast-and-easy","headline":"This is a complete guide for English Accent Reduction with Rules, Word and Sentence Examples.","created":"24th January 2020","tags":[{"title":"Teaching & Academics","path":"/tag/Teaching%20%26%20Academics/"},{"title":"Language","path":"/tag/Language/"},{"title":"Accent Reduction","path":"/tag/Accent%20Reduction/"}]}},{"node":{"__typename":"Course","id":"37738724-3ef1-11ea-9791-1b580a556b4a","title":"American Accent Training for IT Professionals","slug":"american-accent-training-for-it-professionals","headline":"This course teaches Information Technology professionals how to communicate clearly and effectively in American English.","created":"24th January 2020","tags":[{"title":"Teaching & Academics","path":"/tag/Teaching%20%26%20Academics/"},{"title":"Language","path":"/tag/Language/"},{"title":"American Accent","path":"/tag/American%20Accent/"}]}},{"node":{"__typename":"Course","id":"37736013-3ef1-11ea-9791-1b580a556b4a","title":"English Pronunciation I: Consonant Sounds","slug":"english-pronunciation-i-consonant-sounds","headline":"Learn how to pronounce the [Th], [S], [Z], [F], [V], and [P] English consonant sounds. No more pronunciation mistakes!","created":"24th January 2020","tags":[{"title":"Teaching & Academics","path":"/tag/Teaching%20%26%20Academics/"},{"title":"Language","path":"/tag/Language/"},{"title":"English Pronunciation","path":"/tag/English%20Pronunciation/"}]}},{"node":{"__typename":"Course","id":"37718b51-3ef1-11ea-9791-1b580a556b4a","title":"Wheelock's Latin : Chapters 1-15 Lectures","slug":"wheelock-s-latin-chapters-1-15-lectures","headline":"Help for beginning students using the venerable Wheelock grammar book.","created":"24th January 2020","tags":[{"title":"Teaching & Academics","path":"/tag/Teaching%20%26%20Academics/"},{"title":"Language","path":"/tag/Language/"},{"title":"Latin Language","path":"/tag/Latin%20Language/"}]}},{"node":{"__typename":"Course","id":"37713d3b-3ef1-11ea-9791-1b580a556b4a","title":"Signing Made Fun!","slug":"signing-made-fun","headline":"A beginner American Sign Language communication skills course","created":"24th January 2020","tags":[{"title":"Teaching & Academics","path":"/tag/Teaching%20%26%20Academics/"},{"title":"Language","path":"/tag/Language/"},{"title":"American Sign Language","path":"/tag/American%20Sign%20Language/"}]}}]}}},"context":{}}