{"hash":"6d1e7dd52e8c17cf4930f349c6afc1a78b2e1c5e","data":{"records":{"id":"Design Tools","title":"Design Tools","belongsTo":{"totalCount":63,"pageInfo":{"totalPages":7,"currentPage":5},"edges":[{"node":{"__typename":"Course","id":"3771d978-3ef1-11ea-9791-1b580a556b4a","title":"Learning Adobe Premiere Pro CS6 Bootcamp with Dave Basulto","slug":"learning-adobe-premiere-pro-c-s6-bootcamp-with-dave-basulto","headline":"Learn all you need to know to get up and running in Adobe Premiere Pro CS6 with this Premiere Pro CS6 Tutorial","created":"24th January 2020","tags":[{"title":"Design","path":"/tag/Design/"},{"title":"Design Tools","path":"/tag/Design%20Tools/"},{"title":"Adobe Premiere","path":"/tag/Adobe%20Premiere/"}]}},{"node":{"__typename":"Course","id":"3771d970-3ef1-11ea-9791-1b580a556b4a","title":"Adobe Photoshop Beauty Retouching - Good For Beginners","slug":"adobe-photoshop-beauty-retouching-good-for-beginners","headline":"This Adobe Photoshop Beauty Course will teach a Beginner Photoshop user all essentials of Beauty Retouching","created":"24th January 2020","tags":[{"title":"Design","path":"/tag/Design/"},{"title":"Design Tools","path":"/tag/Design%20Tools/"},{"title":"Photoshop Retouching","path":"/tag/Photoshop%20Retouching/"}]}},{"node":{"__typename":"Course","id":"37718b54-3ef1-11ea-9791-1b580a556b4a","title":"Adobe Illustrator CS5 (Beginning, Intermediate, & Advanced)","slug":"adobe-illustrator-c-s5-beginning-intermediate-and-advanced","headline":"Adobe Illustrator CS5 Tutorials for Print and Web Design. All levels covered: (beginning, Intermediate, & Advanced)","created":"24th January 2020","tags":[{"title":"Design","path":"/tag/Design/"},{"title":"Design Tools","path":"/tag/Design%20Tools/"},{"title":"Adobe Illustrator","path":"/tag/Adobe%20Illustrator/"}]}},{"node":{"__typename":"Course","id":"37716442-3ef1-11ea-9791-1b580a556b4a","title":"Final Cut Pro X Training","slug":"final-cut-pro-x-training","headline":"Learn the critical fundamentals of Final Cut Pro X with exercise driven training videos and project files.","created":"24th January 2020","tags":[{"title":"Design","path":"/tag/Design/"},{"title":"Design Tools","path":"/tag/Design%20Tools/"},{"title":"Final Cut Pro","path":"/tag/Final%20Cut%20Pro/"}]}},{"node":{"__typename":"Course","id":"37716445-3ef1-11ea-9791-1b580a556b4a","title":"Adobe Photoshop CS6 Tutorial. Self-Paced and Easy to Follow","slug":"adobe-photoshop-c-s6-tutorial-self-paced-and-easy-to-follow","headline":"175 Lessons that show you all you need to know to master Photoshop CS6. Taught by leading Photoshop Trainer","created":"24th January 2020","tags":[{"title":"Design","path":"/tag/Design/"},{"title":"Design Tools","path":"/tag/Design%20Tools/"},{"title":"Photoshop","path":"/tag/Photoshop/"}]}},{"node":{"__typename":"Course","id":"3770ef15-3ef1-11ea-9791-1b580a556b4a","title":"Actionscript 3 (Beginner to Advanced) + Mobile Games","slug":"actionscript-3-beginner-to-advanced-mobile-games","headline":"Build mobile and browser-based games using ActionScript 3. This course is intended for beginners as well intermediates.","created":"24th January 2020","tags":[{"title":"Design","path":"/tag/Design/"},{"title":"Design Tools","path":"/tag/Design%20Tools/"},{"title":"ActionScript","path":"/tag/ActionScript/"}]}},{"node":{"__typename":"Course","id":"3770c805-3ef1-11ea-9791-1b580a556b4a","title":"Photoshop Tools - Become An Expert In 10 Super Easy Steps","slug":"photoshop-tools-become-an-expert-in-10-super-easy-steps","headline":"Photoshop Tools - Become an Expert in Photoshop Tools and Rock - With no experience or prior Photoshop knowledge.","created":"24th January 2020","tags":[{"title":"Design","path":"/tag/Design/"},{"title":"Design Tools","path":"/tag/Design%20Tools/"},{"title":"Photoshop","path":"/tag/Photoshop/"}]}},{"node":{"__typename":"Course","id":"377079e2-3ef1-11ea-9791-1b580a556b4a","title":"Photoshop Master Course: From Beginner to Photoshop Pro","slug":"photoshop-master-course-from-beginner-to-photoshop-pro","headline":"This Adobe Photoshop Beginner Course will teach a Beginner Photoshop user all essentials of Adobe Photoshop CC","created":"24th January 2020","tags":[{"title":"Design","path":"/tag/Design/"},{"title":"Design Tools","path":"/tag/Design%20Tools/"},{"title":"Photoshop","path":"/tag/Photoshop/"}]}},{"node":{"__typename":"Course","id":"376fdda2-3ef1-11ea-9791-1b580a556b4a","title":"Photoshop CS6 Crash Course","slug":"photoshop-c-s6-crash-course","headline":"Photoshop CS6 will be yours to command in 4 hours!","created":"24th January 2020","tags":[{"title":"Design","path":"/tag/Design/"},{"title":"Design Tools","path":"/tag/Design%20Tools/"},{"title":"Photoshop","path":"/tag/Photoshop/"}]}}]}}},"context":{}}