{"hash":"6d1e7dd52e8c17cf4930f349c6afc1a78b2e1c5e","data":{"records":{"id":"Media","title":"Media","belongsTo":{"totalCount":17,"pageInfo":{"totalPages":2,"currentPage":2},"edges":[{"node":{"__typename":"Course","id":"377275b1-3ef1-11ea-9791-1b580a556b4a","title":"Planning Your Podcast","slug":"planning-your-podcast","headline":"Learn how to create a podcast properly. These are all the questions you need to ask before pressing record.","created":"24th January 2020","tags":[{"title":"Business","path":"/tag/Business/"},{"title":"Media","path":"/tag/Media/"},{"title":"Podcasting","path":"/tag/Podcasting/"}]}},{"node":{"__typename":"Course","id":"3771d974-3ef1-11ea-9791-1b580a556b4a","title":"Film School On Demand - How to Make & Sell your First Movie","slug":"film-school-on-demand-how-to-make-and-sell-your-first-movie","headline":"If you've wondered how to make a movie and dreaming of making your own one, then this is the course for you!","created":"24th January 2020","tags":[{"title":"Business","path":"/tag/Business/"},{"title":"Media","path":"/tag/Media/"},{"title":"Filmmaking","path":"/tag/Filmmaking/"}]}},{"node":{"__typename":"Course","id":"377052d0-3ef1-11ea-9791-1b580a556b4a","title":"Writing: Self Publish Your eBook and sell on Amazon","slug":"writing-self-publish-your-e-book-and-sell-on-amazon","headline":"Writing for a living. Learn how to self publish your ebook and sell on Amazon, iBooks, Barnes & Noble and more.","created":"24th January 2020","tags":[{"title":"Business","path":"/tag/Business/"},{"title":"Media","path":"/tag/Media/"},{"title":"eBook Creation","path":"/tag/eBook%20Creation/"}]}},{"node":{"__typename":"Course","id":"376e7e15-3ef1-11ea-9791-1b580a556b4a","title":"Professional Self-Publishing","slug":"professional-self-publishing","headline":"How to self-publish a professional book without the help of traditional publishers.","created":"24th January 2020","tags":[{"title":"Business","path":"/tag/Business/"},{"title":"Media","path":"/tag/Media/"},{"title":"Self-Publishing","path":"/tag/Self-Publishing/"}]}},{"node":{"__typename":"Course","id":"376e2ff8-3ef1-11ea-9791-1b580a556b4a","title":"How to Make a Podcast with Garageband","slug":"how-to-make-a-podcast-with-garageband","headline":"Learn how to create and start a podcast with Garageband, Wordpress, and iTunes","created":"24th January 2020","tags":[{"title":"Business","path":"/tag/Business/"},{"title":"Media","path":"/tag/Media/"},{"title":"GarageBand","path":"/tag/GarageBand/"}]}},{"node":{"__typename":"Course","id":"376de1d5-3ef1-11ea-9791-1b580a556b4a","title":"How to Make Killer Green Screen Videos","slug":"how-to-make-killer-green-screen-videos","headline":"Learn how to make green screen videos to promote your product and increase your sales,using iMovie green screen tutorial","created":"24th January 2020","tags":[{"title":"Business","path":"/tag/Business/"},{"title":"Media","path":"/tag/Media/"},{"title":"Video Creation","path":"/tag/Video%20Creation/"}]}},{"node":{"__typename":"Course","id":"376de1d6-3ef1-11ea-9791-1b580a556b4a","title":"Sell Ebooks on Amazon Kindle and Global Retailers","slug":"sell-ebooks-on-amazon-kindle-and-global-retailers","headline":"Self publishing made easy. Sell ebooks at Amazon, Apple, Google, B&N, Kobo, Smashwords, Scribd and major retailers.","created":"24th January 2020","tags":[{"title":"Business","path":"/tag/Business/"},{"title":"Media","path":"/tag/Media/"},{"title":"Amazon Kindle","path":"/tag/Amazon%20Kindle/"}]}},{"node":{"__typename":"Course","id":"376a5f61-3ef1-11ea-9791-1b580a556b4a","title":"How to Create an Awesome Demo Video for Your Business","slug":"how-to-create-an-awesome-demo-video-for-your-business","headline":"You don't need to spend $10K in order to have a professional video produced. Learn to make one yourself the easy way!","created":"24th January 2020","tags":[{"title":"Business","path":"/tag/Business/"},{"title":"Media","path":"/tag/Media/"},{"title":"Demo Video","path":"/tag/Demo%20Video/"}]}}]}}},"context":{}}