{"hash":"6d1e7dd52e8c17cf4930f349c6afc1a78b2e1c5e","data":{"records":{"id":"Photoshop","title":"Photoshop","belongsTo":{"totalCount":25,"pageInfo":{"totalPages":3,"currentPage":1},"edges":[{"node":{"__typename":"Course","id":"3779efc3-3ef1-11ea-9791-1b580a556b4a","title":"Creating Custom Grunge Brushes In Photoshop","slug":"creating-custom-grunge-brushes-in-photoshop","headline":"Experiment with textures, filters, and layer blend modes.","created":"24th January 2020","tags":[{"title":"Photography","path":"/tag/Photography/"},{"title":"Other","path":"/tag/Other/"},{"title":"Photoshop","path":"/tag/Photoshop/"}]}},{"node":{"__typename":"Course","id":"37797a97-3ef1-11ea-9791-1b580a556b4a","title":"Repair damaged and old photos in a Photoshop","slug":"repair-damaged-and-old-photos-in-a-photoshop","headline":"Learn the tools and techniques for restoring old photos that have faded over time and how to bring back original parts.","created":"24th January 2020","tags":[{"title":"Design","path":"/tag/Design/"},{"title":"Graphic Design","path":"/tag/Graphic%20Design/"},{"title":"Photoshop","path":"/tag/Photoshop/"}]}},{"node":{"__typename":"Course","id":"3778b746-3ef1-11ea-9791-1b580a556b4a","title":"Photoshop dla każdego","slug":"photoshop-dla-kazdego","headline":"Podstawy Photoshopa","created":"24th January 2020","tags":[{"title":"Design","path":"/tag/Design/"},{"title":"Graphic Design","path":"/tag/Graphic%20Design/"},{"title":"Photoshop","path":"/tag/Photoshop/"}]}},{"node":{"__typename":"Course","id":"377730a1-3ef1-11ea-9791-1b580a556b4a","title":"Master Photoshop Elements 11 the Easy Way - 12 Hours","slug":"master-photoshop-elements-11-the-easy-way-12-hours","headline":"Learn Photoshop Elements 11. Get 12 hours of training tutorials. Make your photos lookamazing!","created":"24th January 2020","tags":[{"title":"Design","path":"/tag/Design/"},{"title":"Design Tools","path":"/tag/Design%20Tools/"},{"title":"Photoshop","path":"/tag/Photoshop/"}]}},{"node":{"__typename":"Course","id":"3776e281-3ef1-11ea-9791-1b580a556b4a","title":"Project Photoshop: Automation","slug":"project-photoshop-automation","headline":"Learn how to speed up your work & enhance creativity by taking advantage of built-in automations, actions & much more","created":"24th January 2020","tags":[{"title":"Design","path":"/tag/Design/"},{"title":"Design Tools","path":"/tag/Design%20Tools/"},{"title":"Photoshop","path":"/tag/Photoshop/"}]}},{"node":{"__typename":"Course","id":"3775d115-3ef1-11ea-9791-1b580a556b4a","title":"Project Photoshop: Customizing Photoshop","slug":"project-photoshop-customizing-photoshop","headline":"Learn how to Customize Photoshop to Make it Look and Operate the way You Want","created":"24th January 2020","tags":[{"title":"Design","path":"/tag/Design/"},{"title":"Design Tools","path":"/tag/Design%20Tools/"},{"title":"Photoshop","path":"/tag/Photoshop/"}]}},{"node":{"__typename":"Course","id":"377582f7-3ef1-11ea-9791-1b580a556b4a","title":"Adobe Photoshop Elements 11 Tutorial Video - Infinite Skills","slug":"adobe-photoshop-elements-11-tutorial-video-infinite-skills","headline":"Learn the secrets that make Elements as powerful as the full version of Photoshop in these Photoshop Elements tutorials.","created":"24th January 2020","tags":[{"title":"Design","path":"/tag/Design/"},{"title":"Design Tools","path":"/tag/Design%20Tools/"},{"title":"Photoshop","path":"/tag/Photoshop/"}]}},{"node":{"__typename":"Course","id":"37755be4-3ef1-11ea-9791-1b580a556b4a","title":"Photoshop For Professional Photographers","slug":"photoshop-for-professional-photographers","headline":"Photoshop demystified by a pro portrait photographer with 20 watch-do-learn tutorials so you master the essentials fast!","created":"24th January 2020","tags":[{"title":"Design","path":"/tag/Design/"},{"title":"Design Tools","path":"/tag/Design%20Tools/"},{"title":"Photoshop","path":"/tag/Photoshop/"}]}},{"node":{"__typename":"Course","id":"3773fc58-3ef1-11ea-9791-1b580a556b4a","title":"Photoshop Flyer Design Secrets","slug":"photoshop-flyer-design-secrets","headline":"Real World Photoshop Tutorial for Designers and Desktop Publishers. Learn how to make great flyer in Photoshop with Ease","created":"24th January 2020","tags":[{"title":"Design","path":"/tag/Design/"},{"title":"Design Tools","path":"/tag/Design%20Tools/"},{"title":"Photoshop","path":"/tag/Photoshop/"}]}}]}}},"context":{}}