{"hash":"6d1e7dd52e8c17cf4930f349c6afc1a78b2e1c5e","data":{"records":{"id":"Development","title":"Development","belongsTo":{"totalCount":129,"pageInfo":{"totalPages":15,"currentPage":8},"edges":[{"node":{"__typename":"Course","id":"37736010-3ef1-11ea-9791-1b580a556b4a","title":"Break Into The Programming Business","slug":"break-into-the-programming-business","headline":"The world of programming for entrepreneurs and startups","created":"24th January 2020","tags":[{"title":"Development","path":"/tag/Development/"},{"title":"Programming Languages","path":"/tag/Programming%20Languages/"},{"title":"Business Strategy","path":"/tag/Business%20Strategy/"}]}},{"node":{"__typename":"Course","id":"3772c3d6-3ef1-11ea-9791-1b580a556b4a","title":"Learning CSS","slug":"learning-css","headline":"Learn how to use Cascading Style Sheets to create beautiful webpages.","created":"24th January 2020","tags":[{"title":"Development","path":"/tag/Development/"},{"title":"Web Development","path":"/tag/Web%20Development/"},{"title":"CSS","path":"/tag/CSS/"}]}},{"node":{"__typename":"Course","id":"3772c3d8-3ef1-11ea-9791-1b580a556b4a","title":"Mastering Android Programming","slug":"mastering-android-programming","headline":"Learn the Android programming with Android SDK, Advance Java Concepts, OpenGL and SQLlite","created":"24th January 2020","tags":[{"title":"Development","path":"/tag/Development/"},{"title":"Programming Languages","path":"/tag/Programming%20Languages/"},{"title":"Android Development","path":"/tag/Android%20Development/"}]}},{"node":{"__typename":"Course","id":"3772c3d9-3ef1-11ea-9791-1b580a556b4a","title":"Pythonic Python Part I: The Basics","slug":"pythonic-python-part-i-the-basics","headline":"Fast and fun python lectures for programmers, with tons of example code; plenty of exercises, and explained solutions.","created":"24th January 2020","tags":[{"title":"Development","path":"/tag/Development/"},{"title":"Programming Languages","path":"/tag/Programming%20Languages/"},{"title":"Python","path":"/tag/Python/"}]}},{"node":{"__typename":"Course","id":"3772eae1-3ef1-11ea-9791-1b580a556b4a","title":"The Ultimate Python Programming Tutorial","slug":"the-ultimate-python-programming-tutorial","headline":"Python Programming tutorial for beginners. This Python Training Course Comes with Certification of Completion","created":"24th January 2020","tags":[{"title":"Development","path":"/tag/Development/"},{"title":"Programming Languages","path":"/tag/Programming%20Languages/"},{"title":"Python","path":"/tag/Python/"}]}},{"node":{"__typename":"Course","id":"37729cc4-3ef1-11ea-9791-1b580a556b4a","title":"Scala for Java Developers: Transition Up!","slug":"scala-for-java-developers-transition-up","headline":"Scala for Java Developers: Transition Up!","created":"24th January 2020","tags":[{"title":"Development","path":"/tag/Development/"},{"title":"Programming Languages","path":"/tag/Programming%20Languages/"},{"title":"Java","path":"/tag/Java/"}]}},{"node":{"__typename":"Course","id":"377275b4-3ef1-11ea-9791-1b580a556b4a","title":"Android Programming for the Absolute Beginner","slug":"android-programming-for-the-absolute-beginner","headline":"Want to learn how to write your own Android apps? This Android course for beginners is for you..","created":"24th January 2020","tags":[{"title":"Development","path":"/tag/Development/"},{"title":"Mobile Apps","path":"/tag/Mobile%20Apps/"},{"title":"Android Development","path":"/tag/Android%20Development/"}]}},{"node":{"__typename":"Course","id":"37724ea6-3ef1-11ea-9791-1b580a556b4a","title":"This Is How You Make iPhone Apps - iOS Development Course","slug":"this-is-how-you-make-i-phone-apps-i-os-development-course","headline":"Learn every step in iOS App Development with iOS app development tutorial, from creating to submitting to app store.","created":"24th January 2020","tags":[{"title":"Development","path":"/tag/Development/"},{"title":"Mobile Apps","path":"/tag/Mobile%20Apps/"},{"title":"iOS Development","path":"/tag/iOS%20Development/"}]}},{"node":{"__typename":"Course","id":"37724ea0-3ef1-11ea-9791-1b580a556b4a","title":"Advanced CSS Training","slug":"advanced-css-training","headline":"Get Trained in CSS and take a deep dive into Advanced CSS","created":"24th January 2020","tags":[{"title":"Development","path":"/tag/Development/"},{"title":"Web Development","path":"/tag/Web%20Development/"},{"title":"CSS","path":"/tag/CSS/"}]}}]}}},"context":{}}