{"hash":"6d1e7dd52e8c17cf4930f349c6afc1a78b2e1c5e","data":{"records":{"id":"Music","title":"Music","belongsTo":{"totalCount":18,"pageInfo":{"totalPages":2,"currentPage":1},"edges":[{"node":{"__typename":"Course","id":"377a64f5-3ef1-11ea-9791-1b580a556b4a","title":"FL Studio 20 - Create Music Set ( Mix )","slug":"fl-studio-20-create-music-set-mix","headline":"Learn how to mix the same type of the songs.","created":"24th January 2020","tags":[{"title":"Music","path":"/tag/Music/"},{"title":"Music Techniques","path":"/tag/Music%20Techniques/"},{"title":"FL Studio","path":"/tag/FL%20Studio/"}]}},{"node":{"__typename":"Course","id":"3779a1a3-3ef1-11ea-9791-1b580a556b4a","title":"Carnatic Music, South Indian Classical Music Theory","slug":"carnatic-music-south-indian-classical-music-theory","headline":"Musical Theory of Carnatic Music","created":"24th January 2020","tags":[{"title":"Music","path":"/tag/Music/"},{"title":"Other","path":"/tag/Other/"},{"title":"Carnatic Music","path":"/tag/Carnatic%20Music/"}]}},{"node":{"__typename":"Course","id":"37792c77-3ef1-11ea-9791-1b580a556b4a","title":"How to Use Automation Clips in FL Studio","slug":"how-to-use-automation-clips-in-fl-studio","headline":"Automatically Control Parameters in Your Music Program through Automation to Make Your Music WAY MORE Interesting!","created":"24th January 2020","tags":[{"title":"Music","path":"/tag/Music/"},{"title":"Production","path":"/tag/Production/"},{"title":"FL Studio","path":"/tag/FL%20Studio/"}]}},{"node":{"__typename":"Course","id":"3778de5c-3ef1-11ea-9791-1b580a556b4a","title":"Learn to Play Clarinet Intermediate lessons","slug":"learn-to-play-clarinet-intermediate-lessons","headline":"Advanced topics to Play Clarinet","created":"24th January 2020","tags":[{"title":"Music","path":"/tag/Music/"},{"title":"Music Techniques","path":"/tag/Music%20Techniques/"},{"title":"Clarinet","path":"/tag/Clarinet/"}]}},{"node":{"__typename":"Course","id":"377730a5-3ef1-11ea-9791-1b580a556b4a","title":"Learn Deep House Production with Logic Pro","slug":"learn-deep-house-production-with-logic-pro","headline":"Learn to produce Deep House music from grammy nominated producer Davidson Ospina","created":"24th January 2020","tags":[{"title":"Music","path":"/tag/Music/"},{"title":"Production","path":"/tag/Production/"},{"title":"Logic","path":"/tag/Logic/"}]}},{"node":{"__typename":"Course","id":"3776e280-3ef1-11ea-9791-1b580a556b4a","title":"Mixing Electronic Music with Logic Pro","slug":"mixing-electronic-music-with-logic-pro","headline":"Learn everything you need to know about mixing electronic music with Logic Pro - Includes project stems to download","created":"24th January 2020","tags":[{"title":"Music","path":"/tag/Music/"},{"title":"Production","path":"/tag/Production/"},{"title":"Logic Pro X","path":"/tag/Logic%20Pro%20X/"}]}},{"node":{"__typename":"Course","id":"37769467-3ef1-11ea-9791-1b580a556b4a","title":"Piano Improvisation from Day One","slug":"piano-improvisation-from-day-one","headline":"Learn Piano Inventing Melodies and Rhythms with Scales, Chords and Cadences","created":"24th January 2020","tags":[{"title":"Music","path":"/tag/Music/"},{"title":"Instruments","path":"/tag/Instruments/"},{"title":"Piano","path":"/tag/Piano/"}]}},{"node":{"__typename":"Course","id":"37764640-3ef1-11ea-9791-1b580a556b4a","title":"Learn Guitar in 21 Days","slug":"learn-guitar-in-21-days","headline":"Learn how to play thousands of your favorite songs on guitar in just 3 weeks!","created":"24th January 2020","tags":[{"title":"Music","path":"/tag/Music/"},{"title":"Instruments","path":"/tag/Instruments/"},{"title":"Guitar","path":"/tag/Guitar/"}]}},{"node":{"__typename":"Course","id":"3775d119-3ef1-11ea-9791-1b580a556b4a","title":"How to Understand Music Better and Unleash Your Creativity","slug":"how-to-understand-music-better-and-unleash-your-creativity","headline":"Geared Towards Beginners, but Seasoned Players can Benefit...","created":"24th January 2020","tags":[{"title":"Music","path":"/tag/Music/"},{"title":"Instruments","path":"/tag/Instruments/"},{"title":"Guitar","path":"/tag/Guitar/"}]}}]}}},"context":{}}