{"hash":"6d1e7dd52e8c17cf4930f349c6afc1a78b2e1c5e","data":{"records":{"id":"Design Tools","title":"Design Tools","belongsTo":{"totalCount":63,"pageInfo":{"totalPages":7,"currentPage":1},"edges":[{"node":{"__typename":"Course","id":"377a64f2-3ef1-11ea-9791-1b580a556b4a","title":"Rhino Grasshopper Architectural Pavilion Curve Attractor","slug":"rhino-grasshopper-architectural-pavilion-curve-attractor","headline":"Parametric Pavilion with circular perforations that change due to a curve attractor","created":"24th January 2020","tags":[{"title":"Design","path":"/tag/Design/"},{"title":"Design Tools","path":"/tag/Design%20Tools/"},{"title":"Grasshopper 3d","path":"/tag/Grasshopper%203d/"}]}},{"node":{"__typename":"Course","id":"377a3de0-3ef1-11ea-9791-1b580a556b4a","title":"Rhino Grasshopper Parametric Dynamic Voronoi Pattern","slug":"rhino-grasshopper-parametric-dynamic-voronoi-pattern","headline":"Parametric voronoi pattern using curve attractor","created":"24th January 2020","tags":[{"title":"Design","path":"/tag/Design/"},{"title":"Design Tools","path":"/tag/Design%20Tools/"},{"title":"Grasshopper 3d","path":"/tag/Grasshopper%203d/"}]}},{"node":{"__typename":"Course","id":"3779c8b8-3ef1-11ea-9791-1b580a556b4a","title":"Civil 3D - Curso Interactivo","slug":"civil-3-d-curso-interactivo","headline":"BASICO - Terraceria para Principiantes","created":"24th January 2020","tags":[{"title":"Design","path":"/tag/Design/"},{"title":"Design Tools","path":"/tag/Design%20Tools/"},{"title":"AutoCAD Civil 3D","path":"/tag/AutoCAD%20Civil%203D/"}]}},{"node":{"__typename":"Course","id":"3778de55-3ef1-11ea-9791-1b580a556b4a","title":"Rhino Grasshopper Architectural Space-frame with Connections","slug":"rhino-grasshopper-architectural-space-frame-with-connections","headline":"Creating an Architectural Space-frame with connections and outer skin","created":"24th January 2020","tags":[{"title":"Design","path":"/tag/Design/"},{"title":"Design Tools","path":"/tag/Design%20Tools/"},{"title":"Grasshopper 3d","path":"/tag/Grasshopper%203d/"}]}},{"node":{"__typename":"Course","id":"377730a1-3ef1-11ea-9791-1b580a556b4a","title":"Master Photoshop Elements 11 the Easy Way - 12 Hours","slug":"master-photoshop-elements-11-the-easy-way-12-hours","headline":"Learn Photoshop Elements 11. Get 12 hours of training tutorials. Make your photos lookamazing!","created":"24th January 2020","tags":[{"title":"Design","path":"/tag/Design/"},{"title":"Design Tools","path":"/tag/Design%20Tools/"},{"title":"Photoshop","path":"/tag/Photoshop/"}]}},{"node":{"__typename":"Course","id":"3776e281-3ef1-11ea-9791-1b580a556b4a","title":"Project Photoshop: Automation","slug":"project-photoshop-automation","headline":"Learn how to speed up your work & enhance creativity by taking advantage of built-in automations, actions & much more","created":"24th January 2020","tags":[{"title":"Design","path":"/tag/Design/"},{"title":"Design Tools","path":"/tag/Design%20Tools/"},{"title":"Photoshop","path":"/tag/Photoshop/"}]}},{"node":{"__typename":"Course","id":"3776e285-3ef1-11ea-9791-1b580a556b4a","title":"Video Editing Workshop Complete Beginners Course-Sony Vegas","slug":"video-editing-workshop-complete-beginners-course-sony-vegas","headline":"Students, teens, housemoms, VA, salesmen, secretaries, marketers, or any newbie - start making professional videos now!","created":"24th January 2020","tags":[{"title":"Design","path":"/tag/Design/"},{"title":"Design Tools","path":"/tag/Design%20Tools/"},{"title":"Video Editing","path":"/tag/Video%20Editing/"}]}},{"node":{"__typename":"Course","id":"3776bb73-3ef1-11ea-9791-1b580a556b4a","title":"Adobe Digital Publishing Suite (DPS) for Beginners","slug":"adobe-digital-publishing-suite-dps-for-beginners","headline":"Join the digital revolution! Learn to create interactive online digital magazines and publications for iPad or tablets","created":"24th January 2020","tags":[{"title":"Design","path":"/tag/Design/"},{"title":"Design Tools","path":"/tag/Design%20Tools/"},{"title":"Digital Product","path":"/tag/Digital%20Product/"}]}},{"node":{"__typename":"Course","id":"37764642-3ef1-11ea-9791-1b580a556b4a","title":"Maya UV Unwrapping a Digital Dinosaur in 2 hours","slug":"maya-uv-unwrapping-a-digital-dinosaur-in-2-hours","headline":"Explore Maya Powerful UV Unwrap Tools & Time-Saver Unwrapping Techniques to Unwrap this 5-Tonne-Jurassic Creature","created":"24th January 2020","tags":[{"title":"Design","path":"/tag/Design/"},{"title":"Design Tools","path":"/tag/Design%20Tools/"},{"title":"Maya","path":"/tag/Maya/"}]}}]}}},"context":{}}