{"hash":"6d1e7dd52e8c17cf4930f349c6afc1a78b2e1c5e","data":{"records":{"id":"Web Development","title":"Web Development","belongsTo":{"totalCount":55,"pageInfo":{"totalPages":7,"currentPage":2},"edges":[{"node":{"__typename":"Course","id":"377582f1-3ef1-11ea-9791-1b580a556b4a","title":"Aprende HTML en 5 simples pasos","slug":"aprende-html-en-5-simples-pasos","headline":"Aprenda utilizar el lenguaje HTML para crear una página web básica con estilos, imágenes y hasta videos!","created":"24th January 2020","tags":[{"title":"Development","path":"/tag/Development/"},{"title":"Web Development","path":"/tag/Web%20Development/"},{"title":"HTML","path":"/tag/HTML/"}]}},{"node":{"__typename":"Course","id":"377534d4-3ef1-11ea-9791-1b580a556b4a","title":"Curso de Joomla 2.5 Paso a Paso","slug":"curso-de-joomla-2-5-paso-a-paso","headline":"Diseño Web Paso a Paso con Joomla - Curso completo de joomla 2.5 en Español","created":"24th January 2020","tags":[{"title":"Development","path":"/tag/Development/"},{"title":"Web Development","path":"/tag/Web%20Development/"},{"title":"Joomla","path":"/tag/Joomla/"}]}},{"node":{"__typename":"Course","id":"377534d5-3ef1-11ea-9791-1b580a556b4a","title":"Login and Registration from Scratch with PHP and MySQL","slug":"login-and-registration-from-scratch-with-php-and-my-sql","headline":"Create a PHP login system including user sign-up, login, \"remember me\", password reset and user administration.","created":"24th January 2020","tags":[{"title":"Development","path":"/tag/Development/"},{"title":"Web Development","path":"/tag/Web%20Development/"},{"title":"MySQL","path":"/tag/MySQL/"}]}},{"node":{"__typename":"Course","id":"37750dc4-3ef1-11ea-9791-1b580a556b4a","title":"HTML5 and CreateJS Tutorial - Learn Interactive Development","slug":"htm-l5-and-create-js-tutorial-learn-interactive-development","headline":"Learn how to build Interactive content with HTML5 and CreateJS. An essential training course for all Web Developers","created":"24th January 2020","tags":[{"title":"Development","path":"/tag/Development/"},{"title":"Web Development","path":"/tag/Web%20Development/"},{"title":"CreateJS","path":"/tag/CreateJS/"}]}},{"node":{"__typename":"Course","id":"3774e6b2-3ef1-11ea-9791-1b580a556b4a","title":"CSS Development (with CSS3!)","slug":"css-development-with-cs-s3","headline":"Create Flexible, Interesting, and Usable Designs for Desktop &Mobile Websites with CSS tutorial for beginners using CSS3","created":"24th January 2020","tags":[{"title":"Development","path":"/tag/Development/"},{"title":"Web Development","path":"/tag/Web%20Development/"},{"title":"CSS","path":"/tag/CSS/"}]}},{"node":{"__typename":"Course","id":"3774989a-3ef1-11ea-9791-1b580a556b4a","title":"HTML5","slug":"htm-l5","headline":"Aprenda a la poderosa herramienta que ha revolucionado la Internet","created":"24th January 2020","tags":[{"title":"Development","path":"/tag/Development/"},{"title":"Web Development","path":"/tag/Web%20Development/"},{"title":"HTML5","path":"/tag/HTML5/"}]}},{"node":{"__typename":"Course","id":"37747184-3ef1-11ea-9791-1b580a556b4a","title":"Aprende CSS3 sin dolor","slug":"aprende-cs-s3-sin-dolor","headline":"Realiza animaciones asombrosas, antes imposibles con HTML con los estilos en cascada nivel 3.","created":"24th January 2020","tags":[{"title":"Development","path":"/tag/Development/"},{"title":"Web Development","path":"/tag/Web%20Development/"},{"title":"CSS","path":"/tag/CSS/"}]}},{"node":{"__typename":"Course","id":"37744a74-3ef1-11ea-9791-1b580a556b4a","title":"Introducción al HTML y CSS","slug":"introduccion-al-html-y-css","headline":"Curso básico para construir páginas web con HTML y CSS","created":"24th January 2020","tags":[{"title":"Development","path":"/tag/Development/"},{"title":"Web Development","path":"/tag/Web%20Development/"},{"title":"CSS","path":"/tag/CSS/"}]}},{"node":{"__typename":"Course","id":"37744a75-3ef1-11ea-9791-1b580a556b4a","title":"Introduction to JavaScript","slug":"introduction-to-java-script","headline":"Learn how to use JavaScript effectively from the experts at Webucator JavaScript Training","created":"24th January 2020","tags":[{"title":"Development","path":"/tag/Development/"},{"title":"Web Development","path":"/tag/Web%20Development/"},{"title":"JavaScript","path":"/tag/JavaScript/"}]}}]}}},"context":{}}