{"hash":"6d1e7dd52e8c17cf4930f349c6afc1a78b2e1c5e","data":{"records":{"id":"Excel","title":"Excel","belongsTo":{"totalCount":10,"pageInfo":{"totalPages":2,"currentPage":2},"edges":[{"node":{"__typename":"Course","id":"376bbef1-3ef1-11ea-9791-1b580a556b4a","title":"Microsoft Excel 2010: Advanced Training","slug":"microsoft-excel-2010-advanced-training","headline":"Master Advanced Excel 2010 Features. Become A Expert And Learn To Use Excel Like A Pro With This Advanced Excel Training","created":"24th January 2020","tags":[{"title":"Office Productivity","path":"/tag/Office%20Productivity/"},{"title":"Microsoft","path":"/tag/Microsoft/"},{"title":"Excel","path":"/tag/Excel/"}]}}]}}},"context":{}}