{"hash":"6d1e7dd52e8c17cf4930f349c6afc1a78b2e1c5e","data":{"records":{"id":"Business","title":"Business","belongsTo":{"totalCount":119,"pageInfo":{"totalPages":14,"currentPage":10},"edges":[{"node":{"__typename":"Course","id":"37716449-3ef1-11ea-9791-1b580a556b4a","title":"Management Principles","slug":"management-principles","headline":"This course will introduce you to basic management theory: planning, organizing, leading and control.","created":"24th January 2020","tags":[{"title":"Business","path":"/tag/Business/"},{"title":"Management","path":"/tag/Management/"},{"title":"Management Skills","path":"/tag/Management%20Skills/"}]}},{"node":{"__typename":"Course","id":"37718b50-3ef1-11ea-9791-1b580a556b4a","title":"Professional Selling","slug":"professional-selling","headline":"Anyone can learn how to become more persuasive and how to deliver a professional quality sales presentation.","created":"24th January 2020","tags":[{"title":"Business","path":"/tag/Business/"},{"title":"Sales","path":"/tag/Sales/"},{"title":"Sales Skills","path":"/tag/Sales%20Skills/"}]}},{"node":{"__typename":"Course","id":"37716443-3ef1-11ea-9791-1b580a556b4a","title":"Introduction to Business","slug":"introduction-to-business","headline":"Get a full introductory college business course taught by a former CEO.","created":"24th January 2020","tags":[{"title":"Business","path":"/tag/Business/"},{"title":"Other","path":"/tag/Other/"},{"title":"Business Fundamentals","path":"/tag/Business%20Fundamentals/"}]}},{"node":{"__typename":"Course","id":"3770ef16-3ef1-11ea-9791-1b580a556b4a","title":"Master Your Mindset & Brain: Framestorm Your Way to Success","slug":"master-your-mindset-and-brain-framestorm-your-way-to-success","headline":"Excel in any situation. Tweak your mindset in brain-smart ways. Master class in reframing based on neuroscience.","created":"24th January 2020","tags":[{"title":"Business","path":"/tag/Business/"},{"title":"Strategy","path":"/tag/Strategy/"},{"title":"Personal Success","path":"/tag/Personal%20Success/"}]}},{"node":{"__typename":"Course","id":"3770ef10-3ef1-11ea-9791-1b580a556b4a","title":"From Startup to Millions Before 30","slug":"from-startup-to-millions-before-30","headline":"Previously sold as \"A Young Entrepreneur's Guide to Starting and Growing a Business\"","created":"24th January 2020","tags":[{"title":"Business","path":"/tag/Business/"},{"title":"Entrepreneurship","path":"/tag/Entrepreneurship/"},{"title":"Startup","path":"/tag/Startup/"}]}},{"node":{"__typename":"Course","id":"377079e4-3ef1-11ea-9791-1b580a556b4a","title":"Sales and Persuasion Skills for Startups","slug":"sales-and-persuasion-skills-for-startups","headline":"The entrepreneur's sure guide to getting a 'Yes'","created":"24th January 2020","tags":[{"title":"Business","path":"/tag/Business/"},{"title":"Sales","path":"/tag/Sales/"},{"title":"Persuasion","path":"/tag/Persuasion/"}]}},{"node":{"__typename":"Course","id":"377052d8-3ef1-11ea-9791-1b580a556b4a","title":"Faith-Based Grants","slug":"faith-based-grants","headline":"This course will guide faith-based groups through the action steps needed to apply for grants.","created":"24th January 2020","tags":[{"title":"Business","path":"/tag/Business/"},{"title":"Other","path":"/tag/Other/"},{"title":"Ministry","path":"/tag/Ministry/"}]}},{"node":{"__typename":"Course","id":"377079e1-3ef1-11ea-9791-1b580a556b4a","title":"Optimization & A/B Testing Statistics","slug":"optimization-and-a-b-testing-statistics","headline":"Speed up your a/b tests by doing it right from the start.","created":"24th January 2020","tags":[{"title":"Business","path":"/tag/Business/"},{"title":"Data & Analytics","path":"/tag/Data%20%26%20Analytics/"},{"title":"A/B Testing","path":"/tag/A%2FB%20Testing/"}]}},{"node":{"__typename":"Course","id":"377052d3-3ef1-11ea-9791-1b580a556b4a","title":"Cold Call 101: How to Cold Call like a Boss","slug":"cold-call-101-how-to-cold-call-like-a-boss","headline":"Learn the secret cold calling techniques and systems for getting anyone on the phone and getting new business, today!","created":"24th January 2020","tags":[{"title":"Business","path":"/tag/Business/"},{"title":"Sales","path":"/tag/Sales/"},{"title":"Cold Calling","path":"/tag/Cold%20Calling/"}]}}]}}},"context":{}}