{"hash":"6d1e7dd52e8c17cf4930f349c6afc1a78b2e1c5e","data":{"records":{"id":"Other","title":"Other","belongsTo":{"totalCount":26,"pageInfo":{"totalPages":3,"currentPage":3},"edges":[{"node":{"__typename":"Course","id":"3772eae3-3ef1-11ea-9791-1b580a556b4a","title":"10 Steps to Dramatic Nature Photography","slug":"10-steps-to-dramatic-nature-photography","headline":"Take your nature photography to a new level by learning what goes into making striking images.","created":"24th January 2020","tags":[{"title":"Photography","path":"/tag/Photography/"},{"title":"Other","path":"/tag/Other/"},{"title":"Nature Photography","path":"/tag/Nature%20Photography/"}]}},{"node":{"__typename":"Course","id":"37716443-3ef1-11ea-9791-1b580a556b4a","title":"Introduction to Business","slug":"introduction-to-business","headline":"Get a full introductory college business course taught by a former CEO.","created":"24th January 2020","tags":[{"title":"Business","path":"/tag/Business/"},{"title":"Other","path":"/tag/Other/"},{"title":"Business Fundamentals","path":"/tag/Business%20Fundamentals/"}]}},{"node":{"__typename":"Course","id":"377052d8-3ef1-11ea-9791-1b580a556b4a","title":"Faith-Based Grants","slug":"faith-based-grants","headline":"This course will guide faith-based groups through the action steps needed to apply for grants.","created":"24th January 2020","tags":[{"title":"Business","path":"/tag/Business/"},{"title":"Other","path":"/tag/Other/"},{"title":"Ministry","path":"/tag/Ministry/"}]}},{"node":{"__typename":"Course","id":"377052da-3ef1-11ea-9791-1b580a556b4a","title":"How To Perform Instant and Rapid Hypnotic Inductions","slug":"how-to-perform-instant-and-rapid-hypnotic-inductions","headline":"Learn Instant and Rapid Hypnosis Inductions with Michael C. White, C.Ht.","created":"24th January 2020","tags":[{"title":"Health & Fitness","path":"/tag/Health%20%26%20Fitness/"},{"title":"Other","path":"/tag/Other/"},{"title":"Hypnosis","path":"/tag/Hypnosis/"}]}},{"node":{"__typename":"Course","id":"377004b9-3ef1-11ea-9791-1b580a556b4a","title":"Federal Grant Writing 101","slug":"federal-grant-writing-101","headline":"Grant Writing Classes on How to Write and Win a Federal Government Grant Award","created":"24th January 2020","tags":[{"title":"Business","path":"/tag/Business/"},{"title":"Other","path":"/tag/Other/"},{"title":"Grant Writing","path":"/tag/Grant%20Writing/"}]}},{"node":{"__typename":"Course","id":"376ecc34-3ef1-11ea-9791-1b580a556b4a","title":"Oracle Ebusiness Suite - Forms Navigation","slug":"oracle-ebusiness-suite-forms-navigation","headline":"Learn to use and navigate system forms in Oracle Applications.","created":"24th January 2020","tags":[{"title":"IT & Software","path":"/tag/IT%20%26%20Software/"},{"title":"Other","path":"/tag/Other/"},{"title":"Oracle E-Business Suite","path":"/tag/Oracle%20E-Business%20Suite/"}]}},{"node":{"__typename":"Course","id":"376e5705-3ef1-11ea-9791-1b580a556b4a","title":"Building Your Platform","slug":"building-your-platform","headline":"What Businesses of All Sizes and Types Can Learn from Amazon, Apple, Facebook, and Google","created":"24th January 2020","tags":[{"title":"Business","path":"/tag/Business/"},{"title":"Other","path":"/tag/Other/"},{"title":"Online Business","path":"/tag/Online%20Business/"}]}},{"node":{"__typename":"Course","id":"376a8671-3ef1-11ea-9791-1b580a556b4a","title":"How To Become a Vegan, Vegetarian, or Flexitarian","slug":"how-to-become-a-vegan-vegetarian-or-flexitarian","headline":"Get the tools you need for a lifestyle change that will bring you health and a clear conscience.","created":"24th January 2020","tags":[{"title":"Lifestyle","path":"/tag/Lifestyle/"},{"title":"Other","path":"/tag/Other/"},{"title":"Vegan Cooking","path":"/tag/Vegan%20Cooking/"}]}}]}}},"context":{}}