{"hash":"6d1e7dd52e8c17cf4930f349c6afc1a78b2e1c5e","data":{"records":{"id":"IT & Software","title":"IT & Software","belongsTo":{"totalCount":122,"pageInfo":{"totalPages":14,"currentPage":13},"edges":[{"node":{"__typename":"Course","id":"37720083-3ef1-11ea-9791-1b580a556b4a","title":"IP Subnetting Masterclass - Learn the Easy Way to Subnet","slug":"ip-subnetting-masterclass-learn-the-easy-way-to-subnet","headline":"Learn subnetting in 15 seconds flat with my subnetting cheat sheet in this subnetting tutorial.","created":"24th January 2020","tags":[{"title":"IT & Software","path":"/tag/IT%20%26%20Software/"},{"title":"IT Certification","path":"/tag/IT%20Certification/"},{"title":"Subnetting","path":"/tag/Subnetting/"}]}},{"node":{"__typename":"Course","id":"37716444-3ef1-11ea-9791-1b580a556b4a","title":"Learn Salesforce in easy steps and get certified!","slug":"learn-salesforce-in-easy-steps-and-get-certified","headline":"This course should prepare you for Salesforce App Developer certification.","created":"24th January 2020","tags":[{"title":"IT & Software","path":"/tag/IT%20%26%20Software/"},{"title":"IT Certification","path":"/tag/IT%20Certification/"},{"title":"Salesforce","path":"/tag/Salesforce/"}]}},{"node":{"__typename":"Course","id":"37713d3c-3ef1-11ea-9791-1b580a556b4a","title":"BGP Mastery For The CCNP ROUTE And TSHOOT Exams","slug":"bgp-mastery-for-the-ccnp-route-and-tshoot-exams","headline":"BGP is the toughest subject on the CCNP exams. Master it with Chris Bryant, CCIE #12933!","created":"24th January 2020","tags":[{"title":"IT & Software","path":"/tag/IT%20%26%20Software/"},{"title":"IT Certification","path":"/tag/IT%20Certification/"},{"title":"CCNP Routing and Switching","path":"/tag/CCNP%20Routing%20and%20Switching/"}]}},{"node":{"__typename":"Course","id":"37711621-3ef1-11ea-9791-1b580a556b4a","title":"Apple Mac OS X Lion Server Tutorial - A Definitive Guide","slug":"apple-mac-os-x-lion-server-tutorial-a-definitive-guide","headline":"Learn how to unleash the power of OS X Lion Server","created":"24th January 2020","tags":[{"title":"IT & Software","path":"/tag/IT%20%26%20Software/"},{"title":"Network & Security","path":"/tag/Network%20%26%20Security/"},{"title":"macOS","path":"/tag/macOS/"}]}},{"node":{"__typename":"Course","id":"377052d6-3ef1-11ea-9791-1b580a556b4a","title":"Eli the Computer Guy Collection","slug":"eli-the-computer-guy-collection","headline":"This is the entire collection of classes created by Eli the Computer Guy (tm).","created":"24th January 2020","tags":[{"title":"IT & Software","path":"/tag/IT%20%26%20Software/"},{"title":"Network & Security","path":"/tag/Network%20%26%20Security/"},{"title":"Computer Skills","path":"/tag/Computer%20Skills/"}]}},{"node":{"__typename":"Course","id":"376ecc34-3ef1-11ea-9791-1b580a556b4a","title":"Oracle Ebusiness Suite - Forms Navigation","slug":"oracle-ebusiness-suite-forms-navigation","headline":"Learn to use and navigate system forms in Oracle Applications.","created":"24th January 2020","tags":[{"title":"IT & Software","path":"/tag/IT%20%26%20Software/"},{"title":"Other","path":"/tag/Other/"},{"title":"Oracle E-Business Suite","path":"/tag/Oracle%20E-Business%20Suite/"}]}},{"node":{"__typename":"Course","id":"376ecc33-3ef1-11ea-9791-1b580a556b4a","title":"OpenBSD快速入门","slug":"open-bsd","headline":"关注网络安全? 开始学习OpenBSD吧！","created":"24th January 2020","tags":[{"title":"IT & Software","path":"/tag/IT%20%26%20Software/"},{"title":"Network & Security","path":"/tag/Network%20%26%20Security/"},{"title":"Configuration","path":"/tag/Configuration/"}]}},{"node":{"__typename":"Course","id":"376ea524-3ef1-11ea-9791-1b580a556b4a","title":"Free CCNA Security 210-260 Course: All About VPNs","slug":"free-ccna-security-210-260-course-all-about-vp-ns","headline":"This course is live! New videos every day until completed. Join today and be automatically notified when videos go up!","created":"24th January 2020","tags":[{"title":"IT & Software","path":"/tag/IT%20%26%20Software/"},{"title":"IT Certification","path":"/tag/IT%20Certification/"},{"title":"Cisco CCNA","path":"/tag/Cisco%20CCNA/"}]}},{"node":{"__typename":"Course","id":"376cd065-3ef1-11ea-9791-1b580a556b4a","title":"CCNA 2019 200-125 Video Boot Camp With Chris Bryant","slug":"ccna-2019-200-125-video-boot-camp-with-chris-bryant","headline":"Join The 90,000+ Students Who Are Learning Real-World Skills AND Earning Their CCNA!","created":"24th January 2020","tags":[{"title":"IT & Software","path":"/tag/IT%20%26%20Software/"},{"title":"IT Certification","path":"/tag/IT%20Certification/"},{"title":"Cisco CCNA","path":"/tag/Cisco%20CCNA/"}]}}]}}},"context":{}}