{"hash":"6d1e7dd52e8c17cf4930f349c6afc1a78b2e1c5e","data":{"records":{"id":"Marketing","title":"Marketing","belongsTo":{"totalCount":72,"pageInfo":{"totalPages":8,"currentPage":4},"edges":[{"node":{"__typename":"Course","id":"3775aa07-3ef1-11ea-9791-1b580a556b4a","title":"Build Your Email List Using Facebook Live Video!","slug":"build-your-email-list-using-facebook-live-video","headline":"A definitive guide to using Facebook Live Video and your own webpages to grow your list of email subscribers.","created":"24th January 2020","tags":[{"title":"Marketing","path":"/tag/Marketing/"},{"title":"Video & Mobile Marketing","path":"/tag/Video%20%26%20Mobile%20Marketing/"},{"title":"Facebook Marketing","path":"/tag/Facebook%20Marketing/"}]}},{"node":{"__typename":"Course","id":"377534d6-3ef1-11ea-9791-1b580a556b4a","title":"How to Master Branding, Public Relations, & Social Media","slug":"how-to-master-branding-public-relations-and-social-media","headline":"I reveal all the secrets I've used on international brands. Nearly a decade of experience in 2 hours. Enroll now.","created":"24th January 2020","tags":[{"title":"Marketing","path":"/tag/Marketing/"},{"title":"Marketing Fundamentals","path":"/tag/Marketing%20Fundamentals/"},{"title":"Business Branding","path":"/tag/Business%20Branding/"}]}},{"node":{"__typename":"Course","id":"377534d9-3ef1-11ea-9791-1b580a556b4a","title":"Essential SEO Training For Successful Web Marketing","slug":"essential-seo-training-for-successful-web-marketing","headline":"Learn the art of SEO and Web Marketing. SEO training shows you the techniques needed to boost your sales and ranking","created":"24th January 2020","tags":[{"title":"Marketing","path":"/tag/Marketing/"},{"title":"Search Engine Optimization","path":"/tag/Search%20Engine%20Optimization/"},{"title":"SEO","path":"/tag/SEO/"}]}},{"node":{"__typename":"Course","id":"37755be0-3ef1-11ea-9791-1b580a556b4a","title":"Kindle Profits With A Twist","slug":"kindle-profits-with-a-twist","headline":"The Secret for self-publishing on Kindle","created":"24th January 2020","tags":[{"title":"Marketing","path":"/tag/Marketing/"},{"title":"Content Marketing","path":"/tag/Content%20Marketing/"},{"title":"Amazon Kindle","path":"/tag/Amazon%20Kindle/"}]}},{"node":{"__typename":"Course","id":"3774e6b8-3ef1-11ea-9791-1b580a556b4a","title":"How to Develop an Effective Marketing Plan","slug":"how-to-develop-an-effective-marketing-plan","headline":"Get the answers you need to grow your business through better marketing strategies.","created":"24th January 2020","tags":[{"title":"Marketing","path":"/tag/Marketing/"},{"title":"Marketing Fundamentals","path":"/tag/Marketing%20Fundamentals/"},{"title":"Marketing Plan","path":"/tag/Marketing%20Plan/"}]}},{"node":{"__typename":"Course","id":"3774bfa7-3ef1-11ea-9791-1b580a556b4a","title":"Archetypal Branding: The Secrets of building a Premium Brand","slug":"archetypal-branding-the-secrets-of-building-a-premium-brand","headline":"How the World's Best Brands build Brand Identity that turns Consumers into Brand Lovers that are Loyal for Life","created":"24th January 2020","tags":[{"title":"Marketing","path":"/tag/Marketing/"},{"title":"Branding","path":"/tag/Branding/"},{"title":"Business Branding","path":"/tag/Business%20Branding/"}]}},{"node":{"__typename":"Course","id":"3774bfa8-3ef1-11ea-9791-1b580a556b4a","title":"Startup Attention and PR 101","slug":"startup-attention-and-pr-101","headline":"How to Launch a Product - Learn Marketing and Public Relations skills to make an awesome product launch from Ben Parr!","created":"24th January 2020","tags":[{"title":"Marketing","path":"/tag/Marketing/"},{"title":"Public Relations","path":"/tag/Public%20Relations/"},{"title":"Startup","path":"/tag/Startup/"}]}},{"node":{"__typename":"Course","id":"37747188-3ef1-11ea-9791-1b580a556b4a","title":"I Tweet, Therefore I Am","slug":"i-tweet-therefore-i-am","headline":"A step-by-step Twitter training, practical guide to using Twitter to grow your business and build customer loyalty.","created":"24th January 2020","tags":[{"title":"Marketing","path":"/tag/Marketing/"},{"title":"Social Media Marketing","path":"/tag/Social%20Media%20Marketing/"},{"title":"Twitter Marketing","path":"/tag/Twitter%20Marketing/"}]}},{"node":{"__typename":"Course","id":"3773d541-3ef1-11ea-9791-1b580a556b4a","title":"Cómo tener una Web Efectiva en tu Empresa y Posicionarla","slug":"como-tener-una-web-efectiva-en-tu-empresa-y-posicionarla","headline":"Curso de 1 hora para aprender a tener una web efectivapara tu negocio","created":"24th January 2020","tags":[{"title":"Marketing","path":"/tag/Marketing/"},{"title":"Digital Marketing","path":"/tag/Digital%20Marketing/"},{"title":"Web Design","path":"/tag/Web%20Design/"}]}}]}}},"context":{}}