{"hash":"6d1e7dd52e8c17cf4930f349c6afc1a78b2e1c5e","data":{"records":{"id":"Design","title":"Design","belongsTo":{"totalCount":115,"pageInfo":{"totalPages":13,"currentPage":1},"edges":[{"node":{"__typename":"Course","id":"377a64f2-3ef1-11ea-9791-1b580a556b4a","title":"Rhino Grasshopper Architectural Pavilion Curve Attractor","slug":"rhino-grasshopper-architectural-pavilion-curve-attractor","headline":"Parametric Pavilion with circular perforations that change due to a curve attractor","created":"24th January 2020","tags":[{"title":"Design","path":"/tag/Design/"},{"title":"Design Tools","path":"/tag/Design%20Tools/"},{"title":"Grasshopper 3d","path":"/tag/Grasshopper%203d/"}]}},{"node":{"__typename":"Course","id":"377a3de0-3ef1-11ea-9791-1b580a556b4a","title":"Rhino Grasshopper Parametric Dynamic Voronoi Pattern","slug":"rhino-grasshopper-parametric-dynamic-voronoi-pattern","headline":"Parametric voronoi pattern using curve attractor","created":"24th January 2020","tags":[{"title":"Design","path":"/tag/Design/"},{"title":"Design Tools","path":"/tag/Design%20Tools/"},{"title":"Grasshopper 3d","path":"/tag/Grasshopper%203d/"}]}},{"node":{"__typename":"Course","id":"3779c8b4-3ef1-11ea-9791-1b580a556b4a","title":"UX UI Дизайнер. Получи одну из самых прибыльных профессий.","slug":"ux-ui-dizajner-poluchi-odnu-iz-samyh-pribylnyh-professij","headline":"Данный курс позволит вам получить одну из самых прибыльных профессий UX UI дизанера и работать из любой точки планеты.","created":"24th January 2020","tags":[{"title":"Design","path":"/tag/Design/"},{"title":"Web Design","path":"/tag/Web%20Design/"},{"title":"User Experience Design","path":"/tag/User%20Experience%20Design/"}]}},{"node":{"__typename":"Course","id":"3779c8b8-3ef1-11ea-9791-1b580a556b4a","title":"Civil 3D - Curso Interactivo","slug":"civil-3-d-curso-interactivo","headline":"BASICO - Terraceria para Principiantes","created":"24th January 2020","tags":[{"title":"Design","path":"/tag/Design/"},{"title":"Design Tools","path":"/tag/Design%20Tools/"},{"title":"AutoCAD Civil 3D","path":"/tag/AutoCAD%20Civil%203D/"}]}},{"node":{"__typename":"Course","id":"3779c8bc-3ef1-11ea-9791-1b580a556b4a","title":"Kurs Autodesk Fusion 360 dla początkujących","slug":"kurs-autodesk-fusion-360-dla-poczatkujacych","headline":"Ten kurs stanowi fundament pracy z programem Fusion 360","created":"24th January 2020","tags":[{"title":"Design","path":"/tag/Design/"},{"title":"Architectural Design","path":"/tag/Architectural%20Design/"},{"title":"Fusion 360","path":"/tag/Fusion%20360/"}]}},{"node":{"__typename":"Course","id":"377a16d0-3ef1-11ea-9791-1b580a556b4a","title":"Desenho de estampas","slug":"desenho-de-estampas","headline":"Aprenda a desenhar belas estampas para camisetas e outros produtos","created":"24th January 2020","tags":[{"title":"Design","path":"/tag/Design/"},{"title":"Fashion","path":"/tag/Fashion/"},{"title":"Drawing","path":"/tag/Drawing/"}]}},{"node":{"__typename":"Course","id":"37797a97-3ef1-11ea-9791-1b580a556b4a","title":"Repair damaged and old photos in a Photoshop","slug":"repair-damaged-and-old-photos-in-a-photoshop","headline":"Learn the tools and techniques for restoring old photos that have faded over time and how to bring back original parts.","created":"24th January 2020","tags":[{"title":"Design","path":"/tag/Design/"},{"title":"Graphic Design","path":"/tag/Graphic%20Design/"},{"title":"Photoshop","path":"/tag/Photoshop/"}]}},{"node":{"__typename":"Course","id":"3779a1a6-3ef1-11ea-9791-1b580a556b4a","title":"Une première approche du Design Thinking","slug":"une-premiere-approche-du-design-thinking","headline":"A la découverte du Design Thinking","created":"24th January 2020","tags":[{"title":"Design","path":"/tag/Design/"},{"title":"User Experience","path":"/tag/User%20Experience/"},{"title":"Design Thinking","path":"/tag/Design%20Thinking/"}]}},{"node":{"__typename":"Course","id":"37797a93-3ef1-11ea-9791-1b580a556b4a","title":"Cum sa Generezi Cantități din AutoCAD","slug":"cum-sa-generezi-cantitati-din-auto-cad","headline":"Automatizează procesul de lucru in AutoCAD","created":"24th January 2020","tags":[{"title":"Design","path":"/tag/Design/"},{"title":"Architectural Design","path":"/tag/Architectural%20Design/"}]}}]}}},"context":{}}