{"hash":"6d1e7dd52e8c17cf4930f349c6afc1a78b2e1c5e","data":{"records":{"id":"Business","title":"Business","belongsTo":{"totalCount":119,"pageInfo":{"totalPages":14,"currentPage":9},"edges":[{"node":{"__typename":"Course","id":"3772c3d3-3ef1-11ea-9791-1b580a556b4a","title":"How to Write a Thesis","slug":"how-to-write-a-thesis","headline":"Need to write a thesis to graduate? Here's how!","created":"24th January 2020","tags":[{"title":"Business","path":"/tag/Business/"},{"title":"Communications","path":"/tag/Communications/"},{"title":"Academic Writing","path":"/tag/Academic%20Writing/"}]}},{"node":{"__typename":"Course","id":"377275b1-3ef1-11ea-9791-1b580a556b4a","title":"Planning Your Podcast","slug":"planning-your-podcast","headline":"Learn how to create a podcast properly. These are all the questions you need to ask before pressing record.","created":"24th January 2020","tags":[{"title":"Business","path":"/tag/Business/"},{"title":"Media","path":"/tag/Media/"},{"title":"Podcasting","path":"/tag/Podcasting/"}]}},{"node":{"__typename":"Course","id":"37722797-3ef1-11ea-9791-1b580a556b4a","title":"Winning Sales Script System for Sales and Marketing","slug":"winning-sales-script-system-for-sales-and-marketing","headline":"Learn how to build a winning sales script system to close more sales, today.","created":"24th January 2020","tags":[{"title":"Business","path":"/tag/Business/"},{"title":"Sales","path":"/tag/Sales/"},{"title":"Sales Skills","path":"/tag/Sales%20Skills/"}]}},{"node":{"__typename":"Course","id":"37722799-3ef1-11ea-9791-1b580a556b4a","title":"Working with Difficult People","slug":"working-with-difficult-people","headline":"Learn How to Work with Difficult People in a Work Environment","created":"24th January 2020","tags":[{"title":"Business","path":"/tag/Business/"},{"title":"Communications","path":"/tag/Communications/"},{"title":"Communication Skills","path":"/tag/Communication%20Skills/"}]}},{"node":{"__typename":"Course","id":"37722790-3ef1-11ea-9791-1b580a556b4a","title":"The Complete Forex Trader","slug":"the-complete-forex-trader","headline":"A practical application of the retail Forex market. A lock, stock and barrel approach to successful Forex trading","created":"24th January 2020","tags":[{"title":"Business","path":"/tag/Business/"},{"title":"Finance","path":"/tag/Finance/"},{"title":"Forex","path":"/tag/Forex/"}]}},{"node":{"__typename":"Course","id":"37720086-3ef1-11ea-9791-1b580a556b4a","title":"Customer Service Training","slug":"customer-service-training","headline":"Learn the basics of customer service its practical application by taking this customer service course.","created":"24th January 2020","tags":[{"title":"Business","path":"/tag/Business/"},{"title":"Operations","path":"/tag/Operations/"},{"title":"Customer Service","path":"/tag/Customer%20Service/"}]}},{"node":{"__typename":"Course","id":"3771d974-3ef1-11ea-9791-1b580a556b4a","title":"Film School On Demand - How to Make & Sell your First Movie","slug":"film-school-on-demand-how-to-make-and-sell-your-first-movie","headline":"If you've wondered how to make a movie and dreaming of making your own one, then this is the course for you!","created":"24th January 2020","tags":[{"title":"Business","path":"/tag/Business/"},{"title":"Media","path":"/tag/Media/"},{"title":"Filmmaking","path":"/tag/Filmmaking/"}]}},{"node":{"__typename":"Course","id":"3771b264-3ef1-11ea-9791-1b580a556b4a","title":"Start A Business You Love. Idea to Income in Thirty Days.","slug":"start-a-business-you-love-idea-to-income-in-thirty-days","headline":"Uncover what you love to do and turn it into a profitable business. Daily actions help you get clarity and stay focused.","created":"24th January 2020","tags":[{"title":"Business","path":"/tag/Business/"},{"title":"Entrepreneurship","path":"/tag/Entrepreneurship/"},{"title":"Business Idea Generation","path":"/tag/Business%20Idea%20Generation/"}]}},{"node":{"__typename":"Course","id":"3771b266-3ef1-11ea-9791-1b580a556b4a","title":"Accounting Skills for Managers","slug":"accounting-skills-for-managers","headline":"The essential accounting concepts that every business owner or manager needs to know.","created":"24th January 2020","tags":[{"title":"Business","path":"/tag/Business/"},{"title":"Finance","path":"/tag/Finance/"},{"title":"Accounting","path":"/tag/Accounting/"}]}}]}}},"context":{}}