{"hash":"6d1e7dd52e8c17cf4930f349c6afc1a78b2e1c5e","data":{"records":{"id":"Business","title":"Business","belongsTo":{"totalCount":119,"pageInfo":{"totalPages":14,"currentPage":13},"edges":[{"node":{"__typename":"Course","id":"376de1d2-3ef1-11ea-9791-1b580a556b4a","title":"Energy Economics and the Environment","slug":"energy-economics-and-the-environment","headline":"Environmental issues require trade-offs, primarily in how we use energy. A former White House economist offers answers.","created":"24th January 2020","tags":[{"title":"Business","path":"/tag/Business/"},{"title":"Industry","path":"/tag/Industry/"},{"title":"Economics","path":"/tag/Economics/"}]}},{"node":{"__typename":"Course","id":"376cf771-3ef1-11ea-9791-1b580a556b4a","title":"How to Budget and Forecast for Your Business","slug":"how-to-budget-and-forecast-for-your-business","headline":"by Tim Berry, Business Planning Expert","created":"24th January 2020","tags":[{"title":"Business","path":"/tag/Business/"},{"title":"Sales","path":"/tag/Sales/"},{"title":"Business Budgeting","path":"/tag/Business%20Budgeting/"}]}},{"node":{"__typename":"Course","id":"376cf773-3ef1-11ea-9791-1b580a556b4a","title":"Getting Investors for Your Business Startup","slug":"getting-investors-for-your-business-startup","headline":"Everything you need to know to raise funds to get your business started","created":"24th January 2020","tags":[{"title":"Business","path":"/tag/Business/"},{"title":"Entrepreneurship","path":"/tag/Entrepreneurship/"},{"title":"Business Strategy","path":"/tag/Business%20Strategy/"}]}},{"node":{"__typename":"Course","id":"376cf774-3ef1-11ea-9791-1b580a556b4a","title":"Introduction to Entrepreneurship","slug":"introduction-to-entrepreneurship","headline":"Everything you need to know to make it as a successful entrepreneur","created":"24th January 2020","tags":[{"title":"Business","path":"/tag/Business/"},{"title":"Entrepreneurship","path":"/tag/Entrepreneurship/"},{"title":"Entrepreneurship Fundamentals","path":"/tag/Entrepreneurship%20Fundamentals/"}]}},{"node":{"__typename":"Course","id":"376c5b30-3ef1-11ea-9791-1b580a556b4a","title":"Speak Up! Stand Out and be HAPPY","slug":"speak-up-stand-out-and-be-happy","headline":"Polish your communication skills by learning simple techniques + easy adjustments to your mind, voice + body.","created":"24th January 2020","tags":[{"title":"Business","path":"/tag/Business/"},{"title":"Communications","path":"/tag/Communications/"},{"title":"Public Speaking","path":"/tag/Public%20Speaking/"}]}},{"node":{"__typename":"Course","id":"376c5b34-3ef1-11ea-9791-1b580a556b4a","title":"Block Buster: Overcoming Writer's Block","slug":"block-buster-overcoming-writer-s-block","headline":"Stuck in writing? Learn the best creative writing exercises out there to help you overcome writer's block!","created":"24th January 2020","tags":[{"title":"Business","path":"/tag/Business/"},{"title":"Communications","path":"/tag/Communications/"},{"title":"Brainstorming Strategies","path":"/tag/Brainstorming%20Strategies/"}]}},{"node":{"__typename":"Course","id":"376c0d11-3ef1-11ea-9791-1b580a556b4a","title":"How to Start a Business","slug":"how-to-start-a-business","headline":"The most comprehensive online course for starting and growing your own business.","created":"24th January 2020","tags":[{"title":"Business","path":"/tag/Business/"},{"title":"Entrepreneurship","path":"/tag/Entrepreneurship/"},{"title":"Entrepreneurship Fundamentals","path":"/tag/Entrepreneurship%20Fundamentals/"}]}},{"node":{"__typename":"Course","id":"376bbef0-3ef1-11ea-9791-1b580a556b4a","title":"The Lean Startup","slug":"the-lean-startup","headline":"Learn how to apply the method that is transforming how new products are built and launched.","created":"24th January 2020","tags":[{"title":"Business","path":"/tag/Business/"},{"title":"Entrepreneurship","path":"/tag/Entrepreneurship/"},{"title":"Lean Startup","path":"/tag/Lean%20Startup/"}]}},{"node":{"__typename":"Course","id":"376a8672-3ef1-11ea-9791-1b580a556b4a","title":"Simple Strategy for Swing Trading the Stock Market","slug":"simple-strategy-for-swing-trading-the-stock-market","headline":"Use my favorite Technical Indicator and the Trading Strategy I've developed for Swing Trading Stocks","created":"24th January 2020","tags":[{"title":"Business","path":"/tag/Business/"},{"title":"Finance","path":"/tag/Finance/"},{"title":"Swing Trading","path":"/tag/Swing%20Trading/"}]}}]}}},"context":{}}