{"hash":"6d1e7dd52e8c17cf4930f349c6afc1a78b2e1c5e","data":{"records":{"id":"Design Tools","title":"Design Tools","belongsTo":{"totalCount":63,"pageInfo":{"totalPages":7,"currentPage":4},"edges":[{"node":{"__typename":"Course","id":"3773d540-3ef1-11ea-9791-1b580a556b4a","title":"Adobe InDesign CS6 Tutorial - Beginners to Advanced Training","slug":"adobe-in-design-c-s6-tutorial-beginners-to-advanced-training","headline":"Master the art of creative page layout with Adobe InDesign CS6. InDesign training Taught by a leading Certified Trainer","created":"24th January 2020","tags":[{"title":"Design","path":"/tag/Design/"},{"title":"Design Tools","path":"/tag/Design%20Tools/"},{"title":"InDesign","path":"/tag/InDesign/"}]}},{"node":{"__typename":"Course","id":"37736014-3ef1-11ea-9791-1b580a556b4a","title":"Foundations of Photoshop","slug":"foundations-of-photoshop","headline":"Build a strong foundation of basic Photoshop skills","created":"24th January 2020","tags":[{"title":"Design","path":"/tag/Design/"},{"title":"Design Tools","path":"/tag/Design%20Tools/"},{"title":"Photoshop","path":"/tag/Photoshop/"}]}},{"node":{"__typename":"Course","id":"37738720-3ef1-11ea-9791-1b580a556b4a","title":"Photoshop Secrets & Dirty Tricks - Use These Shortcuts Today","slug":"photoshop-secrets-and-dirty-tricks-use-these-shortcuts-today","headline":"It is so simple anyone can do it! You just need to know these shortcuts! No prior photoshop experience or knowhow needed","created":"24th January 2020","tags":[{"title":"Design","path":"/tag/Design/"},{"title":"Design Tools","path":"/tag/Design%20Tools/"},{"title":"Photoshop","path":"/tag/Photoshop/"}]}},{"node":{"__typename":"Course","id":"37733900-3ef1-11ea-9791-1b580a556b4a","title":"Adobe Illustrator CS6 Tutorial - Training Taught By Experts","slug":"adobe-illustrator-c-s6-tutorial-training-taught-by-experts","headline":"Learn to create stunning art work Adobe Illustrator. A practical hands-on tutorial for Illustrator users of all levels","created":"24th January 2020","tags":[{"title":"Design","path":"/tag/Design/"},{"title":"Design Tools","path":"/tag/Design%20Tools/"},{"title":"Adobe Illustrator","path":"/tag/Adobe%20Illustrator/"}]}},{"node":{"__typename":"Course","id":"377275b9-3ef1-11ea-9791-1b580a556b4a","title":"Pro Tools 10 Tutorial - Makes Learning Pro Tools Easy","slug":"pro-tools-10-tutorial-makes-learning-pro-tools-easy","headline":"Master Avid Pro Tools 10. Learn the Audio Production Secrets used by the Pros. An easy to follow Pro Tools tutorial.","created":"24th January 2020","tags":[{"title":"Design","path":"/tag/Design/"},{"title":"Design Tools","path":"/tag/Design%20Tools/"},{"title":"Pro Tools","path":"/tag/Pro%20Tools/"}]}},{"node":{"__typename":"Course","id":"37729cc1-3ef1-11ea-9791-1b580a556b4a","title":"Photoshop Explained: The Pen Tool","slug":"photoshop-explained-the-pen-tool","headline":"Learn to use the pen tool and its related tools!","created":"24th January 2020","tags":[{"title":"Design","path":"/tag/Design/"},{"title":"Design Tools","path":"/tag/Design%20Tools/"},{"title":"Photoshop","path":"/tag/Photoshop/"}]}},{"node":{"__typename":"Course","id":"37729cc2-3ef1-11ea-9791-1b580a556b4a","title":"Digital Photoshop Compositing For Advertising Campaigns","slug":"digital-photoshop-compositing-for-advertising-campaigns","headline":"This Adobe Photoshop Compositing Course will teach a Beginner Photoshop user to Master Digital Photoshop Compositing.","created":"24th January 2020","tags":[{"title":"Design","path":"/tag/Design/"},{"title":"Design Tools","path":"/tag/Design%20Tools/"},{"title":"Photoshop Retouching","path":"/tag/Photoshop%20Retouching/"}]}},{"node":{"__typename":"Course","id":"377275b0-3ef1-11ea-9791-1b580a556b4a","title":"Master Photoshop Elements 10 the Easy Way - 12 Hours","slug":"master-photoshop-elements-10-the-easy-way-12-hours","headline":"Learn Photoshop Elements 10 - 12 hours of training tutorials. Make your photos lookmagnificent!","created":"24th January 2020","tags":[{"title":"Design","path":"/tag/Design/"},{"title":"Design Tools","path":"/tag/Design%20Tools/"},{"title":"Photoshop","path":"/tag/Photoshop/"}]}},{"node":{"__typename":"Course","id":"37724ea8-3ef1-11ea-9791-1b580a556b4a","title":"Adobe Photoshop Lightroom 4 Tutorial","slug":"adobe-photoshop-lightroom-4-tutorial","headline":"Take your Digital Photography to the next level with these Adobe Lightroom 4 tutorial videos. An easy to follow course.","created":"24th January 2020","tags":[{"title":"Design","path":"/tag/Design/"},{"title":"Design Tools","path":"/tag/Design%20Tools/"},{"title":"Adobe Lightroom","path":"/tag/Adobe%20Lightroom/"}]}}]}}},"context":{}}