{"hash":"6d1e7dd52e8c17cf4930f349c6afc1a78b2e1c5e","data":{"records":{"id":"Programming Languages","title":"Programming Languages","belongsTo":{"totalCount":32,"pageInfo":{"totalPages":4,"currentPage":3},"edges":[{"node":{"__typename":"Course","id":"37713d39-3ef1-11ea-9791-1b580a556b4a","title":"Java Programming using Eclipse: An Introduction","slug":"java-programming-using-eclipse-an-introduction","headline":"Learn to Write Java Code using the free Eclipse IDE with this Java Online training course for beginners.","created":"24th January 2020","tags":[{"title":"Development","path":"/tag/Development/"},{"title":"Programming Languages","path":"/tag/Programming%20Languages/"},{"title":"Eclipse IDE","path":"/tag/Eclipse%20IDE/"}]}},{"node":{"__typename":"Course","id":"37713d35-3ef1-11ea-9791-1b580a556b4a","title":"Java Swing (GUI) Programming: From Beginner to Expert","slug":"java-swing-gui-programming-from-beginner-to-expert","headline":"Learn how to create desktop and Internet GUI Java programs and take your Java programming to the next level.","created":"24th January 2020","tags":[{"title":"Development","path":"/tag/Development/"},{"title":"Programming Languages","path":"/tag/Programming%20Languages/"},{"title":"Java Swing","path":"/tag/Java%20Swing/"}]}},{"node":{"__typename":"Course","id":"3770ef13-3ef1-11ea-9791-1b580a556b4a","title":"C++, Short and Sweet, Part 1","slug":"c-short-and-sweet-part-1","headline":"A first course on C++ based on the book Accelerated C++.","created":"24th January 2020","tags":[{"title":"Development","path":"/tag/Development/"},{"title":"Programming Languages","path":"/tag/Programming%20Languages/"},{"title":"C++","path":"/tag/C%2B%2B/"}]}},{"node":{"__typename":"Course","id":"377052d7-3ef1-11ea-9791-1b580a556b4a","title":"PHP & MySQL For Beginners","slug":"php-and-my-sql-for-beginners","headline":"This course contains all of topics about PHP and MYSQL. Let's start and code web sites","created":"24th January 2020","tags":[{"title":"Development","path":"/tag/Development/"},{"title":"Programming Languages","path":"/tag/Programming%20Languages/"},{"title":"PHP","path":"/tag/PHP/"}]}},{"node":{"__typename":"Course","id":"376e7e11-3ef1-11ea-9791-1b580a556b4a","title":"Learn C# Programming (In Ten Easy Steps)","slug":"learn-c-programming-in-ten-easy-steps","headline":"The simplest way to learn C# programming.","created":"24th January 2020","tags":[{"title":"Development","path":"/tag/Development/"},{"title":"Programming Languages","path":"/tag/Programming%20Languages/"},{"title":"C#","path":"/tag/C%23/"}]}},{"node":{"__typename":"Course","id":"376e08e0-3ef1-11ea-9791-1b580a556b4a","title":"Learn Python, it's CAKE (Beginners)","slug":"learn-python-it-s-cake-beginners","headline":"Python training for beginners who would like to write programs but don't have a clue how to write python code.","created":"24th January 2020","tags":[{"title":"Development","path":"/tag/Development/"},{"title":"Programming Languages","path":"/tag/Programming%20Languages/"},{"title":"Python","path":"/tag/Python/"}]}},{"node":{"__typename":"Course","id":"376dbac4-3ef1-11ea-9791-1b580a556b4a","title":"PHP Tutorial: PHP/MySQL for Beginners","slug":"php-tutorial-php-my-sql-for-beginners","headline":"Learn PHP online with MySQL and Start Developing Web Apps like a Pro!","created":"24th January 2020","tags":[{"title":"Development","path":"/tag/Development/"},{"title":"Programming Languages","path":"/tag/Programming%20Languages/"},{"title":"MySQL","path":"/tag/MySQL/"}]}},{"node":{"__typename":"Course","id":"376cd064-3ef1-11ea-9791-1b580a556b4a","title":"Learning C# .NET - Programming for Beginners.","slug":"learning-c-net-programming-for-beginners","headline":"Learn to Program in C# .NET from an Expert. Over 100 Lessons that allow you to learn C# Programming at your own pace.","created":"24th January 2020","tags":[{"title":"Development","path":"/tag/Development/"},{"title":"Programming Languages","path":"/tag/Programming%20Languages/"},{"title":"C#","path":"/tag/C%23/"}]}},{"node":{"__typename":"Course","id":"376cd066-3ef1-11ea-9791-1b580a556b4a","title":"Getting Started with Ruby on Rails","slug":"getting-started-with-ruby-on-rails","headline":"Foundations for Building Web Apps with Ruby on Rails","created":"24th January 2020","tags":[{"title":"Development","path":"/tag/Development/"},{"title":"Programming Languages","path":"/tag/Programming%20Languages/"},{"title":"Ruby on Rails","path":"/tag/Ruby%20on%20Rails/"}]}}]}}},"context":{}}