{"hash":"6d1e7dd52e8c17cf4930f349c6afc1a78b2e1c5e","data":{"records":{"id":"Teaching & Academics","title":"Teaching & Academics","belongsTo":{"totalCount":57,"pageInfo":{"totalPages":7,"currentPage":2},"edges":[{"node":{"__typename":"Course","id":"3778de50-3ef1-11ea-9791-1b580a556b4a","title":"Watercolour Bird Painting Lesson, Paint a Realistic Kestrel!","slug":"watercolour-bird-painting-lesson-paint-a-realistic-kestrel","headline":"Learn to paint this Kestrel bird of prey in watercolour by adding detail to give a feeling of realism to a painting","created":"24th January 2020","tags":[{"title":"Teaching & Academics","path":"/tag/Teaching%20%26%20Academics/"},{"title":"Online Education","path":"/tag/Online%20Education/"},{"title":"Watercolor Painting","path":"/tag/Watercolor%20Painting/"}]}},{"node":{"__typename":"Course","id":"37784215-3ef1-11ea-9791-1b580a556b4a","title":"Banho de Gel","slug":"banho-de-gel","headline":"Proteção compacta antiquebra para unha natural","created":"24th January 2020","tags":[{"title":"Teaching & Academics","path":"/tag/Teaching%20%26%20Academics/"},{"title":"Online Education","path":"/tag/Online%20Education/"},{"title":"Nail Art","path":"/tag/Nail%20Art/"}]}},{"node":{"__typename":"Course","id":"37784216-3ef1-11ea-9791-1b580a556b4a","title":"Blindagem de Diamante","slug":"blindagem-de-diamante","headline":"Banho de Verniz","created":"24th January 2020","tags":[{"title":"Teaching & Academics","path":"/tag/Teaching%20%26%20Academics/"},{"title":"Online Education","path":"/tag/Online%20Education/"},{"title":"Nail Art","path":"/tag/Nail%20Art/"}]}},{"node":{"__typename":"Course","id":"37784217-3ef1-11ea-9791-1b580a556b4a","title":"Blindagem de Diamante e Banho de Gel","slug":"blindagem-de-diamante-e-banho-de-gel","headline":"Películas Cristalizadas perfeitas","created":"24th January 2020","tags":[{"title":"Teaching & Academics","path":"/tag/Teaching%20%26%20Academics/"},{"title":"Online Education","path":"/tag/Online%20Education/"},{"title":"Nail Art","path":"/tag/Nail%20Art/"}]}},{"node":{"__typename":"Course","id":"3777cce6-3ef1-11ea-9791-1b580a556b4a","title":"How To Paint a Dog in Watercolour - Painting Fur in Detail!","slug":"how-to-paint-a-dog-in-watercolour-painting-fur-in-detail","headline":"Learn how to paint a dog following my step by step video, painting a background, the dog and of course lot's of fur!","created":"24th January 2020","tags":[{"title":"Teaching & Academics","path":"/tag/Teaching%20%26%20Academics/"},{"title":"Online Education","path":"/tag/Online%20Education/"},{"title":"Watercolor Painting","path":"/tag/Watercolor%20Painting/"}]}},{"node":{"__typename":"Course","id":"3777cce5-3ef1-11ea-9791-1b580a556b4a","title":"Google Professional Cloud Architect Real Exam Preparation","slug":"google-professional-cloud-architect-real-exam-preparation","headline":"Google Cloud Platform Professional Architect certification. This will help assess how ready you are to pass the exam.","created":"24th January 2020","tags":[{"title":"Teaching & Academics","path":"/tag/Teaching%20%26%20Academics/"},{"title":"Test Prep","path":"/tag/Test%20Prep/"}]}},{"node":{"__typename":"Course","id":"37777ec4-3ef1-11ea-9791-1b580a556b4a","title":"English| Intermediate-Advanced intensive spoken course","slug":"english-intermediate-advanced-intensive-spoken-course","headline":"Complete spoken English course. Learn to speak English from intermediate to advanced. Over 50 hours of English speaking","created":"24th January 2020","tags":[{"title":"Teaching & Academics","path":"/tag/Teaching%20%26%20Academics/"},{"title":"Language","path":"/tag/Language/"},{"title":"English Conversation","path":"/tag/English%20Conversation/"}]}},{"node":{"__typename":"Course","id":"3777a5d7-3ef1-11ea-9791-1b580a556b4a","title":"Advance Maths SSC,PSC,Railway,Vyapam & all competitive Exam.","slug":"advance-maths-ssc-psc-railway-vyapam-and-all-competitive-exam","headline":"Learn Advance Maths For competitive exam","created":"24th January 2020","tags":[{"title":"Teaching & Academics","path":"/tag/Teaching%20%26%20Academics/"},{"title":"Math","path":"/tag/Math/"}]}},{"node":{"__typename":"Course","id":"37777ec1-3ef1-11ea-9791-1b580a556b4a","title":"Use Video and Google Apps in your Classroom like a Pro!","slug":"use-video-and-google-apps-in-your-classroom-like-a-pro","headline":"The Screencastify Genius! course","created":"24th January 2020","tags":[{"title":"Teaching & Academics","path":"/tag/Teaching%20%26%20Academics/"},{"title":"Teacher Training","path":"/tag/Teacher%20Training/"},{"title":"Video Creation","path":"/tag/Video%20Creation/"}]}}]}}},"context":{}}