{"hash":"6d1e7dd52e8c17cf4930f349c6afc1a78b2e1c5e","data":{"records":{"id":"Development","title":"Development","belongsTo":{"totalCount":129,"pageInfo":{"totalPages":15,"currentPage":7},"edges":[{"node":{"__typename":"Course","id":"3773ae31-3ef1-11ea-9791-1b580a556b4a","title":"Beginner Mobile App Development with Appcelerator Titanium","slug":"beginner-mobile-app-development-with-appcelerator-titanium","headline":"Learn to develop native iPhone, Android, Blackberry, and Mobile Web apps with Open Source tools.","created":"24th January 2020","tags":[{"title":"Development","path":"/tag/Development/"},{"title":"Mobile Apps","path":"/tag/Mobile%20Apps/"},{"title":"Appcelerator Titanium","path":"/tag/Appcelerator%20Titanium/"}]}},{"node":{"__typename":"Course","id":"3773ae33-3ef1-11ea-9791-1b580a556b4a","title":"「世界で7万人が受講！未経験からWebプログラマーになるための全て」2018年最新版","slug":"7-web-2018","headline":"Masaaki Hatano 監修、2018年の最新版へupdate済み（初心者向け・日本語吹き替え版）","created":"24th January 2020","tags":[{"title":"Development","path":"/tag/Development/"},{"title":"Web Development","path":"/tag/Web%20Development/"}]}},{"node":{"__typename":"Course","id":"3773d545-3ef1-11ea-9791-1b580a556b4a","title":"Todo jQuery... de novato a experto","slug":"todo-j-query-de-novato-a-experto","headline":"Aprende desde lo básico de jQuery hasta hacer aplicaciones con esta sorprendente librería","created":"24th January 2020","tags":[{"title":"Development","path":"/tag/Development/"},{"title":"Web Development","path":"/tag/Web%20Development/"},{"title":"JavaScript","path":"/tag/JavaScript/"}]}},{"node":{"__typename":"Course","id":"37736016-3ef1-11ea-9791-1b580a556b4a","title":"Java Multithreading","slug":"java-multithreading","headline":"Unveiling the mysteries of multithreading in Java. The ultimate Java multithreading course","created":"24th January 2020","tags":[{"title":"Development","path":"/tag/Development/"},{"title":"Programming Languages","path":"/tag/Programming%20Languages/"},{"title":"Java","path":"/tag/Java/"}]}},{"node":{"__typename":"Course","id":"37738721-3ef1-11ea-9791-1b580a556b4a","title":"Easy PHPeasy - PHP & MySQL for code-phobes!","slug":"easy-ph-peasy-php-and-my-sql-for-code-phobes","headline":"An introduction to the programming world through PHP for complete newbies. Learn the foundation & build your own Blog!","created":"24th January 2020","tags":[{"title":"Development","path":"/tag/Development/"},{"title":"Programming Languages","path":"/tag/Programming%20Languages/"},{"title":"MySQL","path":"/tag/MySQL/"}]}},{"node":{"__typename":"Course","id":"37738723-3ef1-11ea-9791-1b580a556b4a","title":"Advanced C++ Programming Training Course","slug":"advanced-c-programming-training-course","headline":"Take your C++ Programming Training Course Will Take Your Skills To The Next Level.","created":"24th January 2020","tags":[{"title":"Development","path":"/tag/Development/"},{"title":"Programming Languages","path":"/tag/Programming%20Languages/"},{"title":"C","path":"/tag/C/"}]}},{"node":{"__typename":"Course","id":"37738727-3ef1-11ea-9791-1b580a556b4a","title":"Improv your Agile or Scrum Stand-up","slug":"improv-your-agile-or-scrum-stand-up","headline":"Get the most out of your daily stand-up meeting. Get rid of bad habits and bring life to your team with improv!","created":"24th January 2020","tags":[{"title":"Development","path":"/tag/Development/"},{"title":"Software Engineering","path":"/tag/Software%20Engineering/"},{"title":"Scrum","path":"/tag/Scrum/"}]}},{"node":{"__typename":"Course","id":"377311f4-3ef1-11ea-9791-1b580a556b4a","title":"JQuery For Mobile Tutorial - Learning Made Easy","slug":"j-query-for-mobile-tutorial-learning-made-easy","headline":"Learn how to use JQuery effectively on Mobile Devices. Everything you need to know in one course.","created":"24th January 2020","tags":[{"title":"Development","path":"/tag/Development/"},{"title":"Web Development","path":"/tag/Web%20Development/"},{"title":"jQuery","path":"/tag/jQuery/"}]}},{"node":{"__typename":"Course","id":"37733906-3ef1-11ea-9791-1b580a556b4a","title":"Beginner Photoshop to HTML5 and CSS3","slug":"beginner-photoshop-to-htm-l5-and-cs-s3","headline":"Learn how to convert a Photoshop design into HTML5/CSS3 using Dreamweaver.","created":"24th January 2020","tags":[{"title":"Development","path":"/tag/Development/"},{"title":"Web Development","path":"/tag/Web%20Development/"},{"title":"Dreamweaver","path":"/tag/Dreamweaver/"}]}}]}}},"context":{}}