{"hash":"6d1e7dd52e8c17cf4930f349c6afc1a78b2e1c5e","data":{"records":{"id":"Development","title":"Development","belongsTo":{"totalCount":129,"pageInfo":{"totalPages":15,"currentPage":14},"edges":[{"node":{"__typename":"Course","id":"376ca950-3ef1-11ea-9791-1b580a556b4a","title":"Introduction to Microsoft SQL Server Databases","slug":"introduction-to-microsoft-sql-server-databases","headline":"Learn how to build a simple SQL Server database to collect and analyze your data in this Microsoft SQL server training","created":"24th January 2020","tags":[{"title":"Development","path":"/tag/Development/"},{"title":"Databases","path":"/tag/Databases/"},{"title":"Microsoft SQL","path":"/tag/Microsoft%20SQL/"}]}},{"node":{"__typename":"Course","id":"376ca951-3ef1-11ea-9791-1b580a556b4a","title":"Learn to Program with C++","slug":"learn-to-program-with-c","headline":"Take your C++ Programming to the next level. Course Duration: 6.5 Hours - 80 Lessons","created":"24th January 2020","tags":[{"title":"Development","path":"/tag/Development/"},{"title":"Programming Languages","path":"/tag/Programming%20Languages/"},{"title":"C","path":"/tag/C/"}]}},{"node":{"__typename":"Course","id":"376ca954-3ef1-11ea-9791-1b580a556b4a","title":"Beginner PHP and MySQL Tutorial","slug":"beginner-php-and-my-sql-tutorial","headline":"Learn PHP and MySQL and start developing web apps like a pro! This course also comes with a Certificate of Completion.","created":"24th January 2020","tags":[{"title":"Development","path":"/tag/Development/"},{"title":"Programming Languages","path":"/tag/Programming%20Languages/"},{"title":"MySQL","path":"/tag/MySQL/"}]}},{"node":{"__typename":"Course","id":"376cd060-3ef1-11ea-9791-1b580a556b4a","title":"Practical Transformation Using XSLT and XPath (5-hour free preview; 24 hours total)","slug":"practical-transformation-using-xslt-and-x-path-5-hour-free-preview-24-hours-total","headline":"5-day class for transforming XML covers every element, every attribute and every function of W3C XSLT/XPath 1.0 and 2.0.","created":"24th January 2020","tags":[{"title":"Development","path":"/tag/Development/"},{"title":"Web Development","path":"/tag/Web%20Development/"},{"title":"XSLT","path":"/tag/XSLT/"}]}},{"node":{"__typename":"Course","id":"376c3421-3ef1-11ea-9791-1b580a556b4a","title":"Programming Java for Beginners - The Ultimate Java Tutorial","slug":"programming-java-for-beginners-the-ultimate-java-tutorial","headline":"Learn Java Programming at your own Pace. Comes Complete with Working Files and a Verifiable Certificate of Completion.","created":"24th January 2020","tags":[{"title":"Development","path":"/tag/Development/"},{"title":"Programming Languages","path":"/tag/Programming%20Languages/"},{"title":"Java","path":"/tag/Java/"}]}},{"node":{"__typename":"Course","id":"376c5b35-3ef1-11ea-9791-1b580a556b4a","title":"Advanced Ruby Programming: 10 Steps to Mastery","slug":"advanced-ruby-programming-10-steps-to-mastery","headline":"Take your Ruby programming to the next level with Huw Collingbourne's simple guide to advanced Ruby coding.","created":"24th January 2020","tags":[{"title":"Development","path":"/tag/Development/"},{"title":"Programming Languages","path":"/tag/Programming%20Languages/"},{"title":"Ruby","path":"/tag/Ruby/"}]}},{"node":{"__typename":"Course","id":"376b70d0-3ef1-11ea-9791-1b580a556b4a","title":"Git Basics: In Theory and Practice","slug":"git-basics-in-theory-and-practice","headline":"Learn Effective Source Control Management with Git. Taught by Tony Hillerson. Learn how to use Git practically.","created":"24th January 2020","tags":[{"title":"Development","path":"/tag/Development/"},{"title":"Development Tools","path":"/tag/Development%20Tools/"},{"title":"Git","path":"/tag/Git/"}]}},{"node":{"__typename":"Course","id":"376b97e0-3ef1-11ea-9791-1b580a556b4a","title":"Basic and Advanced HTML Lessons","slug":"basic-and-advanced-html-lessons","headline":"This is an accelerated course for anyone interested in learning basic techniques for creating professional web sites.","created":"24th January 2020","tags":[{"title":"Development","path":"/tag/Development/"},{"title":"Web Development","path":"/tag/Web%20Development/"},{"title":"HTML","path":"/tag/HTML/"}]}},{"node":{"__typename":"Course","id":"376b97e1-3ef1-11ea-9791-1b580a556b4a","title":"HTML5 Specialist: Comprehensive HTML5 Training","slug":"htm-l5-specialist-comprehensive-htm-l5-training","headline":"Earn a professional credential while learning HTML5.","created":"24th January 2020","tags":[{"title":"Development","path":"/tag/Development/"},{"title":"Web Development","path":"/tag/Web%20Development/"},{"title":"HTML5","path":"/tag/HTML5/"}]}}]}}},"context":{}}