{"hash":"6d1e7dd52e8c17cf4930f349c6afc1a78b2e1c5e","data":{"records":{"id":"Lifestyle","title":"Lifestyle","belongsTo":{"totalCount":28,"pageInfo":{"totalPages":4,"currentPage":2},"edges":[{"node":{"__typename":"Course","id":"37749897-3ef1-11ea-9791-1b580a556b4a","title":"Mold / Mould: How to Improve Indoor Air Quality ?","slug":"mold-mould-how-to-improve-indoor-air-quality","headline":"Learn how to improve indoor air quality in your home or office according to Health Canada Guidelines and Regulations.","created":"24th January 2020","tags":[{"title":"Lifestyle","path":"/tag/Lifestyle/"},{"title":"Home Improvement","path":"/tag/Home%20Improvement/"}]}},{"node":{"__typename":"Course","id":"37742367-3ef1-11ea-9791-1b580a556b4a","title":"Fundamental Beauty & Contouring Technique","slug":"fundamental-beauty-and-contouring-technique","headline":"Danessa Myricks teaches the art of Face Contouring, using the 4 Core Concepts and extensive step-by-step demonstration.","created":"24th January 2020","tags":[{"title":"Lifestyle","path":"/tag/Lifestyle/"},{"title":"Beauty & Makeup","path":"/tag/Beauty%20%26%20Makeup/"},{"title":"Beauty","path":"/tag/Beauty/"}]}},{"node":{"__typename":"Course","id":"377311f3-3ef1-11ea-9791-1b580a556b4a","title":"How to Make Up a 3 Phase Panel","slug":"how-to-make-up-a-3-phase-panel","headline":"A Course from Electrician Basics","created":"24th January 2020","tags":[{"title":"Lifestyle","path":"/tag/Lifestyle/"},{"title":"Home Improvement","path":"/tag/Home%20Improvement/"},{"title":"Electrical Engineering","path":"/tag/Electrical%20Engineering/"}]}},{"node":{"__typename":"Course","id":"3772eae0-3ef1-11ea-9791-1b580a556b4a","title":"Beginners Guide to Studio Portrait Photography","slug":"beginners-guide-to-studio-portrait-photography","headline":"Start your own studio portrait business and learn learn how to light people in a complimentary way.","created":"24th January 2020","tags":[{"title":"Lifestyle","path":"/tag/Lifestyle/"},{"title":"Arts & Crafts","path":"/tag/Arts%20%26%20Crafts/"},{"title":"Portraiture","path":"/tag/Portraiture/"}]}},{"node":{"__typename":"Course","id":"37724ea7-3ef1-11ea-9791-1b580a556b4a","title":"Learn to juggle rhythms with Chuka Chuks","slug":"learn-to-juggle-rhythms-with-chuka-chuks","headline":"There are hundreds of rhythms and grooves just waiting to be discovered, enjoy learning to catch the rhythms!","created":"24th January 2020","tags":[{"title":"Lifestyle","path":"/tag/Lifestyle/"},{"title":"Arts & Crafts","path":"/tag/Arts%20%26%20Crafts/"},{"title":"Juggling","path":"/tag/Juggling/"}]}},{"node":{"__typename":"Course","id":"37718b58-3ef1-11ea-9791-1b580a556b4a","title":"Curso Hipoterapia y Rehabilitacion Ecuestre Online","slug":"curso-hipoterapia-y-rehabilitacion-ecuestre-online","headline":"Terapias asistidas por Caballos (Hipoterapia, Monta Terapéutica y Equitación Terapéutica)Curso Teórico 20 horas","created":"24th January 2020","tags":[{"title":"Lifestyle","path":"/tag/Lifestyle/"},{"title":"Pet Care & Training","path":"/tag/Pet%20Care%20%26%20Training/"},{"title":"Pet Training","path":"/tag/Pet%20Training/"}]}},{"node":{"__typename":"Course","id":"37716448-3ef1-11ea-9791-1b580a556b4a","title":"Polite Puppy Dog Training Class","slug":"polite-puppy-dog-training-class","headline":"Training your puppy for home is not hard once you know how. This dog training course will make your puppy a housemate.","created":"24th January 2020","tags":[{"title":"Lifestyle","path":"/tag/Lifestyle/"},{"title":"Pet Care & Training","path":"/tag/Pet%20Care%20%26%20Training/"},{"title":"Dog Training","path":"/tag/Dog%20Training/"}]}},{"node":{"__typename":"Course","id":"37711623-3ef1-11ea-9791-1b580a556b4a","title":"Oil/Acrylic Painting Techniques and Color Theory","slug":"oil-acrylic-painting-techniques-and-color-theory","headline":"These oil and acrylic painting lessons follow step by step procedures for painting techniques and color theory","created":"24th January 2020","tags":[{"title":"Lifestyle","path":"/tag/Lifestyle/"},{"title":"Arts & Crafts","path":"/tag/Arts%20%26%20Crafts/"},{"title":"Painting","path":"/tag/Painting/"}]}},{"node":{"__typename":"Course","id":"377004b1-3ef1-11ea-9791-1b580a556b4a","title":"Plein Air Essentials - Oil Supplement","slug":"plein-air-essentials-oil-supplement","headline":"If you've taken the basic Plein Air Essentials course and are an oil painter, then this is the course for you!","created":"24th January 2020","tags":[{"title":"Lifestyle","path":"/tag/Lifestyle/"},{"title":"Arts & Crafts","path":"/tag/Arts%20%26%20Crafts/"},{"title":"Plein Air Painting","path":"/tag/Plein%20Air%20Painting/"}]}}]}}},"context":{}}