{"hash":"6d1e7dd52e8c17cf4930f349c6afc1a78b2e1c5e","data":{"records":{"id":"IT & Software","title":"IT & Software","belongsTo":{"totalCount":122,"pageInfo":{"totalPages":14,"currentPage":1},"edges":[{"node":{"__typename":"Course","id":"377a8c01-3ef1-11ea-9791-1b580a556b4a","title":"Hands-On IP Subnetting","slug":"hands-on-ip-subnetting","headline":"Improve network performance and speed with the power of subnetting","created":"24th January 2020","tags":[{"title":"IT & Software","path":"/tag/IT%20%26%20Software/"},{"title":"Network & Security","path":"/tag/Network%20%26%20Security/"},{"title":"Subnetting","path":"/tag/Subnetting/"}]}},{"node":{"__typename":"Course","id":"377a8c02-3ef1-11ea-9791-1b580a556b4a","title":"ST0-10X Veritas Storage Foundation 5 for Unix Practice Exam","slug":"s-t0-10-x-veritas-storage-foundation-5-for-unix-practice-exam","headline":"Attend this ST0-10X Veritas Storage Foundation 5 for Unix Practice Exam will get a Good Score 80% on Main Exam","created":"24th January 2020","tags":[{"title":"IT & Software","path":"/tag/IT%20%26%20Software/"},{"title":"IT Certification","path":"/tag/IT%20Certification/"},{"title":"Data Storage","path":"/tag/Data%20Storage/"}]}},{"node":{"__typename":"Course","id":"377a8c04-3ef1-11ea-9791-1b580a556b4a","title":"AWS Certified SysOps Administrator Associate 2020 Edition","slug":"aws-certified-sys-ops-administrator-associate-2020-edition","headline":"AWS Certified SysOps Administrator Associate Practice Questions to Help You Prepare For the AWS Certified SysOps Exam","created":"24th January 2020","tags":[{"title":"IT & Software","path":"/tag/IT%20%26%20Software/"},{"title":"IT Certification","path":"/tag/IT%20Certification/"}]}},{"node":{"__typename":"Course","id":"377a8c06-3ef1-11ea-9791-1b580a556b4a","title":"MS-600 Microsoft 365 Certified Developer Associate Exam","slug":"ms-600-microsoft-365-certified-developer-associate-exam","headline":"Tests Help you to Achieve your Goals and pretest your Knowing about Microsoft managing MS-600 and Idea about Real Exam","created":"24th January 2020","tags":[{"title":"IT & Software","path":"/tag/IT%20%26%20Software/"},{"title":"IT Certification","path":"/tag/IT%20Certification/"}]}},{"node":{"__typename":"Course","id":"377a8c07-3ef1-11ea-9791-1b580a556b4a","title":"Oracle 1Z0-330 Integration Salaries Services Practice Exam","slug":"oracle-1-z0-330-integration-salaries-services-practice-exam","headline":"Attend this Oracle 1Z0-330 Integration Salaries Services Practice Exam will get a Good Score 80% on Main Exam","created":"24th January 2020","tags":[{"title":"IT & Software","path":"/tag/IT%20%26%20Software/"},{"title":"IT Certification","path":"/tag/IT%20Certification/"},{"title":"Oracle Certification","path":"/tag/Oracle%20Certification/"}]}},{"node":{"__typename":"Course","id":"377a8c08-3ef1-11ea-9791-1b580a556b4a","title":"PMI Risk Management Professional Certified Practice Exam","slug":"pmi-risk-management-professional-certified-practice-exam","headline":"Attend this PMI Risk Management Professional Certified Practice Exam will get a Good Score 80% on Main Exam","created":"24th January 2020","tags":[{"title":"IT & Software","path":"/tag/IT%20%26%20Software/"},{"title":"IT Certification","path":"/tag/IT%20Certification/"},{"title":"PMI-RMP","path":"/tag/PMI-RMP/"}]}},{"node":{"__typename":"Course","id":"377a8c0b-3ef1-11ea-9791-1b580a556b4a","title":"CISSP - Certified Information Systems Security Professional","slug":"cissp-certified-information-systems-security-professional","headline":"CISSP - Certified Information Systems Security Practice Questions to Help You Prepare For the CISSP 2020 Exam","created":"24th January 2020","tags":[{"title":"IT & Software","path":"/tag/IT%20%26%20Software/"},{"title":"Network & Security","path":"/tag/Network%20%26%20Security/"}]}},{"node":{"__typename":"Course","id":"377ab311-3ef1-11ea-9791-1b580a556b4a","title":"OFFICIAL AWS Solutions Architect Professional (SOP-C01)","slug":"official-aws-solutions-architect-professional-sop-c01","headline":"The most complete AWS Certified Solutions Architect - Professional certification preparation you've ever seen!","created":"24th January 2020","tags":[{"title":"IT & Software","path":"/tag/IT%20%26%20Software/"},{"title":"IT Certification","path":"/tag/IT%20Certification/"},{"title":"AWS Certified Solutions Architect - Professional","path":"/tag/AWS%20Certified%20Solutions%20Architect%20-%20Professional/"}]}},{"node":{"__typename":"Course","id":"377ab312-3ef1-11ea-9791-1b580a556b4a","title":"ST0-247 Symantec Cluster Server 6.1 UNIX Technical Exam","slug":"s-t0-247-symantec-cluster-server-6-1-unix-technical-exam","headline":"ST0-247 Symantec Cluster Server 6.1 UNIX Technical Practice Exam || Get Certification","created":"24th January 2020","tags":[{"title":"IT & Software","path":"/tag/IT%20%26%20Software/"},{"title":"IT Certification","path":"/tag/IT%20Certification/"},{"title":"Server Administration","path":"/tag/Server%20Administration/"}]}}]}}},"context":{}}