{"hash":"6d1e7dd52e8c17cf4930f349c6afc1a78b2e1c5e","data":{"records":{"id":"Marketing","title":"Marketing","belongsTo":{"totalCount":72,"pageInfo":{"totalPages":8,"currentPage":3},"edges":[{"node":{"__typename":"Course","id":"3776bb70-3ef1-11ea-9791-1b580a556b4a","title":"Social Media Success for Photographers","slug":"social-media-success-for-photographers","headline":"Learn how to grow your Photography Business with these creative social media marketing ideas and strategies","created":"24th January 2020","tags":[{"title":"Marketing","path":"/tag/Marketing/"},{"title":"Social Media Marketing","path":"/tag/Social%20Media%20Marketing/"}]}},{"node":{"__typename":"Course","id":"37769460-3ef1-11ea-9791-1b580a556b4a","title":"Digital Marketing: The Ultimate Guide to Strategic Marketing","slug":"digital-marketing-the-ultimate-guide-to-strategic-marketing","headline":"Master Digital Marketing: Instagram, Optimization, Social Media, Analytics, SEO, PPC, Email, WebCopy, UX, Content Mkt","created":"24th January 2020","tags":[{"title":"Marketing","path":"/tag/Marketing/"},{"title":"Digital Marketing","path":"/tag/Digital%20Marketing/"}]}},{"node":{"__typename":"Course","id":"37769461-3ef1-11ea-9791-1b580a556b4a","title":"Email Marketing: Become a Lead & Sales Machine","slug":"email-marketing-become-a-lead-and-sales-machine","headline":"Learn how to use one of the most powerful direct marketing method to generate consistent business results.","created":"24th January 2020","tags":[{"title":"Marketing","path":"/tag/Marketing/"},{"title":"Digital Marketing","path":"/tag/Digital%20Marketing/"},{"title":"Email Marketing","path":"/tag/Email%20Marketing/"}]}},{"node":{"__typename":"Course","id":"3775f824-3ef1-11ea-9791-1b580a556b4a","title":"Social Media Profits - With A Twist","slug":"social-media-profits-with-a-twist","headline":"Get up to speed on how you and your business can harness the incredible power of social media.","created":"24th January 2020","tags":[{"title":"Marketing","path":"/tag/Marketing/"},{"title":"Social Media Marketing","path":"/tag/Social%20Media%20Marketing/"}]}},{"node":{"__typename":"Course","id":"3775f825-3ef1-11ea-9791-1b580a556b4a","title":"Startup PR: Getting Press on a Tight Budget","slug":"startup-pr-getting-press-on-a-tight-budget","headline":"Tech journalist Erica Swallow shares her public relation strategies for getting press for your startup.","created":"24th January 2020","tags":[{"title":"Marketing","path":"/tag/Marketing/"},{"title":"Public Relations","path":"/tag/Public%20Relations/"},{"title":"Startup","path":"/tag/Startup/"}]}},{"node":{"__typename":"Course","id":"37761f31-3ef1-11ea-9791-1b580a556b4a","title":"Prove It! Testimonials That Sell","slug":"prove-it-testimonials-that-sell","headline":"Earn great testimonials. Collect them. Use your testimonials to gain instant credibility, and close many more sales.","created":"24th January 2020","tags":[{"title":"Marketing","path":"/tag/Marketing/"},{"title":"Other","path":"/tag/Other/"},{"title":"Sales Skills","path":"/tag/Sales%20Skills/"}]}},{"node":{"__typename":"Course","id":"3775d11a-3ef1-11ea-9791-1b580a556b4a","title":"Learn Effective Mobile Marketing","slug":"learn-effective-mobile-marketing","headline":"With more and more consumer time spent with mobile devices, how can brands find engagement?","created":"24th January 2020","tags":[{"title":"Marketing","path":"/tag/Marketing/"},{"title":"Video & Mobile Marketing","path":"/tag/Video%20%26%20Mobile%20Marketing/"},{"title":"Mobile Marketing","path":"/tag/Mobile%20Marketing/"}]}},{"node":{"__typename":"Course","id":"3775aa02-3ef1-11ea-9791-1b580a556b4a","title":"Top 10 herramientas de Internet","slug":"top-10-herramientas-de-internet","headline":"Aprende a utilizar de forma profesional las 10 mejores herramientas de Internet y da el salto al mundo digital.","created":"24th January 2020","tags":[{"title":"Marketing","path":"/tag/Marketing/"},{"title":"Digital Marketing","path":"/tag/Digital%20Marketing/"},{"title":"Computer Skills","path":"/tag/Computer%20Skills/"}]}},{"node":{"__typename":"Course","id":"3775aa03-3ef1-11ea-9791-1b580a556b4a","title":"Twitter, el poder de los 140 caracteres","slug":"twitter-el-poder-de-los-140-caracteres","headline":"Aprende a utilizar Twitter desde el funcionamiento de la plataforma hasta la definición estratégica de tu marca.","created":"24th January 2020","tags":[{"title":"Marketing","path":"/tag/Marketing/"},{"title":"Social Media Marketing","path":"/tag/Social%20Media%20Marketing/"},{"title":"Twitter Marketing","path":"/tag/Twitter%20Marketing/"}]}}]}}},"context":{}}