{"hash":"6d1e7dd52e8c17cf4930f349c6afc1a78b2e1c5e","data":{"records":{"id":"Sales","title":"Sales","belongsTo":{"totalCount":14,"pageInfo":{"totalPages":2,"currentPage":2},"edges":[{"node":{"__typename":"Course","id":"37722797-3ef1-11ea-9791-1b580a556b4a","title":"Winning Sales Script System for Sales and Marketing","slug":"winning-sales-script-system-for-sales-and-marketing","headline":"Learn how to build a winning sales script system to close more sales, today.","created":"24th January 2020","tags":[{"title":"Business","path":"/tag/Business/"},{"title":"Sales","path":"/tag/Sales/"},{"title":"Sales Skills","path":"/tag/Sales%20Skills/"}]}},{"node":{"__typename":"Course","id":"37718b50-3ef1-11ea-9791-1b580a556b4a","title":"Professional Selling","slug":"professional-selling","headline":"Anyone can learn how to become more persuasive and how to deliver a professional quality sales presentation.","created":"24th January 2020","tags":[{"title":"Business","path":"/tag/Business/"},{"title":"Sales","path":"/tag/Sales/"},{"title":"Sales Skills","path":"/tag/Sales%20Skills/"}]}},{"node":{"__typename":"Course","id":"377079e4-3ef1-11ea-9791-1b580a556b4a","title":"Sales and Persuasion Skills for Startups","slug":"sales-and-persuasion-skills-for-startups","headline":"The entrepreneur's sure guide to getting a 'Yes'","created":"24th January 2020","tags":[{"title":"Business","path":"/tag/Business/"},{"title":"Sales","path":"/tag/Sales/"},{"title":"Persuasion","path":"/tag/Persuasion/"}]}},{"node":{"__typename":"Course","id":"377052d3-3ef1-11ea-9791-1b580a556b4a","title":"Cold Call 101: How to Cold Call like a Boss","slug":"cold-call-101-how-to-cold-call-like-a-boss","headline":"Learn the secret cold calling techniques and systems for getting anyone on the phone and getting new business, today!","created":"24th January 2020","tags":[{"title":"Business","path":"/tag/Business/"},{"title":"Sales","path":"/tag/Sales/"},{"title":"Cold Calling","path":"/tag/Cold%20Calling/"}]}},{"node":{"__typename":"Course","id":"376cf771-3ef1-11ea-9791-1b580a556b4a","title":"How to Budget and Forecast for Your Business","slug":"how-to-budget-and-forecast-for-your-business","headline":"by Tim Berry, Business Planning Expert","created":"24th January 2020","tags":[{"title":"Business","path":"/tag/Business/"},{"title":"Sales","path":"/tag/Sales/"},{"title":"Business Budgeting","path":"/tag/Business%20Budgeting/"}]}}]}}},"context":{}}