{"hash":"6d1e7dd52e8c17cf4930f349c6afc1a78b2e1c5e","data":{"records":{"id":"Microsoft","title":"Microsoft","belongsTo":{"totalCount":38,"pageInfo":{"totalPages":5,"currentPage":2},"edges":[{"node":{"__typename":"Course","id":"3775d114-3ef1-11ea-9791-1b580a556b4a","title":"Presenting Financials with Excel and PowerPoint","slug":"presenting-financials-with-excel-and-power-point","headline":"Learn special tricks in Excel and PowerPoint designed specifically for presenting to \"numbers people\".","created":"24th January 2020","tags":[{"title":"Office Productivity","path":"/tag/Office%20Productivity/"},{"title":"Microsoft","path":"/tag/Microsoft/"},{"title":"Excel","path":"/tag/Excel/"}]}},{"node":{"__typename":"Course","id":"377582f8-3ef1-11ea-9791-1b580a556b4a","title":"MS Office - Advanced - Efficiency Training","slug":"ms-office-advanced-efficiency-training","headline":"Learn the most important shortcuts and time saving tools in Outlook, Excel, Word and PowerPoint. WIN at Office!","created":"24th January 2020","tags":[{"title":"Office Productivity","path":"/tag/Office%20Productivity/"},{"title":"Microsoft","path":"/tag/Microsoft/"},{"title":"Microsoft Office","path":"/tag/Microsoft%20Office/"}]}},{"node":{"__typename":"Course","id":"377582f9-3ef1-11ea-9791-1b580a556b4a","title":"Time Management Training with Outlook","slug":"time-management-training-with-outlook","headline":"Outlook can do WAY more than you use it for. Learn tons of efficient workflow tips, tricks, and tools available.","created":"24th January 2020","tags":[{"title":"Office Productivity","path":"/tag/Office%20Productivity/"},{"title":"Microsoft","path":"/tag/Microsoft/"},{"title":"Microsoft Outlook","path":"/tag/Microsoft%20Outlook/"}]}},{"node":{"__typename":"Course","id":"3775aa00-3ef1-11ea-9791-1b580a556b4a","title":"PowerPoint Psychology - Creating Amazing PowerPoint Slides!","slug":"power-point-psychology-creating-amazing-power-point-slides","headline":"How to build a presentation that actually adds to your message instead of repeating common mistakes that everyone makes.","created":"24th January 2020","tags":[{"title":"Office Productivity","path":"/tag/Office%20Productivity/"},{"title":"Microsoft","path":"/tag/Microsoft/"},{"title":"PowerPoint","path":"/tag/PowerPoint/"}]}},{"node":{"__typename":"Course","id":"377582f3-3ef1-11ea-9791-1b580a556b4a","title":"Todo sobre Excel - De conocimientos b치sicos a profesionales","slug":"todo-sobre-excel-de-conocimientos-basicos-a-profesionales","headline":"Aprender치s como pasar de los conceptos b치sicos de Excel a las funcionalidades m치s \"pro\" como formulas, macros...","created":"24th January 2020","tags":[{"title":"Office Productivity","path":"/tag/Office%20Productivity/"},{"title":"Microsoft","path":"/tag/Microsoft/"},{"title":"Excel","path":"/tag/Excel/"}]}},{"node":{"__typename":"Course","id":"37733901-3ef1-11ea-9791-1b580a556b4a","title":"Excel Essentials","slug":"excel-essentials","headline":"Learn Excel the FUN way! By working through exercises along with the video tutorial.","created":"24th January 2020","tags":[{"title":"Office Productivity","path":"/tag/Office%20Productivity/"},{"title":"Microsoft","path":"/tag/Microsoft/"},{"title":"Excel","path":"/tag/Excel/"}]}},{"node":{"__typename":"Course","id":"37733902-3ef1-11ea-9791-1b580a556b4a","title":"Microsoft Project 2010 Advanced Training","slug":"microsoft-project-2010-advanced-training","headline":"The Ultimate Confidence Booster For Microsoft Project 2010 And Your Ticket to A+ Project Manager Status.","created":"24th January 2020","tags":[{"title":"Office Productivity","path":"/tag/Office%20Productivity/"},{"title":"Microsoft","path":"/tag/Microsoft/"},{"title":"Microsoft Project","path":"/tag/Microsoft%20Project/"}]}},{"node":{"__typename":"Course","id":"37733903-3ef1-11ea-9791-1b580a556b4a","title":"Microsoft Project 2010 Beginners/Intermediate Training","slug":"microsoft-project-2010-beginners-intermediate-training","headline":"The Most Convenient Way to Master Microsoft Project 2010 - Fast.","created":"24th January 2020","tags":[{"title":"Office Productivity","path":"/tag/Office%20Productivity/"},{"title":"Microsoft","path":"/tag/Microsoft/"},{"title":"Microsoft Project","path":"/tag/Microsoft%20Project/"}]}},{"node":{"__typename":"Course","id":"377275ba-3ef1-11ea-9791-1b580a556b4a","title":"Visual Basic for Microsoft Access Tutorial","slug":"visual-basic-for-microsoft-access-tutorial","headline":"Supercharge your Microsoft Access by using Visual Basic. A practical tutorial that teaches real world skills","created":"24th January 2020","tags":[{"title":"Office Productivity","path":"/tag/Office%20Productivity/"},{"title":"Microsoft","path":"/tag/Microsoft/"},{"title":"Microsoft Access","path":"/tag/Microsoft%20Access/"}]}}]}}},"context":{}}