{"hash":"6d1e7dd52e8c17cf4930f349c6afc1a78b2e1c5e","data":{"records":{"id":"Personal Transformation","title":"Personal Transformation","belongsTo":{"totalCount":13,"pageInfo":{"totalPages":2,"currentPage":1},"edges":[{"node":{"__typename":"Course","id":"377a3de8-3ef1-11ea-9791-1b580a556b4a","title":"Learn The Power Of Self-Discipline","slug":"learn-the-power-of-self-discipline","headline":"How to be self-disciplined in order to gain success in every aspect of your life","created":"24th January 2020","tags":[{"title":"Personal Development","path":"/tag/Personal%20Development/"},{"title":"Personal Transformation","path":"/tag/Personal%20Transformation/"},{"title":"Self-Discipline","path":"/tag/Self-Discipline/"}]}},{"node":{"__typename":"Course","id":"3778de5d-3ef1-11ea-9791-1b580a556b4a","title":"LIFE COACHING com Marco Meda","slug":"life-coaching-com-marco-meda","headline":"Aprenda técnicas de Life Coaching para trabalhar com Coaching ou para o seu Desenvolvimento Pessoal.","created":"24th January 2020","tags":[{"title":"Personal Development","path":"/tag/Personal%20Development/"},{"title":"Personal Transformation","path":"/tag/Personal%20Transformation/"}]}},{"node":{"__typename":"Course","id":"37786929-3ef1-11ea-9791-1b580a556b4a","title":"Smart Goals for a Smart Life","slug":"smart-goals-for-a-smart-life","headline":"Train your brain for success","created":"24th January 2020","tags":[{"title":"Personal Development","path":"/tag/Personal%20Development/"},{"title":"Personal Transformation","path":"/tag/Personal%20Transformation/"},{"title":"Goal Setting","path":"/tag/Goal%20Setting/"}]}},{"node":{"__typename":"Course","id":"3778b743-3ef1-11ea-9791-1b580a556b4a","title":"Claves para superar el miedo a hablar en público","slug":"claves-para-superar-el-miedo-a-hablar-en-publico","headline":"Herramientas prácticas","created":"24th January 2020","tags":[{"title":"Personal Development","path":"/tag/Personal%20Development/"},{"title":"Personal Transformation","path":"/tag/Personal%20Transformation/"},{"title":"Communication Skills","path":"/tag/Communication%20Skills/"}]}},{"node":{"__typename":"Course","id":"377730a2-3ef1-11ea-9791-1b580a556b4a","title":"Learn Self-Hypnosis in Only Minutes a Day","slug":"learn-self-hypnosis-in-only-minutes-a-day","headline":"Discover a Simple Self-Hypnosis Method to Add More Positive Habits into Your Life","created":"24th January 2020","tags":[{"title":"Personal Development","path":"/tag/Personal%20Development/"},{"title":"Personal Transformation","path":"/tag/Personal%20Transformation/"},{"title":"Self-Hypnosis","path":"/tag/Self-Hypnosis/"}]}},{"node":{"__typename":"Course","id":"37770992-3ef1-11ea-9791-1b580a556b4a","title":"4 Proven Principles For Creating A Life Worth Living","slug":"4-proven-principles-for-creating-a-life-worth-living","headline":"A Career Finder Course by Jay Markunas & Angela Loeb","created":"24th January 2020","tags":[{"title":"Personal Development","path":"/tag/Personal%20Development/"},{"title":"Personal Transformation","path":"/tag/Personal%20Transformation/"},{"title":"Life Purpose","path":"/tag/Life%20Purpose/"}]}},{"node":{"__typename":"Course","id":"3775f823-3ef1-11ea-9791-1b580a556b4a","title":"SELF COACHING \"Saca al Genio que llevas dentro\"","slug":"self-coaching-saca-al-genio-que-llevas-dentro","headline":"Aprende Paso a Paso las Como Hacer para Reinventar tu vida y a Convertirte en la persona que siempre has querido ser.","created":"24th January 2020","tags":[{"title":"Personal Development","path":"/tag/Personal%20Development/"},{"title":"Personal Transformation","path":"/tag/Personal%20Transformation/"}]}},{"node":{"__typename":"Course","id":"3775d116-3ef1-11ea-9791-1b580a556b4a","title":"Reinvent Yourself in 30 Days","slug":"reinvent-yourself-in-30-days","headline":"Stop letting others define you. Learn branding process to build a career of influence & distinction.","created":"24th January 2020","tags":[{"title":"Personal Development","path":"/tag/Personal%20Development/"},{"title":"Personal Transformation","path":"/tag/Personal%20Transformation/"},{"title":"Personal Branding","path":"/tag/Personal%20Branding/"}]}},{"node":{"__typename":"Course","id":"377534d1-3ef1-11ea-9791-1b580a556b4a","title":"Understanding Yourself","slug":"understanding-yourself","headline":"Using major theories of personality to create a happy and satisfying life","created":"24th January 2020","tags":[{"title":"Personal Development","path":"/tag/Personal%20Development/"},{"title":"Personal Transformation","path":"/tag/Personal%20Transformation/"},{"title":"Psychology","path":"/tag/Psychology/"}]}}]}}},"context":{}}