{"hash":"6d1e7dd52e8c17cf4930f349c6afc1a78b2e1c5e","data":{"records":{"id":"Development","title":"Development","belongsTo":{"totalCount":129,"pageInfo":{"totalPages":15,"currentPage":9},"edges":[{"node":{"__typename":"Course","id":"37722792-3ef1-11ea-9791-1b580a556b4a","title":"Mastering iPhone programming - Lite","slug":"mastering-i-phone-programming-lite","headline":"Quick introduction to iPhone programming with Objective C, Controls in iOS with MVC, Advance Features in iOS with Cocoa","created":"24th January 2020","tags":[{"title":"Development","path":"/tag/Development/"},{"title":"Mobile Apps","path":"/tag/Mobile%20Apps/"},{"title":"iOS Development","path":"/tag/iOS%20Development/"}]}},{"node":{"__typename":"Course","id":"37720084-3ef1-11ea-9791-1b580a556b4a","title":"Unity 3d Game Development - iOS, Android, & Web - Beginners","slug":"unity-3d-game-development-i-os-android-and-web-beginners","headline":"Want to get into making high quality games, but don't know where to start? This series is a perfect choice for you.","created":"24th January 2020","tags":[{"title":"Development","path":"/tag/Development/"},{"title":"Game Development","path":"/tag/Game%20Development/"},{"title":"Unity","path":"/tag/Unity/"}]}},{"node":{"__typename":"Course","id":"3771d975-3ef1-11ea-9791-1b580a556b4a","title":"Learn to Make iPhone Apps with Objective C for iOS7","slug":"learn-to-make-i-phone-apps-with-objective-c-for-i-o-s7","headline":"Create apps for iOS7 without any programming experience. Learn how to write Objective C code, design UI, and use Xcode.","created":"24th January 2020","tags":[{"title":"Development","path":"/tag/Development/"},{"title":"Mobile Apps","path":"/tag/Mobile%20Apps/"},{"title":"iOS Development","path":"/tag/iOS%20Development/"}]}},{"node":{"__typename":"Course","id":"3771d977-3ef1-11ea-9791-1b580a556b4a","title":"Objective C for iPhone-iPad App Programming","slug":"objective-c-for-i-phone-i-pad-app-programming","headline":"Learn how to write apps for iPhone and iPad apps with Objective-C.","created":"24th January 2020","tags":[{"title":"Development","path":"/tag/Development/"},{"title":"Mobile Apps","path":"/tag/Mobile%20Apps/"},{"title":"Objective-C","path":"/tag/Objective-C/"}]}},{"node":{"__typename":"Course","id":"3771d979-3ef1-11ea-9791-1b580a556b4a","title":"Learning Dynamic Website Design - PHP MySQL and JavaScript","slug":"learning-dynamic-website-design-php-my-sql-and-java-script","headline":"Learn Dynamic Web Design with PHP / MySQL, AJAX, JavaScript and CSS. Course comes with Certificate of Completion.","created":"24th January 2020","tags":[{"title":"Development","path":"/tag/Development/"},{"title":"Web Development","path":"/tag/Web%20Development/"},{"title":"Web Design","path":"/tag/Web%20Design/"}]}},{"node":{"__typename":"Course","id":"3771b265-3ef1-11ea-9791-1b580a556b4a","title":"The Complete 2019 Fullstack Web Developer Course","slug":"the-complete-2019-fullstack-web-developer-course","headline":"Learn HTML, HTML5, CSS, CSS3, JavaScript, PHP, jQuery, Ajax & MySQL from scratch! Build a login system at the end!","created":"24th January 2020","tags":[{"title":"Development","path":"/tag/Development/"},{"title":"Web Development","path":"/tag/Web%20Development/"}]}},{"node":{"__typename":"Course","id":"37718b57-3ef1-11ea-9791-1b580a556b4a","title":"Create an Engaging Website with Twitter Bootstrap 2.x","slug":"create-an-engaging-website-with-twitter-bootstrap-2-x","headline":"Learn to create your website with this free and open-source web design framework.","created":"24th January 2020","tags":[{"title":"Development","path":"/tag/Development/"},{"title":"Web Development","path":"/tag/Web%20Development/"},{"title":"Bootstrap","path":"/tag/Bootstrap/"}]}},{"node":{"__typename":"Course","id":"37718b5a-3ef1-11ea-9791-1b580a556b4a","title":"Drupal 7 Intermediate","slug":"drupal-7-intermediate","headline":"Take your Drupal knowledge to the next level. Learn all about content types, Views and Panels.","created":"24th January 2020","tags":[{"title":"Development","path":"/tag/Development/"},{"title":"Web Development","path":"/tag/Web%20Development/"},{"title":"Drupal","path":"/tag/Drupal/"}]}},{"node":{"__typename":"Course","id":"37718b5b-3ef1-11ea-9791-1b580a556b4a","title":"Drupal 7 for Beginners","slug":"drupal-7-for-beginners","headline":"This class teaches you all of the essential concepts and knowledge you need to get started with Drupal 7.","created":"24th January 2020","tags":[{"title":"Development","path":"/tag/Development/"},{"title":"Web Development","path":"/tag/Web%20Development/"},{"title":"Drupal","path":"/tag/Drupal/"}]}}]}}},"context":{}}