{"hash":"6d1e7dd52e8c17cf4930f349c6afc1a78b2e1c5e","data":{"records":{"id":"Personal Development","title":"Personal Development","belongsTo":{"totalCount":58,"pageInfo":{"totalPages":7,"currentPage":2},"edges":[{"node":{"__typename":"Course","id":"377757b4-3ef1-11ea-9791-1b580a556b4a","title":"Подбор персонала от линейного до IT.","slug":"podbor-personala-ot-linejnogo-do-it","headline":"Важные моменты и инструментарий в подборе персонала.","created":"24th January 2020","tags":[{"title":"Personal Development","path":"/tag/Personal%20Development/"},{"title":"Career Development","path":"/tag/Career%20Development/"},{"title":"Recruiting","path":"/tag/Recruiting/"}]}},{"node":{"__typename":"Course","id":"377730a2-3ef1-11ea-9791-1b580a556b4a","title":"Learn Self-Hypnosis in Only Minutes a Day","slug":"learn-self-hypnosis-in-only-minutes-a-day","headline":"Discover a Simple Self-Hypnosis Method to Add More Positive Habits into Your Life","created":"24th January 2020","tags":[{"title":"Personal Development","path":"/tag/Personal%20Development/"},{"title":"Personal Transformation","path":"/tag/Personal%20Transformation/"},{"title":"Self-Hypnosis","path":"/tag/Self-Hypnosis/"}]}},{"node":{"__typename":"Course","id":"37770992-3ef1-11ea-9791-1b580a556b4a","title":"4 Proven Principles For Creating A Life Worth Living","slug":"4-proven-principles-for-creating-a-life-worth-living","headline":"A Career Finder Course by Jay Markunas & Angela Loeb","created":"24th January 2020","tags":[{"title":"Personal Development","path":"/tag/Personal%20Development/"},{"title":"Personal Transformation","path":"/tag/Personal%20Transformation/"},{"title":"Life Purpose","path":"/tag/Life%20Purpose/"}]}},{"node":{"__typename":"Course","id":"37770998-3ef1-11ea-9791-1b580a556b4a","title":"Managing Your Personal Finances","slug":"managing-your-personal-finances","headline":"This is a short course on how to better manage your personal finances.","created":"24th January 2020","tags":[{"title":"Personal Development","path":"/tag/Personal%20Development/"},{"title":"Personal Finance","path":"/tag/Personal%20Finance/"}]}},{"node":{"__typename":"Course","id":"3776e287-3ef1-11ea-9791-1b580a556b4a","title":"28 Loving ReAwakenings","slug":"28-loving-re-awakenings","headline":"The last program on happiness, self-love and peace of mind you'll ever need.","created":"24th January 2020","tags":[{"title":"Personal Development","path":"/tag/Personal%20Development/"},{"title":"Self Esteem","path":"/tag/Self%20Esteem/"},{"title":"Love","path":"/tag/Love/"}]}},{"node":{"__typename":"Course","id":"37769466-3ef1-11ea-9791-1b580a556b4a","title":"Learning How to Learn","slug":"learning-how-to-learn","headline":"Becoming your own Brain Mechanic - Know how to keep your genius mind open.","created":"24th January 2020","tags":[{"title":"Personal Development","path":"/tag/Personal%20Development/"},{"title":"Memory & Study Skills","path":"/tag/Memory%20%26%20Study%20Skills/"},{"title":"Learning Strategies","path":"/tag/Learning%20Strategies/"}]}},{"node":{"__typename":"Course","id":"37766d51-3ef1-11ea-9791-1b580a556b4a","title":"Speed Reading for Business. Improve focus and comprehension.","slug":"speed-reading-for-business-improve-focus-and-comprehension","headline":"It takes 4 hours to fast forward your career. Learn how to blast through your books, documents and social media.","created":"24th January 2020","tags":[{"title":"Personal Development","path":"/tag/Personal%20Development/"},{"title":"Memory & Study Skills","path":"/tag/Memory%20%26%20Study%20Skills/"},{"title":"Speed Reading","path":"/tag/Speed%20Reading/"}]}},{"node":{"__typename":"Course","id":"37761f37-3ef1-11ea-9791-1b580a556b4a","title":"Diseña tu Estrategia de Marca Personal paso a paso","slug":"disena-tu-estrategia-de-marca-personal-paso-a-paso","headline":"Gestiona tu Marca Personal para aumentar tu valor y tus opciones profesionales","created":"24th January 2020","tags":[{"title":"Personal Development","path":"/tag/Personal%20Development/"},{"title":"Career Development","path":"/tag/Career%20Development/"},{"title":"Personal Branding","path":"/tag/Personal%20Branding/"}]}},{"node":{"__typename":"Course","id":"37761f39-3ef1-11ea-9791-1b580a556b4a","title":"How to Calm Your Mind - The Art of Mindful Relaxation","slug":"how-to-calm-your-mind-the-art-of-mindful-relaxation","headline":"Tame your monkey mind, relax deeply, Pay attention on purpose and let your stress drop away!","created":"24th January 2020","tags":[{"title":"Personal Development","path":"/tag/Personal%20Development/"},{"title":"Stress Management","path":"/tag/Stress%20Management/"},{"title":"Relaxation","path":"/tag/Relaxation/"}]}}]}}},"context":{}}