{"hash":"6d1e7dd52e8c17cf4930f349c6afc1a78b2e1c5e","data":{"records":{"id":"IT & Software","title":"IT & Software","belongsTo":{"totalCount":122,"pageInfo":{"totalPages":14,"currentPage":2},"edges":[{"node":{"__typename":"Course","id":"377ab313-3ef1-11ea-9791-1b580a556b4a","title":"Zend Certified PHP Engineer","slug":"zend-certified-php-engineer","headline":"Pass Zend Certified PHP Engineer Testing by Practicing on High Quality Questions.","created":"24th January 2020","tags":[{"title":"IT & Software","path":"/tag/IT%20%26%20Software/"},{"title":"IT Certification","path":"/tag/IT%20Certification/"}]}},{"node":{"__typename":"Course","id":"377a64f4-3ef1-11ea-9791-1b580a556b4a","title":"Learn Wordpress Engagement Boost","slug":"learn-wordpress-engagement-boost","headline":"More leads, sales, and profits from engagement boosted wordpress site","created":"24th January 2020","tags":[{"title":"IT & Software","path":"/tag/IT%20%26%20Software/"},{"title":"Other","path":"/tag/Other/"},{"title":"WordPress","path":"/tag/WordPress/"}]}},{"node":{"__typename":"Course","id":"377a64fa-3ef1-11ea-9791-1b580a556b4a","title":"Juniper JNCIS-ENT : Practice Tests (Updated Latest 2020)","slug":"juniper-jncis-ent-practice-tests-updated-latest-2020","headline":"Best practice tests to test your knowledge and passing your real exam in first attempt ( Latest updated 2020)","created":"24th January 2020","tags":[{"title":"IT & Software","path":"/tag/IT%20%26%20Software/"},{"title":"IT Certification","path":"/tag/IT%20Certification/"}]}},{"node":{"__typename":"Course","id":"377a64fd-3ef1-11ea-9791-1b580a556b4a","title":"CompTIA Network + JK0-019 E2C Media Topology Practice Exam","slug":"comp-tia-network-j-k0-019-e2-c-media-topology-practice-exam","headline":"Attend this CompTIA Network + JK0-019 E2C Media Topology Practice Exam will get a Good Score 80% on Main Exam","created":"24th January 2020","tags":[{"title":"IT & Software","path":"/tag/IT%20%26%20Software/"},{"title":"IT Certification","path":"/tag/IT%20Certification/"},{"title":"CompTIA Network+","path":"/tag/CompTIA%20Network%2B/"}]}},{"node":{"__typename":"Course","id":"377a64fe-3ef1-11ea-9791-1b580a556b4a","title":"CompTIA SY0-401 Security+ Cryptography Certify Practice Exam","slug":"comp-tia-s-y0-401-security-cryptography-certify-practice-exam","headline":"Attend this CompTIA SY0-401 Security+ Cryptography Certify Practice Exam will get a Good Score 80% on Main Exam","created":"24th January 2020","tags":[{"title":"IT & Software","path":"/tag/IT%20%26%20Software/"},{"title":"IT Certification","path":"/tag/IT%20Certification/"},{"title":"CompTIA Security+","path":"/tag/CompTIA%20Security%2B/"}]}},{"node":{"__typename":"Course","id":"377a8c00-3ef1-11ea-9791-1b580a556b4a","title":"EC0-232 EC-Council E-Commerce Architect Practice Exam","slug":"e-c0-232-ec-council-e-commerce-architect-practice-exam","headline":"Attend this EC0-232 EC-Council E-Commerce Architect Practice Exam will get a Good Score 80% on Main Exam","created":"24th January 2020","tags":[{"title":"IT & Software","path":"/tag/IT%20%26%20Software/"},{"title":"IT Certification","path":"/tag/IT%20Certification/"},{"title":"Security Certification","path":"/tag/Security%20Certification/"}]}},{"node":{"__typename":"Course","id":"377a3de2-3ef1-11ea-9791-1b580a556b4a","title":"Certified Information Systems Security Pro - Mock Test","slug":"certified-information-systems-security-pro-mock-test","headline":"ISC-CISSP Certification Exam | Latest & Unique Questionnaires","created":"24th January 2020","tags":[{"title":"IT & Software","path":"/tag/IT%20%26%20Software/"},{"title":"IT Certification","path":"/tag/IT%20Certification/"},{"title":"CISSP - Certified Information Systems Security Professional","path":"/tag/CISSP%20-%20Certified%20Information%20Systems%20Security%20Professional/"}]}},{"node":{"__typename":"Course","id":"3779c8b2-3ef1-11ea-9791-1b580a556b4a","title":"AWS Certified Big Data Practice Exam 100% Pass Guarantee NEW","slug":"aws-certified-big-data-practice-exam-100-pass-guarantee-new","headline":"AWS Certified Big Data Specialty (BDS-C00) Practice Exam 100% Pass Guarantee NEW","created":"24th January 2020","tags":[{"title":"IT & Software","path":"/tag/IT%20%26%20Software/"},{"title":"IT Certification","path":"/tag/IT%20Certification/"},{"title":"AWS Certified Big Data - Specialty","path":"/tag/AWS%20Certified%20Big%20Data%20-%20Specialty/"}]}},{"node":{"__typename":"Course","id":"3779efc0-3ef1-11ea-9791-1b580a556b4a","title":"Siemens PLC Programming Using STL In S7-1500 (TIA Portal)","slug":"siemens-plc-programming-using-stl-in-s7-1500-tia-portal","headline":"Siemens PLC S7-1500 Programming Using STL (Statement List).Software Used TIA portal","created":"24th January 2020","tags":[{"title":"IT & Software","path":"/tag/IT%20%26%20Software/"},{"title":"Hardware","path":"/tag/Hardware/"},{"title":"Siemens TIA Portal","path":"/tag/Siemens%20TIA%20Portal/"}]}}]}}},"context":{}}