{"hash":"6d1e7dd52e8c17cf4930f349c6afc1a78b2e1c5e","data":{"records":{"id":"Photoshop","title":"Photoshop","belongsTo":{"totalCount":25,"pageInfo":{"totalPages":3,"currentPage":3},"edges":[{"node":{"__typename":"Course","id":"376fdda2-3ef1-11ea-9791-1b580a556b4a","title":"Photoshop CS6 Crash Course","slug":"photoshop-c-s6-crash-course","headline":"Photoshop CS6 will be yours to command in 4 hours!","created":"24th January 2020","tags":[{"title":"Design","path":"/tag/Design/"},{"title":"Design Tools","path":"/tag/Design%20Tools/"},{"title":"Photoshop","path":"/tag/Photoshop/"}]}},{"node":{"__typename":"Course","id":"377004b0-3ef1-11ea-9791-1b580a556b4a","title":"Photoshop for Web Design Beginners","slug":"photoshop-for-web-design-beginners","headline":"Perfect Photoshop course for beginner web designers who want learn to how to make a clean simple web page design.","created":"24th January 2020","tags":[{"title":"Design","path":"/tag/Design/"},{"title":"Design Tools","path":"/tag/Design%20Tools/"},{"title":"Photoshop","path":"/tag/Photoshop/"}]}},{"node":{"__typename":"Course","id":"376ecc35-3ef1-11ea-9791-1b580a556b4a","title":"Adobe Photoshop Elements 10 Made Easy","slug":"adobe-photoshop-elements-10-made-easy","headline":"Learn the secrets that make Elements as powerful as full version of Photoshop in these Photoshop Elements 10 tutorials.","created":"24th January 2020","tags":[{"title":"Design","path":"/tag/Design/"},{"title":"Design Tools","path":"/tag/Design%20Tools/"},{"title":"Photoshop","path":"/tag/Photoshop/"}]}},{"node":{"__typename":"Course","id":"376ecc36-3ef1-11ea-9791-1b580a556b4a","title":"Photoshop Essentials","slug":"photoshop-essentials","headline":"Gain massive skills and learn a ton of Photoshop techniques!","created":"24th January 2020","tags":[{"title":"Design","path":"/tag/Design/"},{"title":"Design Tools","path":"/tag/Design%20Tools/"},{"title":"Photoshop","path":"/tag/Photoshop/"}]}},{"node":{"__typename":"Course","id":"376dbac3-3ef1-11ea-9791-1b580a556b4a","title":"Photoshop Selections and Masks","slug":"photoshop-selections-and-masks","headline":"Learn all the tools to make better selections and masks.","created":"24th January 2020","tags":[{"title":"Design","path":"/tag/Design/"},{"title":"Design Tools","path":"/tag/Design%20Tools/"},{"title":"Photoshop","path":"/tag/Photoshop/"}]}},{"node":{"__typename":"Course","id":"376ca953-3ef1-11ea-9791-1b580a556b4a","title":"Adobe Photoshop for Photographers","slug":"adobe-photoshop-for-photographers","headline":"Take Your Digital Photographs to The Next Level with this Adobe Photoshop CS5 Tutorial.","created":"24th January 2020","tags":[{"title":"Design","path":"/tag/Design/"},{"title":"Design Tools","path":"/tag/Design%20Tools/"},{"title":"Photoshop","path":"/tag/Photoshop/"}]}},{"node":{"__typename":"Course","id":"376ad491-3ef1-11ea-9791-1b580a556b4a","title":"Beginners Adobe Photoshop CS5 Tutorial","slug":"beginners-adobe-photoshop-c-s5-tutorial","headline":"Andy Anderson's Adobe Photoshop cs5 tutorials for beginners teaches you how to master Photoshop quickly and completely.","created":"24th January 2020","tags":[{"title":"Design","path":"/tag/Design/"},{"title":"Design Tools","path":"/tag/Design%20Tools/"},{"title":"Photoshop","path":"/tag/Photoshop/"}]}}]}}},"context":{}}