{"hash":"6d1e7dd52e8c17cf4930f349c6afc1a78b2e1c5e","data":{"records":{"id":"Design","title":"Design","belongsTo":{"totalCount":115,"pageInfo":{"totalPages":13,"currentPage":6},"edges":[{"node":{"__typename":"Course","id":"3773d540-3ef1-11ea-9791-1b580a556b4a","title":"Adobe InDesign CS6 Tutorial - Beginners to Advanced Training","slug":"adobe-in-design-c-s6-tutorial-beginners-to-advanced-training","headline":"Master the art of creative page layout with Adobe InDesign CS6. InDesign training Taught by a leading Certified Trainer","created":"24th January 2020","tags":[{"title":"Design","path":"/tag/Design/"},{"title":"Design Tools","path":"/tag/Design%20Tools/"},{"title":"InDesign","path":"/tag/InDesign/"}]}},{"node":{"__typename":"Course","id":"3773d543-3ef1-11ea-9791-1b580a556b4a","title":"How To Build An Online Business Using Wordpress","slug":"how-to-build-an-online-business-using-wordpress","headline":"Wordpress Tutorial Series On How To Start & Build Your Online Business","created":"24th January 2020","tags":[{"title":"Design","path":"/tag/Design/"},{"title":"Web Design","path":"/tag/Web%20Design/"},{"title":"Business Strategy","path":"/tag/Business%20Strategy/"}]}},{"node":{"__typename":"Course","id":"3773d546-3ef1-11ea-9791-1b580a556b4a","title":"SketchUp to LayOut","slug":"sketch-up-to-lay-out","headline":"The essential guide to creating construction documents with SketchUp Pro & LayOut","created":"24th January 2020","tags":[{"title":"Design","path":"/tag/Design/"},{"title":"3D & Animation","path":"/tag/3D%20%26%20Animation/"},{"title":"SketchUp","path":"/tag/SketchUp/"}]}},{"node":{"__typename":"Course","id":"37736014-3ef1-11ea-9791-1b580a556b4a","title":"Foundations of Photoshop","slug":"foundations-of-photoshop","headline":"Build a strong foundation of basic Photoshop skills","created":"24th January 2020","tags":[{"title":"Design","path":"/tag/Design/"},{"title":"Design Tools","path":"/tag/Design%20Tools/"},{"title":"Photoshop","path":"/tag/Photoshop/"}]}},{"node":{"__typename":"Course","id":"37736015-3ef1-11ea-9791-1b580a556b4a","title":"Introduction To Story Boarding","slug":"introduction-to-story-boarding","headline":"Learn the language of film while mastering drawing to achieve great Story Boards for the inner Story teller in you.","created":"24th January 2020","tags":[{"title":"Design","path":"/tag/Design/"},{"title":"Design Thinking","path":"/tag/Design%20Thinking/"},{"title":"Story Boarding","path":"/tag/Story%20Boarding/"}]}},{"node":{"__typename":"Course","id":"37738720-3ef1-11ea-9791-1b580a556b4a","title":"Photoshop Secrets & Dirty Tricks - Use These Shortcuts Today","slug":"photoshop-secrets-and-dirty-tricks-use-these-shortcuts-today","headline":"It is so simple anyone can do it! You just need to know these shortcuts! No prior photoshop experience or knowhow needed","created":"24th January 2020","tags":[{"title":"Design","path":"/tag/Design/"},{"title":"Design Tools","path":"/tag/Design%20Tools/"},{"title":"Photoshop","path":"/tag/Photoshop/"}]}},{"node":{"__typename":"Course","id":"37738722-3ef1-11ea-9791-1b580a556b4a","title":"WordPress Social Media Automation","slug":"word-press-social-media-automation","headline":"Automated content sharing tricks -WordPress not required.","created":"24th January 2020","tags":[{"title":"Design","path":"/tag/Design/"},{"title":"Web Design","path":"/tag/Web%20Design/"},{"title":"WordPress","path":"/tag/WordPress/"}]}},{"node":{"__typename":"Course","id":"3773872a-3ef1-11ea-9791-1b580a556b4a","title":"Learn to Design a Letterhead - A Beginners Course","slug":"learn-to-design-a-letterhead-a-beginners-course","headline":"Learn how to design a letterhead from rough sketch through to setting your document up ready to go to print.","created":"24th January 2020","tags":[{"title":"Design","path":"/tag/Design/"},{"title":"Graphic Design","path":"/tag/Graphic%20Design/"}]}},{"node":{"__typename":"Course","id":"37733900-3ef1-11ea-9791-1b580a556b4a","title":"Adobe Illustrator CS6 Tutorial - Training Taught By Experts","slug":"adobe-illustrator-c-s6-tutorial-training-taught-by-experts","headline":"Learn to create stunning art work Adobe Illustrator. A practical hands-on tutorial for Illustrator users of all levels","created":"24th January 2020","tags":[{"title":"Design","path":"/tag/Design/"},{"title":"Design Tools","path":"/tag/Design%20Tools/"},{"title":"Adobe Illustrator","path":"/tag/Adobe%20Illustrator/"}]}}]}}},"context":{}}