{"hash":"6d1e7dd52e8c17cf4930f349c6afc1a78b2e1c5e","data":{"records":{"id":"IT & Software","title":"IT & Software","belongsTo":{"totalCount":122,"pageInfo":{"totalPages":14,"currentPage":14},"edges":[{"node":{"__typename":"Course","id":"376c8241-3ef1-11ea-9791-1b580a556b4a","title":"PLC Programming Basics to Advanced Siemens S7-1200","slug":"plc-programming-basics-to-advanced-siemens-s7-1200","headline":"The ultimate PLC training experience to learn PLC automation.","created":"24th January 2020","tags":[{"title":"IT & Software","path":"/tag/IT%20%26%20Software/"},{"title":"Hardware","path":"/tag/Hardware/"},{"title":"PLC","path":"/tag/PLC/"}]}},{"node":{"__typename":"Course","id":"376be600-3ef1-11ea-9791-1b580a556b4a","title":"CCNP ROUTE 2018 Free Video Boot Camp: BGP Success","slug":"ccnp-route-2018-free-video-boot-camp-bgp-success","headline":"Get Ready For CCNP ROUTE And TSHOOT Exam Success With This 100%-Free Video Boot Camp From Chris Bryant!","created":"24th January 2020","tags":[{"title":"IT & Software","path":"/tag/IT%20%26%20Software/"},{"title":"IT Certification","path":"/tag/IT%20Certification/"},{"title":"CCNP Routing and Switching","path":"/tag/CCNP%20Routing%20and%20Switching/"}]}},{"node":{"__typename":"Course","id":"376be601-3ef1-11ea-9791-1b580a556b4a","title":"CCNP TSHOOT 300-135 2019 Video Boot Camp with Chris Bryant","slug":"ccnp-tshoot-300-135-2019-video-boot-camp-with-chris-bryant","headline":"Pass The CCNP TSHOOT Exam With Chris Bryant -- AND Prepare For Real-World Network Troubleshooting Success!","created":"24th January 2020","tags":[{"title":"IT & Software","path":"/tag/IT%20%26%20Software/"},{"title":"IT Certification","path":"/tag/IT%20Certification/"},{"title":"CCNP Routing and Switching","path":"/tag/CCNP%20Routing%20and%20Switching/"}]}},{"node":{"__typename":"Course","id":"376b49c0-3ef1-11ea-9791-1b580a556b4a","title":"CCNP ROUTE 300-101 Video Boot Camp With Chris Bryant","slug":"ccnp-route-300-101-video-boot-camp-with-chris-bryant","headline":"Pass The CCNP ROUTE 300-101 Exam With Chris Bryant -- AND Prepare For Real-World Networking Success!","created":"24th January 2020","tags":[{"title":"IT & Software","path":"/tag/IT%20%26%20Software/"},{"title":"IT Certification","path":"/tag/IT%20Certification/"},{"title":"CCNP Routing and Switching","path":"/tag/CCNP%20Routing%20and%20Switching/"}]}},{"node":{"__typename":"Course","id":"376b49c1-3ef1-11ea-9791-1b580a556b4a","title":"CCNP SWITCH 300-115 Video Boot Camp With Chris Bryant","slug":"ccnp-switch-300-115-video-boot-camp-with-chris-bryant","headline":"Pass The CCNP SWITCH 300-115 Exam With Chris Bryant -- AND Prepare For Real-World Networking Success!","created":"24th January 2020","tags":[{"title":"IT & Software","path":"/tag/IT%20%26%20Software/"},{"title":"IT Certification","path":"/tag/IT%20Certification/"},{"title":"CCNP Routing and Switching","path":"/tag/CCNP%20Routing%20and%20Switching/"}]}}]}}},"context":{}}