{"hash":"6d1e7dd52e8c17cf4930f349c6afc1a78b2e1c5e","data":{"records":{"id":"Design","title":"Design","belongsTo":{"totalCount":115,"pageInfo":{"totalPages":13,"currentPage":10},"edges":[{"node":{"__typename":"Course","id":"3770c807-3ef1-11ea-9791-1b580a556b4a","title":"Web Usability Made Simple","slug":"web-usability-made-simple","headline":"Improve your website usability with these 34 easy to understand, commonly violated, and easy to implement guidelines.","created":"24th January 2020","tags":[{"title":"Design","path":"/tag/Design/"},{"title":"User Experience","path":"/tag/User%20Experience/"},{"title":"Usability Testing","path":"/tag/Usability%20Testing/"}]}},{"node":{"__typename":"Course","id":"3770a0f2-3ef1-11ea-9791-1b580a556b4a","title":"Figure Drawing From Life Using The Reilly Technique.","slug":"figure-drawing-from-life-using-the-reilly-technique","headline":"Learn to draw the figure from life in less than 45 minutes.","created":"24th January 2020","tags":[{"title":"Design","path":"/tag/Design/"},{"title":"Graphic Design","path":"/tag/Graphic%20Design/"},{"title":"Drawing","path":"/tag/Drawing/"}]}},{"node":{"__typename":"Course","id":"377079e2-3ef1-11ea-9791-1b580a556b4a","title":"Photoshop Master Course: From Beginner to Photoshop Pro","slug":"photoshop-master-course-from-beginner-to-photoshop-pro","headline":"This Adobe Photoshop Beginner Course will teach a Beginner Photoshop user all essentials of Adobe Photoshop CC","created":"24th January 2020","tags":[{"title":"Design","path":"/tag/Design/"},{"title":"Design Tools","path":"/tag/Design%20Tools/"},{"title":"Photoshop","path":"/tag/Photoshop/"}]}},{"node":{"__typename":"Course","id":"377052d4-3ef1-11ea-9791-1b580a556b4a","title":"Color Basics for Print Designers","slug":"color-basics-for-print-designers","headline":"From Rainbows to Pantone®: Understanding Color in Print Design","created":"24th January 2020","tags":[{"title":"Design","path":"/tag/Design/"},{"title":"Graphic Design","path":"/tag/Graphic%20Design/"},{"title":"Printmaking","path":"/tag/Printmaking/"}]}},{"node":{"__typename":"Course","id":"376f1a51-3ef1-11ea-9791-1b580a556b4a","title":"Learn To Draw - The COMIC BOOK STYLE","slug":"learn-to-draw-the-comic-book-style","headline":"The best drawing course on Udemy! Feels like a live art class! Learn How To Draw and Sign Up Today!","created":"24th January 2020","tags":[{"title":"Design","path":"/tag/Design/"},{"title":"Graphic Design","path":"/tag/Graphic%20Design/"},{"title":"Comic Book Creation","path":"/tag/Comic%20Book%20Creation/"}]}},{"node":{"__typename":"Course","id":"376fdda2-3ef1-11ea-9791-1b580a556b4a","title":"Photoshop CS6 Crash Course","slug":"photoshop-c-s6-crash-course","headline":"Photoshop CS6 will be yours to command in 4 hours!","created":"24th January 2020","tags":[{"title":"Design","path":"/tag/Design/"},{"title":"Design Tools","path":"/tag/Design%20Tools/"},{"title":"Photoshop","path":"/tag/Photoshop/"}]}},{"node":{"__typename":"Course","id":"377004b0-3ef1-11ea-9791-1b580a556b4a","title":"Photoshop for Web Design Beginners","slug":"photoshop-for-web-design-beginners","headline":"Perfect Photoshop course for beginner web designers who want learn to how to make a clean simple web page design.","created":"24th January 2020","tags":[{"title":"Design","path":"/tag/Design/"},{"title":"Design Tools","path":"/tag/Design%20Tools/"},{"title":"Photoshop","path":"/tag/Photoshop/"}]}},{"node":{"__typename":"Course","id":"376ef344-3ef1-11ea-9791-1b580a556b4a","title":"Discover the 7 Secrets to Figure Drawing: Draw Awesome ...","slug":"discover-the-7-secrets-to-figure-drawing-draw-awesome","headline":"Learn how to draw people step by step in two weeks, and all from your imagination. No references.","created":"24th January 2020","tags":[{"title":"Design","path":"/tag/Design/"},{"title":"Graphic Design","path":"/tag/Graphic%20Design/"},{"title":"Figure Drawing","path":"/tag/Figure%20Drawing/"}]}},{"node":{"__typename":"Course","id":"376ecc35-3ef1-11ea-9791-1b580a556b4a","title":"Adobe Photoshop Elements 10 Made Easy","slug":"adobe-photoshop-elements-10-made-easy","headline":"Learn the secrets that make Elements as powerful as full version of Photoshop in these Photoshop Elements 10 tutorials.","created":"24th January 2020","tags":[{"title":"Design","path":"/tag/Design/"},{"title":"Design Tools","path":"/tag/Design%20Tools/"},{"title":"Photoshop","path":"/tag/Photoshop/"}]}}]}}},"context":{}}