{"hash":"6d1e7dd52e8c17cf4930f349c6afc1a78b2e1c5e","data":{"records":{"id":"Office Productivity","title":"Office Productivity","belongsTo":{"totalCount":49,"pageInfo":{"totalPages":6,"currentPage":1},"edges":[{"node":{"__typename":"Course","id":"377a8c0a-3ef1-11ea-9791-1b580a556b4a","title":"SUPPLIER RELATIONSHIP- PRACTICE TESTS-CIPS LEVEL 4 DIPLOMA","slug":"supplier-relationship-practice-tests-cips-level-4-diploma","headline":"PROCUREMENT AND SUPPLY PRACTICE TEST - CIPS  LEVEL 4 DIPLOMA","created":"24th January 2020","tags":[{"title":"Office Productivity","path":"/tag/Office%20Productivity/"},{"title":"Other","path":"/tag/Other/"}]}},{"node":{"__typename":"Course","id":"3779efc2-3ef1-11ea-9791-1b580a556b4a","title":"Create 4 Visually Effective Dashboards in Microsoft Excel","slug":"create-4-visually-effective-dashboards-in-microsoft-excel","headline":"Create Dynamic & Interactive Financial & Sales Dashboards (Templates Included) in MS Excel (2010-2019) and Office 365.","created":"24th January 2020","tags":[{"title":"Office Productivity","path":"/tag/Office%20Productivity/"},{"title":"Microsoft","path":"/tag/Microsoft/"}]}},{"node":{"__typename":"Course","id":"37792c75-3ef1-11ea-9791-1b580a556b4a","title":"Aprenda a administrar seu tempo","slug":"aprenda-a-administrar-seu-tempo","headline":"Aprenda a gerenciar seu tempo e ser mais produtivo","created":"24th January 2020","tags":[{"title":"Office Productivity","path":"/tag/Office%20Productivity/"},{"title":"Other","path":"/tag/Other/"},{"title":"Time Management","path":"/tag/Time%20Management/"}]}},{"node":{"__typename":"Course","id":"3778de5b-3ef1-11ea-9791-1b580a556b4a","title":"Impara ad usare i Fogli Google: da Base ad Avanzato","slug":"impara-ad-usare-i-fogli-google-da-base-ad-avanzato","headline":"Padroneggia i fogli di calcolo per risolvere problemi semplici e complessi","created":"24th January 2020","tags":[{"title":"Office Productivity","path":"/tag/Office%20Productivity/"},{"title":"Google","path":"/tag/Google/"}]}},{"node":{"__typename":"Course","id":"3778b740-3ef1-11ea-9791-1b580a556b4a","title":"Tự tin trong công việc với Excel 2019 / Excel 365","slug":"tu-tin-trong-cong-viec-voi-excel-2019-excel-365","headline":"Những kiến thức bạn cần biết để làm việc hiệu quả với Excel 2019 / Excel 365","created":"24th January 2020","tags":[{"title":"Office Productivity","path":"/tag/Office%20Productivity/"},{"title":"Microsoft","path":"/tag/Microsoft/"},{"title":"Excel","path":"/tag/Excel/"}]}},{"node":{"__typename":"Course","id":"37786920-3ef1-11ea-9791-1b580a556b4a","title":"Best Business Productivity Training Course","slug":"best-business-productivity-training-course","headline":"Discover The Hidden Secrets Of Exceptional Productivity!","created":"24th January 2020","tags":[{"title":"Business","path":"/tag/Business/"},{"title":"Project Management","path":"/tag/Project%20Management/"},{"title":"Office Productivity","path":"/tag/Office%20Productivity/"}]}},{"node":{"__typename":"Course","id":"377730aa-3ef1-11ea-9791-1b580a556b4a","title":"QuickBooks Pro 2013 Training the Easy Way","slug":"quick-books-pro-2013-training-the-easy-way","headline":"Learn how to manage the finances for a small business using our drop-dead simple method to mastering QuickBooks Pro.","created":"24th January 2020","tags":[{"title":"Office Productivity","path":"/tag/Office%20Productivity/"},{"title":"Other","path":"/tag/Other/"},{"title":"QuickBooks Pro","path":"/tag/QuickBooks%20Pro/"}]}},{"node":{"__typename":"Course","id":"37770999-3ef1-11ea-9791-1b580a556b4a","title":"Microsoft Access 2010 Training - Advanced","slug":"microsoft-access-2010-training-advanced","headline":"Upgrading your Microsoft Access skills is a smart move for any professional.","created":"24th January 2020","tags":[{"title":"Office Productivity","path":"/tag/Office%20Productivity/"},{"title":"Microsoft","path":"/tag/Microsoft/"},{"title":"Microsoft Access","path":"/tag/Microsoft%20Access/"}]}},{"node":{"__typename":"Course","id":"377730a0-3ef1-11ea-9791-1b580a556b4a","title":"Microsoft Access 2010 Training - Beginners/Intermediate","slug":"microsoft-access-2010-training-beginners-intermediate","headline":"Upgrading your Microsoft Access skills is a smart move for any professional.","created":"24th January 2020","tags":[{"title":"Office Productivity","path":"/tag/Office%20Productivity/"},{"title":"Microsoft","path":"/tag/Microsoft/"},{"title":"Microsoft Access","path":"/tag/Microsoft%20Access/"}]}}]}}},"context":{}}