{"hash":"6d1e7dd52e8c17cf4930f349c6afc1a78b2e1c5e","data":{"records":{"id":"IT & Software","title":"IT & Software","belongsTo":{"totalCount":122,"pageInfo":{"totalPages":14,"currentPage":11},"edges":[{"node":{"__typename":"Course","id":"3777a5d6-3ef1-11ea-9791-1b580a556b4a","title":"ABC of VMWARE NSX-T 2.4 Part1","slug":"abc-of-vmware-nsx-t-2-4-part1","headline":"Learn NSX with Ratnesh K 2xCCIE","created":"24th January 2020","tags":[{"title":"IT & Software","path":"/tag/IT%20%26%20Software/"},{"title":"Network & Security","path":"/tag/Network%20%26%20Security/"},{"title":"VMware Nsx","path":"/tag/VMware%20Nsx/"}]}},{"node":{"__typename":"Course","id":"3777a5d9-3ef1-11ea-9791-1b580a556b4a","title":"AWS Certified Cloud Practitioner(CLF-C01) Practice Exam(MCQ)","slug":"aws-certified-cloud-practitioner-clf-c01-practice-exam-mcq","headline":"Prepare for your AWS Certified Cloud Practitioner (CLF-C01) Exam using the practice test/question bank.","created":"24th January 2020","tags":[{"title":"IT & Software","path":"/tag/IT%20%26%20Software/"},{"title":"IT Certification","path":"/tag/IT%20Certification/"}]}},{"node":{"__typename":"Course","id":"377757b1-3ef1-11ea-9791-1b580a556b4a","title":"The Definitive Guide For Website Owners","slug":"the-definitive-guide-for-website-owners","headline":"Learn how to understand your Web Designer and how to make the right choices for your website.","created":"24th January 2020","tags":[{"title":"IT & Software","path":"/tag/IT%20%26%20Software/"},{"title":"Other","path":"/tag/Other/"},{"title":"Web Development","path":"/tag/Web%20Development/"}]}},{"node":{"__typename":"Course","id":"377757b5-3ef1-11ea-9791-1b580a556b4a","title":"Oracle Manufacturing Cloud Implementation Essentials","slug":"oracle-manufacturing-cloud-implementation-essentials","headline":"Pass Oracle Manufacturing Cloud Implementation Essentials | 1Z0-348 exam on the first attempt.","created":"24th January 2020","tags":[{"title":"IT & Software","path":"/tag/IT%20%26%20Software/"},{"title":"IT Certification","path":"/tag/IT%20Certification/"}]}},{"node":{"__typename":"Course","id":"377757b8-3ef1-11ea-9791-1b580a556b4a","title":"LDAP Server Administration in 1 Hour","slug":"ldap-server-administration-in-1-hour","headline":"(Learn Essentials of LDAP and boost your career)","created":"24th January 2020","tags":[{"title":"IT & Software","path":"/tag/IT%20%26%20Software/"},{"title":"IT Certification","path":"/tag/IT%20Certification/"},{"title":"LDAP","path":"/tag/LDAP/"}]}},{"node":{"__typename":"Course","id":"377757b9-3ef1-11ea-9791-1b580a556b4a","title":"[NEW] Cyber Security 2020","slug":"new-cyber-security-2020","headline":"web security and clever attacks, defenses, and techniques for writing secure code","created":"24th January 2020","tags":[{"title":"IT & Software","path":"/tag/IT%20%26%20Software/"},{"title":"Network & Security","path":"/tag/Network%20%26%20Security/"},{"title":"Web Security","path":"/tag/Web%20Security/"}]}},{"node":{"__typename":"Course","id":"37777ec3-3ef1-11ea-9791-1b580a556b4a","title":"AWS認定 Solutions Architect Associate試験問題(2020)","slug":"aws-solutions-architect-associate-2020","headline":"AWS認定 SAA試験問題に絶対合格","created":"24th January 2020","tags":[{"title":"IT & Software","path":"/tag/IT%20%26%20Software/"},{"title":"IT Certification","path":"/tag/IT%20Certification/"}]}},{"node":{"__typename":"Course","id":"3776bb76-3ef1-11ea-9791-1b580a556b4a","title":"CCNA Security 2019 210-260 Video Boot Camp With Chris Bryant","slug":"ccna-security-2019-210-260-video-boot-camp-with-chris-bryant","headline":"Earn Your CCNA Security 210-260 Certification AND Prepare For Real-World Networking Success!","created":"24th January 2020","tags":[{"title":"IT & Software","path":"/tag/IT%20%26%20Software/"},{"title":"IT Certification","path":"/tag/IT%20Certification/"},{"title":"Cisco CCNA","path":"/tag/Cisco%20CCNA/"}]}},{"node":{"__typename":"Course","id":"37764644-3ef1-11ea-9791-1b580a556b4a","title":"Operador Debian GNU/Linux","slug":"operador-debian-gnu-linux","headline":"Aprenda como usar Debian GNU/Linux a nivel básico, explicado paso a paso.","created":"24th January 2020","tags":[{"title":"IT & Software","path":"/tag/IT%20%26%20Software/"},{"title":"Network & Security","path":"/tag/Network%20%26%20Security/"},{"title":"GNU","path":"/tag/GNU/"}]}}]}}},"context":{}}