{"hash":"6d1e7dd52e8c17cf4930f349c6afc1a78b2e1c5e","data":{"records":{"id":"Communications","title":"Communications","belongsTo":{"totalCount":17,"pageInfo":{"totalPages":2,"currentPage":2},"edges":[{"node":{"__typename":"Course","id":"37742366-3ef1-11ea-9791-1b580a556b4a","title":"Business Writing","slug":"business-writing","headline":"Learn how to write effective, efficient business correspondence from the experts at Webucator Training.","created":"24th January 2020","tags":[{"title":"Business","path":"/tag/Business/"},{"title":"Communications","path":"/tag/Communications/"},{"title":"Business Writing","path":"/tag/Business%20Writing/"}]}},{"node":{"__typename":"Course","id":"3773ae36-3ef1-11ea-9791-1b580a556b4a","title":"Writing to Heal. Using journaling to transform your life","slug":"writing-to-heal-using-journaling-to-transform-your-life","headline":"Create lasting change through journaling, writing, reflecting and creative writing exercises. Memoir preparation","created":"24th January 2020","tags":[{"title":"Business","path":"/tag/Business/"},{"title":"Communications","path":"/tag/Communications/"},{"title":"Journaling","path":"/tag/Journaling/"}]}},{"node":{"__typename":"Course","id":"37729cc8-3ef1-11ea-9791-1b580a556b4a","title":"Public Speaking, presentations - painless and powerful","slug":"public-speaking-presentations-painless-and-powerful","headline":"Public speaking ? Forget the fear and learn to enjoy giving fantastic presentations . Powerful, persuasive, confident.","created":"24th January 2020","tags":[{"title":"Business","path":"/tag/Business/"},{"title":"Communications","path":"/tag/Communications/"},{"title":"Presentation Skills","path":"/tag/Presentation%20Skills/"}]}},{"node":{"__typename":"Course","id":"3772c3d3-3ef1-11ea-9791-1b580a556b4a","title":"How to Write a Thesis","slug":"how-to-write-a-thesis","headline":"Need to write a thesis to graduate? Here's how!","created":"24th January 2020","tags":[{"title":"Business","path":"/tag/Business/"},{"title":"Communications","path":"/tag/Communications/"},{"title":"Academic Writing","path":"/tag/Academic%20Writing/"}]}},{"node":{"__typename":"Course","id":"37722799-3ef1-11ea-9791-1b580a556b4a","title":"Working with Difficult People","slug":"working-with-difficult-people","headline":"Learn How to Work with Difficult People in a Work Environment","created":"24th January 2020","tags":[{"title":"Business","path":"/tag/Business/"},{"title":"Communications","path":"/tag/Communications/"},{"title":"Communication Skills","path":"/tag/Communication%20Skills/"}]}},{"node":{"__typename":"Course","id":"376ea522-3ef1-11ea-9791-1b580a556b4a","title":"Powerful Business Writing #2 – How to Write in Fewer Words","slug":"powerful-business-writing-2-how-to-write-in-fewer-words","headline":"Boost your business writing skills – tips & cheat sheets for concise, professional and powerful writing.","created":"24th January 2020","tags":[{"title":"Business","path":"/tag/Business/"},{"title":"Communications","path":"/tag/Communications/"},{"title":"Business Writing","path":"/tag/Business%20Writing/"}]}},{"node":{"__typename":"Course","id":"376c5b30-3ef1-11ea-9791-1b580a556b4a","title":"Speak Up! Stand Out and be HAPPY","slug":"speak-up-stand-out-and-be-happy","headline":"Polish your communication skills by learning simple techniques + easy adjustments to your mind, voice + body.","created":"24th January 2020","tags":[{"title":"Business","path":"/tag/Business/"},{"title":"Communications","path":"/tag/Communications/"},{"title":"Public Speaking","path":"/tag/Public%20Speaking/"}]}},{"node":{"__typename":"Course","id":"376c5b34-3ef1-11ea-9791-1b580a556b4a","title":"Block Buster: Overcoming Writer's Block","slug":"block-buster-overcoming-writer-s-block","headline":"Stuck in writing? Learn the best creative writing exercises out there to help you overcome writer's block!","created":"24th January 2020","tags":[{"title":"Business","path":"/tag/Business/"},{"title":"Communications","path":"/tag/Communications/"},{"title":"Brainstorming Strategies","path":"/tag/Brainstorming%20Strategies/"}]}}]}}},"context":{}}