{"hash":"6d1e7dd52e8c17cf4930f349c6afc1a78b2e1c5e","data":{"records":{"id":"Business","title":"Business","belongsTo":{"totalCount":119,"pageInfo":{"totalPages":14,"currentPage":5},"edges":[{"node":{"__typename":"Course","id":"3775aa05-3ef1-11ea-9791-1b580a556b4a","title":"Getting Started as a Wedding and Event Planner","slug":"getting-started-as-a-wedding-and-event-planner","headline":"Getting experience, building a portfolio, types of services offered, mistakes to avoid and much more!","created":"24th January 2020","tags":[{"title":"Business","path":"/tag/Business/"},{"title":"Industry","path":"/tag/Industry/"},{"title":"Wedding Planning","path":"/tag/Wedding%20Planning/"}]}},{"node":{"__typename":"Course","id":"3775aa08-3ef1-11ea-9791-1b580a556b4a","title":"Learn about Eastern Medicine and Energy Psychology","slug":"learn-about-eastern-medicine-and-energy-psychology","headline":"Learn about the principles of Eastern Medicine and the definition of Energy Psychology and its basic schools.","created":"24th January 2020","tags":[{"title":"Business","path":"/tag/Business/"},{"title":"Industry","path":"/tag/Industry/"},{"title":"Energy Psychology","path":"/tag/Energy%20Psychology/"}]}},{"node":{"__typename":"Course","id":"377534d7-3ef1-11ea-9791-1b580a556b4a","title":"For 2019 - Product Creation Profits With A Twist","slug":"for-2019-product-creation-profits-with-a-twist","headline":"This Is So Easy Even A TOTAL NEWBIE Can Do It, Thanks To My Simple Step By Step ‘Join-The-Dots’ System","created":"24th January 2020","tags":[{"title":"Business","path":"/tag/Business/"},{"title":"Operations","path":"/tag/Operations/"},{"title":"Product Management","path":"/tag/Product%20Management/"}]}},{"node":{"__typename":"Course","id":"377534d8-3ef1-11ea-9791-1b580a556b4a","title":"Enter your Business successfully in LATIN countries!","slug":"enter-your-business-successfully-in-latin-countries","headline":"Learn the basis which will let you understand the success keys to make business based on Internet there.","created":"24th January 2020","tags":[{"title":"Business","path":"/tag/Business/"},{"title":"Strategy","path":"/tag/Strategy/"},{"title":"Business Strategy","path":"/tag/Business%20Strategy/"}]}},{"node":{"__typename":"Course","id":"37755be1-3ef1-11ea-9791-1b580a556b4a","title":"How To Crowdfund","slug":"how-to-crowdfund","headline":"This course will discuss all aspects of crowdfunding. By the end, you will know how to use crowdfunding.","created":"24th January 2020","tags":[{"title":"Business","path":"/tag/Business/"},{"title":"Finance","path":"/tag/Finance/"},{"title":"Crowdfunding","path":"/tag/Crowdfunding/"}]}},{"node":{"__typename":"Course","id":"37755be2-3ef1-11ea-9791-1b580a556b4a","title":"How to Write an Effective Research Paper","slug":"how-to-write-an-effective-research-paper","headline":"Learn how to write award-winning research papers with easy steps. Includes examples and a research paper template.","created":"24th January 2020","tags":[{"title":"Business","path":"/tag/Business/"},{"title":"Communications","path":"/tag/Communications/"},{"title":"Research Paper Writing","path":"/tag/Research%20Paper%20Writing/"}]}},{"node":{"__typename":"Course","id":"37755be5-3ef1-11ea-9791-1b580a556b4a","title":"Persuasive Presentations: Write, Deliver and move audiences!","slug":"persuasive-presentations-write-deliver-and-move-audiences","headline":"Learn now how to be a successful speaker. Everything you need to know: from slides to communication, avoiding mistakes!","created":"24th January 2020","tags":[{"title":"Business","path":"/tag/Business/"},{"title":"Communications","path":"/tag/Communications/"},{"title":"Presentation Skills","path":"/tag/Presentation%20Skills/"}]}},{"node":{"__typename":"Course","id":"37750dc0-3ef1-11ea-9791-1b580a556b4a","title":"Create Stunning Promo Videos in 30 Minutes or Less","slug":"create-stunning-promo-videos-in-30-minutes-or-less","headline":"Like us on Facebook or Twitter.","created":"24th January 2020","tags":[{"title":"Business","path":"/tag/Business/"},{"title":"Media","path":"/tag/Media/"},{"title":"Promotional Video","path":"/tag/Promotional%20Video/"}]}},{"node":{"__typename":"Course","id":"37750dc1-3ef1-11ea-9791-1b580a556b4a","title":"Entrepreneur Success Series","slug":"entrepreneur-success-series","headline":"Learn The Secrets & Stories Of Famous Entrepreneurs. Learn how to become a successful entrepreneur.","created":"24th January 2020","tags":[{"title":"Business","path":"/tag/Business/"},{"title":"Entrepreneurship","path":"/tag/Entrepreneurship/"},{"title":"Entrepreneurship Fundamentals","path":"/tag/Entrepreneurship%20Fundamentals/"}]}}]}}},"context":{}}