{"hash":"6d1e7dd52e8c17cf4930f349c6afc1a78b2e1c5e","data":{"records":{"id":"Teaching & Academics","title":"Teaching & Academics","belongsTo":{"totalCount":57,"pageInfo":{"totalPages":7,"currentPage":6},"edges":[{"node":{"__typename":"Course","id":"37702bc6-3ef1-11ea-9791-1b580a556b4a","title":"Math is Everywhere: Applications of Finite Math","slug":"math-is-everywhere-applications-of-finite-math","headline":"Computer fonts, Angry Birds, March Madness, and Google - sound like fun? Indeed, math influences the world around us.","created":"24th January 2020","tags":[{"title":"Teaching & Academics","path":"/tag/Teaching%20%26%20Academics/"},{"title":"Math","path":"/tag/Math/"}]}},{"node":{"__typename":"Course","id":"377004b8-3ef1-11ea-9791-1b580a556b4a","title":"Basic English Module 1","slug":"basic-english-module-1","headline":"Learn the basic concepts of the English Language: Introductions, the alphabet, numbers, and basic grammar tenses.","created":"24th January 2020","tags":[{"title":"Teaching & Academics","path":"/tag/Teaching%20%26%20Academics/"},{"title":"Language","path":"/tag/Language/"},{"title":"English Language","path":"/tag/English%20Language/"}]}},{"node":{"__typename":"Course","id":"376ef343-3ef1-11ea-9791-1b580a556b4a","title":"How to Create an Awesome Online Course","slug":"how-to-create-an-awesome-online-course","headline":"Miguel Hernandez reveals all the secrets he uses to make over 90K a year teaching online","created":"24th January 2020","tags":[{"title":"Teaching & Academics","path":"/tag/Teaching%20%26%20Academics/"},{"title":"Online Education","path":"/tag/Online%20Education/"},{"title":"Online Course Creation","path":"/tag/Online%20Course%20Creation/"}]}},{"node":{"__typename":"Course","id":"376e5704-3ef1-11ea-9791-1b580a556b4a","title":"The Neuroscience of Reframing & How to Do It","slug":"the-neuroscience-of-reframing-and-how-to-do-it","headline":"Reframing should be in the water we drink, scientists say. But how does reframing work - and what happens in the brain?","created":"24th January 2020","tags":[{"title":"Teaching & Academics","path":"/tag/Teaching%20%26%20Academics/"},{"title":"Social Science","path":"/tag/Social%20Science/"},{"title":"Neuroscience","path":"/tag/Neuroscience/"}]}},{"node":{"__typename":"Course","id":"376e2ff3-3ef1-11ea-9791-1b580a556b4a","title":"Elixir: A History of Water and Humans","slug":"elixir-a-history-of-water-and-humans","headline":"Facts and information about water and the story of changing human relationships with water over the past 10,000 years.","created":"24th January 2020","tags":[{"title":"Teaching & Academics","path":"/tag/Teaching%20%26%20Academics/"},{"title":"Other Teaching & Academics","path":"/tag/Other%20Teaching%20%26%20Academics/"},{"title":"Elixir","path":"/tag/Elixir/"}]}},{"node":{"__typename":"Course","id":"376e5702-3ef1-11ea-9791-1b580a556b4a","title":"Is American Democracy Broken? Perspectives and Debates","slug":"is-american-democracy-broken-perspectives-and-debates","headline":"Key challenges to American democracy in today's volatile political climate","created":"24th January 2020","tags":[{"title":"Teaching & Academics","path":"/tag/Teaching%20%26%20Academics/"},{"title":"Social Science","path":"/tag/Social%20Science/"},{"title":"Political Science","path":"/tag/Political%20Science/"}]}},{"node":{"__typename":"Course","id":"376e08e4-3ef1-11ea-9791-1b580a556b4a","title":"Speak English Like a Native: Troubleshooting Course for ESL","slug":"speak-english-like-a-native-troubleshooting-course-for-esl","headline":"English language students, learn conversation skills with over 50 video lectures in this Basic English language course.","created":"24th January 2020","tags":[{"title":"Teaching & Academics","path":"/tag/Teaching%20%26%20Academics/"},{"title":"Language","path":"/tag/Language/"},{"title":"ESL","path":"/tag/ESL/"}]}},{"node":{"__typename":"Course","id":"376de1d0-3ef1-11ea-9791-1b580a556b4a","title":"Brazil for Beginners","slug":"brazil-for-beginners","headline":"Learn Interesting facts about Brazil and how Brazil emerges on the world stage.","created":"24th January 2020","tags":[{"title":"Teaching & Academics","path":"/tag/Teaching%20%26%20Academics/"},{"title":"Humanities","path":"/tag/Humanities/"},{"title":"History","path":"/tag/History/"}]}},{"node":{"__typename":"Course","id":"376cd061-3ef1-11ea-9791-1b580a556b4a","title":"Spanish 1-4: Beginner, Elementary, Intermediate and Advanced","slug":"spanish-1-4-beginner-elementary-intermediate-and-advanced","headline":"Learn Spanish with 323 lessons (109 hours of content) covering Beginner, Elementary, Intermediate and Advanced Spanish.","created":"24th January 2020","tags":[{"title":"Teaching & Academics","path":"/tag/Teaching%20%26%20Academics/"},{"title":"Language","path":"/tag/Language/"},{"title":"Spanish Language","path":"/tag/Spanish%20Language/"}]}}]}}},"context":{}}