{"hash":"6d1e7dd52e8c17cf4930f349c6afc1a78b2e1c5e","data":{"records":{"id":"Business","title":"Business","belongsTo":{"totalCount":119,"pageInfo":{"totalPages":14,"currentPage":8},"edges":[{"node":{"__typename":"Course","id":"37742366-3ef1-11ea-9791-1b580a556b4a","title":"Business Writing","slug":"business-writing","headline":"Learn how to write effective, efficient business correspondence from the experts at Webucator Training.","created":"24th January 2020","tags":[{"title":"Business","path":"/tag/Business/"},{"title":"Communications","path":"/tag/Communications/"},{"title":"Business Writing","path":"/tag/Business%20Writing/"}]}},{"node":{"__typename":"Course","id":"37744a72-3ef1-11ea-9791-1b580a556b4a","title":"Social Media Finance Course: Fintech 2018 Trends","slug":"social-media-finance-course-fintech-2018-trends","headline":"Unlock financing for your start up or business with social media and fintech platforms. Insights into Fintech Marketing","created":"24th January 2020","tags":[{"title":"Business","path":"/tag/Business/"},{"title":"Finance","path":"/tag/Finance/"},{"title":"Social Media Marketing","path":"/tag/Social%20Media%20Marketing/"}]}},{"node":{"__typename":"Course","id":"37742360-3ef1-11ea-9791-1b580a556b4a","title":"Success Beyond Sales","slug":"success-beyond-sales","headline":"A Breakthrough in Influence and Persuasion","created":"24th January 2020","tags":[{"title":"Business","path":"/tag/Business/"},{"title":"Sales","path":"/tag/Sales/"},{"title":"Sales Skills","path":"/tag/Sales%20Skills/"}]}},{"node":{"__typename":"Course","id":"3773ae36-3ef1-11ea-9791-1b580a556b4a","title":"Writing to Heal. Using journaling to transform your life","slug":"writing-to-heal-using-journaling-to-transform-your-life","headline":"Create lasting change through journaling, writing, reflecting and creative writing exercises. Memoir preparation","created":"24th January 2020","tags":[{"title":"Business","path":"/tag/Business/"},{"title":"Communications","path":"/tag/Communications/"},{"title":"Journaling","path":"/tag/Journaling/"}]}},{"node":{"__typename":"Course","id":"3773d542-3ef1-11ea-9791-1b580a556b4a","title":"How to Bring the Right Business Ideas to Life","slug":"how-to-bring-the-right-business-ideas-to-life","headline":"Tips, Tricks & Practical applications for creating multiple streams of income from more residual income opportunities.","created":"24th January 2020","tags":[{"title":"Business","path":"/tag/Business/"},{"title":"Home Business","path":"/tag/Home%20Business/"},{"title":"Business Idea Generation","path":"/tag/Business%20Idea%20Generation/"}]}},{"node":{"__typename":"Course","id":"37738726-3ef1-11ea-9791-1b580a556b4a","title":"How to Prosper and Thrive as a DIY Musician","slug":"how-to-prosper-and-thrive-as-a-diy-musician","headline":"Learn how to promote your music and engage with fans to build up your fan base.","created":"24th January 2020","tags":[{"title":"Business","path":"/tag/Business/"},{"title":"Industry","path":"/tag/Industry/"},{"title":"Music Marketing","path":"/tag/Music%20Marketing/"}]}},{"node":{"__typename":"Course","id":"3772c3da-3ef1-11ea-9791-1b580a556b4a","title":"Drafting Social Media Policies","slug":"drafting-social-media-policies","headline":"Learn Social Media Policy for Business, Corporate Social Media Policy Examples. Includes a Social Media Policy Template.","created":"24th January 2020","tags":[{"title":"Business","path":"/tag/Business/"},{"title":"Human Resources","path":"/tag/Human%20Resources/"},{"title":"Social Media Marketing","path":"/tag/Social%20Media%20Marketing/"}]}},{"node":{"__typename":"Course","id":"37729cc8-3ef1-11ea-9791-1b580a556b4a","title":"Public Speaking, presentations - painless and powerful","slug":"public-speaking-presentations-painless-and-powerful","headline":"Public speaking ? Forget the fear and learn to enjoy giving fantastic presentations . Powerful, persuasive, confident.","created":"24th January 2020","tags":[{"title":"Business","path":"/tag/Business/"},{"title":"Communications","path":"/tag/Communications/"},{"title":"Presentation Skills","path":"/tag/Presentation%20Skills/"}]}},{"node":{"__typename":"Course","id":"3772c3d1-3ef1-11ea-9791-1b580a556b4a","title":"Outsource Expert: Find Great Freelancers for your Projects","slug":"outsource-expert-find-great-freelancers-for-your-projects","headline":"Everything you need to find and manage great freelancers. Turn the ideas in your head into reality through outsourcing!","created":"24th January 2020","tags":[{"title":"Business","path":"/tag/Business/"},{"title":"Operations","path":"/tag/Operations/"},{"title":"Outsourcing","path":"/tag/Outsourcing/"}]}}]}}},"context":{}}