{"hash":"6d1e7dd52e8c17cf4930f349c6afc1a78b2e1c5e","data":{"records":{"id":"Entrepreneurship","title":"Entrepreneurship","belongsTo":{"totalCount":17,"pageInfo":{"totalPages":2,"currentPage":2},"edges":[{"node":{"__typename":"Course","id":"377004b5-3ef1-11ea-9791-1b580a556b4a","title":"From Startup to Millions Before 30: Part 2","slug":"from-startup-to-millions-before-30-part-2","headline":"Part 2 of a comprehensive, in-depth, video series on starting and growing a business as a young entrepreneur.","created":"24th January 2020","tags":[{"title":"Business","path":"/tag/Business/"},{"title":"Entrepreneurship","path":"/tag/Entrepreneurship/"},{"title":"Startup","path":"/tag/Startup/"}]}},{"node":{"__typename":"Course","id":"376ef340-3ef1-11ea-9791-1b580a556b4a","title":"Vet Your Startup Ideas With the Startup Matrix","slug":"vet-your-startup-ideas-with-the-startup-matrix","headline":"A bulletproof way to ensure that your product ideas are worth pursuing.","created":"24th January 2020","tags":[{"title":"Business","path":"/tag/Business/"},{"title":"Entrepreneurship","path":"/tag/Entrepreneurship/"},{"title":"Startup","path":"/tag/Startup/"}]}},{"node":{"__typename":"Course","id":"376ecc32-3ef1-11ea-9791-1b580a556b4a","title":"Build. Measure. Learn. Lean Startup SXSW 2012.","slug":"build-measure-learn-lean-startup-sxsw-2012","headline":"Become a Lean Startup Guru. Learn Lean Methodology from Lean experts like Eric Ries, Steve Blank, and more.","created":"24th January 2020","tags":[{"title":"Business","path":"/tag/Business/"},{"title":"Entrepreneurship","path":"/tag/Entrepreneurship/"},{"title":"Lean Startup","path":"/tag/Lean%20Startup/"}]}},{"node":{"__typename":"Course","id":"376cf773-3ef1-11ea-9791-1b580a556b4a","title":"Getting Investors for Your Business Startup","slug":"getting-investors-for-your-business-startup","headline":"Everything you need to know to raise funds to get your business started","created":"24th January 2020","tags":[{"title":"Business","path":"/tag/Business/"},{"title":"Entrepreneurship","path":"/tag/Entrepreneurship/"},{"title":"Business Strategy","path":"/tag/Business%20Strategy/"}]}},{"node":{"__typename":"Course","id":"376cf774-3ef1-11ea-9791-1b580a556b4a","title":"Introduction to Entrepreneurship","slug":"introduction-to-entrepreneurship","headline":"Everything you need to know to make it as a successful entrepreneur","created":"24th January 2020","tags":[{"title":"Business","path":"/tag/Business/"},{"title":"Entrepreneurship","path":"/tag/Entrepreneurship/"},{"title":"Entrepreneurship Fundamentals","path":"/tag/Entrepreneurship%20Fundamentals/"}]}},{"node":{"__typename":"Course","id":"376c0d11-3ef1-11ea-9791-1b580a556b4a","title":"How to Start a Business","slug":"how-to-start-a-business","headline":"The most comprehensive online course for starting and growing your own business.","created":"24th January 2020","tags":[{"title":"Business","path":"/tag/Business/"},{"title":"Entrepreneurship","path":"/tag/Entrepreneurship/"},{"title":"Entrepreneurship Fundamentals","path":"/tag/Entrepreneurship%20Fundamentals/"}]}},{"node":{"__typename":"Course","id":"376bbef0-3ef1-11ea-9791-1b580a556b4a","title":"The Lean Startup","slug":"the-lean-startup","headline":"Learn how to apply the method that is transforming how new products are built and launched.","created":"24th January 2020","tags":[{"title":"Business","path":"/tag/Business/"},{"title":"Entrepreneurship","path":"/tag/Entrepreneurship/"},{"title":"Lean Startup","path":"/tag/Lean%20Startup/"}]}},{"node":{"__typename":"Course","id":"376a8673-3ef1-11ea-9791-1b580a556b4a","title":"The Lean Startup Talk at Stanford E-Corner","slug":"the-lean-startup-talk-at-stanford-e-corner","headline":"Debunking Myths of Entrepreneurship A startup is not a \"doll house\" version of a larger enterprise.","created":"24th January 2020","tags":[{"title":"Business","path":"/tag/Business/"},{"title":"Entrepreneurship","path":"/tag/Entrepreneurship/"},{"title":"Lean Startup","path":"/tag/Lean%20Startup/"}]}}]}}},"context":{}}