{"hash":"6d1e7dd52e8c17cf4930f349c6afc1a78b2e1c5e","data":{"records":{"id":"Finance & Accounting","title":"Finance & Accounting","belongsTo":{"totalCount":13,"pageInfo":{"totalPages":2,"currentPage":2},"edges":[{"node":{"__typename":"Course","id":"37777ec6-3ef1-11ea-9791-1b580a556b4a","title":"NEW YORK EARNINGS ( POST/PRIOR TRADES-STRADDLE/IRON CONDOR )","slug":"new-york-earnings-post-prior-trades-straddle-iron-condor","headline":"2020 - HOW TO GET THE MOST OUT OF AN EARNINGS EVENT WITHOUT TAKING ANY DIRECTIONAL RISK","created":"24th January 2020","tags":[{"title":"Finance & Accounting","path":"/tag/Finance%20%26%20Accounting/"},{"title":"Investing & Trading","path":"/tag/Investing%20%26%20Trading/"},{"title":"Options Trading","path":"/tag/Options%20Trading/"}]}},{"node":{"__typename":"Course","id":"37777ec9-3ef1-11ea-9791-1b580a556b4a","title":"Test","slug":"test","headline":"Lorem ipsum dolor sit amet, consetetur sadipscing elitr, sed diam nonumy eirmod tempor invidunt ut labore et dolore magn","created":"24th January 2020","tags":[{"title":"Finance & Accounting","path":"/tag/Finance%20%26%20Accounting/"},{"title":"Cryptocurrency & Blockchain","path":"/tag/Cryptocurrency%20%26%20Blockchain/"}]}},{"node":{"__typename":"Course","id":"377757b3-3ef1-11ea-9791-1b580a556b4a","title":"ACI Dealing Certificate","slug":"aci-dealing-certificate","headline":"Pass ACI Dealing Certificate Exam on the first attempt.","created":"24th January 2020","tags":[{"title":"Finance & Accounting","path":"/tag/Finance%20%26%20Accounting/"},{"title":"Finance Cert & Exam Prep","path":"/tag/Finance%20Cert%20%26%20Exam%20Prep/"}]}},{"node":{"__typename":"Course","id":"377757ba-3ef1-11ea-9791-1b580a556b4a","title":"Morgan教你学习量化投资与程序化交易 (EP8:量化择时:打造自己的多空系统)","slug":"morgan-e-p8","headline":"- Quantitative Investing & Algorithm Trading","created":"24th January 2020","tags":[{"title":"Finance & Accounting","path":"/tag/Finance%20%26%20Accounting/"},{"title":"Investing & Trading","path":"/tag/Investing%20%26%20Trading/"},{"title":"Investing","path":"/tag/Investing/"}]}}]}}},"context":{}}