{"hash":"6d1e7dd52e8c17cf4930f349c6afc1a78b2e1c5e","data":{"records":{"id":"Photography","title":"Photography","belongsTo":{"totalCount":17,"pageInfo":{"totalPages":2,"currentPage":1},"edges":[{"node":{"__typename":"Course","id":"3779efc3-3ef1-11ea-9791-1b580a556b4a","title":"Creating Custom Grunge Brushes In Photoshop","slug":"creating-custom-grunge-brushes-in-photoshop","headline":"Experiment with textures, filters, and layer blend modes.","created":"24th January 2020","tags":[{"title":"Photography","path":"/tag/Photography/"},{"title":"Other","path":"/tag/Other/"},{"title":"Photoshop","path":"/tag/Photoshop/"}]}},{"node":{"__typename":"Course","id":"3777a5d8-3ef1-11ea-9791-1b580a556b4a","title":"Any light will do","slug":"any-light-will-do","headline":"How to shoot amazing images with literally any light source, from lightbulbs to Christmas lights.","created":"24th January 2020","tags":[{"title":"Photography","path":"/tag/Photography/"},{"title":"Portraits","path":"/tag/Portraits/"},{"title":"Photography Lighting","path":"/tag/Photography%20Lighting/"}]}},{"node":{"__typename":"Course","id":"37764643-3ef1-11ea-9791-1b580a556b4a","title":"Natural Light Fashion / Beauty Photography","slug":"natural-light-fashion-beauty-photography","headline":"Natural light is a popular way for fashion or beauty photography. We explore modern methods of natural light photography","created":"24th January 2020","tags":[{"title":"Photography","path":"/tag/Photography/"},{"title":"Commercial Photography","path":"/tag/Commercial%20Photography/"},{"title":"Fashion Photography","path":"/tag/Fashion%20Photography/"}]}},{"node":{"__typename":"Course","id":"3774718b-3ef1-11ea-9791-1b580a556b4a","title":"Night Photography Unlocked - No More Dark or Blurry Photos!","slug":"night-photography-unlocked-no-more-dark-or-blurry-photos","headline":"Take beautiful photos that capture the magic of the night and avoid night photo traps. Use any camera from phone to SLR.","created":"24th January 2020","tags":[{"title":"Photography","path":"/tag/Photography/"},{"title":"Photography Fundamentals","path":"/tag/Photography%20Fundamentals/"},{"title":"Night Photography","path":"/tag/Night%20Photography/"}]}},{"node":{"__typename":"Course","id":"37749891-3ef1-11ea-9791-1b580a556b4a","title":"Portrait Photography with Simple Gear","slug":"portrait-photography-with-simple-gear","headline":"Online Photography course - Using simple lighting gear to get much better portraits... from mild to wild.","created":"24th January 2020","tags":[{"title":"Photography","path":"/tag/Photography/"},{"title":"Portraits","path":"/tag/Portraits/"},{"title":"Portrait Photography","path":"/tag/Portrait%20Photography/"}]}},{"node":{"__typename":"Course","id":"37744a73-3ef1-11ea-9791-1b580a556b4a","title":"How to Take Better Photos of Your Kids","slug":"how-to-take-better-photos-of-your-kids","headline":"Learn simple techniques with your digital SLR camera to create amazing and memorable photos of your kids.","created":"24th January 2020","tags":[{"title":"Photography","path":"/tag/Photography/"},{"title":"Digital Photography","path":"/tag/Digital%20Photography/"}]}},{"node":{"__typename":"Course","id":"37742368-3ef1-11ea-9791-1b580a556b4a","title":"iPhone Photography Secrets","slug":"i-phone-photography-secrets","headline":"You'll learn the tools, techniques, and iPhone photography tips to create gorgeous iPhone photographs.","created":"24th January 2020","tags":[{"title":"Photography","path":"/tag/Photography/"},{"title":"Digital Photography","path":"/tag/Digital%20Photography/"},{"title":"iPhone Photography","path":"/tag/iPhone%20Photography/"}]}},{"node":{"__typename":"Course","id":"3773d54a-3ef1-11ea-9791-1b580a556b4a","title":"Final Cut Pro 7 from Scratch: Become a Great Video Editor","slug":"final-cut-pro-7-from-scratch-become-a-great-video-editor","headline":"A complete, step-by-step video editing course covering all the basics using Final Cut Pro 7 tutorial! Cheers!","created":"24th January 2020","tags":[{"title":"Photography","path":"/tag/Photography/"},{"title":"Video Design","path":"/tag/Video%20Design/"},{"title":"Final Cut Pro","path":"/tag/Final%20Cut%20Pro/"}]}},{"node":{"__typename":"Course","id":"3773872b-3ef1-11ea-9791-1b580a556b4a","title":"HDR Photography Tutorial. Learn To Creating Stunning HDR","slug":"hdr-photography-tutorial-learn-to-creating-stunning-hdr","headline":"A full detailed tutorial for the photographer that explains all you need to know to take, edit and manipulate HDR images","created":"24th January 2020","tags":[{"title":"Photography","path":"/tag/Photography/"},{"title":"Digital Photography","path":"/tag/Digital%20Photography/"},{"title":"HDR Photography","path":"/tag/HDR%20Photography/"}]}}]}}},"context":{}}