{"hash":"6d1e7dd52e8c17cf4930f349c6afc1a78b2e1c5e","data":{"records":{"id":"Design Tools","title":"Design Tools","belongsTo":{"totalCount":63,"pageInfo":{"totalPages":7,"currentPage":6},"edges":[{"node":{"__typename":"Course","id":"377004b0-3ef1-11ea-9791-1b580a556b4a","title":"Photoshop for Web Design Beginners","slug":"photoshop-for-web-design-beginners","headline":"Perfect Photoshop course for beginner web designers who want learn to how to make a clean simple web page design.","created":"24th January 2020","tags":[{"title":"Design","path":"/tag/Design/"},{"title":"Design Tools","path":"/tag/Design%20Tools/"},{"title":"Photoshop","path":"/tag/Photoshop/"}]}},{"node":{"__typename":"Course","id":"376ecc35-3ef1-11ea-9791-1b580a556b4a","title":"Adobe Photoshop Elements 10 Made Easy","slug":"adobe-photoshop-elements-10-made-easy","headline":"Learn the secrets that make Elements as powerful as full version of Photoshop in these Photoshop Elements 10 tutorials.","created":"24th January 2020","tags":[{"title":"Design","path":"/tag/Design/"},{"title":"Design Tools","path":"/tag/Design%20Tools/"},{"title":"Photoshop","path":"/tag/Photoshop/"}]}},{"node":{"__typename":"Course","id":"376ecc36-3ef1-11ea-9791-1b580a556b4a","title":"Photoshop Essentials","slug":"photoshop-essentials","headline":"Gain massive skills and learn a ton of Photoshop techniques!","created":"24th January 2020","tags":[{"title":"Design","path":"/tag/Design/"},{"title":"Design Tools","path":"/tag/Design%20Tools/"},{"title":"Photoshop","path":"/tag/Photoshop/"}]}},{"node":{"__typename":"Course","id":"376ea528-3ef1-11ea-9791-1b580a556b4a","title":"Dreamweaver Essentials","slug":"dreamweaver-essentials","headline":"Get the most out of Dreamweaver and web design!","created":"24th January 2020","tags":[{"title":"Design","path":"/tag/Design/"},{"title":"Design Tools","path":"/tag/Design%20Tools/"},{"title":"Dreamweaver","path":"/tag/Dreamweaver/"}]}},{"node":{"__typename":"Course","id":"376e5706-3ef1-11ea-9791-1b580a556b4a","title":"Creating an MP3 Player with Adobe Flash","slug":"creating-an-m-p3-player-with-adobe-flash","headline":"Learn how to make an custom Mp3 player with Adobe Flash CS5 Professional, Flash Builder or Flex","created":"24th January 2020","tags":[{"title":"Design","path":"/tag/Design/"},{"title":"Design Tools","path":"/tag/Design%20Tools/"},{"title":"Adobe Flash","path":"/tag/Adobe%20Flash/"}]}},{"node":{"__typename":"Course","id":"376e5708-3ef1-11ea-9791-1b580a556b4a","title":"Gephi 中文教程","slug":"gephi","headline":"介绍Gephi的基本使用方法，有大量实际操作的视频演示，便于初学者快速入门。","created":"24th January 2020","tags":[{"title":"Design","path":"/tag/Design/"},{"title":"Design Tools","path":"/tag/Design%20Tools/"},{"title":"Data Visualization","path":"/tag/Data%20Visualization/"}]}},{"node":{"__typename":"Course","id":"376e2ff2-3ef1-11ea-9791-1b580a556b4a","title":"Adobe Captivate 5 Training for Beginners","slug":"adobe-captivate-5-training-for-beginners","headline":"Adobe Captivate 5 Training for Beginners","created":"24th January 2020","tags":[{"title":"Design","path":"/tag/Design/"},{"title":"Design Tools","path":"/tag/Design%20Tools/"},{"title":"Adobe Captivate","path":"/tag/Adobe%20Captivate/"}]}},{"node":{"__typename":"Course","id":"376dbac3-3ef1-11ea-9791-1b580a556b4a","title":"Photoshop Selections and Masks","slug":"photoshop-selections-and-masks","headline":"Learn all the tools to make better selections and masks.","created":"24th January 2020","tags":[{"title":"Design","path":"/tag/Design/"},{"title":"Design Tools","path":"/tag/Design%20Tools/"},{"title":"Photoshop","path":"/tag/Photoshop/"}]}},{"node":{"__typename":"Course","id":"376dbac0-3ef1-11ea-9791-1b580a556b4a","title":"Adobe Flash CS5.5 for Beginners","slug":"adobe-flash-c-s5-5-for-beginners","headline":"Learn how to use Flash CS5.5 with ultimate flash cs5 tutorials to create Interactive Content.","created":"24th January 2020","tags":[{"title":"Design","path":"/tag/Design/"},{"title":"Design Tools","path":"/tag/Design%20Tools/"},{"title":"Adobe Flash","path":"/tag/Adobe%20Flash/"}]}}]}}},"context":{}}