{"hash":"6d1e7dd52e8c17cf4930f349c6afc1a78b2e1c5e","data":{"records":{"id":"Finance & Accounting","title":"Finance & Accounting","belongsTo":{"totalCount":13,"pageInfo":{"totalPages":2,"currentPage":1},"edges":[{"node":{"__typename":"Course","id":"377ab310-3ef1-11ea-9791-1b580a556b4a","title":"Derivatives Trading Course For Beginners Deeply Explained","slug":"derivatives-trading-course-for-beginners-deeply-explained","headline":"The Complete Derivatives Trading Course For Beginners Great For Options/Stock/Commodity/Futures/Currency/Forex Explained","created":"24th January 2020","tags":[{"title":"Finance & Accounting","path":"/tag/Finance%20%26%20Accounting/"},{"title":"Investing & Trading","path":"/tag/Investing%20%26%20Trading/"},{"title":"Derivatives Trading","path":"/tag/Derivatives%20Trading/"}]}},{"node":{"__typename":"Course","id":"377a64fc-3ef1-11ea-9791-1b580a556b4a","title":"Capital Budgeting - Investment Appraisal","slug":"capital-budgeting-investment-appraisal","headline":"Learn the decision making techniques in Capital Budgeting (Investment Projects) From Basics to Advanced","created":"24th January 2020","tags":[{"title":"Finance & Accounting","path":"/tag/Finance%20%26%20Accounting/"},{"title":"Finance","path":"/tag/Finance/"},{"title":"Corporate Finance","path":"/tag/Corporate%20Finance/"}]}},{"node":{"__typename":"Course","id":"377a3de3-3ef1-11ea-9791-1b580a556b4a","title":"Cost Accounting","slug":"cost-accounting","headline":"Cost Accounting from Basics to Advanced - Including Case Studies","created":"24th January 2020","tags":[{"title":"Finance & Accounting","path":"/tag/Finance%20%26%20Accounting/"},{"title":"Accounting & Bookkeeping","path":"/tag/Accounting%20%26%20Bookkeeping/"},{"title":"Cost Accounting","path":"/tag/Cost%20Accounting/"}]}},{"node":{"__typename":"Course","id":"37797a91-3ef1-11ea-9791-1b580a556b4a","title":"Morgan教你学习量化投资与程序化交易 (EP7:量化选股:基本面与技术面因子)","slug":"morgan-e-p7","headline":"- Quantitative Investing & Algorithm Trading","created":"24th January 2020","tags":[{"title":"Finance & Accounting","path":"/tag/Finance%20%26%20Accounting/"},{"title":"Investing & Trading","path":"/tag/Investing%20%26%20Trading/"},{"title":"Stock Trading","path":"/tag/Stock%20Trading/"}]}},{"node":{"__typename":"Course","id":"37790564-3ef1-11ea-9791-1b580a556b4a","title":"LONDON ETF ( SAMPLE WATCHLIST - PMI, NMI AND UMCSI Reports )","slug":"london-etf-sample-watchlist-pmi-nmi-and-umcsi-reports","headline":"HOW TO PROFIT UP TO 200% FROM ETF's, WITHOUT TAKING ANY STOCK RISK","created":"24th January 2020","tags":[{"title":"Finance & Accounting","path":"/tag/Finance%20%26%20Accounting/"},{"title":"Investing & Trading","path":"/tag/Investing%20%26%20Trading/"},{"title":"Options Trading","path":"/tag/Options%20Trading/"}]}},{"node":{"__typename":"Course","id":"37792c79-3ef1-11ea-9791-1b580a556b4a","title":"Cómo hacer staking de criptomonedas","slug":"como-hacer-staking-de-criptomonedas","headline":"Prueba de participación, delegación de poder de voto.","created":"24th January 2020","tags":[{"title":"Finance & Accounting","path":"/tag/Finance%20%26%20Accounting/"},{"title":"Cryptocurrency & Blockchain","path":"/tag/Cryptocurrency%20%26%20Blockchain/"},{"title":"Cryptocurrency","path":"/tag/Cryptocurrency/"}]}},{"node":{"__typename":"Course","id":"37789032-3ef1-11ea-9791-1b580a556b4a","title":"TOKYO IRON CONDOR STRATEGY ( IRON CONDOR FOR MONTHLY INCOME)","slug":"tokyo-iron-condor-strategy-iron-condor-for-monthly-income","headline":"HOW TO PROFIT UP TO 34% A MONTH SAFELY WITHOUT SITTING IN FRONT OF A COMPUTER ALL DAY","created":"24th January 2020","tags":[{"title":"Finance & Accounting","path":"/tag/Finance%20%26%20Accounting/"},{"title":"Investing & Trading","path":"/tag/Investing%20%26%20Trading/"},{"title":"Options Trading","path":"/tag/Options%20Trading/"}]}},{"node":{"__typename":"Course","id":"37786921-3ef1-11ea-9791-1b580a556b4a","title":"El mejor exchange de criptomonedas en México, usa bitcoin ya","slug":"el-mejor-exchange-de-criptomonedas-en-mexico-usa-bitcoin-ya","headline":"Videocurso sobre Bitso","created":"24th January 2020","tags":[{"title":"Finance & Accounting","path":"/tag/Finance%20%26%20Accounting/"},{"title":"Cryptocurrency & Blockchain","path":"/tag/Cryptocurrency%20%26%20Blockchain/"},{"title":"Bitcoin","path":"/tag/Bitcoin/"}]}},{"node":{"__typename":"Course","id":"37777ec5-3ef1-11ea-9791-1b580a556b4a","title":"ISTANBUL DIAGONAL/CALENDAR (DOUBLE DIAGONAL-CALENDAR SPREAD)","slug":"istanbul-diagonal-calendar-double-diagonal-calendar-spread","headline":"2020 - HOW TO GET UP TO 145% PROFIT EVERY WEEK WITHOUT TAKING ANY DIRECTIONAL RISK","created":"24th January 2020","tags":[{"title":"Finance & Accounting","path":"/tag/Finance%20%26%20Accounting/"},{"title":"Investing & Trading","path":"/tag/Investing%20%26%20Trading/"},{"title":"Options Trading","path":"/tag/Options%20Trading/"}]}}]}}},"context":{}}