{"hash":"6d1e7dd52e8c17cf4930f349c6afc1a78b2e1c5e","data":{"records":{"id":"Business","title":"Business","belongsTo":{"totalCount":119,"pageInfo":{"totalPages":14,"currentPage":3},"edges":[{"node":{"__typename":"Course","id":"3777cce4-3ef1-11ea-9791-1b580a556b4a","title":"Formation vente","slug":"formation-vente","headline":"Comment augmenter facilement vos ventes et vos revenus","created":"24th January 2020","tags":[{"title":"Business","path":"/tag/Business/"},{"title":"Sales","path":"/tag/Sales/"}]}},{"node":{"__typename":"Course","id":"3777cce1-3ef1-11ea-9791-1b580a556b4a","title":"Sollicitation produits et services financiers","slug":"sollicitation-produits-et-services-financiers","headline":"Comment solliciter de manière efficace pour vendre des produits et services financiers.","created":"24th January 2020","tags":[{"title":"Business","path":"/tag/Business/"},{"title":"Sales","path":"/tag/Sales/"}]}},{"node":{"__typename":"Course","id":"37777ec7-3ef1-11ea-9791-1b580a556b4a","title":"Résolution de problème","slug":"resolution-de-probleme","headline":"Comment résoudre les problèmes complexes","created":"24th January 2020","tags":[{"title":"Business","path":"/tag/Business/"},{"title":"Industry","path":"/tag/Industry/"},{"title":"Problem Solving","path":"/tag/Problem%20Solving/"}]}},{"node":{"__typename":"Course","id":"377757b2-3ef1-11ea-9791-1b580a556b4a","title":"Service Management Fundamentals (also USMBOK™ Foundation)","slug":"service-management-fundamentals-also-usmboktm-foundation","headline":"The definitive course on managing service in the experiential economy","created":"24th January 2020","tags":[{"title":"Business","path":"/tag/Business/"},{"title":"Operations","path":"/tag/Operations/"},{"title":"Management Skills","path":"/tag/Management%20Skills/"}]}},{"node":{"__typename":"Course","id":"377757b6-3ef1-11ea-9791-1b580a556b4a","title":"Planification stratégique","slug":"planification-strategique","headline":"Comment planifier le succès de votre entreprise","created":"24th January 2020","tags":[{"title":"Business","path":"/tag/Business/"},{"title":"Management","path":"/tag/Management/"},{"title":"Marketing Plan","path":"/tag/Marketing%20Plan/"}]}},{"node":{"__typename":"Course","id":"377730a8-3ef1-11ea-9791-1b580a556b4a","title":"Novel Writing Workshop","slug":"novel-writing-workshop","headline":"Turn your idea into a published novel, step by step. Includes 27 video lessons!","created":"24th January 2020","tags":[{"title":"Business","path":"/tag/Business/"},{"title":"Communications","path":"/tag/Communications/"},{"title":"Novel Writing","path":"/tag/Novel%20Writing/"}]}},{"node":{"__typename":"Course","id":"377730a4-3ef1-11ea-9791-1b580a556b4a","title":"Book Marketing in Five - How to get your book noticed fast","slug":"book-marketing-in-five-how-to-get-your-book-noticed-fast","headline":"Learn how to market your book online and boost your visibility credibility, and sales.","created":"24th January 2020","tags":[{"title":"Business","path":"/tag/Business/"},{"title":"Media","path":"/tag/Media/"},{"title":"Book Marketing","path":"/tag/Book%20Marketing/"}]}},{"node":{"__typename":"Course","id":"3776e282-3ef1-11ea-9791-1b580a556b4a","title":"Self Publishing Secrets","slug":"self-publishing-secrets","headline":"How to Self Publish a Print on Demand Book to Amazon For Free Using CreateSpace","created":"24th January 2020","tags":[{"title":"Business","path":"/tag/Business/"},{"title":"Media","path":"/tag/Media/"},{"title":"Self-Publishing","path":"/tag/Self-Publishing/"}]}},{"node":{"__typename":"Course","id":"3776e284-3ef1-11ea-9791-1b580a556b4a","title":"Updating Your Digital Music Distribution","slug":"updating-your-digital-music-distribution","headline":"Learn how to promote your music,digital music distribution techniques and building community of Super Fans","created":"24th January 2020","tags":[{"title":"Business","path":"/tag/Business/"},{"title":"Industry","path":"/tag/Industry/"},{"title":"Music Marketing","path":"/tag/Music%20Marketing/"}]}}]}}},"context":{}}