{"hash":"6d1e7dd52e8c17cf4930f349c6afc1a78b2e1c5e","data":{"records":{"id":"Web Development","title":"Web Development","belongsTo":{"totalCount":55,"pageInfo":{"totalPages":7,"currentPage":4},"edges":[{"node":{"__typename":"Course","id":"37724ea0-3ef1-11ea-9791-1b580a556b4a","title":"Advanced CSS Training","slug":"advanced-css-training","headline":"Get Trained in CSS and take a deep dive into Advanced CSS","created":"24th January 2020","tags":[{"title":"Development","path":"/tag/Development/"},{"title":"Web Development","path":"/tag/Web%20Development/"},{"title":"CSS","path":"/tag/CSS/"}]}},{"node":{"__typename":"Course","id":"3771d979-3ef1-11ea-9791-1b580a556b4a","title":"Learning Dynamic Website Design - PHP MySQL and JavaScript","slug":"learning-dynamic-website-design-php-my-sql-and-java-script","headline":"Learn Dynamic Web Design with PHP / MySQL, AJAX, JavaScript and CSS. Course comes with Certificate of Completion.","created":"24th January 2020","tags":[{"title":"Development","path":"/tag/Development/"},{"title":"Web Development","path":"/tag/Web%20Development/"},{"title":"Web Design","path":"/tag/Web%20Design/"}]}},{"node":{"__typename":"Course","id":"3771b265-3ef1-11ea-9791-1b580a556b4a","title":"The Complete 2019 Fullstack Web Developer Course","slug":"the-complete-2019-fullstack-web-developer-course","headline":"Learn HTML, HTML5, CSS, CSS3, JavaScript, PHP, jQuery, Ajax & MySQL from scratch! Build a login system at the end!","created":"24th January 2020","tags":[{"title":"Development","path":"/tag/Development/"},{"title":"Web Development","path":"/tag/Web%20Development/"}]}},{"node":{"__typename":"Course","id":"37718b57-3ef1-11ea-9791-1b580a556b4a","title":"Create an Engaging Website with Twitter Bootstrap 2.x","slug":"create-an-engaging-website-with-twitter-bootstrap-2-x","headline":"Learn to create your website with this free and open-source web design framework.","created":"24th January 2020","tags":[{"title":"Development","path":"/tag/Development/"},{"title":"Web Development","path":"/tag/Web%20Development/"},{"title":"Bootstrap","path":"/tag/Bootstrap/"}]}},{"node":{"__typename":"Course","id":"37718b5a-3ef1-11ea-9791-1b580a556b4a","title":"Drupal 7 Intermediate","slug":"drupal-7-intermediate","headline":"Take your Drupal knowledge to the next level. Learn all about content types, Views and Panels.","created":"24th January 2020","tags":[{"title":"Development","path":"/tag/Development/"},{"title":"Web Development","path":"/tag/Web%20Development/"},{"title":"Drupal","path":"/tag/Drupal/"}]}},{"node":{"__typename":"Course","id":"37718b5b-3ef1-11ea-9791-1b580a556b4a","title":"Drupal 7 for Beginners","slug":"drupal-7-for-beginners","headline":"This class teaches you all of the essential concepts and knowledge you need to get started with Drupal 7.","created":"24th January 2020","tags":[{"title":"Development","path":"/tag/Development/"},{"title":"Web Development","path":"/tag/Web%20Development/"},{"title":"Drupal","path":"/tag/Drupal/"}]}},{"node":{"__typename":"Course","id":"37718b56-3ef1-11ea-9791-1b580a556b4a","title":"Beginners Guide to Codeigniter","slug":"beginners-guide-to-codeigniter","headline":"Learn Codeigniter starting from the basics correctly with this Codeigniter tutorial for beginners.","created":"24th January 2020","tags":[{"title":"Development","path":"/tag/Development/"},{"title":"Web Development","path":"/tag/Web%20Development/"},{"title":"CodeIgniter","path":"/tag/CodeIgniter/"}]}},{"node":{"__typename":"Course","id":"37716446-3ef1-11ea-9791-1b580a556b4a","title":"Learning CSS3 - A Comprehensive Tutorial For Web Developers","slug":"learning-cs-s3-a-comprehensive-tutorial-for-web-developers","headline":"Master CSS3 and learn how to engage your users with fast loading compliant web pages across all browsers.","created":"24th January 2020","tags":[{"title":"Development","path":"/tag/Development/"},{"title":"Web Development","path":"/tag/Web%20Development/"},{"title":"CSS","path":"/tag/CSS/"}]}},{"node":{"__typename":"Course","id":"3770a0f0-3ef1-11ea-9791-1b580a556b4a","title":"Web Programming with Python","slug":"web-programming-with-python","headline":"Learning Web Programming with Python. An Essential Course for any Web Developer. Start Python web programming today","created":"24th January 2020","tags":[{"title":"Development","path":"/tag/Development/"},{"title":"Web Development","path":"/tag/Web%20Development/"},{"title":"Python","path":"/tag/Python/"}]}}]}}},"context":{}}