{"hash":"6d1e7dd52e8c17cf4930f349c6afc1a78b2e1c5e","data":{"records":{"id":"Management","title":"Management","belongsTo":{"totalCount":10,"pageInfo":{"totalPages":2,"currentPage":2},"edges":[{"node":{"__typename":"Course","id":"376ecc30-3ef1-11ea-9791-1b580a556b4a","title":"Chief Financial Officer Leadership Program","slug":"chief-financial-officer-leadership-program","headline":"An ever expanding program of courses helping financial professionals aspire to the top levels of financial leadership","created":"24th January 2020","tags":[{"title":"Business","path":"/tag/Business/"},{"title":"Management","path":"/tag/Management/"},{"title":"Financial Management","path":"/tag/Financial%20Management/"}]}}]}}},"context":{}}