{"hash":"6d1e7dd52e8c17cf4930f349c6afc1a78b2e1c5e","data":{"records":{"id":"Marketing","title":"Marketing","belongsTo":{"totalCount":72,"pageInfo":{"totalPages":8,"currentPage":5},"edges":[{"node":{"__typename":"Course","id":"37736018-3ef1-11ea-9791-1b580a556b4a","title":"Mobile Marketing Academy","slug":"mobile-marketing-academy","headline":"MOBILE IS NOT JUST APPS! Learn from expert founders how to incorporate mobile for your business and marketing strategy.","created":"24th January 2020","tags":[{"title":"Marketing","path":"/tag/Marketing/"},{"title":"Video & Mobile Marketing","path":"/tag/Video%20%26%20Mobile%20Marketing/"},{"title":"Mobile Marketing","path":"/tag/Mobile%20Marketing/"}]}},{"node":{"__typename":"Course","id":"37738725-3ef1-11ea-9791-1b580a556b4a","title":"Descubre C칩mo Hacer Videos Promocionales Efectivos","slug":"descubre-como-hacer-videos-promocionales-efectivos","headline":"Aprende a hacer videos promocionales para productos o servicios. Aumentar치 tu credibilidad y obtendr치s m치s ventas","created":"24th January 2020","tags":[{"title":"Marketing","path":"/tag/Marketing/"},{"title":"Video & Mobile Marketing","path":"/tag/Video%20%26%20Mobile%20Marketing/"},{"title":"Promotional Video","path":"/tag/Promotional%20Video/"}]}},{"node":{"__typename":"Course","id":"37733909-3ef1-11ea-9791-1b580a556b4a","title":"Big Brand Strategies for Small Brands","slug":"big-brand-strategies-for-small-brands","headline":"Specific, proven strategies Big Brand marketers use -- tailored to small brands with limited budgets.","created":"24th January 2020","tags":[{"title":"Marketing","path":"/tag/Marketing/"},{"title":"Branding","path":"/tag/Branding/"},{"title":"Business Branding","path":"/tag/Business%20Branding/"}]}},{"node":{"__typename":"Course","id":"37729cc0-3ef1-11ea-9791-1b580a556b4a","title":"LinkedIn Training Course","slug":"linked-in-training-course","headline":"LinkedIn Training from the B2B social media expert & best-selling author of \"Social Marketing to the Business Customer.\"","created":"24th January 2020","tags":[{"title":"Marketing","path":"/tag/Marketing/"},{"title":"Social Media Marketing","path":"/tag/Social%20Media%20Marketing/"},{"title":"LinkedIn","path":"/tag/LinkedIn/"}]}},{"node":{"__typename":"Course","id":"37729cc5-3ef1-11ea-9791-1b580a556b4a","title":"SEO Training","slug":"seo-training","headline":"SEO online training from the top-rated social media training provider. Google SEO training course for computer or mobile","created":"24th January 2020","tags":[{"title":"Marketing","path":"/tag/Marketing/"},{"title":"Search Engine Optimization","path":"/tag/Search%20Engine%20Optimization/"},{"title":"SEO","path":"/tag/SEO/"}]}},{"node":{"__typename":"Course","id":"37729cc6-3ef1-11ea-9791-1b580a556b4a","title":"Win Them Over with Web Video Part 2","slug":"win-them-over-with-web-video-part-2","headline":"Comprehensive course and coaching- Learn web video and SEO basics so that you can rank higher in search engine results.","created":"24th January 2020","tags":[{"title":"Marketing","path":"/tag/Marketing/"},{"title":"Video & Mobile Marketing","path":"/tag/Video%20%26%20Mobile%20Marketing/"},{"title":"SEO","path":"/tag/SEO/"}]}},{"node":{"__typename":"Course","id":"37729cc7-3ef1-11ea-9791-1b580a556b4a","title":"Twitter for Business","slug":"twitter-for-business","headline":"Learn to Twitter for Business and Master Twitter Marketing","created":"24th January 2020","tags":[{"title":"Marketing","path":"/tag/Marketing/"},{"title":"Social Media Marketing","path":"/tag/Social%20Media%20Marketing/"},{"title":"Twitter Marketing","path":"/tag/Twitter%20Marketing/"}]}},{"node":{"__typename":"Course","id":"3772c3d0-3ef1-11ea-9791-1b580a556b4a","title":"Blogger Training","slug":"blogger-training","headline":"Blogger Training Course from the top-rated Social Media Training Provider","created":"24th January 2020","tags":[{"title":"Marketing","path":"/tag/Marketing/"},{"title":"Content Marketing","path":"/tag/Content%20Marketing/"},{"title":"Blogger","path":"/tag/Blogger/"}]}},{"node":{"__typename":"Course","id":"377275b5-3ef1-11ea-9791-1b580a556b4a","title":"Social Media for Special Events","slug":"social-media-for-special-events","headline":"Essential Tips & Tricks for Using Social Media to Increase Exhibitor ROI. Taught by Best-Selling Author Eric Schwartzman","created":"24th January 2020","tags":[{"title":"Marketing","path":"/tag/Marketing/"},{"title":"Social Media Marketing","path":"/tag/Social%20Media%20Marketing/"}]}}]}}},"context":{}}