{"hash":"6d1e7dd52e8c17cf4930f349c6afc1a78b2e1c5e","data":{"records":{"id":"Marketing","title":"Marketing","belongsTo":{"totalCount":72,"pageInfo":{"totalPages":8,"currentPage":2},"edges":[{"node":{"__typename":"Course","id":"3777a5d4-3ef1-11ea-9791-1b580a556b4a","title":"Learn The Power of Social Media Stories for Marketing","slug":"learn-the-power-of-social-media-stories-for-marketing","headline":"Promote yourself using social media stories just like senior marketers do","created":"24th January 2020","tags":[{"title":"Marketing","path":"/tag/Marketing/"},{"title":"Social Media Marketing","path":"/tag/Social%20Media%20Marketing/"}]}},{"node":{"__typename":"Course","id":"3777a5d5-3ef1-11ea-9791-1b580a556b4a","title":"دورة السيو لليوتيوب : كيف تجعل ترتيبك رقم 1 علي اليوتيوب","slug":"dwrt-alsyw-llywtywb-kyf-tjel-trtybk-rqm-1-ely-alywtywb","headline":"معرفة اسرار السيو لليوتيوب ، والطريق الصحيح لجعل ترتيبك رقم 1# علي محرك البحث يوتيوب & التسويق في اليوتيوب : بامثلة حية","created":"24th January 2020","tags":[{"title":"Marketing","path":"/tag/Marketing/"},{"title":"Search Engine Optimization","path":"/tag/Search%20Engine%20Optimization/"},{"title":"YouTube Marketing","path":"/tag/YouTube%20Marketing/"}]}},{"node":{"__typename":"Course","id":"37777ec0-3ef1-11ea-9791-1b580a556b4a","title":"Réseaux sociaux","slug":"reseaux-sociaux","headline":"Comment utiliser les réseaux sociaux pour développer ses affaires","created":"24th January 2020","tags":[{"title":"Marketing","path":"/tag/Marketing/"},{"title":"Social Media Marketing","path":"/tag/Social%20Media%20Marketing/"}]}},{"node":{"__typename":"Course","id":"377730a7-3ef1-11ea-9791-1b580a556b4a","title":"HypeBomb - Growth Hacking for Startups","slug":"hype-bomb-growth-hacking-for-startups","headline":"Acquiring new users for your startup is not an unobtainable fantasy. Learn how to get more clients.","created":"24th January 2020","tags":[{"title":"Marketing","path":"/tag/Marketing/"},{"title":"Digital Marketing","path":"/tag/Digital%20Marketing/"},{"title":"Growth Hacking","path":"/tag/Growth%20Hacking/"}]}},{"node":{"__typename":"Course","id":"37770993-3ef1-11ea-9791-1b580a556b4a","title":"Curso Linkedin para empresas y profesionales.","slug":"curso-linkedin-para-empresas-y-profesionales","headline":"Curso online de experto en Linkedin para empresas y profesionales.","created":"24th January 2020","tags":[{"title":"Marketing","path":"/tag/Marketing/"},{"title":"Social Media Marketing","path":"/tag/Social%20Media%20Marketing/"},{"title":"LinkedIn","path":"/tag/LinkedIn/"}]}},{"node":{"__typename":"Course","id":"3776bb71-3ef1-11ea-9791-1b580a556b4a","title":"Web CopyWriting: Consistently Outperform Your Competitors","slug":"web-copy-writing-consistently-outperform-your-competitors","headline":"Discover the key strategies behind winning content for websites, blogs, social media and email marketing.","created":"24th January 2020","tags":[{"title":"Marketing","path":"/tag/Marketing/"},{"title":"Content Marketing","path":"/tag/Content%20Marketing/"},{"title":"Copywriting","path":"/tag/Copywriting/"}]}},{"node":{"__typename":"Course","id":"3776bb79-3ef1-11ea-9791-1b580a556b4a","title":"Social Media Selling System","slug":"social-media-selling-system","headline":"Leveraging Social Media for your Small Business Sales. Learn how to increase sales using Social Media.","created":"24th January 2020","tags":[{"title":"Marketing","path":"/tag/Marketing/"},{"title":"Social Media Marketing","path":"/tag/Social%20Media%20Marketing/"}]}},{"node":{"__typename":"Course","id":"37769469-3ef1-11ea-9791-1b580a556b4a","title":"Profit from Web Analytics: From User Behaviour To Sales","slug":"profit-from-web-analytics-from-user-behaviour-to-sales","headline":"Better understand visitor behaviour on your website to stimulate user engagement and conversions","created":"24th January 2020","tags":[{"title":"Marketing","path":"/tag/Marketing/"},{"title":"Analytics & Automation","path":"/tag/Analytics%20%26%20Automation/"},{"title":"Google Analytics","path":"/tag/Google%20Analytics/"}]}},{"node":{"__typename":"Course","id":"3776946a-3ef1-11ea-9791-1b580a556b4a","title":"Social Media For Business Strategy","slug":"social-media-for-business-strategy","headline":"Create a compelling mix with the latest Social Media Strategies. Achieve business growth goals stay ahead of competitors","created":"24th January 2020","tags":[{"title":"Marketing","path":"/tag/Marketing/"},{"title":"Social Media Marketing","path":"/tag/Social%20Media%20Marketing/"}]}}]}}},"context":{}}