{"hash":"6d1e7dd52e8c17cf4930f349c6afc1a78b2e1c5e","data":{"records":{"id":"Management","title":"Management","belongsTo":{"totalCount":10,"pageInfo":{"totalPages":2,"currentPage":1},"edges":[{"node":{"__typename":"Course","id":"377ab314-3ef1-11ea-9791-1b580a556b4a","title":"Effective Problem Solving & Project Management Power Course","slug":"effective-problem-solving-and-project-management-power-course","headline":"Solve business problems and become an effective project manager - Learn project management skills in this power course","created":"24th January 2020","tags":[{"title":"Business","path":"/tag/Business/"},{"title":"Management","path":"/tag/Management/"},{"title":"Problem Solving","path":"/tag/Problem%20Solving/"}]}},{"node":{"__typename":"Course","id":"3779a1a2-3ef1-11ea-9791-1b580a556b4a","title":"CAMS: Certified Anti Money Laundering Specialist","slug":"cams-certified-anti-money-laundering-specialist","headline":"Pass CAMS: Certified Anti Money Laundering Specialist Testing by Practicing on High Quality Questions.","created":"24th January 2020","tags":[{"title":"Business","path":"/tag/Business/"},{"title":"Management","path":"/tag/Management/"},{"title":"Anti-Money Laundering","path":"/tag/Anti-Money%20Laundering/"}]}},{"node":{"__typename":"Course","id":"37795387-3ef1-11ea-9791-1b580a556b4a","title":"International Financial Reporting Standards for Compensation","slug":"international-financial-reporting-standards-for-compensation","headline":"Pass WorldatWork International Financial Reporting Standards for Compensation by Practicing on High Quality Questions.","created":"24th January 2020","tags":[{"title":"Business","path":"/tag/Business/"},{"title":"Management","path":"/tag/Management/"}]}},{"node":{"__typename":"Course","id":"37792c73-3ef1-11ea-9791-1b580a556b4a","title":"PMP Certification Practice Test ( MCQ Quiz)","slug":"pmp-certification-practice-test-mcq-quiz","headline":"Exam questions similar to PMP Certification questions.","created":"24th January 2020","tags":[{"title":"Business","path":"/tag/Business/"},{"title":"Management","path":"/tag/Management/"}]}},{"node":{"__typename":"Course","id":"37789038-3ef1-11ea-9791-1b580a556b4a","title":"Practice Tests for Certified ScrumMaster (CSM) Certification","slug":"practice-tests-for-certified-scrum-master-csm-certification","headline":"Boost your Knowledge","created":"24th January 2020","tags":[{"title":"Business","path":"/tag/Business/"},{"title":"Management","path":"/tag/Management/"},{"title":"Certified ScrumMaster (CSM)","path":"/tag/Certified%20ScrumMaster%20(CSM)/"}]}},{"node":{"__typename":"Course","id":"37781b09-3ef1-11ea-9791-1b580a556b4a","title":"2019 CIA Exam, Part 2 – Practice of Internal Auditing","slug":"2019-cia-exam-part-2-practice-of-internal-auditing","headline":"Pass ​2019 CIA Exam, Part 2 – Practice of Internal Auditing Exam on the first attempt. 460+ Unique Questions.","created":"24th January 2020","tags":[{"title":"Business","path":"/tag/Business/"},{"title":"Management","path":"/tag/Management/"},{"title":"Certified Internal Auditor (CIA)","path":"/tag/Certified%20Internal%20Auditor%20(CIA)/"}]}},{"node":{"__typename":"Course","id":"377757b6-3ef1-11ea-9791-1b580a556b4a","title":"Planification stratégique","slug":"planification-strategique","headline":"Comment planifier le succès de votre entreprise","created":"24th January 2020","tags":[{"title":"Business","path":"/tag/Business/"},{"title":"Management","path":"/tag/Management/"},{"title":"Marketing Plan","path":"/tag/Marketing%20Plan/"}]}},{"node":{"__typename":"Course","id":"37716449-3ef1-11ea-9791-1b580a556b4a","title":"Management Principles","slug":"management-principles","headline":"This course will introduce you to basic management theory: planning, organizing, leading and control.","created":"24th January 2020","tags":[{"title":"Business","path":"/tag/Business/"},{"title":"Management","path":"/tag/Management/"},{"title":"Management Skills","path":"/tag/Management%20Skills/"}]}},{"node":{"__typename":"Course","id":"376ecc38-3ef1-11ea-9791-1b580a556b4a","title":"Seal the Deal: Win Business and Influence Leadership","slug":"seal-the-deal-win-business-and-influence-leadership","headline":"Your coach for how to market your business and easily get the right clients without cold calling!","created":"24th January 2020","tags":[{"title":"Business","path":"/tag/Business/"},{"title":"Management","path":"/tag/Management/"},{"title":"Marketing Strategy","path":"/tag/Marketing%20Strategy/"}]}}]}}},"context":{}}