{"hash":"6d1e7dd52e8c17cf4930f349c6afc1a78b2e1c5e","data":{"records":{"id":"Teaching & Academics","title":"Teaching & Academics","belongsTo":{"totalCount":57,"pageInfo":{"totalPages":7,"currentPage":3},"edges":[{"node":{"__typename":"Course","id":"377730a9-3ef1-11ea-9791-1b580a556b4a","title":"Solving quadratic equations using various methods","slug":"solving-quadratic-equations-using-various-methods","headline":"In these lessons you will be able to solve quadratic equations using three specific methods.","created":"24th January 2020","tags":[{"title":"Teaching & Academics","path":"/tag/Teaching%20%26%20Academics/"},{"title":"Math","path":"/tag/Math/"}]}},{"node":{"__typename":"Course","id":"37770991-3ef1-11ea-9791-1b580a556b4a","title":"Business English Course for ESL Students","slug":"business-english-course-for-esl-students","headline":"Learn essential Business English vocabulary for presentations, meetings, negotiations, phone calls, e-mails, and more!","created":"24th January 2020","tags":[{"title":"Teaching & Academics","path":"/tag/Teaching%20%26%20Academics/"},{"title":"Language","path":"/tag/Language/"},{"title":"Business English","path":"/tag/Business%20English/"}]}},{"node":{"__typename":"Course","id":"37770995-3ef1-11ea-9791-1b580a556b4a","title":"Learn Korean Writing - Hana Hana Hangul","slug":"learn-korean-writing-hana-hana-hangul","headline":"With this video series from KoreanClass101, in twenty lessons you will learn the Korean alphabet, known as Hangul.","created":"24th January 2020","tags":[{"title":"Teaching & Academics","path":"/tag/Teaching%20%26%20Academics/"},{"title":"Language","path":"/tag/Language/"},{"title":"Korean Language","path":"/tag/Korean%20Language/"}]}},{"node":{"__typename":"Course","id":"37770997-3ef1-11ea-9791-1b580a556b4a","title":"Learning to Learn","slug":"learning-to-learn","headline":"Improve your studies, improve your career, improve your life. Let me show you the secrets of effective learning today!","created":"24th January 2020","tags":[{"title":"Teaching & Academics","path":"/tag/Teaching%20%26%20Academics/"},{"title":"Teacher Training","path":"/tag/Teacher%20Training/"},{"title":"Learning Strategies","path":"/tag/Learning%20Strategies/"}]}},{"node":{"__typename":"Course","id":"3776e288-3ef1-11ea-9791-1b580a556b4a","title":"Art History Renaissance to 20th Century","slug":"art-history-renaissance-to-20th-century","headline":"A basic level survey of painting, sculpture, and architecture.","created":"24th January 2020","tags":[{"title":"Teaching & Academics","path":"/tag/Teaching%20%26%20Academics/"},{"title":"Humanities","path":"/tag/Humanities/"},{"title":"Art History","path":"/tag/Art%20History/"}]}},{"node":{"__typename":"Course","id":"3776bb78-3ef1-11ea-9791-1b580a556b4a","title":"Help With GCSE Maths","slug":"help-with-gcse-maths","headline":"A bunch of video tutorials to make GCSE Maths a whole lot easier. This course is pitched at the D/C borderline.","created":"24th January 2020","tags":[{"title":"Teaching & Academics","path":"/tag/Teaching%20%26%20Academics/"},{"title":"Test Prep","path":"/tag/Test%20Prep/"},{"title":"Math","path":"/tag/Math/"}]}},{"node":{"__typename":"Course","id":"37769463-3ef1-11ea-9791-1b580a556b4a","title":"An Introduction to Psychology","slug":"an-introduction-to-psychology","headline":"Finding yourself in the concepts and theories of psychology.","created":"24th January 2020","tags":[{"title":"Teaching & Academics","path":"/tag/Teaching%20%26%20Academics/"},{"title":"Social Science","path":"/tag/Social%20Science/"},{"title":"Psychology","path":"/tag/Psychology/"}]}},{"node":{"__typename":"Course","id":"37761f34-3ef1-11ea-9791-1b580a556b4a","title":"Accent Reduction Made Fast and Easy","slug":"accent-reduction-made-fast-and-easy","headline":"This is a complete guide for English Accent Reduction with Rules, Word and Sentence Examples.","created":"24th January 2020","tags":[{"title":"Teaching & Academics","path":"/tag/Teaching%20%26%20Academics/"},{"title":"Language","path":"/tag/Language/"},{"title":"Accent Reduction","path":"/tag/Accent%20Reduction/"}]}},{"node":{"__typename":"Course","id":"37761f36-3ef1-11ea-9791-1b580a556b4a","title":"Capitalism in Crisis: The global economic crisis explained","slug":"capitalism-in-crisis-the-global-economic-crisis-explained","headline":"The global economy is teetering of the verge of collapsing into a new great depression. Learn why and what's next.","created":"24th January 2020","tags":[{"title":"Teaching & Academics","path":"/tag/Teaching%20%26%20Academics/"},{"title":"Social Science","path":"/tag/Social%20Science/"},{"title":"Economics","path":"/tag/Economics/"}]}}]}}},"context":{}}