{"hash":"6d1e7dd52e8c17cf4930f349c6afc1a78b2e1c5e","data":{"records":{"id":"Web Design","title":"Web Design","belongsTo":{"totalCount":23,"pageInfo":{"totalPages":3,"currentPage":2},"edges":[{"node":{"__typename":"Course","id":"3772c3d7-3ef1-11ea-9791-1b580a556b4a","title":"Logo, Header and Image Basics for Online Business/Wordpress","slug":"logo-header-and-image-basics-for-online-business-wordpress","headline":"Tactics for the beginner to cut the crap and launch an idea, not work with a designer. How-to, tips, and tricks.","created":"24th January 2020","tags":[{"title":"Design","path":"/tag/Design/"},{"title":"Web Design","path":"/tag/Web%20Design/"},{"title":"Logo Design","path":"/tag/Logo%20Design/"}]}},{"node":{"__typename":"Course","id":"377311f0-3ef1-11ea-9791-1b580a556b4a","title":"Enhanced WordPress Strategies For Business","slug":"enhanced-word-press-strategies-for-business","headline":"Supercharge Any Website With These Inside Tips, Tweaks and Tools For WordPress That Drive Traffic and Attract Customers","created":"24th January 2020","tags":[{"title":"Design","path":"/tag/Design/"},{"title":"Web Design","path":"/tag/Web%20Design/"},{"title":"WordPress","path":"/tag/WordPress/"}]}},{"node":{"__typename":"Course","id":"37722798-3ef1-11ea-9791-1b580a556b4a","title":"Content Strategy & Marketing with WordPress","slug":"content-strategy-and-marketing-with-word-press","headline":"Learn WordPress Content Strategy & Marketing tactics to Increase Engagement & ROI!","created":"24th January 2020","tags":[{"title":"Design","path":"/tag/Design/"},{"title":"Web Design","path":"/tag/Web%20Design/"},{"title":"WordPress","path":"/tag/WordPress/"}]}},{"node":{"__typename":"Course","id":"37720087-3ef1-11ea-9791-1b580a556b4a","title":"Designing & Launching a Business Website That Converts","slug":"designing-and-launching-a-business-website-that-converts","headline":"Learn how to create a website that converts through this step-by-step guide.","created":"24th January 2020","tags":[{"title":"Design","path":"/tag/Design/"},{"title":"Web Design","path":"/tag/Web%20Design/"},{"title":"Business Strategy","path":"/tag/Business%20Strategy/"}]}},{"node":{"__typename":"Course","id":"3771d979-3ef1-11ea-9791-1b580a556b4a","title":"Learning Dynamic Website Design - PHP MySQL and JavaScript","slug":"learning-dynamic-website-design-php-my-sql-and-java-script","headline":"Learn Dynamic Web Design with PHP / MySQL, AJAX, JavaScript and CSS. Course comes with Certificate of Completion.","created":"24th January 2020","tags":[{"title":"Development","path":"/tag/Development/"},{"title":"Web Development","path":"/tag/Web%20Development/"},{"title":"Web Design","path":"/tag/Web%20Design/"}]}},{"node":{"__typename":"Course","id":"37716440-3ef1-11ea-9791-1b580a556b4a","title":"The Complete Catalyst Course for WordPress Bloggers","slug":"the-complete-catalyst-course-for-word-press-bloggers","headline":"Learn How to Harness the Ultimate Catalyst WordPress Theme Framework for Your Blog","created":"24th January 2020","tags":[{"title":"Design","path":"/tag/Design/"},{"title":"Web Design","path":"/tag/Web%20Design/"},{"title":"WordPress","path":"/tag/WordPress/"}]}},{"node":{"__typename":"Course","id":"376ea521-3ef1-11ea-9791-1b580a556b4a","title":"WordPress Essentials","slug":"word-press-essentials","headline":"Learn WordPress basics, tips and tricks to run a successful website!","created":"24th January 2020","tags":[{"title":"Design","path":"/tag/Design/"},{"title":"Web Design","path":"/tag/Web%20Design/"},{"title":"WordPress","path":"/tag/WordPress/"}]}},{"node":{"__typename":"Course","id":"376ea526-3ef1-11ea-9791-1b580a556b4a","title":"Learning Creative Web Design The Easy Way.","slug":"learning-creative-web-design-the-easy-way","headline":"Master the art of Creative Web Design at your own pace with adobe creative suite training. Certificate awarded.","created":"24th January 2020","tags":[{"title":"Design","path":"/tag/Design/"},{"title":"Web Design","path":"/tag/Web%20Design/"}]}},{"node":{"__typename":"Course","id":"376e7e10-3ef1-11ea-9791-1b580a556b4a","title":"Move A Wordpress Website from Local to Live","slug":"move-a-wordpress-website-from-local-to-live","headline":"This course makes moving a Wordpress site from local to live easy and fun. A complete and cheap step by step guide.","created":"24th January 2020","tags":[{"title":"Design","path":"/tag/Design/"},{"title":"Web Design","path":"/tag/Web%20Design/"},{"title":"WordPress","path":"/tag/WordPress/"}]}}]}}},"context":{}}