{"hash":"6d1e7dd52e8c17cf4930f349c6afc1a78b2e1c5e","data":{"records":{"id":"Development","title":"Development","belongsTo":{"totalCount":129,"pageInfo":{"totalPages":15,"currentPage":2},"edges":[{"node":{"__typename":"Course","id":"3779c8b0-3ef1-11ea-9791-1b580a556b4a","title":"Swift 5","slug":"swift-5","headline":"The Language of iOS Development","created":"24th January 2020","tags":[{"title":"Development","path":"/tag/Development/"},{"title":"Mobile Apps","path":"/tag/Mobile%20Apps/"},{"title":"Swift","path":"/tag/Swift/"}]}},{"node":{"__typename":"Course","id":"37790565-3ef1-11ea-9791-1b580a556b4a","title":"Unity3D Augmented Reality Game using Vuforia Android & iOS","slug":"unity3-d-augmented-reality-game-using-vuforia-android-and-i-os","headline":"Unity3D Experience in Creating augmented reality","created":"24th January 2020","tags":[{"title":"Development","path":"/tag/Development/"},{"title":"Game Development","path":"/tag/Game%20Development/"},{"title":"Augmented Reality","path":"/tag/Augmented%20Reality/"}]}},{"node":{"__typename":"Course","id":"37792c7a-3ef1-11ea-9791-1b580a556b4a","title":"Python深度学习与Tensorflow2实战（2020新版）","slug":"python-tensorflow2-2020","headline":"tensorflow2版本实战","created":"24th January 2020","tags":[{"title":"Development","path":"/tag/Development/"},{"title":"Data Science","path":"/tag/Data%20Science/"},{"title":"TensorFlow","path":"/tag/TensorFlow/"}]}},{"node":{"__typename":"Course","id":"3778de52-3ef1-11ea-9791-1b580a556b4a","title":"Kubernetes - The definitive guide","slug":"kubernetes-the-definitive-guide","headline":"Mastering DevOps","created":"24th January 2020","tags":[{"title":"Development","path":"/tag/Development/"},{"title":"Software Engineering","path":"/tag/Software%20Engineering/"},{"title":"Kubernetes","path":"/tag/Kubernetes/"}]}},{"node":{"__typename":"Course","id":"3778de59-3ef1-11ea-9791-1b580a556b4a","title":"Criando um Servidor no Amazon EC2","slug":"criando-um-servidor-no-amazon-e-c2","headline":"As instâncias T2 são um tipo de instância do Amazon EC2","created":"24th January 2020","tags":[{"title":"Development","path":"/tag/Development/"},{"title":"Web Development","path":"/tag/Web%20Development/"},{"title":"Amazon AWS","path":"/tag/Amazon%20AWS/"}]}},{"node":{"__typename":"Course","id":"37790561-3ef1-11ea-9791-1b580a556b4a","title":"Flutter Bottom Navigation Bar","slug":"flutter-bottom-navigation-bar","headline":"make bottom navigation bar and many screens","created":"24th January 2020","tags":[{"title":"Development","path":"/tag/Development/"},{"title":"Mobile Apps","path":"/tag/Mobile%20Apps/"},{"title":"Google Flutter","path":"/tag/Google%20Flutter/"}]}},{"node":{"__typename":"Course","id":"37790562-3ef1-11ea-9791-1b580a556b4a","title":"Flutter Credit Card Number Validator","slug":"flutter-credit-card-number-validator","headline":"A dart package to check if card number is valid and also returns card type as well.","created":"24th January 2020","tags":[{"title":"Development","path":"/tag/Development/"},{"title":"Mobile Apps","path":"/tag/Mobile%20Apps/"}]}},{"node":{"__typename":"Course","id":"3778b749-3ef1-11ea-9791-1b580a556b4a","title":"Mastering CoreData with CloudKit in Swift 5 for iOS","slug":"mastering-core-data-with-cloud-kit-in-swift-5-for-i-os","headline":"Master the Core Data and CloudKit in Swift 5 for iOS 13, and take your iOS development skills to the next level","created":"24th January 2020","tags":[{"title":"Development","path":"/tag/Development/"},{"title":"Programming Languages","path":"/tag/Programming%20Languages/"}]}},{"node":{"__typename":"Course","id":"3778b74b-3ef1-11ea-9791-1b580a556b4a","title":"Vue Js 2 Essential: Basics for beginners Vue Js","slug":"vue-js-2-essential-basics-for-beginners-vue-js","headline":"A beginner's guide to learn the basics of the JavaScript Framework Vue.js","created":"24th January 2020","tags":[{"title":"Development","path":"/tag/Development/"},{"title":"Web Development","path":"/tag/Web%20Development/"},{"title":"Vue JS","path":"/tag/Vue%20JS/"}]}}]}}},"context":{}}