{"hash":"6d1e7dd52e8c17cf4930f349c6afc1a78b2e1c5e","data":{"records":{"id":"Business","title":"Business","belongsTo":{"totalCount":119,"pageInfo":{"totalPages":14,"currentPage":4},"edges":[{"node":{"__typename":"Course","id":"3776bb77-3ef1-11ea-9791-1b580a556b4a","title":"Practical Trading on Financial Futures & Options Markets","slug":"practical-trading-on-financial-futures-and-options-markets","headline":"2nd Edition Course - Interactive learning on financial markets!","created":"24th January 2020","tags":[{"title":"Business","path":"/tag/Business/"},{"title":"Finance","path":"/tag/Finance/"},{"title":"Financial Trading","path":"/tag/Financial%20Trading/"}]}},{"node":{"__typename":"Course","id":"37769468-3ef1-11ea-9791-1b580a556b4a","title":"How to Pitch for Success and Improve Your Influence","slug":"how-to-pitch-for-success-and-improve-your-influence","headline":"Learn 12 simple but powerful tips for effective pitching to investors, selling to customers or presenting at work.","created":"24th January 2020","tags":[{"title":"Business","path":"/tag/Business/"},{"title":"Communications","path":"/tag/Communications/"},{"title":"Influence Skills","path":"/tag/Influence%20Skills/"}]}},{"node":{"__typename":"Course","id":"37766d52-3ef1-11ea-9791-1b580a556b4a","title":"The Book as iPad App","slug":"the-book-as-i-pad-app","headline":"Interactive ebooks and their future for education. Learn how new book formats are enabling better learning experiences.","created":"24th January 2020","tags":[{"title":"Business","path":"/tag/Business/"},{"title":"Media","path":"/tag/Media/"},{"title":"eBook Creation","path":"/tag/eBook%20Creation/"}]}},{"node":{"__typename":"Course","id":"37769462-3ef1-11ea-9791-1b580a556b4a","title":"How to Build a Supply Chain Model in Microsoft Excel","slug":"how-to-build-a-supply-chain-model-in-microsoft-excel","headline":"Learn how to develop an end-to-end multi-echelon supply chain model in Microsoft Excel.","created":"24th January 2020","tags":[{"title":"Business","path":"/tag/Business/"},{"title":"Operations","path":"/tag/Operations/"},{"title":"Supply Chain","path":"/tag/Supply%20Chain/"}]}},{"node":{"__typename":"Course","id":"3775f826-3ef1-11ea-9791-1b580a556b4a","title":"Parlare in pubblico: come fare presentazioni di successo","slug":"parlare-in-pubblico-come-fare-presentazioni-di-successo","headline":"Impara a preparare e fare presentazioni convincenti, tutto quello che serve sapere dalle slide a gestire il pubblico","created":"24th January 2020","tags":[{"title":"Business","path":"/tag/Business/"},{"title":"Communications","path":"/tag/Communications/"},{"title":"Presentation Skills","path":"/tag/Presentation%20Skills/"}]}},{"node":{"__typename":"Course","id":"37761f30-3ef1-11ea-9791-1b580a556b4a","title":"Professional Technical Writing: Advance Your Writing Skills","slug":"professional-technical-writing-advance-your-writing-skills","headline":"Create your first technical document by applying the principles and techniques of technical writing taught by Pro Writer","created":"24th January 2020","tags":[{"title":"Business","path":"/tag/Business/"},{"title":"Communications","path":"/tag/Communications/"},{"title":"Technical Writing","path":"/tag/Technical%20Writing/"}]}},{"node":{"__typename":"Course","id":"37761f32-3ef1-11ea-9791-1b580a556b4a","title":"Twitter for Real Estate","slug":"twitter-for-real-estate","headline":"Learn Twitter from A to Z and leverage it to help expand your reach, build your brand and win more business.","created":"24th January 2020","tags":[{"title":"Business","path":"/tag/Business/"},{"title":"Real Estate","path":"/tag/Real%20Estate/"},{"title":"Twitter Marketing","path":"/tag/Twitter%20Marketing/"}]}},{"node":{"__typename":"Course","id":"3775aa0a-3ef1-11ea-9791-1b580a556b4a","title":"Administre Proyectos Efectivamente - Curso de Fundamentos","slug":"administre-proyectos-efectivamente-curso-de-fundamentos","headline":"La guía completa para administrar proyectos de cualquier tipo, usando las mejores prácticas y finalizarlos con éxito","created":"24th January 2020","tags":[{"title":"Business","path":"/tag/Business/"},{"title":"Project Management","path":"/tag/Project%20Management/"}]}},{"node":{"__typename":"Course","id":"3775aa01-3ef1-11ea-9791-1b580a556b4a","title":"Successful Crowdfunding: How to Win Backers And Raise Funds","slug":"successful-crowdfunding-how-to-win-backers-and-raise-funds","headline":"An in-depth conversation around crowdfunding, what works and what not when it comes to sourcing money from the crowd.","created":"24th January 2020","tags":[{"title":"Business","path":"/tag/Business/"},{"title":"Entrepreneurship","path":"/tag/Entrepreneurship/"},{"title":"Crowdfunding","path":"/tag/Crowdfunding/"}]}}]}}},"context":{}}