{"hash":"6d1e7dd52e8c17cf4930f349c6afc1a78b2e1c5e","data":{"records":{"id":"Design Tools","title":"Design Tools","belongsTo":{"totalCount":63,"pageInfo":{"totalPages":7,"currentPage":2},"edges":[{"node":{"__typename":"Course","id":"37764641-3ef1-11ea-9791-1b580a556b4a","title":"Learning Adobe Lightroom - Start Editing Photos Like a Pro","slug":"learning-adobe-lightroom-start-editing-photos-like-a-pro","headline":"A complete guide to getting started with Adobe Lightroom. Learn everything you need to know to start editing photos.","created":"24th January 2020","tags":[{"title":"Design","path":"/tag/Design/"},{"title":"Design Tools","path":"/tag/Design%20Tools/"},{"title":"Adobe Lightroom","path":"/tag/Adobe%20Lightroom/"}]}},{"node":{"__typename":"Course","id":"3775d11c-3ef1-11ea-9791-1b580a556b4a","title":"Maya Modeling Quadrilateral Based Dinosaur in 3 hours","slug":"maya-modeling-quadrilateral-based-dinosaur-in-3-hours","headline":"Experience the Beastly Power of Maya Modeling Tools to craft this 5-tonne-Jurassic Creature with this Maya Training.","created":"24th January 2020","tags":[{"title":"Design","path":"/tag/Design/"},{"title":"Design Tools","path":"/tag/Design%20Tools/"},{"title":"Maya","path":"/tag/Maya/"}]}},{"node":{"__typename":"Course","id":"3775f822-3ef1-11ea-9791-1b580a556b4a","title":"Project Photoshop: Compositing","slug":"project-photoshop-compositing","headline":"Learn how to photograph, extract subjects and create believable composite images","created":"24th January 2020","tags":[{"title":"Design","path":"/tag/Design/"},{"title":"Design Tools","path":"/tag/Design%20Tools/"},{"title":"Digital Compositing","path":"/tag/Digital%20Compositing/"}]}},{"node":{"__typename":"Course","id":"3775d111-3ef1-11ea-9791-1b580a556b4a","title":"Learn Acrobat XI","slug":"learn-acrobat-xi","headline":"Learn all about how to create, edit, and build the best and most robust PDF documents with Adobe Acrobat XI.","created":"24th January 2020","tags":[{"title":"Design","path":"/tag/Design/"},{"title":"Design Tools","path":"/tag/Design%20Tools/"},{"title":"Adobe Acrobat","path":"/tag/Adobe%20Acrobat/"}]}},{"node":{"__typename":"Course","id":"3775d115-3ef1-11ea-9791-1b580a556b4a","title":"Project Photoshop: Customizing Photoshop","slug":"project-photoshop-customizing-photoshop","headline":"Learn how to Customize Photoshop to Make it Look and Operate the way You Want","created":"24th January 2020","tags":[{"title":"Design","path":"/tag/Design/"},{"title":"Design Tools","path":"/tag/Design%20Tools/"},{"title":"Photoshop","path":"/tag/Photoshop/"}]}},{"node":{"__typename":"Course","id":"377582f7-3ef1-11ea-9791-1b580a556b4a","title":"Adobe Photoshop Elements 11 Tutorial Video - Infinite Skills","slug":"adobe-photoshop-elements-11-tutorial-video-infinite-skills","headline":"Learn the secrets that make Elements as powerful as the full version of Photoshop in these Photoshop Elements tutorials.","created":"24th January 2020","tags":[{"title":"Design","path":"/tag/Design/"},{"title":"Design Tools","path":"/tag/Design%20Tools/"},{"title":"Photoshop","path":"/tag/Photoshop/"}]}},{"node":{"__typename":"Course","id":"377534d2-3ef1-11ea-9791-1b580a556b4a","title":"Software Simulations with Adobe Captivate 5.5","slug":"software-simulations-with-adobe-captivate-5-5","headline":"Skip the traditional class, learn Adobe Captivate at your own pace with RJ Jacquez, former Adobe Captivate Evangelist","created":"24th January 2020","tags":[{"title":"Design","path":"/tag/Design/"},{"title":"Design Tools","path":"/tag/Design%20Tools/"},{"title":"Adobe Captivate","path":"/tag/Adobe%20Captivate/"}]}},{"node":{"__typename":"Course","id":"37755be4-3ef1-11ea-9791-1b580a556b4a","title":"Photoshop For Professional Photographers","slug":"photoshop-for-professional-photographers","headline":"Photoshop demystified by a pro portrait photographer with 20 watch-do-learn tutorials so you master the essentials fast!","created":"24th January 2020","tags":[{"title":"Design","path":"/tag/Design/"},{"title":"Design Tools","path":"/tag/Design%20Tools/"},{"title":"Photoshop","path":"/tag/Photoshop/"}]}},{"node":{"__typename":"Course","id":"3774bfa6-3ef1-11ea-9791-1b580a556b4a","title":"Video Production 101","slug":"video-production-101","headline":"Interested in video production as a business venture or simply as hobby? Jump start with this Video Production Training.","created":"24th January 2020","tags":[{"title":"Design","path":"/tag/Design/"},{"title":"Design Tools","path":"/tag/Design%20Tools/"},{"title":"Video Production","path":"/tag/Video%20Production/"}]}}]}}},"context":{}}