{"hash":"6d1e7dd52e8c17cf4930f349c6afc1a78b2e1c5e","data":{"records":{"id":"IT & Software","title":"IT & Software","belongsTo":{"totalCount":122,"pageInfo":{"totalPages":14,"currentPage":9},"edges":[{"node":{"__typename":"Course","id":"3777f3f3-3ef1-11ea-9791-1b580a556b4a","title":"Oracle Cloud Platform Enterprise Analytics 2018 Associate","slug":"oracle-cloud-platform-enterprise-analytics-2018-associate","headline":"Pass Oracle Cloud Platform Enterprise Analytics 2018 Associate | 1Z0-936 on the first attempt.","created":"24th January 2020","tags":[{"title":"IT & Software","path":"/tag/IT%20%26%20Software/"},{"title":"IT Certification","path":"/tag/IT%20Certification/"}]}},{"node":{"__typename":"Course","id":"3777f3f4-3ef1-11ea-9791-1b580a556b4a","title":"Oracle Eloqua Marketing Cloud Service | 1Z0-349","slug":"oracle-eloqua-marketing-cloud-service-1-z0-349","headline":"Pass Oracle Eloqua Marketing Cloud Service 2017 Implementation Essentials | 1Z0-349 exam on the first attempt.","created":"24th January 2020","tags":[{"title":"IT & Software","path":"/tag/IT%20%26%20Software/"},{"title":"IT Certification","path":"/tag/IT%20Certification/"}]}},{"node":{"__typename":"Course","id":"37781b00-3ef1-11ea-9791-1b580a556b4a","title":"Oracle Order Management Cloud 2017 Implementation Essentials","slug":"oracle-order-management-cloud-2017-implementation-essentials","headline":"Pass Oracle Order Management Cloud 2017 Implementation Essentials | 1Z0-347 exam on the first attempt.","created":"24th January 2020","tags":[{"title":"IT & Software","path":"/tag/IT%20%26%20Software/"},{"title":"IT Certification","path":"/tag/IT%20Certification/"}]}},{"node":{"__typename":"Course","id":"37781b01-3ef1-11ea-9791-1b580a556b4a","title":"Oracle WebCenter Content 11g Essentials | 1Z0-542","slug":"oracle-web-center-content-11g-essentials-1-z0-542","headline":"Pass Oracle WebCenter Content 11g Essentials | 1Z0-542 exam on the first attempt.","created":"24th January 2020","tags":[{"title":"IT & Software","path":"/tag/IT%20%26%20Software/"},{"title":"IT Certification","path":"/tag/IT%20Certification/"}]}},{"node":{"__typename":"Course","id":"37781b03-3ef1-11ea-9791-1b580a556b4a","title":"CIW Database Design Specialist | 1D0-541","slug":"ciw-database-design-specialist-1-d0-541","headline":"Pass CIW Database Design Specialist | 1D0-541 exam on the first attempt.","created":"24th January 2020","tags":[{"title":"IT & Software","path":"/tag/IT%20%26%20Software/"},{"title":"IT Certification","path":"/tag/IT%20Certification/"}]}},{"node":{"__typename":"Course","id":"37781b04-3ef1-11ea-9791-1b580a556b4a","title":"CIW Web Design Specialist | 1D0-520","slug":"ciw-web-design-specialist-1-d0-520","headline":"Pass CIW Web Design Specialist | 1D0-520 exam on the first attempt.","created":"24th January 2020","tags":[{"title":"IT & Software","path":"/tag/IT%20%26%20Software/"},{"title":"IT Certification","path":"/tag/IT%20Certification/"}]}},{"node":{"__typename":"Course","id":"37781b05-3ef1-11ea-9791-1b580a556b4a","title":"OFFICIAL Microsoft Dynamics 365 for Field Service (MB-240)","slug":"official-microsoft-dynamics-365-for-field-service-mb-240","headline":"The most complete Microsoft Dynamics 365 for Field Service (MB-240) certification preparation you've ever seen!","created":"24th January 2020","tags":[{"title":"IT & Software","path":"/tag/IT%20%26%20Software/"},{"title":"IT Certification","path":"/tag/IT%20Certification/"}]}},{"node":{"__typename":"Course","id":"37781b06-3ef1-11ea-9791-1b580a556b4a","title":"OFFICIAL Microsoft Dynamics 365 Supply Chain Management","slug":"official-microsoft-dynamics-365-supply-chain-management","headline":"The most complete Microsoft Dynamics 365 Supply Chain Management certification preparation you've ever seen!","created":"24th January 2020","tags":[{"title":"IT & Software","path":"/tag/IT%20%26%20Software/"},{"title":"IT Certification","path":"/tag/IT%20Certification/"}]}},{"node":{"__typename":"Course","id":"37781b07-3ef1-11ea-9791-1b580a556b4a","title":"OFFICIAL Microsoft Power Platform Fundamentals PL-900","slug":"official-microsoft-power-platform-fundamentals-pl-900","headline":"The most complete Microsoft Power Platform Fundamentals PL-900 certification preparation you've ever seen!","created":"24th January 2020","tags":[{"title":"IT & Software","path":"/tag/IT%20%26%20Software/"},{"title":"IT Certification","path":"/tag/IT%20Certification/"}]}}]}}},"context":{}}