{"hash":"6d1e7dd52e8c17cf4930f349c6afc1a78b2e1c5e","data":{"records":{"id":"Marketing","title":"Marketing","belongsTo":{"totalCount":72,"pageInfo":{"totalPages":8,"currentPage":7},"edges":[{"node":{"__typename":"Course","id":"3770ef17-3ef1-11ea-9791-1b580a556b4a","title":"Introduction to Foursquare for Business","slug":"introduction-to-foursquare-for-business","headline":"Learn what Foursquare is all about and how you can make it work for your business.","created":"24th January 2020","tags":[{"title":"Marketing","path":"/tag/Marketing/"},{"title":"Social Media Marketing","path":"/tag/Social%20Media%20Marketing/"},{"title":"Foursquare","path":"/tag/Foursquare/"}]}},{"node":{"__typename":"Course","id":"3770c804-3ef1-11ea-9791-1b580a556b4a","title":"Local Marketing Blue Print","slug":"local-marketing-blue-print","headline":"Learn how to dominate your competition with local Internet Marketing","created":"24th January 2020","tags":[{"title":"Marketing","path":"/tag/Marketing/"},{"title":"Marketing Fundamentals","path":"/tag/Marketing%20Fundamentals/"},{"title":"Local SEO","path":"/tag/Local%20SEO/"}]}},{"node":{"__typename":"Course","id":"3770a0f5-3ef1-11ea-9791-1b580a556b4a","title":"Landing Page Design & Optimization - build pages that work!","slug":"landing-page-design-and-optimization-build-pages-that-work","headline":"Learn the fine art of conversion rate optimization and making killer landing pages. Convert, succeed, win!","created":"24th January 2020","tags":[{"title":"Marketing","path":"/tag/Marketing/"},{"title":"Digital Marketing","path":"/tag/Digital%20Marketing/"},{"title":"Landing Page Optimization","path":"/tag/Landing%20Page%20Optimization/"}]}},{"node":{"__typename":"Course","id":"377079e5-3ef1-11ea-9791-1b580a556b4a","title":"Web Analytics Blueprint","slug":"web-analytics-blueprint","headline":"Get Your Ultimate Guide to High Conversion Rates","created":"24th January 2020","tags":[{"title":"Marketing","path":"/tag/Marketing/"},{"title":"Analytics & Automation","path":"/tag/Analytics%20%26%20Automation/"},{"title":"Web Analytics","path":"/tag/Web%20Analytics/"}]}},{"node":{"__typename":"Course","id":"37702bc2-3ef1-11ea-9791-1b580a556b4a","title":"Web Development For Beginners: Get A Website Live in Hours","slug":"web-development-for-beginners-get-a-website-live-in-hours","headline":"Web Development can be expensive. Learn how to unleash the power of Blogger to build your own websites in a few hours.","created":"24th January 2020","tags":[{"title":"Marketing","path":"/tag/Marketing/"},{"title":"Content Marketing","path":"/tag/Content%20Marketing/"},{"title":"Web Development","path":"/tag/Web%20Development/"}]}},{"node":{"__typename":"Course","id":"37702bc0-3ef1-11ea-9791-1b580a556b4a","title":"Getting Started with Google Analytics","slug":"getting-started-with-google-analytics","headline":"Learn how to interpret data and get insights from Google Analytics to increase Conversion Rates.","created":"24th January 2020","tags":[{"title":"Marketing","path":"/tag/Marketing/"},{"title":"Search Engine Optimization","path":"/tag/Search%20Engine%20Optimization/"},{"title":"Google Analytics","path":"/tag/Google%20Analytics/"}]}},{"node":{"__typename":"Course","id":"37702bc1-3ef1-11ea-9791-1b580a556b4a","title":"How To Use Twitter To Build Authority In Your Market Sector","slug":"how-to-use-twitter-to-build-authority-in-your-market-sector","headline":"Learn how to leverage the power of Twitter to build authority for yourself or your company in your market.","created":"24th January 2020","tags":[{"title":"Marketing","path":"/tag/Marketing/"},{"title":"Social Media Marketing","path":"/tag/Social%20Media%20Marketing/"},{"title":"Twitter Marketing","path":"/tag/Twitter%20Marketing/"}]}},{"node":{"__typename":"Course","id":"376ef341-3ef1-11ea-9791-1b580a556b4a","title":"Facebook Timeline Pages For Business","slug":"facebook-timeline-pages-for-business","headline":"Facebook Has Changed The Format For Page Design! How To Get Your Facebook Page Updated","created":"24th January 2020","tags":[{"title":"Marketing","path":"/tag/Marketing/"},{"title":"Social Media Marketing","path":"/tag/Social%20Media%20Marketing/"},{"title":"Facebook Marketing","path":"/tag/Facebook%20Marketing/"}]}},{"node":{"__typename":"Course","id":"376f1a50-3ef1-11ea-9791-1b580a556b4a","title":"Introduction to Facebook Pages for Businesses and Orgs","slug":"introduction-to-facebook-pages-for-businesses-and-orgs","headline":"Learn how to create and manage a Facebook Business Page. Updated for 2014!","created":"24th January 2020","tags":[{"title":"Marketing","path":"/tag/Marketing/"},{"title":"Social Media Marketing","path":"/tag/Social%20Media%20Marketing/"},{"title":"Facebook Marketing","path":"/tag/Facebook%20Marketing/"}]}}]}}},"context":{}}