{"hash":"6d1e7dd52e8c17cf4930f349c6afc1a78b2e1c5e","data":{"records":{"id":"Career Development","title":"Career Development","belongsTo":{"totalCount":14,"pageInfo":{"totalPages":2,"currentPage":2},"edges":[{"node":{"__typename":"Course","id":"377311f1-3ef1-11ea-9791-1b580a556b4a","title":"Atendimento 2.0 - A Arte de Encantar Clientes","slug":"atendimento-2-0-a-arte-de-encantar-clientes","headline":"Como Capturar a Mente e o Coração dos Clientes Presenciais e Online","created":"24th January 2020","tags":[{"title":"Personal Development","path":"/tag/Personal%20Development/"},{"title":"Career Development","path":"/tag/Career%20Development/"},{"title":"Customer Service","path":"/tag/Customer%20Service/"}]}},{"node":{"__typename":"Course","id":"37718b53-3ef1-11ea-9791-1b580a556b4a","title":"Career Mind Mastery: Learn How To Get Your Dream Job","slug":"career-mind-mastery-learn-how-to-get-your-dream-job","headline":"A Simple, Science-Based Approach to Getting The Career You Deserve.","created":"24th January 2020","tags":[{"title":"Personal Development","path":"/tag/Personal%20Development/"},{"title":"Career Development","path":"/tag/Career%20Development/"}]}},{"node":{"__typename":"Course","id":"377079e3-3ef1-11ea-9791-1b580a556b4a","title":"The 7 Essential Steps To Getting Your Dream Career","slug":"the-7-essential-steps-to-getting-your-dream-career","headline":"A system based on the conclusions of science. Simple but not easy, effective for everybody and a lot of fun.","created":"24th January 2020","tags":[{"title":"Personal Development","path":"/tag/Personal%20Development/"},{"title":"Career Development","path":"/tag/Career%20Development/"}]}},{"node":{"__typename":"Course","id":"376fdda0-3ef1-11ea-9791-1b580a556b4a","title":"LinkedIn Profile SEO - Rank #1 in People Search","slug":"linked-in-profile-seo-rank-1-in-people-search","headline":"Be findable on Linkedin. Learn how to rank in the top of your industry in Linkedin People Search.","created":"24th January 2020","tags":[{"title":"Personal Development","path":"/tag/Personal%20Development/"},{"title":"Career Development","path":"/tag/Career%20Development/"},{"title":"LinkedIn","path":"/tag/LinkedIn/"}]}},{"node":{"__typename":"Course","id":"376e2ff7-3ef1-11ea-9791-1b580a556b4a","title":"A Journey through Medicine: How to Get into Medical School","slug":"a-journey-through-medicine-how-to-get-into-medical-school","headline":"A tested and proven blueprint to approach the daunting admissions process to get into medical school","created":"24th January 2020","tags":[{"title":"Personal Development","path":"/tag/Personal%20Development/"},{"title":"Career Development","path":"/tag/Career%20Development/"},{"title":"College Admissions","path":"/tag/College%20Admissions/"}]}}]}}},"context":{}}