{"hash":"6d1e7dd52e8c17cf4930f349c6afc1a78b2e1c5e","data":{"records":{"id":"Music","title":"Music","belongsTo":{"totalCount":18,"pageInfo":{"totalPages":2,"currentPage":2},"edges":[{"node":{"__typename":"Course","id":"3773fc56-3ef1-11ea-9791-1b580a556b4a","title":"Musical Mother Tongue: Off-Bench Piano Success With Pre-K's","slug":"musical-mother-tongue-off-bench-piano-success-with-pre-k-s","headline":"Every song and move you need for better rhythm, concentration, and memory from your youngest pianists.","created":"24th January 2020","tags":[{"title":"Music","path":"/tag/Music/"},{"title":"Music Fundamentals","path":"/tag/Music%20Fundamentals/"},{"title":"Parenting","path":"/tag/Parenting/"}]}},{"node":{"__typename":"Course","id":"37733908-3ef1-11ea-9791-1b580a556b4a","title":"Create an energetic House Track with Logic Pro","slug":"create-an-energetic-house-track-with-logic-pro","headline":"Learn how to use Logic Pro to create, mix and master your own house track with this Logic Pro tutorial.","created":"24th January 2020","tags":[{"title":"Music","path":"/tag/Music/"},{"title":"Production","path":"/tag/Production/"},{"title":"Logic Pro X","path":"/tag/Logic%20Pro%20X/"}]}},{"node":{"__typename":"Course","id":"3772c3d2-3ef1-11ea-9791-1b580a556b4a","title":"Guitar Essentials","slug":"guitar-essentials","headline":"Learn all the essential skills you need to start playing the Guitar.","created":"24th January 2020","tags":[{"title":"Music","path":"/tag/Music/"},{"title":"Instruments","path":"/tag/Instruments/"},{"title":"Guitar","path":"/tag/Guitar/"}]}},{"node":{"__typename":"Course","id":"3771d972-3ef1-11ea-9791-1b580a556b4a","title":"DJ with Ableton Live (includes a full warping course)","slug":"dj-with-ableton-live-includes-a-full-warping-course","headline":"Learn to DJ with Ableton Live! Learn to warp anything to build the most creative DJ sets known to man :)","created":"24th January 2020","tags":[{"title":"Music","path":"/tag/Music/"},{"title":"Production","path":"/tag/Production/"},{"title":"Ableton Live","path":"/tag/Ableton%20Live/"}]}},{"node":{"__typename":"Course","id":"3771b263-3ef1-11ea-9791-1b580a556b4a","title":"Pandora Internet Radio: Your Customized Music Experience","slug":"pandora-internet-radio-your-customized-music-experience","headline":"Learn to use the powerful options in the free Pandora Internet Service to create your customized music experience.","created":"24th January 2020","tags":[{"title":"Music","path":"/tag/Music/"},{"title":"Music Software","path":"/tag/Music%20Software/"},{"title":"Internet Radio","path":"/tag/Internet%20Radio/"}]}},{"node":{"__typename":"Course","id":"3771d971-3ef1-11ea-9791-1b580a556b4a","title":"DJ Course in Traktor & Virtual DJ","slug":"dj-course-in-traktor-and-virtual-dj","headline":"Learn DJing skills from a real DJ! This course uses Traktor & Virtual DJ; the skills can be used with any DJ Software.","created":"24th January 2020","tags":[{"title":"Music","path":"/tag/Music/"},{"title":"Production","path":"/tag/Production/"},{"title":"DJ","path":"/tag/DJ/"}]}},{"node":{"__typename":"Course","id":"37713d36-3ef1-11ea-9791-1b580a556b4a","title":"Learn how to make a song in GarageBand in 1 hour","slug":"learn-how-to-make-a-song-in-garage-band-in-1-hour","headline":"Most of John Bura's courses are on sale for 9 dollars! https://www.udemy.com/u/johnbura/ Sale ends Oct 31 2013! Act now!","created":"24th January 2020","tags":[{"title":"Music","path":"/tag/Music/"},{"title":"Production","path":"/tag/Production/"},{"title":"GarageBand","path":"/tag/GarageBand/"}]}},{"node":{"__typename":"Course","id":"37713d37-3ef1-11ea-9791-1b580a556b4a","title":"Play Ukulele Now","slug":"play-ukulele-now","headline":"Learn to play ukulele, make your own music in your own way on the ukulele and have fun doing it.","created":"24th January 2020","tags":[{"title":"Music","path":"/tag/Music/"},{"title":"Instruments","path":"/tag/Instruments/"},{"title":"Ukulele","path":"/tag/Ukulele/"}]}},{"node":{"__typename":"Course","id":"376e5703-3ef1-11ea-9791-1b580a556b4a","title":"Aprende a Tocar Teclado - Piano","slug":"aprende-a-tocar-teclado-piano","headline":"Aprende las bases para tocar piano u organo (teclado)","created":"24th January 2020","tags":[{"title":"Music","path":"/tag/Music/"},{"title":"Instruments","path":"/tag/Instruments/"},{"title":"Piano","path":"/tag/Piano/"}]}}]}}},"context":{}}