{"hash":"6d1e7dd52e8c17cf4930f349c6afc1a78b2e1c5e","data":{"records":{"id":"Language","title":"Language","belongsTo":{"totalCount":13,"pageInfo":{"totalPages":2,"currentPage":2},"edges":[{"node":{"__typename":"Course","id":"377004b8-3ef1-11ea-9791-1b580a556b4a","title":"Basic English Module 1","slug":"basic-english-module-1","headline":"Learn the basic concepts of the English Language: Introductions, the alphabet, numbers, and basic grammar tenses.","created":"24th January 2020","tags":[{"title":"Teaching & Academics","path":"/tag/Teaching%20%26%20Academics/"},{"title":"Language","path":"/tag/Language/"},{"title":"English Language","path":"/tag/English%20Language/"}]}},{"node":{"__typename":"Course","id":"376e08e4-3ef1-11ea-9791-1b580a556b4a","title":"Speak English Like a Native: Troubleshooting Course for ESL","slug":"speak-english-like-a-native-troubleshooting-course-for-esl","headline":"English language students, learn conversation skills with over 50 video lectures in this Basic English language course.","created":"24th January 2020","tags":[{"title":"Teaching & Academics","path":"/tag/Teaching%20%26%20Academics/"},{"title":"Language","path":"/tag/Language/"},{"title":"ESL","path":"/tag/ESL/"}]}},{"node":{"__typename":"Course","id":"376cd061-3ef1-11ea-9791-1b580a556b4a","title":"Spanish 1-4: Beginner, Elementary, Intermediate and Advanced","slug":"spanish-1-4-beginner-elementary-intermediate-and-advanced","headline":"Learn Spanish with 323 lessons (109 hours of content) covering Beginner, Elementary, Intermediate and Advanced Spanish.","created":"24th January 2020","tags":[{"title":"Teaching & Academics","path":"/tag/Teaching%20%26%20Academics/"},{"title":"Language","path":"/tag/Language/"},{"title":"Spanish Language","path":"/tag/Spanish%20Language/"}]}},{"node":{"__typename":"Course","id":"376c3422-3ef1-11ea-9791-1b580a556b4a","title":"Learn Serbian 102","slug":"learn-serbian-102","headline":"Perfect for false beginners in Serbian, Bosnian, Croatian, Montenegrin. It covers all essential situations and grammar.","created":"24th January 2020","tags":[{"title":"Teaching & Academics","path":"/tag/Teaching%20%26%20Academics/"},{"title":"Language","path":"/tag/Language/"},{"title":"Serbian Language","path":"/tag/Serbian%20Language/"}]}}]}}},"context":{}}