{"hash":"6d1e7dd52e8c17cf4930f349c6afc1a78b2e1c5e","data":{"records":{"id":"Web Design","title":"Web Design","belongsTo":{"totalCount":23,"pageInfo":{"totalPages":3,"currentPage":3},"edges":[{"node":{"__typename":"Course","id":"376de1d1-3ef1-11ea-9791-1b580a556b4a","title":"Building Custom WordPress Sites from Scratch","slug":"building-custom-word-press-sites-from-scratch","headline":"Learn how to build customized WordPress Sites. Over 9 hours of training from an leading expert","created":"24th January 2020","tags":[{"title":"Design","path":"/tag/Design/"},{"title":"Web Design","path":"/tag/Web%20Design/"},{"title":"WordPress","path":"/tag/WordPress/"}]}},{"node":{"__typename":"Course","id":"376de1d4-3ef1-11ea-9791-1b580a556b4a","title":"How to Create a Successful WordPress Site","slug":"how-to-create-a-successful-word-press-site","headline":"Learn how to create an awesome WordPress site and a bunch of cool tricks to drive traffic to make it super successful!","created":"24th January 2020","tags":[{"title":"Design","path":"/tag/Design/"},{"title":"Web Design","path":"/tag/Web%20Design/"},{"title":"WordPress","path":"/tag/WordPress/"}]}},{"node":{"__typename":"Course","id":"376cd063-3ef1-11ea-9791-1b580a556b4a","title":"WordPress for Beginners","slug":"word-press-for-beginners","headline":"Wordpress tutorial for beginners focusing on the essential concepts and knowledge you need to get started with WordPress","created":"24th January 2020","tags":[{"title":"Design","path":"/tag/Design/"},{"title":"Web Design","path":"/tag/Web%20Design/"},{"title":"WordPress","path":"/tag/WordPress/"}]}},{"node":{"__typename":"Course","id":"376be602-3ef1-11ea-9791-1b580a556b4a","title":"Creating Responsive Web Design","slug":"creating-responsive-web-design","headline":"Learn how to optimize your webpages for different screen sizes and platforms.","created":"24th January 2020","tags":[{"title":"Design","path":"/tag/Design/"},{"title":"Web Design","path":"/tag/Web%20Design/"},{"title":"Responsive Design","path":"/tag/Responsive%20Design/"}]}},{"node":{"__typename":"Course","id":"376aad81-3ef1-11ea-9791-1b580a556b4a","title":"Web Design from the Ground Up","slug":"web-design-from-the-ground-up","headline":"Learn web design online: Everything you need to know about XHTML and CSS, the basic building blocks of web design.","created":"24th January 2020","tags":[{"title":"Design","path":"/tag/Design/"},{"title":"Web Design","path":"/tag/Web%20Design/"}]}}]}}},"context":{}}