{"hash":"6d1e7dd52e8c17cf4930f349c6afc1a78b2e1c5e","data":{"records":{"id":"Health & Fitness","title":"Health & Fitness","belongsTo":{"totalCount":37,"pageInfo":{"totalPages":5,"currentPage":1},"edges":[{"node":{"__typename":"Course","id":"37795388-3ef1-11ea-9791-1b580a556b4a","title":"Moms are Amazing: Feel calmer, de-stress, tone and stretch","slug":"moms-are-amazing-feel-calmer-de-stress-tone-and-stretch","headline":"For Busy Moms who want to recharge their batteries","created":"24th January 2020","tags":[{"title":"Health & Fitness","path":"/tag/Health%20%26%20Fitness/"},{"title":"Meditation","path":"/tag/Meditation/"},{"title":"Stretching Exercise","path":"/tag/Stretching%20Exercise/"}]}},{"node":{"__typename":"Course","id":"37770994-3ef1-11ea-9791-1b580a556b4a","title":"Easy Instructional Harmonium for Yoga, Kirtans, Meditations","slug":"easy-instructional-harmonium-for-yoga-kirtans-meditations","headline":"Easy instructional harmonium for yoga classes, kirtans and personal meditations.","created":"24th January 2020","tags":[{"title":"Health & Fitness","path":"/tag/Health%20%26%20Fitness/"},{"title":"Yoga","path":"/tag/Yoga/"},{"title":"Harmonium","path":"/tag/Harmonium/"}]}},{"node":{"__typename":"Course","id":"37769464-3ef1-11ea-9791-1b580a556b4a","title":"Learn about Attention Deficit Disorder","slug":"learn-about-attention-deficit-disorder","headline":"Learn about the Six Types of ADD, research, myths about ADD and ADHD, and treatment for ADHD.","created":"24th January 2020","tags":[{"title":"Health & Fitness","path":"/tag/Health%20%26%20Fitness/"},{"title":"Mental Health","path":"/tag/Mental%20Health/"},{"title":"ADHD","path":"/tag/ADHD/"}]}},{"node":{"__typename":"Course","id":"37761f3a-3ef1-11ea-9791-1b580a556b4a","title":"Learn Emotional Freedom Technique and Thought Field Therapy","slug":"learn-emotional-freedom-technique-and-thought-field-therapy","headline":"This course contains lecture and video demos to learn these techniques, and they are for anyone. including clinicians.","created":"24th January 2020","tags":[{"title":"Health & Fitness","path":"/tag/Health%20%26%20Fitness/"},{"title":"Mental Health","path":"/tag/Mental%20Health/"},{"title":"EFT","path":"/tag/EFT/"}]}},{"node":{"__typename":"Course","id":"37761f33-3ef1-11ea-9791-1b580a556b4a","title":"The Flow State Transformational Training Video Course","slug":"the-flow-state-transformational-training-video-course","headline":"Unique Flow State Workshops including Yoga,Chakra Balancing, Guided Meditation, Nutrition, Acro & Thai Massage Healing.","created":"24th January 2020","tags":[{"title":"Health & Fitness","path":"/tag/Health%20%26%20Fitness/"},{"title":"Yoga","path":"/tag/Yoga/"}]}},{"node":{"__typename":"Course","id":"377582f5-3ef1-11ea-9791-1b580a556b4a","title":"Learn Massage For Lovers, Friends And Family","slug":"learn-massage-for-lovers-friends-and-family","headline":"Discover how easy massage techniques can be a path to happier relationships, better marriages and grateful friends.","created":"24th January 2020","tags":[{"title":"Health & Fitness","path":"/tag/Health%20%26%20Fitness/"},{"title":"General Health","path":"/tag/General%20Health/"},{"title":"Massage","path":"/tag/Massage/"}]}},{"node":{"__typename":"Course","id":"3774e6b5-3ef1-11ea-9791-1b580a556b4a","title":"Yogananda Meditation For Deep Daily Practice","slug":"yogananda-meditation-for-deep-daily-practice","headline":"Learn how to meditate deeply while getting the support you need to create a solid daily meditation practice at home.","created":"24th January 2020","tags":[{"title":"Health & Fitness","path":"/tag/Health%20%26%20Fitness/"},{"title":"Meditation","path":"/tag/Meditation/"}]}},{"node":{"__typename":"Course","id":"3774e6b7-3ef1-11ea-9791-1b580a556b4a","title":"Break Free from Tinnitus Anxiety - Access your Wellbeing","slug":"break-free-from-tinnitus-anxiety-access-your-wellbeing","headline":"Chronic Tinnitus Sufferers Reduce the Noise, Anxiety, Stress. More peace, clarity, fun, happiness and relaxation","created":"24th January 2020","tags":[{"title":"Health & Fitness","path":"/tag/Health%20%26%20Fitness/"},{"title":"Mental Health","path":"/tag/Mental%20Health/"},{"title":"Stress Management","path":"/tag/Stress%20Management/"}]}},{"node":{"__typename":"Course","id":"37750dc7-3ef1-11ea-9791-1b580a556b4a","title":"Intro to Yoga Fun for Kids","slug":"intro-to-yoga-fun-for-kids","headline":"Where kids and the young at heart can have fun learning yoga","created":"24th January 2020","tags":[{"title":"Health & Fitness","path":"/tag/Health%20%26%20Fitness/"},{"title":"Yoga","path":"/tag/Yoga/"},{"title":"Yoga for Kids","path":"/tag/Yoga%20for%20Kids/"}]}}]}}},"context":{}}