{"hash":"6d1e7dd52e8c17cf4930f349c6afc1a78b2e1c5e","data":{"records":{"id":"Communications","title":"Communications","belongsTo":{"totalCount":17,"pageInfo":{"totalPages":2,"currentPage":1},"edges":[{"node":{"__typename":"Course","id":"377730a8-3ef1-11ea-9791-1b580a556b4a","title":"Novel Writing Workshop","slug":"novel-writing-workshop","headline":"Turn your idea into a published novel, step by step. Includes 27 video lessons!","created":"24th January 2020","tags":[{"title":"Business","path":"/tag/Business/"},{"title":"Communications","path":"/tag/Communications/"},{"title":"Novel Writing","path":"/tag/Novel%20Writing/"}]}},{"node":{"__typename":"Course","id":"37769468-3ef1-11ea-9791-1b580a556b4a","title":"How to Pitch for Success and Improve Your Influence","slug":"how-to-pitch-for-success-and-improve-your-influence","headline":"Learn 12 simple but powerful tips for effective pitching to investors, selling to customers or presenting at work.","created":"24th January 2020","tags":[{"title":"Business","path":"/tag/Business/"},{"title":"Communications","path":"/tag/Communications/"},{"title":"Influence Skills","path":"/tag/Influence%20Skills/"}]}},{"node":{"__typename":"Course","id":"3775f826-3ef1-11ea-9791-1b580a556b4a","title":"Parlare in pubblico: come fare presentazioni di successo","slug":"parlare-in-pubblico-come-fare-presentazioni-di-successo","headline":"Impara a preparare e fare presentazioni convincenti, tutto quello che serve sapere dalle slide a gestire il pubblico","created":"24th January 2020","tags":[{"title":"Business","path":"/tag/Business/"},{"title":"Communications","path":"/tag/Communications/"},{"title":"Presentation Skills","path":"/tag/Presentation%20Skills/"}]}},{"node":{"__typename":"Course","id":"37761f30-3ef1-11ea-9791-1b580a556b4a","title":"Professional Technical Writing: Advance Your Writing Skills","slug":"professional-technical-writing-advance-your-writing-skills","headline":"Create your first technical document by applying the principles and techniques of technical writing taught by Pro Writer","created":"24th January 2020","tags":[{"title":"Business","path":"/tag/Business/"},{"title":"Communications","path":"/tag/Communications/"},{"title":"Technical Writing","path":"/tag/Technical%20Writing/"}]}},{"node":{"__typename":"Course","id":"37755be2-3ef1-11ea-9791-1b580a556b4a","title":"How to Write an Effective Research Paper","slug":"how-to-write-an-effective-research-paper","headline":"Learn how to write award-winning research papers with easy steps. Includes examples and a research paper template.","created":"24th January 2020","tags":[{"title":"Business","path":"/tag/Business/"},{"title":"Communications","path":"/tag/Communications/"},{"title":"Research Paper Writing","path":"/tag/Research%20Paper%20Writing/"}]}},{"node":{"__typename":"Course","id":"37755be5-3ef1-11ea-9791-1b580a556b4a","title":"Persuasive Presentations: Write, Deliver and move audiences!","slug":"persuasive-presentations-write-deliver-and-move-audiences","headline":"Learn now how to be a successful speaker. Everything you need to know: from slides to communication, avoiding mistakes!","created":"24th January 2020","tags":[{"title":"Business","path":"/tag/Business/"},{"title":"Communications","path":"/tag/Communications/"},{"title":"Presentation Skills","path":"/tag/Presentation%20Skills/"}]}},{"node":{"__typename":"Course","id":"3774bfa4-3ef1-11ea-9791-1b580a556b4a","title":"Improve Communication: Speak Smoothly, Clearly & Confidently","slug":"improve-communication-speak-smoothly-clearly-and-confidently","headline":"Learn How You Can Clear Interviews, Express Your Ideas, & Make Presentations Smoothly & Confidently!","created":"24th January 2020","tags":[{"title":"Business","path":"/tag/Business/"},{"title":"Communications","path":"/tag/Communications/"},{"title":"Communication Skills","path":"/tag/Communication%20Skills/"}]}},{"node":{"__typename":"Course","id":"37749890-3ef1-11ea-9791-1b580a556b4a","title":"Take Panic Out of Presenting with Simple Story Skills","slug":"take-panic-out-of-presenting-with-simple-story-skills","headline":"Speaking can be hard, but it doesn't have to be. Learn how basic story telling can make it easy to create a presentation","created":"24th January 2020","tags":[{"title":"Business","path":"/tag/Business/"},{"title":"Communications","path":"/tag/Communications/"},{"title":"Public Speaking","path":"/tag/Public%20Speaking/"}]}},{"node":{"__typename":"Course","id":"37747187-3ef1-11ea-9791-1b580a556b4a","title":"How to Ask Powerful, Emotionally Engaging Questions","slug":"how-to-ask-powerful-emotionally-engaging-questions","headline":"Master the science of asking smart, shrewd questions that unlock the mind and motives of you customers to create sales.","created":"24th January 2020","tags":[{"title":"Business","path":"/tag/Business/"},{"title":"Communications","path":"/tag/Communications/"},{"title":"Sales Skills","path":"/tag/Sales%20Skills/"}]}}]}}},"context":{}}