{"hash":"6d1e7dd52e8c17cf4930f349c6afc1a78b2e1c5e","data":{"records":{"id":"IT Certification","title":"IT Certification","belongsTo":{"totalCount":88,"pageInfo":{"totalPages":10,"currentPage":7},"edges":[{"node":{"__typename":"Course","id":"3777f3f1-3ef1-11ea-9791-1b580a556b4a","title":"CIW Site Development Associate | 1D0-61B","slug":"ciw-site-development-associate-1-d0-61-b","headline":"Pass CIW Site Development Associate | 1D0-61B exam on the first attempt.","created":"24th January 2020","tags":[{"title":"IT & Software","path":"/tag/IT%20%26%20Software/"},{"title":"IT Certification","path":"/tag/IT%20Certification/"}]}},{"node":{"__typename":"Course","id":"3777f3f2-3ef1-11ea-9791-1b580a556b4a","title":"CIW Web Foundations Associate | 1D0-610","slug":"ciw-web-foundations-associate-1-d0-610","headline":"Pass CIW Web Foundations Associate | 1D0-610 on the first attempt. 2 practice test with 150+ unique questions.","created":"24th January 2020","tags":[{"title":"IT & Software","path":"/tag/IT%20%26%20Software/"},{"title":"IT Certification","path":"/tag/IT%20Certification/"}]}},{"node":{"__typename":"Course","id":"3777f3f3-3ef1-11ea-9791-1b580a556b4a","title":"Oracle Cloud Platform Enterprise Analytics 2018 Associate","slug":"oracle-cloud-platform-enterprise-analytics-2018-associate","headline":"Pass Oracle Cloud Platform Enterprise Analytics 2018 Associate | 1Z0-936 on the first attempt.","created":"24th January 2020","tags":[{"title":"IT & Software","path":"/tag/IT%20%26%20Software/"},{"title":"IT Certification","path":"/tag/IT%20Certification/"}]}},{"node":{"__typename":"Course","id":"3777f3f4-3ef1-11ea-9791-1b580a556b4a","title":"Oracle Eloqua Marketing Cloud Service | 1Z0-349","slug":"oracle-eloqua-marketing-cloud-service-1-z0-349","headline":"Pass Oracle Eloqua Marketing Cloud Service 2017 Implementation Essentials | 1Z0-349 exam on the first attempt.","created":"24th January 2020","tags":[{"title":"IT & Software","path":"/tag/IT%20%26%20Software/"},{"title":"IT Certification","path":"/tag/IT%20Certification/"}]}},{"node":{"__typename":"Course","id":"37781b00-3ef1-11ea-9791-1b580a556b4a","title":"Oracle Order Management Cloud 2017 Implementation Essentials","slug":"oracle-order-management-cloud-2017-implementation-essentials","headline":"Pass Oracle Order Management Cloud 2017 Implementation Essentials | 1Z0-347 exam on the first attempt.","created":"24th January 2020","tags":[{"title":"IT & Software","path":"/tag/IT%20%26%20Software/"},{"title":"IT Certification","path":"/tag/IT%20Certification/"}]}},{"node":{"__typename":"Course","id":"37781b01-3ef1-11ea-9791-1b580a556b4a","title":"Oracle WebCenter Content 11g Essentials | 1Z0-542","slug":"oracle-web-center-content-11g-essentials-1-z0-542","headline":"Pass Oracle WebCenter Content 11g Essentials | 1Z0-542 exam on the first attempt.","created":"24th January 2020","tags":[{"title":"IT & Software","path":"/tag/IT%20%26%20Software/"},{"title":"IT Certification","path":"/tag/IT%20Certification/"}]}},{"node":{"__typename":"Course","id":"37781b03-3ef1-11ea-9791-1b580a556b4a","title":"CIW Database Design Specialist | 1D0-541","slug":"ciw-database-design-specialist-1-d0-541","headline":"Pass CIW Database Design Specialist | 1D0-541 exam on the first attempt.","created":"24th January 2020","tags":[{"title":"IT & Software","path":"/tag/IT%20%26%20Software/"},{"title":"IT Certification","path":"/tag/IT%20Certification/"}]}},{"node":{"__typename":"Course","id":"37781b04-3ef1-11ea-9791-1b580a556b4a","title":"CIW Web Design Specialist | 1D0-520","slug":"ciw-web-design-specialist-1-d0-520","headline":"Pass CIW Web Design Specialist | 1D0-520 exam on the first attempt.","created":"24th January 2020","tags":[{"title":"IT & Software","path":"/tag/IT%20%26%20Software/"},{"title":"IT Certification","path":"/tag/IT%20Certification/"}]}},{"node":{"__typename":"Course","id":"37781b05-3ef1-11ea-9791-1b580a556b4a","title":"OFFICIAL Microsoft Dynamics 365 for Field Service (MB-240)","slug":"official-microsoft-dynamics-365-for-field-service-mb-240","headline":"The most complete Microsoft Dynamics 365 for Field Service (MB-240) certification preparation you've ever seen!","created":"24th January 2020","tags":[{"title":"IT & Software","path":"/tag/IT%20%26%20Software/"},{"title":"IT Certification","path":"/tag/IT%20Certification/"}]}}]}}},"context":{}}