{"hash":"6d1e7dd52e8c17cf4930f349c6afc1a78b2e1c5e","data":{"records":{"id":"Graphic Design","title":"Graphic Design","belongsTo":{"totalCount":12,"pageInfo":{"totalPages":2,"currentPage":2},"edges":[{"node":{"__typename":"Course","id":"377052d4-3ef1-11ea-9791-1b580a556b4a","title":"Color Basics for Print Designers","slug":"color-basics-for-print-designers","headline":"From Rainbows to Pantone®: Understanding Color in Print Design","created":"24th January 2020","tags":[{"title":"Design","path":"/tag/Design/"},{"title":"Graphic Design","path":"/tag/Graphic%20Design/"},{"title":"Printmaking","path":"/tag/Printmaking/"}]}},{"node":{"__typename":"Course","id":"376f1a51-3ef1-11ea-9791-1b580a556b4a","title":"Learn To Draw - The COMIC BOOK STYLE","slug":"learn-to-draw-the-comic-book-style","headline":"The best drawing course on Udemy! Feels like a live art class! Learn How To Draw and Sign Up Today!","created":"24th January 2020","tags":[{"title":"Design","path":"/tag/Design/"},{"title":"Graphic Design","path":"/tag/Graphic%20Design/"},{"title":"Comic Book Creation","path":"/tag/Comic%20Book%20Creation/"}]}},{"node":{"__typename":"Course","id":"376ef344-3ef1-11ea-9791-1b580a556b4a","title":"Discover the 7 Secrets to Figure Drawing: Draw Awesome ...","slug":"discover-the-7-secrets-to-figure-drawing-draw-awesome","headline":"Learn how to draw people step by step in two weeks, and all from your imagination. No references.","created":"24th January 2020","tags":[{"title":"Design","path":"/tag/Design/"},{"title":"Graphic Design","path":"/tag/Graphic%20Design/"},{"title":"Figure Drawing","path":"/tag/Figure%20Drawing/"}]}}]}}},"context":{}}