{"hash":"6d1e7dd52e8c17cf4930f349c6afc1a78b2e1c5e","data":{"records":{"id":"WordPress","title":"WordPress","belongsTo":{"totalCount":17,"pageInfo":{"totalPages":2,"currentPage":1},"edges":[{"node":{"__typename":"Course","id":"377a64f4-3ef1-11ea-9791-1b580a556b4a","title":"Learn Wordpress Engagement Boost","slug":"learn-wordpress-engagement-boost","headline":"More leads, sales, and profits from engagement boosted wordpress site","created":"24th January 2020","tags":[{"title":"IT & Software","path":"/tag/IT%20%26%20Software/"},{"title":"Other","path":"/tag/Other/"},{"title":"WordPress","path":"/tag/WordPress/"}]}},{"node":{"__typename":"Course","id":"37790566-3ef1-11ea-9791-1b580a556b4a","title":"How to Create a Wordpress Website & Sales Page in 1 Hour","slug":"how-to-create-a-wordpress-website-and-sales-page-in-1-hour","headline":"Creating a professionally designed sales page that can accept credit cards has never been easier thanks to technology!","created":"24th January 2020","tags":[{"title":"Marketing","path":"/tag/Marketing/"},{"title":"Other","path":"/tag/Other/"},{"title":"WordPress","path":"/tag/WordPress/"}]}},{"node":{"__typename":"Course","id":"37786928-3ef1-11ea-9791-1b580a556b4a","title":"Cómo hacer un sitio web rápido con Wordpress ¡Vende páginas!","slug":"como-hacer-un-sitio-web-rapido-con-wordpress-vende-paginas","headline":"Hacer páginas web profesionales para negocios","created":"24th January 2020","tags":[{"title":"Development","path":"/tag/Development/"},{"title":"Web Development","path":"/tag/Web%20Development/"},{"title":"WordPress","path":"/tag/WordPress/"}]}},{"node":{"__typename":"Course","id":"377730a6-3ef1-11ea-9791-1b580a556b4a","title":"How to Build a WordPress Form Using the Gravity Forms Plugin","slug":"how-to-build-a-word-press-form-using-the-gravity-forms-plugin","headline":"Learn Exactly How to Unleash the Power of the Gravity Forms Plugin for WordPress with Our Advanced Video Training Course","created":"24th January 2020","tags":[{"title":"Design","path":"/tag/Design/"},{"title":"Web Design","path":"/tag/Web%20Design/"},{"title":"WordPress","path":"/tag/WordPress/"}]}},{"node":{"__typename":"Course","id":"37742362-3ef1-11ea-9791-1b580a556b4a","title":"WordPress for Your Wedding Business","slug":"word-press-for-your-wedding-business","headline":"Learn How to create a wedding website using WordPress for your Wedding Business","created":"24th January 2020","tags":[{"title":"Design","path":"/tag/Design/"},{"title":"Web Design","path":"/tag/Web%20Design/"},{"title":"WordPress","path":"/tag/WordPress/"}]}},{"node":{"__typename":"Course","id":"3773d54b-3ef1-11ea-9791-1b580a556b4a","title":"WordPress For Beginners","slug":"word-press-for-beginners","headline":"A complete beginners training course for learning to build a blog using WordPress","created":"24th January 2020","tags":[{"title":"Design","path":"/tag/Design/"},{"title":"Web Design","path":"/tag/Web%20Design/"},{"title":"WordPress","path":"/tag/WordPress/"}]}},{"node":{"__typename":"Course","id":"3773d54c-3ef1-11ea-9791-1b580a556b4a","title":"WordPress for Wedding Photographers","slug":"word-press-for-wedding-photographers","headline":"Build Your Own Photography Website With WordPress","created":"24th January 2020","tags":[{"title":"Design","path":"/tag/Design/"},{"title":"Web Design","path":"/tag/Web%20Design/"},{"title":"WordPress","path":"/tag/WordPress/"}]}},{"node":{"__typename":"Course","id":"3773ae37-3ef1-11ea-9791-1b580a556b4a","title":"A Beginners Guide To Setting Up A WordPress Blog","slug":"a-beginners-guide-to-setting-up-a-word-press-blog","headline":"Learn the A to Z process of creating and setting up a wordpress blog","created":"24th January 2020","tags":[{"title":"Design","path":"/tag/Design/"},{"title":"Web Design","path":"/tag/Web%20Design/"},{"title":"WordPress","path":"/tag/WordPress/"}]}},{"node":{"__typename":"Course","id":"37738722-3ef1-11ea-9791-1b580a556b4a","title":"WordPress Social Media Automation","slug":"word-press-social-media-automation","headline":"Automated content sharing tricks -WordPress not required.","created":"24th January 2020","tags":[{"title":"Design","path":"/tag/Design/"},{"title":"Web Design","path":"/tag/Web%20Design/"},{"title":"WordPress","path":"/tag/WordPress/"}]}}]}}},"context":{}}