{"hash":"6d1e7dd52e8c17cf4930f349c6afc1a78b2e1c5e","data":{"records":{"id":"Development","title":"Development","belongsTo":{"totalCount":129,"pageInfo":{"totalPages":15,"currentPage":12},"edges":[{"node":{"__typename":"Course","id":"376ea527-3ef1-11ea-9791-1b580a556b4a","title":"CSS Fundamentals","slug":"css-fundamentals","headline":"Gain Massive CSS Skills & Learn A Ton Of Techniques!","created":"24th January 2020","tags":[{"title":"Development","path":"/tag/Development/"},{"title":"Web Development","path":"/tag/Web%20Development/"},{"title":"CSS","path":"/tag/CSS/"}]}},{"node":{"__typename":"Course","id":"376ecc31-3ef1-11ea-9791-1b580a556b4a","title":"HTML Workshop","slug":"html-workshop","headline":"Learn HTML from scratch with this HTML Workshop","created":"24th January 2020","tags":[{"title":"Development","path":"/tag/Development/"},{"title":"Web Development","path":"/tag/Web%20Development/"},{"title":"HTML","path":"/tag/HTML/"}]}},{"node":{"__typename":"Course","id":"376e7e12-3ef1-11ea-9791-1b580a556b4a","title":"Learn HTML5 At Your Own Pace. Ideal for Beginners","slug":"learn-htm-l5-at-your-own-pace-ideal-for-beginners","headline":"Learn HTML5 and the Basic Web Development Techniques and Standards from scratch. Complete with Certificate of Completion","created":"24th January 2020","tags":[{"title":"Development","path":"/tag/Development/"},{"title":"Web Development","path":"/tag/Web%20Development/"},{"title":"HTML5","path":"/tag/HTML5/"}]}},{"node":{"__typename":"Course","id":"376e5707-3ef1-11ea-9791-1b580a556b4a","title":"Create Your Own iPad & Android Publications","slug":"create-your-own-i-pad-and-android-publications","headline":"Design and publish digital magazines & eBooks for iPad Kindle & Nook, with Adobe InDesign & Digital Publishing Suite.","created":"24th January 2020","tags":[{"title":"Development","path":"/tag/Development/"},{"title":"Mobile Apps","path":"/tag/Mobile%20Apps/"},{"title":"Android Development","path":"/tag/Android%20Development/"}]}},{"node":{"__typename":"Course","id":"376e7e11-3ef1-11ea-9791-1b580a556b4a","title":"Learn C# Programming (In Ten Easy Steps)","slug":"learn-c-programming-in-ten-easy-steps","headline":"The simplest way to learn C# programming.","created":"24th January 2020","tags":[{"title":"Development","path":"/tag/Development/"},{"title":"Programming Languages","path":"/tag/Programming%20Languages/"},{"title":"C#","path":"/tag/C%23/"}]}},{"node":{"__typename":"Course","id":"376e2ff9-3ef1-11ea-9791-1b580a556b4a","title":"Introduction to Java Programming for Online Learners","slug":"introduction-to-java-programming-for-online-learners","headline":"Supplemental instruction on java concepts found in online programming courses, designed to help students truly learn.","created":"24th January 2020","tags":[{"title":"Development","path":"/tag/Development/"},{"title":"Web Development","path":"/tag/Web%20Development/"},{"title":"Java","path":"/tag/Java/"}]}},{"node":{"__typename":"Course","id":"376e5700-3ef1-11ea-9791-1b580a556b4a","title":"Make iPhone and iPad games in 1 hour without programming","slug":"make-i-phone-and-i-pad-games-in-1-hour-without-programming","headline":"Most of John Bura's courses are on sale for 9 dollars! https://www.udemy.com/u/johnbura/ Sale ends Oct 31 2013! Act now!","created":"24th January 2020","tags":[{"title":"Development","path":"/tag/Development/"},{"title":"Mobile Apps","path":"/tag/Mobile%20Apps/"},{"title":"iOS Game Development","path":"/tag/iOS%20Game%20Development/"}]}},{"node":{"__typename":"Course","id":"376de1d7-3ef1-11ea-9791-1b580a556b4a","title":"Learn C++ Game Development","slug":"learn-c-game-development","headline":"C++ game development course for beginners.","created":"24th January 2020","tags":[{"title":"Development","path":"/tag/Development/"},{"title":"Game Development","path":"/tag/Game%20Development/"},{"title":"Game Development Fundamentals","path":"/tag/Game%20Development%20Fundamentals/"}]}},{"node":{"__typename":"Course","id":"376e08e0-3ef1-11ea-9791-1b580a556b4a","title":"Learn Python, it's CAKE (Beginners)","slug":"learn-python-it-s-cake-beginners","headline":"Python training for beginners who would like to write programs but don't have a clue how to write python code.","created":"24th January 2020","tags":[{"title":"Development","path":"/tag/Development/"},{"title":"Programming Languages","path":"/tag/Programming%20Languages/"},{"title":"Python","path":"/tag/Python/"}]}}]}}},"context":{}}