{"hash":"6d1e7dd52e8c17cf4930f349c6afc1a78b2e1c5e","data":{"records":{"id":"Web Development","title":"Web Development","belongsTo":{"totalCount":55,"pageInfo":{"totalPages":7,"currentPage":6},"edges":[{"node":{"__typename":"Course","id":"376e7e12-3ef1-11ea-9791-1b580a556b4a","title":"Learn HTML5 At Your Own Pace. Ideal for Beginners","slug":"learn-htm-l5-at-your-own-pace-ideal-for-beginners","headline":"Learn HTML5 and the Basic Web Development Techniques and Standards from scratch. Complete with Certificate of Completion","created":"24th January 2020","tags":[{"title":"Development","path":"/tag/Development/"},{"title":"Web Development","path":"/tag/Web%20Development/"},{"title":"HTML5","path":"/tag/HTML5/"}]}},{"node":{"__typename":"Course","id":"376e2ff9-3ef1-11ea-9791-1b580a556b4a","title":"Introduction to Java Programming for Online Learners","slug":"introduction-to-java-programming-for-online-learners","headline":"Supplemental instruction on java concepts found in online programming courses, designed to help students truly learn.","created":"24th January 2020","tags":[{"title":"Development","path":"/tag/Development/"},{"title":"Web Development","path":"/tag/Web%20Development/"},{"title":"Java","path":"/tag/Java/"}]}},{"node":{"__typename":"Course","id":"376dbac5-3ef1-11ea-9791-1b580a556b4a","title":"Introducción a JavaScript","slug":"introduccion-a-java-script","headline":"Dale vida a tus sitios HTML5 con JavaScript! Aprende desde cero el lenguaje que le da interactividad a toda la web.","created":"24th January 2020","tags":[{"title":"Development","path":"/tag/Development/"},{"title":"Web Development","path":"/tag/Web%20Development/"},{"title":"HTML","path":"/tag/HTML/"}]}},{"node":{"__typename":"Course","id":"376dbac6-3ef1-11ea-9791-1b580a556b4a","title":"Become a Certified Web Developer","slug":"become-a-certified-web-developer","headline":"Complete coverage of HTML, CSS, Javascript and PHP while you Earn Four Respected Certificatons","created":"24th January 2020","tags":[{"title":"Development","path":"/tag/Development/"},{"title":"Web Development","path":"/tag/Web%20Development/"}]}},{"node":{"__typename":"Course","id":"376cf770-3ef1-11ea-9791-1b580a556b4a","title":"Become a Web Developer from Scratch","slug":"become-a-web-developer-from-scratch","headline":"This course covers all you need to know about becoming a top skilled web developer even if you never programmed before!","created":"24th January 2020","tags":[{"title":"Development","path":"/tag/Development/"},{"title":"Web Development","path":"/tag/Web%20Development/"}]}},{"node":{"__typename":"Course","id":"376d93b0-3ef1-11ea-9791-1b580a556b4a","title":"Learn jQuery: An In-depth Course For Beginners","slug":"learn-j-query-an-in-depth-course-for-beginners","headline":"Master jQuery at your own Pace. Learn Everything you need to know about jQuery!","created":"24th January 2020","tags":[{"title":"Development","path":"/tag/Development/"},{"title":"Web Development","path":"/tag/Web%20Development/"},{"title":"jQuery","path":"/tag/jQuery/"}]}},{"node":{"__typename":"Course","id":"376cd060-3ef1-11ea-9791-1b580a556b4a","title":"Practical Transformation Using XSLT and XPath (5-hour free preview; 24 hours total)","slug":"practical-transformation-using-xslt-and-x-path-5-hour-free-preview-24-hours-total","headline":"5-day class for transforming XML covers every element, every attribute and every function of W3C XSLT/XPath 1.0 and 2.0.","created":"24th January 2020","tags":[{"title":"Development","path":"/tag/Development/"},{"title":"Web Development","path":"/tag/Web%20Development/"},{"title":"XSLT","path":"/tag/XSLT/"}]}},{"node":{"__typename":"Course","id":"376b97e0-3ef1-11ea-9791-1b580a556b4a","title":"Basic and Advanced HTML Lessons","slug":"basic-and-advanced-html-lessons","headline":"This is an accelerated course for anyone interested in learning basic techniques for creating professional web sites.","created":"24th January 2020","tags":[{"title":"Development","path":"/tag/Development/"},{"title":"Web Development","path":"/tag/Web%20Development/"},{"title":"HTML","path":"/tag/HTML/"}]}},{"node":{"__typename":"Course","id":"376b97e1-3ef1-11ea-9791-1b580a556b4a","title":"HTML5 Specialist: Comprehensive HTML5 Training","slug":"htm-l5-specialist-comprehensive-htm-l5-training","headline":"Earn a professional credential while learning HTML5.","created":"24th January 2020","tags":[{"title":"Development","path":"/tag/Development/"},{"title":"Web Development","path":"/tag/Web%20Development/"},{"title":"HTML5","path":"/tag/HTML5/"}]}}]}}},"context":{}}