{"hash":"6d1e7dd52e8c17cf4930f349c6afc1a78b2e1c5e","data":{"records":{"id":"WordPress","title":"WordPress","belongsTo":{"totalCount":17,"pageInfo":{"totalPages":2,"currentPage":2},"edges":[{"node":{"__typename":"Course","id":"377311f0-3ef1-11ea-9791-1b580a556b4a","title":"Enhanced WordPress Strategies For Business","slug":"enhanced-word-press-strategies-for-business","headline":"Supercharge Any Website With These Inside Tips, Tweaks and Tools For WordPress That Drive Traffic and Attract Customers","created":"24th January 2020","tags":[{"title":"Design","path":"/tag/Design/"},{"title":"Web Design","path":"/tag/Web%20Design/"},{"title":"WordPress","path":"/tag/WordPress/"}]}},{"node":{"__typename":"Course","id":"37722798-3ef1-11ea-9791-1b580a556b4a","title":"Content Strategy & Marketing with WordPress","slug":"content-strategy-and-marketing-with-word-press","headline":"Learn WordPress Content Strategy & Marketing tactics to Increase Engagement & ROI!","created":"24th January 2020","tags":[{"title":"Design","path":"/tag/Design/"},{"title":"Web Design","path":"/tag/Web%20Design/"},{"title":"WordPress","path":"/tag/WordPress/"}]}},{"node":{"__typename":"Course","id":"37716440-3ef1-11ea-9791-1b580a556b4a","title":"The Complete Catalyst Course for WordPress Bloggers","slug":"the-complete-catalyst-course-for-word-press-bloggers","headline":"Learn How to Harness the Ultimate Catalyst WordPress Theme Framework for Your Blog","created":"24th January 2020","tags":[{"title":"Design","path":"/tag/Design/"},{"title":"Web Design","path":"/tag/Web%20Design/"},{"title":"WordPress","path":"/tag/WordPress/"}]}},{"node":{"__typename":"Course","id":"376ea521-3ef1-11ea-9791-1b580a556b4a","title":"WordPress Essentials","slug":"word-press-essentials","headline":"Learn WordPress basics, tips and tricks to run a successful website!","created":"24th January 2020","tags":[{"title":"Design","path":"/tag/Design/"},{"title":"Web Design","path":"/tag/Web%20Design/"},{"title":"WordPress","path":"/tag/WordPress/"}]}},{"node":{"__typename":"Course","id":"376e7e10-3ef1-11ea-9791-1b580a556b4a","title":"Move A Wordpress Website from Local to Live","slug":"move-a-wordpress-website-from-local-to-live","headline":"This course makes moving a Wordpress site from local to live easy and fun. A complete and cheap step by step guide.","created":"24th January 2020","tags":[{"title":"Design","path":"/tag/Design/"},{"title":"Web Design","path":"/tag/Web%20Design/"},{"title":"WordPress","path":"/tag/WordPress/"}]}},{"node":{"__typename":"Course","id":"376de1d1-3ef1-11ea-9791-1b580a556b4a","title":"Building Custom WordPress Sites from Scratch","slug":"building-custom-word-press-sites-from-scratch","headline":"Learn how to build customized WordPress Sites. Over 9 hours of training from an leading expert","created":"24th January 2020","tags":[{"title":"Design","path":"/tag/Design/"},{"title":"Web Design","path":"/tag/Web%20Design/"},{"title":"WordPress","path":"/tag/WordPress/"}]}},{"node":{"__typename":"Course","id":"376de1d4-3ef1-11ea-9791-1b580a556b4a","title":"How to Create a Successful WordPress Site","slug":"how-to-create-a-successful-word-press-site","headline":"Learn how to create an awesome WordPress site and a bunch of cool tricks to drive traffic to make it super successful!","created":"24th January 2020","tags":[{"title":"Design","path":"/tag/Design/"},{"title":"Web Design","path":"/tag/Web%20Design/"},{"title":"WordPress","path":"/tag/WordPress/"}]}},{"node":{"__typename":"Course","id":"376cd063-3ef1-11ea-9791-1b580a556b4a","title":"WordPress for Beginners","slug":"word-press-for-beginners","headline":"Wordpress tutorial for beginners focusing on the essential concepts and knowledge you need to get started with WordPress","created":"24th January 2020","tags":[{"title":"Design","path":"/tag/Design/"},{"title":"Web Design","path":"/tag/Web%20Design/"},{"title":"WordPress","path":"/tag/WordPress/"}]}}]}}},"context":{}}