{"hash":"6d1e7dd52e8c17cf4930f349c6afc1a78b2e1c5e","data":{"records":{"id":"Marketing","title":"Marketing","belongsTo":{"totalCount":72,"pageInfo":{"totalPages":8,"currentPage":6},"edges":[{"node":{"__typename":"Course","id":"377275b6-3ef1-11ea-9791-1b580a556b4a","title":"Niche Marketing made EASY","slug":"niche-marketing-made-easy","headline":"Learn how to identify and market your business to a niche market. Growing your customer base to achieve higher sales.","created":"24th January 2020","tags":[{"title":"Marketing","path":"/tag/Marketing/"},{"title":"Marketing Fundamentals","path":"/tag/Marketing%20Fundamentals/"},{"title":"Marketing Strategy","path":"/tag/Marketing%20Strategy/"}]}},{"node":{"__typename":"Course","id":"377275b7-3ef1-11ea-9791-1b580a556b4a","title":"Facebook Training for Business","slug":"facebook-training-for-business","headline":"Facebook tutorials for effective, responsible use at work from the top-rated social media training provider.","created":"24th January 2020","tags":[{"title":"Marketing","path":"/tag/Marketing/"},{"title":"Social Media Marketing","path":"/tag/Social%20Media%20Marketing/"},{"title":"Business Strategy","path":"/tag/Business%20Strategy/"}]}},{"node":{"__typename":"Course","id":"37722796-3ef1-11ea-9791-1b580a556b4a","title":"Social Media Monitoring","slug":"social-media-monitoring","headline":"Our new course on Social Media Monitoring in a post Google Reader World is coming soon","created":"24th January 2020","tags":[{"title":"Marketing","path":"/tag/Marketing/"},{"title":"Social Media Marketing","path":"/tag/Social%20Media%20Marketing/"}]}},{"node":{"__typename":"Course","id":"37720088-3ef1-11ea-9791-1b580a556b4a","title":"Static Urls, Meta tags and Re-send activation for E-commerce","slug":"static-urls-meta-tags-and-re-send-activation-for-e-commerce","headline":"An add-on series for the E-commerce course explaining how to improve the SEO of our on-line store.","created":"24th January 2020","tags":[{"title":"Marketing","path":"/tag/Marketing/"},{"title":"Digital Marketing","path":"/tag/Digital%20Marketing/"},{"title":"E-Commerce","path":"/tag/E-Commerce/"}]}},{"node":{"__typename":"Course","id":"37720089-3ef1-11ea-9791-1b580a556b4a","title":"Faster Smarter Better (Ultimate Online Marketing Blueprint)","slug":"faster-smarter-better-ultimate-online-marketing-blueprint","headline":"Internet Marketing Training Course Teaching Tried & Tested Strategies Anyone Can Apply To Grow A Rock-Solid 6 Figure","created":"24th January 2020","tags":[{"title":"Marketing","path":"/tag/Marketing/"},{"title":"Digital Marketing","path":"/tag/Digital%20Marketing/"},{"title":"Internet Marketing","path":"/tag/Internet%20Marketing/"}]}},{"node":{"__typename":"Course","id":"37722795-3ef1-11ea-9791-1b580a556b4a","title":"Social Media Management","slug":"social-media-management","headline":"Digital marketing training to Learn How to Use Social Media, Social Media Strategy and Social Media Marketing.","created":"24th January 2020","tags":[{"title":"Marketing","path":"/tag/Marketing/"},{"title":"Social Media Marketing","path":"/tag/Social%20Media%20Marketing/"}]}},{"node":{"__typename":"Course","id":"37720085-3ef1-11ea-9791-1b580a556b4a","title":"Copywriting for Pros","slug":"copywriting-for-pros","headline":"Master the most lucrative online career. No work at home opportunity can compete with the Master Copywriter.","created":"24th January 2020","tags":[{"title":"Marketing","path":"/tag/Marketing/"},{"title":"Content Marketing","path":"/tag/Content%20Marketing/"},{"title":"Copywriting","path":"/tag/Copywriting/"}]}},{"node":{"__typename":"Course","id":"3771b261-3ef1-11ea-9791-1b580a556b4a","title":"Google Analytics Mastery Bootcamp","slug":"google-analytics-mastery-bootcamp","headline":"Sky rocket marketing results through the power of data analysis and Google Analytics!","created":"24th January 2020","tags":[{"title":"Marketing","path":"/tag/Marketing/"},{"title":"Analytics & Automation","path":"/tag/Analytics%20%26%20Automation/"},{"title":"Google Analytics","path":"/tag/Google%20Analytics/"}]}},{"node":{"__typename":"Course","id":"37711624-3ef1-11ea-9791-1b580a556b4a","title":"Smarter Branding Without Breaking the Bank","slug":"smarter-branding-without-breaking-the-bank","headline":"Contains dozens of practical, low-cost branding techniques to catapult your brand and increase your revenues immediately","created":"24th January 2020","tags":[{"title":"Marketing","path":"/tag/Marketing/"},{"title":"Branding","path":"/tag/Branding/"},{"title":"Business Branding","path":"/tag/Business%20Branding/"}]}}]}}},"context":{}}