{"hash":"6d1e7dd52e8c17cf4930f349c6afc1a78b2e1c5e","data":{"records":{"id":"Development","title":"Development","belongsTo":{"totalCount":129,"pageInfo":{"totalPages":15,"currentPage":11},"edges":[{"node":{"__typename":"Course","id":"3770a0f0-3ef1-11ea-9791-1b580a556b4a","title":"Web Programming with Python","slug":"web-programming-with-python","headline":"Learning Web Programming with Python. An Essential Course for any Web Developer. Start Python web programming today","created":"24th January 2020","tags":[{"title":"Development","path":"/tag/Development/"},{"title":"Web Development","path":"/tag/Web%20Development/"},{"title":"Python","path":"/tag/Python/"}]}},{"node":{"__typename":"Course","id":"377052d2-3ef1-11ea-9791-1b580a556b4a","title":"Two-layered online form validation with jQuery and PHP","slug":"two-layered-online-form-validation-with-j-query-and-php","headline":"Learn how to apply two layers of validation to your online forms with this jQuery form validation tutorial","created":"24th January 2020","tags":[{"title":"Development","path":"/tag/Development/"},{"title":"Web Development","path":"/tag/Web%20Development/"},{"title":"PHP","path":"/tag/PHP/"}]}},{"node":{"__typename":"Course","id":"377052d7-3ef1-11ea-9791-1b580a556b4a","title":"PHP & MySQL For Beginners","slug":"php-and-my-sql-for-beginners","headline":"This course contains all of topics about PHP and MYSQL. Let's start and code web sites","created":"24th January 2020","tags":[{"title":"Development","path":"/tag/Development/"},{"title":"Programming Languages","path":"/tag/Programming%20Languages/"},{"title":"PHP","path":"/tag/PHP/"}]}},{"node":{"__typename":"Course","id":"37702bc5-3ef1-11ea-9791-1b580a556b4a","title":"Learning MySQL5 - An Easy Way To Master MySQL","slug":"learning-my-sq-l5-an-easy-way-to-master-my-sql","headline":"Learn MySQL 5 With This Hands-On Tutorial Course. Comes Complete With Verifiable Certification of Completion","created":"24th January 2020","tags":[{"title":"Development","path":"/tag/Development/"},{"title":"Databases","path":"/tag/Databases/"},{"title":"MySQL","path":"/tag/MySQL/"}]}},{"node":{"__typename":"Course","id":"37702bc7-3ef1-11ea-9791-1b580a556b4a","title":"Multilingual CMS Website with PHP, MySQL, jQuery","slug":"multilingual-cms-website-with-php-my-sql-j-query","headline":"Learn how to build a Multilingual Content Management System with PHP, MySQL and jQuery.","created":"24th January 2020","tags":[{"title":"Development","path":"/tag/Development/"},{"title":"Web Development","path":"/tag/Web%20Development/"},{"title":"CMS","path":"/tag/CMS/"}]}},{"node":{"__typename":"Course","id":"37702bc3-3ef1-11ea-9791-1b580a556b4a","title":"Joomla 2.5 Template Design","slug":"joomla-2-5-template-design","headline":"The basics of designing your own Joomla templates from scratch.","created":"24th January 2020","tags":[{"title":"Development","path":"/tag/Development/"},{"title":"Web Development","path":"/tag/Web%20Development/"},{"title":"Joomla","path":"/tag/Joomla/"}]}},{"node":{"__typename":"Course","id":"37702bc4-3ef1-11ea-9791-1b580a556b4a","title":"Learning JQuery Mobile The Easy Way","slug":"learning-j-query-mobile-the-easy-way","headline":"Learn JQuery for Mobile.","created":"24th January 2020","tags":[{"title":"Development","path":"/tag/Development/"},{"title":"Web Development","path":"/tag/Web%20Development/"},{"title":"jQuery","path":"/tag/jQuery/"}]}},{"node":{"__typename":"Course","id":"377004b6-3ef1-11ea-9791-1b580a556b4a","title":"AJAX Development","slug":"ajax-development","headline":"Create Elegant, Powerful Web and Mobile Applications Using AJAX.","created":"24th January 2020","tags":[{"title":"Development","path":"/tag/Development/"},{"title":"Web Development","path":"/tag/Web%20Development/"},{"title":"AJAX","path":"/tag/AJAX/"}]}},{"node":{"__typename":"Course","id":"377004b7-3ef1-11ea-9791-1b580a556b4a","title":"Build E-commerce website with PHP, MySQL, jQuery and PayPal","slug":"build-e-commerce-website-with-php-my-sql-j-query-and-pay-pal","headline":"Learn how to build a fully functional E-commerce website with Object Oriented PHP, MySQL, jQuery and PayPal.","created":"24th January 2020","tags":[{"title":"Development","path":"/tag/Development/"},{"title":"Web Development","path":"/tag/Web%20Development/"},{"title":"PHP","path":"/tag/PHP/"}]}}]}}},"context":{}}