{"hash":"6d1e7dd52e8c17cf4930f349c6afc1a78b2e1c5e","data":{"records":{"id":"Microsoft","title":"Microsoft","belongsTo":{"totalCount":38,"pageInfo":{"totalPages":5,"currentPage":3},"edges":[{"node":{"__typename":"Course","id":"37724ea9-3ef1-11ea-9791-1b580a556b4a","title":"Visual Basic for Excel - Microsoft VBA Excel Tutorial","slug":"visual-basic-for-excel-microsoft-vba-excel-tutorial","headline":"Master Visual Basic for Excel, learn to unlock the true power of Excel. Tutorial Taught by a leading Microsoft Expert","created":"24th January 2020","tags":[{"title":"Office Productivity","path":"/tag/Office%20Productivity/"},{"title":"Microsoft","path":"/tag/Microsoft/"},{"title":"Excel VBA","path":"/tag/Excel%20VBA/"}]}},{"node":{"__typename":"Course","id":"37720082-3ef1-11ea-9791-1b580a556b4a","title":"Learn Microsoft Access 2010","slug":"learn-microsoft-access-2010","headline":"ClipTraining is relied upon by the Fortune 100 to K12 schools everywhere! Learn how to use Access 2010 from the experts.","created":"24th January 2020","tags":[{"title":"Office Productivity","path":"/tag/Office%20Productivity/"},{"title":"Microsoft","path":"/tag/Microsoft/"},{"title":"Microsoft Access","path":"/tag/Microsoft%20Access/"}]}},{"node":{"__typename":"Course","id":"37713d30-3ef1-11ea-9791-1b580a556b4a","title":"Excel Deep Dive: Pivot Tables Workshop","slug":"excel-deep-dive-pivot-tables-workshop","headline":"Excel data mastery is possible! Learn how to use pivot tables in excel and learn how to use pivot tables to get a raise","created":"24th January 2020","tags":[{"title":"Office Productivity","path":"/tag/Office%20Productivity/"},{"title":"Microsoft","path":"/tag/Microsoft/"},{"title":"Pivot Tables","path":"/tag/Pivot%20Tables/"}]}},{"node":{"__typename":"Course","id":"37713d31-3ef1-11ea-9791-1b580a556b4a","title":"Intermediate Microsoft Word 2010","slug":"intermediate-microsoft-word-2010","headline":"Learn some of the newest features found in Microsoft Word 2010!","created":"24th January 2020","tags":[{"title":"Office Productivity","path":"/tag/Office%20Productivity/"},{"title":"Microsoft","path":"/tag/Microsoft/"},{"title":"Microsoft Word","path":"/tag/Microsoft%20Word/"}]}},{"node":{"__typename":"Course","id":"37713d32-3ef1-11ea-9791-1b580a556b4a","title":"Introduction to Microsoft Excel 2010","slug":"introduction-to-microsoft-excel-2010","headline":"Learn the basics of Microsoft Excel 2010 in this interactive course!","created":"24th January 2020","tags":[{"title":"Office Productivity","path":"/tag/Office%20Productivity/"},{"title":"Microsoft","path":"/tag/Microsoft/"},{"title":"Excel","path":"/tag/Excel/"}]}},{"node":{"__typename":"Course","id":"37713d33-3ef1-11ea-9791-1b580a556b4a","title":"Introduction to Microsoft Word 2010","slug":"introduction-to-microsoft-word-2010","headline":"New to Microsoft Word 2010? This course is perfect for you! Learn the basics!","created":"24th January 2020","tags":[{"title":"Office Productivity","path":"/tag/Office%20Productivity/"},{"title":"Microsoft","path":"/tag/Microsoft/"},{"title":"Microsoft Word","path":"/tag/Microsoft%20Word/"}]}},{"node":{"__typename":"Course","id":"37711622-3ef1-11ea-9791-1b580a556b4a","title":"Microsoft PowerPoint 2010 Tutorial","slug":"microsoft-power-point-2010-tutorial","headline":"Learn Microsoft PowerPoint 2010 from an Expert Microsoft Trainer","created":"24th January 2020","tags":[{"title":"Office Productivity","path":"/tag/Office%20Productivity/"},{"title":"Microsoft","path":"/tag/Microsoft/"},{"title":"PowerPoint","path":"/tag/PowerPoint/"}]}},{"node":{"__typename":"Course","id":"3770ef11-3ef1-11ea-9791-1b580a556b4a","title":"Advanced Microsoft Word 2010","slug":"advanced-microsoft-word-2010","headline":"Learn some of the new, advanced techniques with Microsoft Word 2010 tutorial!","created":"24th January 2020","tags":[{"title":"Office Productivity","path":"/tag/Office%20Productivity/"},{"title":"Microsoft","path":"/tag/Microsoft/"},{"title":"Microsoft Word","path":"/tag/Microsoft%20Word/"}]}},{"node":{"__typename":"Course","id":"3770c803-3ef1-11ea-9791-1b580a556b4a","title":"Microsoft Word 2011 for Mac Tutorial","slug":"microsoft-word-2011-for-mac-tutorial","headline":"Learn Microsoft Word 2011 for Mac. An in-depth tutorial taught by Leading Microsoft Trainer.","created":"24th January 2020","tags":[{"title":"Office Productivity","path":"/tag/Office%20Productivity/"},{"title":"Microsoft","path":"/tag/Microsoft/"},{"title":"Microsoft Word","path":"/tag/Microsoft%20Word/"}]}}]}}},"context":{}}