{"hash":"6d1e7dd52e8c17cf4930f349c6afc1a78b2e1c5e","data":{"records":{"id":"IT & Software","title":"IT & Software","belongsTo":{"totalCount":122,"pageInfo":{"totalPages":14,"currentPage":7},"edges":[{"node":{"__typename":"Course","id":"37789035-3ef1-11ea-9791-1b580a556b4a","title":"Application Delivery Fundamentals","slug":"application-delivery-fundamentals","headline":"Prepare for Application Delivery Fundamentals Certification by practicing on test exams","created":"24th January 2020","tags":[{"title":"IT & Software","path":"/tag/IT%20%26%20Software/"},{"title":"IT Certification","path":"/tag/IT%20Certification/"},{"title":"IT Networking Fundamentals","path":"/tag/IT%20Networking%20Fundamentals/"}]}},{"node":{"__typename":"Course","id":"37789036-3ef1-11ea-9791-1b580a556b4a","title":"AWS Certified Big Data Specialty Practice Test 2020","slug":"aws-certified-big-data-specialty-practice-test-2020","headline":"400 AWS Certified Big Data Specialty Practice Test Questions Latest 2020","created":"24th January 2020","tags":[{"title":"IT & Software","path":"/tag/IT%20%26%20Software/"},{"title":"IT Certification","path":"/tag/IT%20Certification/"}]}},{"node":{"__typename":"Course","id":"37789037-3ef1-11ea-9791-1b580a556b4a","title":"CompTIA Cybersecurity Analyst CySA+ Practice Test 2020","slug":"comp-tia-cybersecurity-analyst-cy-sa-practice-test-2020","headline":"250 + CompTIA Cybersecurity Analyst CySA+ Practice Test Questions Latest 2020","created":"24th January 2020","tags":[{"title":"IT & Software","path":"/tag/IT%20%26%20Software/"},{"title":"Network & Security","path":"/tag/Network%20%26%20Security/"}]}},{"node":{"__typename":"Course","id":"37784210-3ef1-11ea-9791-1b580a556b4a","title":"AWS Certified Cloud Practitioner CLF-C01 Practice Exam NEW","slug":"aws-certified-cloud-practitioner-clf-c01-practice-exam-new","headline":"AWS Certified Cloud Practitioner CLF-C01 Practice Exam 100% Pass Guarantee NEW","created":"24th January 2020","tags":[{"title":"IT & Software","path":"/tag/IT%20%26%20Software/"},{"title":"IT Certification","path":"/tag/IT%20Certification/"}]}},{"node":{"__typename":"Course","id":"37784212-3ef1-11ea-9791-1b580a556b4a","title":"Extracción y edición de datos con Dynamo","slug":"extraccion-y-edicion-de-datos-con-dynamo","headline":"Dynamo para hojas de calculo | Extrae y edita tu información","created":"24th January 2020","tags":[{"title":"IT & Software","path":"/tag/IT%20%26%20Software/"},{"title":"Other","path":"/tag/Other/"},{"title":"Dynamo BIM","path":"/tag/Dynamo%20BIM/"}]}},{"node":{"__typename":"Course","id":"37784213-3ef1-11ea-9791-1b580a556b4a","title":"OFFICIAL Microsoft Dynamics 365 Finance (MB-310)","slug":"official-microsoft-dynamics-365-finance-mb-310","headline":"The most complete Microsoft Dynamics 365 Finance (MB-310) certification preparation you've ever seen!","created":"24th January 2020","tags":[{"title":"IT & Software","path":"/tag/IT%20%26%20Software/"},{"title":"IT Certification","path":"/tag/IT%20Certification/"}]}},{"node":{"__typename":"Course","id":"37784214-3ef1-11ea-9791-1b580a556b4a","title":"OFFICIAL Mobility and Devices Fundamentals (98-368)","slug":"official-mobility-and-devices-fundamentals-98-368","headline":"The most complete 98-368 (Mobility and Devices Fundamentals) certification preparation you've ever seen!","created":"24th January 2020","tags":[{"title":"IT & Software","path":"/tag/IT%20%26%20Software/"},{"title":"IT Certification","path":"/tag/IT%20Certification/"}]}},{"node":{"__typename":"Course","id":"37784218-3ef1-11ea-9791-1b580a556b4a","title":"OFFICIAL MA0-100 (Certified McAfee Security Specialist - ePO","slug":"official-m-a0-100-certified-mc-afee-security-specialist-e-po","headline":"The most complete MA0-100 (Certified McAfee Security Specialist - ePO certification preparation you've ever seen!","created":"24th January 2020","tags":[{"title":"IT & Software","path":"/tag/IT%20%26%20Software/"},{"title":"IT Certification","path":"/tag/IT%20Certification/"},{"title":"IT Service Management","path":"/tag/IT%20Service%20Management/"}]}},{"node":{"__typename":"Course","id":"37784219-3ef1-11ea-9791-1b580a556b4a","title":"OFFICIAL Oracle Siebel 8 Consultant - CRM/CX (1Z0-202)","slug":"official-oracle-siebel-8-consultant-crm-cx-1-z0-202","headline":"The most complete Oracle Siebel 8 Consultant - CRM/CX (1Z0-202) certification preparation you've ever seen!","created":"24th January 2020","tags":[{"title":"IT & Software","path":"/tag/IT%20%26%20Software/"},{"title":"IT Certification","path":"/tag/IT%20Certification/"},{"title":"CRM","path":"/tag/CRM/"}]}}]}}},"context":{}}