{"hash":"6d1e7dd52e8c17cf4930f349c6afc1a78b2e1c5e","data":{"records":{"id":"Social Media Marketing","title":"Social Media Marketing","belongsTo":{"totalCount":27,"pageInfo":{"totalPages":3,"currentPage":2},"edges":[{"node":{"__typename":"Course","id":"3776946a-3ef1-11ea-9791-1b580a556b4a","title":"Social Media For Business Strategy","slug":"social-media-for-business-strategy","headline":"Create a compelling mix with the latest Social Media Strategies. Achieve business growth goals stay ahead of competitors","created":"24th January 2020","tags":[{"title":"Marketing","path":"/tag/Marketing/"},{"title":"Social Media Marketing","path":"/tag/Social%20Media%20Marketing/"}]}},{"node":{"__typename":"Course","id":"3776bb70-3ef1-11ea-9791-1b580a556b4a","title":"Social Media Success for Photographers","slug":"social-media-success-for-photographers","headline":"Learn how to grow your Photography Business with these creative social media marketing ideas and strategies","created":"24th January 2020","tags":[{"title":"Marketing","path":"/tag/Marketing/"},{"title":"Social Media Marketing","path":"/tag/Social%20Media%20Marketing/"}]}},{"node":{"__typename":"Course","id":"3775f824-3ef1-11ea-9791-1b580a556b4a","title":"Social Media Profits - With A Twist","slug":"social-media-profits-with-a-twist","headline":"Get up to speed on how you and your business can harness the incredible power of social media.","created":"24th January 2020","tags":[{"title":"Marketing","path":"/tag/Marketing/"},{"title":"Social Media Marketing","path":"/tag/Social%20Media%20Marketing/"}]}},{"node":{"__typename":"Course","id":"3775aa03-3ef1-11ea-9791-1b580a556b4a","title":"Twitter, el poder de los 140 caracteres","slug":"twitter-el-poder-de-los-140-caracteres","headline":"Aprende a utilizar Twitter desde el funcionamiento de la plataforma hasta la definición estratégica de tu marca.","created":"24th January 2020","tags":[{"title":"Marketing","path":"/tag/Marketing/"},{"title":"Social Media Marketing","path":"/tag/Social%20Media%20Marketing/"},{"title":"Twitter Marketing","path":"/tag/Twitter%20Marketing/"}]}},{"node":{"__typename":"Course","id":"37747188-3ef1-11ea-9791-1b580a556b4a","title":"I Tweet, Therefore I Am","slug":"i-tweet-therefore-i-am","headline":"A step-by-step Twitter training, practical guide to using Twitter to grow your business and build customer loyalty.","created":"24th January 2020","tags":[{"title":"Marketing","path":"/tag/Marketing/"},{"title":"Social Media Marketing","path":"/tag/Social%20Media%20Marketing/"},{"title":"Twitter Marketing","path":"/tag/Twitter%20Marketing/"}]}},{"node":{"__typename":"Course","id":"37744a72-3ef1-11ea-9791-1b580a556b4a","title":"Social Media Finance Course: Fintech 2018 Trends","slug":"social-media-finance-course-fintech-2018-trends","headline":"Unlock financing for your start up or business with social media and fintech platforms. Insights into Fintech Marketing","created":"24th January 2020","tags":[{"title":"Business","path":"/tag/Business/"},{"title":"Finance","path":"/tag/Finance/"},{"title":"Social Media Marketing","path":"/tag/Social%20Media%20Marketing/"}]}},{"node":{"__typename":"Course","id":"3772c3da-3ef1-11ea-9791-1b580a556b4a","title":"Drafting Social Media Policies","slug":"drafting-social-media-policies","headline":"Learn Social Media Policy for Business, Corporate Social Media Policy Examples. Includes a Social Media Policy Template.","created":"24th January 2020","tags":[{"title":"Business","path":"/tag/Business/"},{"title":"Human Resources","path":"/tag/Human%20Resources/"},{"title":"Social Media Marketing","path":"/tag/Social%20Media%20Marketing/"}]}},{"node":{"__typename":"Course","id":"37729cc0-3ef1-11ea-9791-1b580a556b4a","title":"LinkedIn Training Course","slug":"linked-in-training-course","headline":"LinkedIn Training from the B2B social media expert & best-selling author of \"Social Marketing to the Business Customer.\"","created":"24th January 2020","tags":[{"title":"Marketing","path":"/tag/Marketing/"},{"title":"Social Media Marketing","path":"/tag/Social%20Media%20Marketing/"},{"title":"LinkedIn","path":"/tag/LinkedIn/"}]}},{"node":{"__typename":"Course","id":"37729cc7-3ef1-11ea-9791-1b580a556b4a","title":"Twitter for Business","slug":"twitter-for-business","headline":"Learn to Twitter for Business and Master Twitter Marketing","created":"24th January 2020","tags":[{"title":"Marketing","path":"/tag/Marketing/"},{"title":"Social Media Marketing","path":"/tag/Social%20Media%20Marketing/"},{"title":"Twitter Marketing","path":"/tag/Twitter%20Marketing/"}]}}]}}},"context":{}}