{"hash":"6d1e7dd52e8c17cf4930f349c6afc1a78b2e1c5e","data":{"records":{"id":"Business","title":"Business","belongsTo":{"totalCount":119,"pageInfo":{"totalPages":14,"currentPage":11},"edges":[{"node":{"__typename":"Course","id":"377052d0-3ef1-11ea-9791-1b580a556b4a","title":"Writing: Self Publish Your eBook and sell on Amazon","slug":"writing-self-publish-your-e-book-and-sell-on-amazon","headline":"Writing for a living. Learn how to self publish your ebook and sell on Amazon, iBooks, Barnes & Noble and more.","created":"24th January 2020","tags":[{"title":"Business","path":"/tag/Business/"},{"title":"Media","path":"/tag/Media/"},{"title":"eBook Creation","path":"/tag/eBook%20Creation/"}]}},{"node":{"__typename":"Course","id":"377052d1-3ef1-11ea-9791-1b580a556b4a","title":"How To Work Online With Arbitrage, Affiliates, and More","slug":"how-to-work-online-with-arbitrage-affiliates-and-more","headline":"Learn every aspect of beginning your online business from someone with real experience.","created":"24th January 2020","tags":[{"title":"Business","path":"/tag/Business/"},{"title":"Home Business","path":"/tag/Home%20Business/"},{"title":"Online Business","path":"/tag/Online%20Business/"}]}},{"node":{"__typename":"Course","id":"377004b9-3ef1-11ea-9791-1b580a556b4a","title":"Federal Grant Writing 101","slug":"federal-grant-writing-101","headline":"Grant Writing Classes on How to Write and Win a Federal Government Grant Award","created":"24th January 2020","tags":[{"title":"Business","path":"/tag/Business/"},{"title":"Other","path":"/tag/Other/"},{"title":"Grant Writing","path":"/tag/Grant%20Writing/"}]}},{"node":{"__typename":"Course","id":"377004b4-3ef1-11ea-9791-1b580a556b4a","title":"From Startup to Millions Before 30: Part 1","slug":"from-startup-to-millions-before-30-part-1","headline":"Part 1 of a comprehensive, in-depth, and fun video that mentors young entrepreneurs to starting and growing a business.","created":"24th January 2020","tags":[{"title":"Business","path":"/tag/Business/"},{"title":"Entrepreneurship","path":"/tag/Entrepreneurship/"},{"title":"Startup","path":"/tag/Startup/"}]}},{"node":{"__typename":"Course","id":"377004b5-3ef1-11ea-9791-1b580a556b4a","title":"From Startup to Millions Before 30: Part 2","slug":"from-startup-to-millions-before-30-part-2","headline":"Part 2 of a comprehensive, in-depth, video series on starting and growing a business as a young entrepreneur.","created":"24th January 2020","tags":[{"title":"Business","path":"/tag/Business/"},{"title":"Entrepreneurship","path":"/tag/Entrepreneurship/"},{"title":"Startup","path":"/tag/Startup/"}]}},{"node":{"__typename":"Course","id":"376ef340-3ef1-11ea-9791-1b580a556b4a","title":"Vet Your Startup Ideas With the Startup Matrix","slug":"vet-your-startup-ideas-with-the-startup-matrix","headline":"A bulletproof way to ensure that your product ideas are worth pursuing.","created":"24th January 2020","tags":[{"title":"Business","path":"/tag/Business/"},{"title":"Entrepreneurship","path":"/tag/Entrepreneurship/"},{"title":"Startup","path":"/tag/Startup/"}]}},{"node":{"__typename":"Course","id":"376ecc38-3ef1-11ea-9791-1b580a556b4a","title":"Seal the Deal: Win Business and Influence Leadership","slug":"seal-the-deal-win-business-and-influence-leadership","headline":"Your coach for how to market your business and easily get the right clients without cold calling!","created":"24th January 2020","tags":[{"title":"Business","path":"/tag/Business/"},{"title":"Management","path":"/tag/Management/"},{"title":"Marketing Strategy","path":"/tag/Marketing%20Strategy/"}]}},{"node":{"__typename":"Course","id":"376ecc30-3ef1-11ea-9791-1b580a556b4a","title":"Chief Financial Officer Leadership Program","slug":"chief-financial-officer-leadership-program","headline":"An ever expanding program of courses helping financial professionals aspire to the top levels of financial leadership","created":"24th January 2020","tags":[{"title":"Business","path":"/tag/Business/"},{"title":"Management","path":"/tag/Management/"},{"title":"Financial Management","path":"/tag/Financial%20Management/"}]}},{"node":{"__typename":"Course","id":"376ecc32-3ef1-11ea-9791-1b580a556b4a","title":"Build. Measure. Learn. Lean Startup SXSW 2012.","slug":"build-measure-learn-lean-startup-sxsw-2012","headline":"Become a Lean Startup Guru. Learn Lean Methodology from Lean experts like Eric Ries, Steve Blank, and more.","created":"24th January 2020","tags":[{"title":"Business","path":"/tag/Business/"},{"title":"Entrepreneurship","path":"/tag/Entrepreneurship/"},{"title":"Lean Startup","path":"/tag/Lean%20Startup/"}]}}]}}},"context":{}}