{"hash":"6d1e7dd52e8c17cf4930f349c6afc1a78b2e1c5e","data":{"records":{"id":"Design","title":"Design","belongsTo":{"totalCount":115,"pageInfo":{"totalPages":13,"currentPage":8},"edges":[{"node":{"__typename":"Course","id":"37724ea4-3ef1-11ea-9791-1b580a556b4a","title":"User Research For Design","slug":"user-research-for-design","headline":"Learn how to conduct user research so that your product design fits your audience","created":"24th January 2020","tags":[{"title":"Design","path":"/tag/Design/"},{"title":"User Experience","path":"/tag/User%20Experience/"},{"title":"User Research","path":"/tag/User%20Research/"}]}},{"node":{"__typename":"Course","id":"37724ea8-3ef1-11ea-9791-1b580a556b4a","title":"Adobe Photoshop Lightroom 4 Tutorial","slug":"adobe-photoshop-lightroom-4-tutorial","headline":"Take your Digital Photography to the next level with these Adobe Lightroom 4 tutorial videos. An easy to follow course.","created":"24th January 2020","tags":[{"title":"Design","path":"/tag/Design/"},{"title":"Design Tools","path":"/tag/Design%20Tools/"},{"title":"Adobe Lightroom","path":"/tag/Adobe%20Lightroom/"}]}},{"node":{"__typename":"Course","id":"37722798-3ef1-11ea-9791-1b580a556b4a","title":"Content Strategy & Marketing with WordPress","slug":"content-strategy-and-marketing-with-word-press","headline":"Learn WordPress Content Strategy & Marketing tactics to Increase Engagement & ROI!","created":"24th January 2020","tags":[{"title":"Design","path":"/tag/Design/"},{"title":"Web Design","path":"/tag/Web%20Design/"},{"title":"WordPress","path":"/tag/WordPress/"}]}},{"node":{"__typename":"Course","id":"37722791-3ef1-11ea-9791-1b580a556b4a","title":"iPhone icons gone awesome","slug":"i-phone-icons-gone-awesome","headline":"Learn the fastest, easiest and funnest way of making your iPhone, iPad icons stand out from the crowd","created":"24th January 2020","tags":[{"title":"Design","path":"/tag/Design/"},{"title":"Graphic Design","path":"/tag/Graphic%20Design/"},{"title":"iOS Development","path":"/tag/iOS%20Development/"}]}},{"node":{"__typename":"Course","id":"37720087-3ef1-11ea-9791-1b580a556b4a","title":"Designing & Launching a Business Website That Converts","slug":"designing-and-launching-a-business-website-that-converts","headline":"Learn how to create a website that converts through this step-by-step guide.","created":"24th January 2020","tags":[{"title":"Design","path":"/tag/Design/"},{"title":"Web Design","path":"/tag/Web%20Design/"},{"title":"Business Strategy","path":"/tag/Business%20Strategy/"}]}},{"node":{"__typename":"Course","id":"3771d976-3ef1-11ea-9791-1b580a556b4a","title":"Introduction to Blender","slug":"introduction-to-blender","headline":"Introduction to Blender - Arabic","created":"24th January 2020","tags":[{"title":"Design","path":"/tag/Design/"},{"title":"3D & Animation","path":"/tag/3D%20%26%20Animation/"},{"title":"Blender","path":"/tag/Blender/"}]}},{"node":{"__typename":"Course","id":"3771d978-3ef1-11ea-9791-1b580a556b4a","title":"Learning Adobe Premiere Pro CS6 Bootcamp with Dave Basulto","slug":"learning-adobe-premiere-pro-c-s6-bootcamp-with-dave-basulto","headline":"Learn all you need to know to get up and running in Adobe Premiere Pro CS6 with this Premiere Pro CS6 Tutorial","created":"24th January 2020","tags":[{"title":"Design","path":"/tag/Design/"},{"title":"Design Tools","path":"/tag/Design%20Tools/"},{"title":"Adobe Premiere","path":"/tag/Adobe%20Premiere/"}]}},{"node":{"__typename":"Course","id":"3771d970-3ef1-11ea-9791-1b580a556b4a","title":"Adobe Photoshop Beauty Retouching - Good For Beginners","slug":"adobe-photoshop-beauty-retouching-good-for-beginners","headline":"This Adobe Photoshop Beauty Course will teach a Beginner Photoshop user all essentials of Beauty Retouching","created":"24th January 2020","tags":[{"title":"Design","path":"/tag/Design/"},{"title":"Design Tools","path":"/tag/Design%20Tools/"},{"title":"Photoshop Retouching","path":"/tag/Photoshop%20Retouching/"}]}},{"node":{"__typename":"Course","id":"37718b59-3ef1-11ea-9791-1b580a556b4a","title":"Graphic Design For Real Beginners","slug":"graphic-design-for-real-beginners","headline":"Sharpen your design skills and start designing like a pro instantly by learning these simple principles and techniques.","created":"24th January 2020","tags":[{"title":"Design","path":"/tag/Design/"},{"title":"Graphic Design","path":"/tag/Graphic%20Design/"}]}}]}}},"context":{}}