{"hash":"6d1e7dd52e8c17cf4930f349c6afc1a78b2e1c5e","data":{"records":{"id":"Design","title":"Design","belongsTo":{"totalCount":115,"pageInfo":{"totalPages":13,"currentPage":9},"edges":[{"node":{"__typename":"Course","id":"37718b54-3ef1-11ea-9791-1b580a556b4a","title":"Adobe Illustrator CS5 (Beginning, Intermediate, & Advanced)","slug":"adobe-illustrator-c-s5-beginning-intermediate-and-advanced","headline":"Adobe Illustrator CS5 Tutorials for Print and Web Design. All levels covered: (beginning, Intermediate, & Advanced)","created":"24th January 2020","tags":[{"title":"Design","path":"/tag/Design/"},{"title":"Design Tools","path":"/tag/Design%20Tools/"},{"title":"Adobe Illustrator","path":"/tag/Adobe%20Illustrator/"}]}},{"node":{"__typename":"Course","id":"37716442-3ef1-11ea-9791-1b580a556b4a","title":"Final Cut Pro X Training","slug":"final-cut-pro-x-training","headline":"Learn the critical fundamentals of Final Cut Pro X with exercise driven training videos and project files.","created":"24th January 2020","tags":[{"title":"Design","path":"/tag/Design/"},{"title":"Design Tools","path":"/tag/Design%20Tools/"},{"title":"Final Cut Pro","path":"/tag/Final%20Cut%20Pro/"}]}},{"node":{"__typename":"Course","id":"37716445-3ef1-11ea-9791-1b580a556b4a","title":"Adobe Photoshop CS6 Tutorial. Self-Paced and Easy to Follow","slug":"adobe-photoshop-c-s6-tutorial-self-paced-and-easy-to-follow","headline":"175 Lessons that show you all you need to know to master Photoshop CS6. Taught by leading Photoshop Trainer","created":"24th January 2020","tags":[{"title":"Design","path":"/tag/Design/"},{"title":"Design Tools","path":"/tag/Design%20Tools/"},{"title":"Photoshop","path":"/tag/Photoshop/"}]}},{"node":{"__typename":"Course","id":"37716440-3ef1-11ea-9791-1b580a556b4a","title":"The Complete Catalyst Course for WordPress Bloggers","slug":"the-complete-catalyst-course-for-word-press-bloggers","headline":"Learn How to Harness the Ultimate Catalyst WordPress Theme Framework for Your Blog","created":"24th January 2020","tags":[{"title":"Design","path":"/tag/Design/"},{"title":"Web Design","path":"/tag/Web%20Design/"},{"title":"WordPress","path":"/tag/WordPress/"}]}},{"node":{"__typename":"Course","id":"37711625-3ef1-11ea-9791-1b580a556b4a","title":"Become an Expert 3D Games Developer/Artist/Animator","slug":"become-an-expert-3-d-games-developer-artist-animator","headline":"Expert advice on making 3D models, textures, animations & levels using industry standard software","created":"24th January 2020","tags":[{"title":"Design","path":"/tag/Design/"},{"title":"Game Design","path":"/tag/Game%20Design/"},{"title":"3D Game Development","path":"/tag/3D%20Game%20Development/"}]}},{"node":{"__typename":"Course","id":"3770ef19-3ef1-11ea-9791-1b580a556b4a","title":"Introduction to Web and eCommerce User eXperience Design","slug":"introduction-to-web-and-e-commerce-user-e-xperience-design","headline":"Get an overview of the What, Why and How of web and ecommerce user experience design and find out how to learn more.","created":"24th January 2020","tags":[{"title":"Design","path":"/tag/Design/"},{"title":"User Experience","path":"/tag/User%20Experience/"},{"title":"User Experience Design","path":"/tag/User%20Experience%20Design/"}]}},{"node":{"__typename":"Course","id":"3770ef15-3ef1-11ea-9791-1b580a556b4a","title":"Actionscript 3 (Beginner to Advanced) + Mobile Games","slug":"actionscript-3-beginner-to-advanced-mobile-games","headline":"Build mobile and browser-based games using ActionScript 3. This course is intended for beginners as well intermediates.","created":"24th January 2020","tags":[{"title":"Design","path":"/tag/Design/"},{"title":"Design Tools","path":"/tag/Design%20Tools/"},{"title":"ActionScript","path":"/tag/ActionScript/"}]}},{"node":{"__typename":"Course","id":"3770c805-3ef1-11ea-9791-1b580a556b4a","title":"Photoshop Tools - Become An Expert In 10 Super Easy Steps","slug":"photoshop-tools-become-an-expert-in-10-super-easy-steps","headline":"Photoshop Tools - Become an Expert in Photoshop Tools and Rock - With no experience or prior Photoshop knowledge.","created":"24th January 2020","tags":[{"title":"Design","path":"/tag/Design/"},{"title":"Design Tools","path":"/tag/Design%20Tools/"},{"title":"Photoshop","path":"/tag/Photoshop/"}]}},{"node":{"__typename":"Course","id":"3770c806-3ef1-11ea-9791-1b580a556b4a","title":"User Experience (UX) Conceptual Model Design","slug":"user-experience-ux-conceptual-model-design","headline":"Learn the secret of intuitive design: Design a great conceptual model.","created":"24th January 2020","tags":[{"title":"Design","path":"/tag/Design/"},{"title":"User Experience","path":"/tag/User%20Experience/"},{"title":"User Experience Design","path":"/tag/User%20Experience%20Design/"}]}}]}}},"context":{}}