{"hash":"6d1e7dd52e8c17cf4930f349c6afc1a78b2e1c5e","data":{"records":{"id":"Development","title":"Development","belongsTo":{"totalCount":129,"pageInfo":{"totalPages":15,"currentPage":15},"edges":[{"node":{"__typename":"Course","id":"376afba1-3ef1-11ea-9791-1b580a556b4a","title":"Beginners - How To Create iPhone And iPad Apps - Zero Coding","slug":"beginners-how-to-create-i-phone-and-i-pad-apps-zero-coding","headline":"Learn How To Create IOS Apps And Never Do A Hard Days Work Again - Zero Coding Needed","created":"24th January 2020","tags":[{"title":"Development","path":"/tag/Development/"},{"title":"Mobile Apps","path":"/tag/Mobile%20Apps/"},{"title":"iOS Development","path":"/tag/iOS%20Development/"}]}},{"node":{"__typename":"Course","id":"376b22b0-3ef1-11ea-9791-1b580a556b4a","title":"Javascript for Beginners","slug":"javascript-for-beginners","headline":"Learn javascript online and supercharge your web design with this Javascript for beginners training course.","created":"24th January 2020","tags":[{"title":"Development","path":"/tag/Development/"},{"title":"Web Development","path":"/tag/Web%20Development/"},{"title":"JavaScript","path":"/tag/JavaScript/"}]}},{"node":{"__typename":"Course","id":"376a8670-3ef1-11ea-9791-1b580a556b4a","title":"Ruby Programming for Beginners","slug":"ruby-programming-for-beginners","headline":"Learn Ruby Programming the fast and easy way!","created":"24th January 2020","tags":[{"title":"Development","path":"/tag/Development/"},{"title":"Programming Languages","path":"/tag/Programming%20Languages/"},{"title":"Ruby","path":"/tag/Ruby/"}]}}]}}},"context":{}}