{"hash":"6d1e7dd52e8c17cf4930f349c6afc1a78b2e1c5e","data":{"records":{"id":"Business","title":"Business","belongsTo":{"totalCount":119,"pageInfo":{"totalPages":14,"currentPage":2},"edges":[{"node":{"__typename":"Course","id":"37795387-3ef1-11ea-9791-1b580a556b4a","title":"International Financial Reporting Standards for Compensation","slug":"international-financial-reporting-standards-for-compensation","headline":"Pass WorldatWork International Financial Reporting Standards for Compensation by Practicing on High Quality Questions.","created":"24th January 2020","tags":[{"title":"Business","path":"/tag/Business/"},{"title":"Management","path":"/tag/Management/"}]}},{"node":{"__typename":"Course","id":"37792c73-3ef1-11ea-9791-1b580a556b4a","title":"PMP Certification Practice Test ( MCQ Quiz)","slug":"pmp-certification-practice-test-mcq-quiz","headline":"Exam questions similar to PMP Certification questions.","created":"24th January 2020","tags":[{"title":"Business","path":"/tag/Business/"},{"title":"Management","path":"/tag/Management/"}]}},{"node":{"__typename":"Course","id":"3778de53-3ef1-11ea-9791-1b580a556b4a","title":"Mastering the Square Suite for Busy Entrepreneurs","slug":"mastering-the-square-suite-for-busy-entrepreneurs","headline":"Change the way you run your solopreneur business by freeing up time using the Square suite","created":"24th January 2020","tags":[{"title":"Business","path":"/tag/Business/"},{"title":"Entrepreneurship","path":"/tag/Entrepreneurship/"},{"title":"Entrepreneurship Fundamentals","path":"/tag/Entrepreneurship%20Fundamentals/"}]}},{"node":{"__typename":"Course","id":"37789038-3ef1-11ea-9791-1b580a556b4a","title":"Practice Tests for Certified ScrumMaster (CSM) Certification","slug":"practice-tests-for-certified-scrum-master-csm-certification","headline":"Boost your Knowledge","created":"24th January 2020","tags":[{"title":"Business","path":"/tag/Business/"},{"title":"Management","path":"/tag/Management/"},{"title":"Certified ScrumMaster (CSM)","path":"/tag/Certified%20ScrumMaster%20(CSM)/"}]}},{"node":{"__typename":"Course","id":"3778b745-3ef1-11ea-9791-1b580a556b4a","title":"Logistics and supply chain management (Masterclass Gold)","slug":"logistics-and-supply-chain-management-masterclass-gold","headline":"Learn high level ways to structure an excellent logistics management system","created":"24th January 2020","tags":[{"title":"Business","path":"/tag/Business/"},{"title":"Operations","path":"/tag/Operations/"},{"title":"Logistics Management","path":"/tag/Logistics%20Management/"}]}},{"node":{"__typename":"Course","id":"37781b09-3ef1-11ea-9791-1b580a556b4a","title":"2019 CIA Exam, Part 2 – Practice of Internal Auditing","slug":"2019-cia-exam-part-2-practice-of-internal-auditing","headline":"Pass ​2019 CIA Exam, Part 2 – Practice of Internal Auditing Exam on the first attempt. 460+ Unique Questions.","created":"24th January 2020","tags":[{"title":"Business","path":"/tag/Business/"},{"title":"Management","path":"/tag/Management/"},{"title":"Certified Internal Auditor (CIA)","path":"/tag/Certified%20Internal%20Auditor%20(CIA)/"}]}},{"node":{"__typename":"Course","id":"37781b0a-3ef1-11ea-9791-1b580a556b4a","title":"Acheter et vendre les actions comme un pro","slug":"acheter-et-vendre-les-actions-comme-un-pro","headline":"Acheter et vendre les actions , finance, négociation d'actions, bourse","created":"24th January 2020","tags":[{"title":"Business","path":"/tag/Business/"},{"title":"Finance","path":"/tag/Finance/"},{"title":"Stock Trading","path":"/tag/Stock%20Trading/"}]}},{"node":{"__typename":"Course","id":"37786920-3ef1-11ea-9791-1b580a556b4a","title":"Best Business Productivity Training Course","slug":"best-business-productivity-training-course","headline":"Discover The Hidden Secrets Of Exceptional Productivity!","created":"24th January 2020","tags":[{"title":"Business","path":"/tag/Business/"},{"title":"Project Management","path":"/tag/Project%20Management/"},{"title":"Office Productivity","path":"/tag/Office%20Productivity/"}]}},{"node":{"__typename":"Course","id":"37781b02-3ef1-11ea-9791-1b580a556b4a","title":"Vente d'assurance automobile et habitation","slug":"vente-d-assurance-automobile-et-habitation","headline":"Comment augmenter vos ventes d'assurance avec des techniques simples","created":"24th January 2020","tags":[{"title":"Business","path":"/tag/Business/"},{"title":"Sales","path":"/tag/Sales/"},{"title":"Insurance","path":"/tag/Insurance/"}]}}]}}},"context":{}}