{"hash":"6d1e7dd52e8c17cf4930f349c6afc1a78b2e1c5e","data":{"records":{"id":"Development","title":"Development","belongsTo":{"totalCount":129,"pageInfo":{"totalPages":15,"currentPage":3},"edges":[{"node":{"__typename":"Course","id":"37786928-3ef1-11ea-9791-1b580a556b4a","title":"Cómo hacer un sitio web rápido con Wordpress ¡Vende páginas!","slug":"como-hacer-un-sitio-web-rapido-con-wordpress-vende-paginas","headline":"Hacer páginas web profesionales para negocios","created":"24th January 2020","tags":[{"title":"Development","path":"/tag/Development/"},{"title":"Web Development","path":"/tag/Web%20Development/"},{"title":"WordPress","path":"/tag/WordPress/"}]}},{"node":{"__typename":"Course","id":"3778b744-3ef1-11ea-9791-1b580a556b4a","title":"Git & GitHub Class: An Intro to Git and GitHub for Beginners","slug":"git-and-git-hub-class-an-intro-to-git-and-git-hub-for-beginners","headline":"Complete Git and GitHub Class. Master basic and advanced Git features, Go from complete novice to expert in Git & GitHub","created":"24th January 2020","tags":[{"title":"Development","path":"/tag/Development/"},{"title":"Development Tools","path":"/tag/Development%20Tools/"},{"title":"GitHub","path":"/tag/GitHub/"}]}},{"node":{"__typename":"Course","id":"37786922-3ef1-11ea-9791-1b580a556b4a","title":"Lambda with Functional Programming in Java8","slug":"lambda-with-functional-programming-in-java8","headline":"Lambda expression with Functional Programming Example","created":"24th January 2020","tags":[{"title":"Development","path":"/tag/Development/"},{"title":"Programming Languages","path":"/tag/Programming%20Languages/"},{"title":"Java","path":"/tag/Java/"}]}},{"node":{"__typename":"Course","id":"3777cce7-3ef1-11ea-9791-1b580a556b4a","title":"Linear Regression : Prerequisites for Deep Learning","slug":"linear-regression-prerequisites-for-deep-learning","headline":"Linear Regression basic concepts in python with hand's on project","created":"24th January 2020","tags":[{"title":"Development","path":"/tag/Development/"},{"title":"Data Science","path":"/tag/Data%20Science/"},{"title":"Deep Learning","path":"/tag/Deep%20Learning/"}]}},{"node":{"__typename":"Course","id":"37777ec2-3ef1-11ea-9791-1b580a556b4a","title":"x86 Assembly Language Programming Masters Course","slug":"x86-assembly-language-programming-masters-course","headline":"Learn Assembly From A Decade Of Experience","created":"24th January 2020","tags":[{"title":"Development","path":"/tag/Development/"},{"title":"Software Engineering","path":"/tag/Software%20Engineering/"},{"title":"Assembly Language","path":"/tag/Assembly%20Language/"}]}},{"node":{"__typename":"Course","id":"37770990-3ef1-11ea-9791-1b580a556b4a","title":"Beginning Mobile Game Development","slug":"beginning-mobile-game-development","headline":"Discover how to use the Corona SDK framework to create your own mobile games.","created":"24th January 2020","tags":[{"title":"Development","path":"/tag/Development/"},{"title":"Game Development","path":"/tag/Game%20Development/"},{"title":"Corona SDK","path":"/tag/Corona%20SDK/"}]}},{"node":{"__typename":"Course","id":"3776bb72-3ef1-11ea-9791-1b580a556b4a","title":"WP e-Commerce for WordPress","slug":"wp-e-commerce-for-word-press","headline":"WP e-Commerce is a WordPress Shopping Cart Plugin that allows customers to buy products, services and even digital down!","created":"24th January 2020","tags":[{"title":"Development","path":"/tag/Development/"},{"title":"E-Commerce","path":"/tag/E-Commerce/"},{"title":"WordPress for Ecommerce","path":"/tag/WordPress%20for%20Ecommerce/"}]}},{"node":{"__typename":"Course","id":"3776bb74-3ef1-11ea-9791-1b580a556b4a","title":"Advanced Java Programming","slug":"advanced-java-programming","headline":"Take Your Java Programming Skills To The Next Level. Become Proficient In Java Programming","created":"24th January 2020","tags":[{"title":"Development","path":"/tag/Development/"},{"title":"Programming Languages","path":"/tag/Programming%20Languages/"},{"title":"Java","path":"/tag/Java/"}]}},{"node":{"__typename":"Course","id":"3776bb75-3ef1-11ea-9791-1b580a556b4a","title":"Learn Web Designing & HTML5/CSS3 Essentials in 4-Hours","slug":"learn-web-designing-and-htm-l5-cs-s3-essentials-in-4-hours","headline":"Convert Photoshop Designs into Stunning HTML5 & CSS3 websites with confidence. Absolutely no prior experience necessary!","created":"24th January 2020","tags":[{"title":"Development","path":"/tag/Development/"},{"title":"Web Development","path":"/tag/Web%20Development/"},{"title":"CSS","path":"/tag/CSS/"}]}}]}}},"context":{}}