{"hash":"6d1e7dd52e8c17cf4930f349c6afc1a78b2e1c5e","data":{"records":{"id":"Career Development","title":"Career Development","belongsTo":{"totalCount":14,"pageInfo":{"totalPages":2,"currentPage":1},"edges":[{"node":{"__typename":"Course","id":"377757b4-3ef1-11ea-9791-1b580a556b4a","title":"Подбор персонала от линейного до IT.","slug":"podbor-personala-ot-linejnogo-do-it","headline":"Важные моменты и инструментарий в подборе персонала.","created":"24th January 2020","tags":[{"title":"Personal Development","path":"/tag/Personal%20Development/"},{"title":"Career Development","path":"/tag/Career%20Development/"},{"title":"Recruiting","path":"/tag/Recruiting/"}]}},{"node":{"__typename":"Course","id":"37761f37-3ef1-11ea-9791-1b580a556b4a","title":"Diseña tu Estrategia de Marca Personal paso a paso","slug":"disena-tu-estrategia-de-marca-personal-paso-a-paso","headline":"Gestiona tu Marca Personal para aumentar tu valor y tus opciones profesionales","created":"24th January 2020","tags":[{"title":"Personal Development","path":"/tag/Personal%20Development/"},{"title":"Career Development","path":"/tag/Career%20Development/"},{"title":"Personal Branding","path":"/tag/Personal%20Branding/"}]}},{"node":{"__typename":"Course","id":"37755be6-3ef1-11ea-9791-1b580a556b4a","title":"Discover The 1 Thing You Were Born To Do In 5 Easy Steps!","slug":"discover-the-1-thing-you-were-born-to-do-in-5-easy-steps","headline":"Steve Olsher, award-winning author/speaker will teach you how to reinvent yourself and make a fortune and a difference.","created":"24th January 2020","tags":[{"title":"Personal Development","path":"/tag/Personal%20Development/"},{"title":"Career Development","path":"/tag/Career%20Development/"}]}},{"node":{"__typename":"Course","id":"3774bfaa-3ef1-11ea-9791-1b580a556b4a","title":"Career Mind Mastery: Discover Brand You","slug":"career-mind-mastery-discover-brand-you","headline":"You are unique. Let's find out how! Angela & Tom help you on how to brand yourself.","created":"24th January 2020","tags":[{"title":"Personal Development","path":"/tag/Personal%20Development/"},{"title":"Career Development","path":"/tag/Career%20Development/"},{"title":"Career Coaching","path":"/tag/Career%20Coaching/"}]}},{"node":{"__typename":"Course","id":"3774e6b3-3ef1-11ea-9791-1b580a556b4a","title":"Find Me A Job: How to Score a Job Before Your Friends","slug":"find-me-a-job-how-to-score-a-job-before-your-friends","headline":"Finding internships for college students is not hard when you know these secrets. FInd an entry level job easily.","created":"24th January 2020","tags":[{"title":"Personal Development","path":"/tag/Personal%20Development/"},{"title":"Career Development","path":"/tag/Career%20Development/"},{"title":"Job Search","path":"/tag/Job%20Search/"}]}},{"node":{"__typename":"Course","id":"37747181-3ef1-11ea-9791-1b580a556b4a","title":"Break into IT - How to Land Your Dream Job in IT","slug":"break-into-it-how-to-land-your-dream-job-in-it","headline":"Trying to get a cool role in IT but getting nowhere? I know how you feel but I found out how to land your dream job.","created":"24th January 2020","tags":[{"title":"Personal Development","path":"/tag/Personal%20Development/"},{"title":"Career Development","path":"/tag/Career%20Development/"},{"title":"Job Search","path":"/tag/Job%20Search/"}]}},{"node":{"__typename":"Course","id":"3773fc53-3ef1-11ea-9791-1b580a556b4a","title":"How to get a new job in 30 days (or get a refund)","slug":"how-to-get-a-new-job-in-30-days-or-get-a-refund","headline":"An A-Z guide to find and secure a new job in 30 days. Includes +4 hours of step by step content to land a new job!","created":"24th January 2020","tags":[{"title":"Personal Development","path":"/tag/Personal%20Development/"},{"title":"Career Development","path":"/tag/Career%20Development/"},{"title":"Job Search","path":"/tag/Job%20Search/"}]}},{"node":{"__typename":"Course","id":"3773d544-3ef1-11ea-9791-1b580a556b4a","title":"Career Mind Mastery: Interview Success Blueprint","slug":"career-mind-mastery-interview-success-blueprint","headline":"A simple, science-based system for interview success focusing on the art of story telling and the magic of metaphors","created":"24th January 2020","tags":[{"title":"Personal Development","path":"/tag/Personal%20Development/"},{"title":"Career Development","path":"/tag/Career%20Development/"},{"title":"Interviewing Skills","path":"/tag/Interviewing%20Skills/"}]}},{"node":{"__typename":"Course","id":"37736011-3ef1-11ea-9791-1b580a556b4a","title":"Career Mind Mastery: Bring Who You Are to What You Do","slug":"career-mind-mastery-bring-who-you-are-to-what-you-do","headline":"Your Talents + This System = Total Awesomeness.","created":"24th January 2020","tags":[{"title":"Personal Development","path":"/tag/Personal%20Development/"},{"title":"Career Development","path":"/tag/Career%20Development/"},{"title":"Career Coaching","path":"/tag/Career%20Coaching/"}]}}]}}},"context":{}}