{"hash":"6d1e7dd52e8c17cf4930f349c6afc1a78b2e1c5e","data":{"records":{"id":"Social Media Marketing","title":"Social Media Marketing","belongsTo":{"totalCount":27,"pageInfo":{"totalPages":3,"currentPage":1},"edges":[{"node":{"__typename":"Course","id":"377a64f8-3ef1-11ea-9791-1b580a556b4a","title":"Instagram For Beginners: Fast Track Training 2020","slug":"instagram-for-beginners-fast-track-training-2020","headline":"Learn how to use Instagram quickly and easily for yourself or business","created":"24th January 2020","tags":[{"title":"Marketing","path":"/tag/Marketing/"},{"title":"Social Media Marketing","path":"/tag/Social%20Media%20Marketing/"},{"title":"Instagram Marketing","path":"/tag/Instagram%20Marketing/"}]}},{"node":{"__typename":"Course","id":"377a3de7-3ef1-11ea-9791-1b580a556b4a","title":"The Complete Linkedin Masterclass For Marketing And Careers","slug":"the-complete-linkedin-masterclass-for-marketing-and-careers","headline":"Make thousands of connections, kick-start your career and even become an influencer.","created":"24th January 2020","tags":[{"title":"Marketing","path":"/tag/Marketing/"},{"title":"Social Media Marketing","path":"/tag/Social%20Media%20Marketing/"},{"title":"LinkedIn","path":"/tag/LinkedIn/"}]}},{"node":{"__typename":"Course","id":"3779c8b6-3ef1-11ea-9791-1b580a556b4a","title":"YouTube (Live) For Beginners: Fast Track Training 2020","slug":"you-tube-live-for-beginners-fast-track-training-2020","headline":"Learn how to use YouTube (Live) quickly and easily for yourself or business","created":"24th January 2020","tags":[{"title":"Marketing","path":"/tag/Marketing/"},{"title":"Social Media Marketing","path":"/tag/Social%20Media%20Marketing/"},{"title":"YouTube Audience Growth","path":"/tag/YouTube%20Audience%20Growth/"}]}},{"node":{"__typename":"Course","id":"3779a1ac-3ef1-11ea-9791-1b580a556b4a","title":"MARKETING SIECIOWY - Jak zarabiać przez internet?","slug":"marketing-sieciowy-jak-zarabiac-przez-internet","headline":"Kompletny kurs marketingu sieciowego! Jak założyć biznes sieciowy bez kapitału i doświadczenia!","created":"24th January 2020","tags":[{"title":"Marketing","path":"/tag/Marketing/"},{"title":"Social Media Marketing","path":"/tag/Social%20Media%20Marketing/"},{"title":"Network Marketing","path":"/tag/Network%20Marketing/"}]}},{"node":{"__typename":"Course","id":"37789031-3ef1-11ea-9791-1b580a556b4a","title":"TikTok Beginner's Master Course To Grow Followers 2020","slug":"tik-tok-beginner-s-master-course-to-grow-followers-2020","headline":"How to use TikTok, gain a community of loyal followers, become TikTok famous and how to use it as a business for growth","created":"24th January 2020","tags":[{"title":"Marketing","path":"/tag/Marketing/"},{"title":"Social Media Marketing","path":"/tag/Social%20Media%20Marketing/"},{"title":"TikTok Marketing","path":"/tag/TikTok%20Marketing/"}]}},{"node":{"__typename":"Course","id":"3777a5d4-3ef1-11ea-9791-1b580a556b4a","title":"Learn The Power of Social Media Stories for Marketing","slug":"learn-the-power-of-social-media-stories-for-marketing","headline":"Promote yourself using social media stories just like senior marketers do","created":"24th January 2020","tags":[{"title":"Marketing","path":"/tag/Marketing/"},{"title":"Social Media Marketing","path":"/tag/Social%20Media%20Marketing/"}]}},{"node":{"__typename":"Course","id":"37777ec0-3ef1-11ea-9791-1b580a556b4a","title":"Réseaux sociaux","slug":"reseaux-sociaux","headline":"Comment utiliser les réseaux sociaux pour développer ses affaires","created":"24th January 2020","tags":[{"title":"Marketing","path":"/tag/Marketing/"},{"title":"Social Media Marketing","path":"/tag/Social%20Media%20Marketing/"}]}},{"node":{"__typename":"Course","id":"37770993-3ef1-11ea-9791-1b580a556b4a","title":"Curso Linkedin para empresas y profesionales.","slug":"curso-linkedin-para-empresas-y-profesionales","headline":"Curso online de experto en Linkedin para empresas y profesionales.","created":"24th January 2020","tags":[{"title":"Marketing","path":"/tag/Marketing/"},{"title":"Social Media Marketing","path":"/tag/Social%20Media%20Marketing/"},{"title":"LinkedIn","path":"/tag/LinkedIn/"}]}},{"node":{"__typename":"Course","id":"3776bb79-3ef1-11ea-9791-1b580a556b4a","title":"Social Media Selling System","slug":"social-media-selling-system","headline":"Leveraging Social Media for your Small Business Sales. Learn how to increase sales using Social Media.","created":"24th January 2020","tags":[{"title":"Marketing","path":"/tag/Marketing/"},{"title":"Social Media Marketing","path":"/tag/Social%20Media%20Marketing/"}]}}]}}},"context":{}}