{"hash":"6d1e7dd52e8c17cf4930f349c6afc1a78b2e1c5e","data":{"records":{"id":"Personal Transformation","title":"Personal Transformation","belongsTo":{"totalCount":13,"pageInfo":{"totalPages":2,"currentPage":2},"edges":[{"node":{"__typename":"Course","id":"3773d549-3ef1-11ea-9791-1b580a556b4a","title":"Thawing the Inner Family of Self","slug":"thawing-the-inner-family-of-self","headline":"Meet Your Inner Family of Self, Heal the Past, Increase Self Esteem and Enrich Your Relationships with Others!","created":"24th January 2020","tags":[{"title":"Personal Development","path":"/tag/Personal%20Development/"},{"title":"Personal Transformation","path":"/tag/Personal%20Transformation/"},{"title":"Self-Esteem","path":"/tag/Self-Esteem/"}]}},{"node":{"__typename":"Course","id":"3773ae38-3ef1-11ea-9791-1b580a556b4a","title":"Access Your Genius with Richard Wilkins","slug":"access-your-genius-with-richard-wilkins","headline":"Learn how to easily access your Inner Greatness and how to become a genius.","created":"24th January 2020","tags":[{"title":"Personal Development","path":"/tag/Personal%20Development/"},{"title":"Personal Transformation","path":"/tag/Personal%20Transformation/"}]}},{"node":{"__typename":"Course","id":"3773d547-3ef1-11ea-9791-1b580a556b4a","title":"Take Inventory of Your Self & Gain Authentic Self-Knowledge","slug":"take-inventory-of-your-self-and-gain-authentic-self-knowledge","headline":"Find, live and share the real you!","created":"24th January 2020","tags":[{"title":"Personal Development","path":"/tag/Personal%20Development/"},{"title":"Personal Transformation","path":"/tag/Personal%20Transformation/"}]}},{"node":{"__typename":"Course","id":"3770ef14-3ef1-11ea-9791-1b580a556b4a","title":"Everyday Mind Mastery","slug":"everyday-mind-mastery","headline":"Learn the easiest way to master your mind and control your life with Ben Franklin's 13x4 and some neat algorithms.","created":"24th January 2020","tags":[{"title":"Personal Development","path":"/tag/Personal%20Development/"},{"title":"Personal Transformation","path":"/tag/Personal%20Transformation/"},{"title":"Mindset","path":"/tag/Mindset/"}]}}]}}},"context":{}}