{"hash":"6d1e7dd52e8c17cf4930f349c6afc1a78b2e1c5e","data":{"records":{"id":"Business","title":"Business","belongsTo":{"totalCount":119,"pageInfo":{"totalPages":14,"currentPage":6},"edges":[{"node":{"__typename":"Course","id":"37750dc2-3ef1-11ea-9791-1b580a556b4a","title":"Fund Your Creative Startup","slug":"fund-your-creative-startup","headline":"Everyone has a dream to create something. This Start Up Capital course shows you how to fund it and make it a reality.","created":"24th January 2020","tags":[{"title":"Business","path":"/tag/Business/"},{"title":"Entrepreneurship","path":"/tag/Entrepreneurship/"},{"title":"Startup","path":"/tag/Startup/"}]}},{"node":{"__typename":"Course","id":"37750dc5-3ef1-11ea-9791-1b580a556b4a","title":"Introductory Financial Accounting","slug":"introductory-financial-accounting","headline":"Learn the basics of Accounting including: the accounting cycle, inventory, depreciation, receivables, and more!","created":"24th January 2020","tags":[{"title":"Business","path":"/tag/Business/"},{"title":"Finance","path":"/tag/Finance/"},{"title":"Financial Accounting","path":"/tag/Financial%20Accounting/"}]}},{"node":{"__typename":"Course","id":"37750dc9-3ef1-11ea-9791-1b580a556b4a","title":"How to Build a Language-Tutoring Business on the Cloud","slug":"how-to-build-a-language-tutoring-business-on-the-cloud","headline":"Become a \"Cloud-Tutor\" and learn to teach hundreds of paying language students in less than one hour a day.","created":"24th January 2020","tags":[{"title":"Business","path":"/tag/Business/"},{"title":"Industry","path":"/tag/Industry/"},{"title":"Tutoring Business","path":"/tag/Tutoring%20Business/"}]}},{"node":{"__typename":"Course","id":"3774bfa4-3ef1-11ea-9791-1b580a556b4a","title":"Improve Communication: Speak Smoothly, Clearly & Confidently","slug":"improve-communication-speak-smoothly-clearly-and-confidently","headline":"Learn How You Can Clear Interviews, Express Your Ideas, & Make Presentations Smoothly & Confidently!","created":"24th January 2020","tags":[{"title":"Business","path":"/tag/Business/"},{"title":"Communications","path":"/tag/Communications/"},{"title":"Communication Skills","path":"/tag/Communication%20Skills/"}]}},{"node":{"__typename":"Course","id":"3774bfab-3ef1-11ea-9791-1b580a556b4a","title":"Centercode Stage 1 Training","slug":"centercode-stage-1-training","headline":"This course focuses on configuring your Beta Testing Community using the Centercode platform.","created":"24th January 2020","tags":[{"title":"Business","path":"/tag/Business/"},{"title":"Project Management","path":"/tag/Project%20Management/"}]}},{"node":{"__typename":"Course","id":"3774e6b0-3ef1-11ea-9791-1b580a556b4a","title":"Centercode Stage 2 Training","slug":"centercode-stage-2-training","headline":"This training course focuses on configuring your Beta Project using the Centercode platform.","created":"24th January 2020","tags":[{"title":"Business","path":"/tag/Business/"},{"title":"Project Management","path":"/tag/Project%20Management/"}]}},{"node":{"__typename":"Course","id":"3774e6b1-3ef1-11ea-9791-1b580a556b4a","title":"Centercode Stage 3 Training","slug":"centercode-stage-3-training","headline":"Finalizing the Project: Thiscourse focuses on launching your Beta Project using the Centercode platform.","created":"24th January 2020","tags":[{"title":"Business","path":"/tag/Business/"},{"title":"Project Management","path":"/tag/Project%20Management/"}]}},{"node":{"__typename":"Course","id":"37749898-3ef1-11ea-9791-1b580a556b4a","title":"How To Publish Your Book on Kindle","slug":"how-to-publish-your-book-on-kindle","headline":"Start to finish guide on how to self publish your book on Kindle. Idea selection, writing through to getting published.","created":"24th January 2020","tags":[{"title":"Business","path":"/tag/Business/"},{"title":"Media","path":"/tag/Media/"},{"title":"Amazon Kindle","path":"/tag/Amazon%20Kindle/"}]}},{"node":{"__typename":"Course","id":"3774bfa0-3ef1-11ea-9791-1b580a556b4a","title":"Kindle Book Promotion: Tips To Promote Your Book Right Now","slug":"kindle-book-promotion-tips-to-promote-your-book-right-now","headline":"Discover little known tips and learn how to promote a book.","created":"24th January 2020","tags":[{"title":"Business","path":"/tag/Business/"},{"title":"Media","path":"/tag/Media/"},{"title":"Amazon Kindle","path":"/tag/Amazon%20Kindle/"}]}}]}}},"context":{}}