{"hash":"6d1e7dd52e8c17cf4930f349c6afc1a78b2e1c5e","data":{"records":{"id":"Programming Languages","title":"Programming Languages","belongsTo":{"totalCount":32,"pageInfo":{"totalPages":4,"currentPage":4},"edges":[{"node":{"__typename":"Course","id":"376ca951-3ef1-11ea-9791-1b580a556b4a","title":"Learn to Program with C++","slug":"learn-to-program-with-c","headline":"Take your C++ Programming to the next level. Course Duration: 6.5 Hours - 80 Lessons","created":"24th January 2020","tags":[{"title":"Development","path":"/tag/Development/"},{"title":"Programming Languages","path":"/tag/Programming%20Languages/"},{"title":"C","path":"/tag/C/"}]}},{"node":{"__typename":"Course","id":"376ca954-3ef1-11ea-9791-1b580a556b4a","title":"Beginner PHP and MySQL Tutorial","slug":"beginner-php-and-my-sql-tutorial","headline":"Learn PHP and MySQL and start developing web apps like a pro! This course also comes with a Certificate of Completion.","created":"24th January 2020","tags":[{"title":"Development","path":"/tag/Development/"},{"title":"Programming Languages","path":"/tag/Programming%20Languages/"},{"title":"MySQL","path":"/tag/MySQL/"}]}},{"node":{"__typename":"Course","id":"376c3421-3ef1-11ea-9791-1b580a556b4a","title":"Programming Java for Beginners - The Ultimate Java Tutorial","slug":"programming-java-for-beginners-the-ultimate-java-tutorial","headline":"Learn Java Programming at your own Pace. Comes Complete with Working Files and a Verifiable Certificate of Completion.","created":"24th January 2020","tags":[{"title":"Development","path":"/tag/Development/"},{"title":"Programming Languages","path":"/tag/Programming%20Languages/"},{"title":"Java","path":"/tag/Java/"}]}},{"node":{"__typename":"Course","id":"376c5b35-3ef1-11ea-9791-1b580a556b4a","title":"Advanced Ruby Programming: 10 Steps to Mastery","slug":"advanced-ruby-programming-10-steps-to-mastery","headline":"Take your Ruby programming to the next level with Huw Collingbourne's simple guide to advanced Ruby coding.","created":"24th January 2020","tags":[{"title":"Development","path":"/tag/Development/"},{"title":"Programming Languages","path":"/tag/Programming%20Languages/"},{"title":"Ruby","path":"/tag/Ruby/"}]}},{"node":{"__typename":"Course","id":"376a8670-3ef1-11ea-9791-1b580a556b4a","title":"Ruby Programming for Beginners","slug":"ruby-programming-for-beginners","headline":"Learn Ruby Programming the fast and easy way!","created":"24th January 2020","tags":[{"title":"Development","path":"/tag/Development/"},{"title":"Programming Languages","path":"/tag/Programming%20Languages/"},{"title":"Ruby","path":"/tag/Ruby/"}]}}]}}},"context":{}}