{"hash":"6d1e7dd52e8c17cf4930f349c6afc1a78b2e1c5e","data":{"records":{"id":"Programming Languages","title":"Programming Languages","belongsTo":{"totalCount":32,"pageInfo":{"totalPages":4,"currentPage":2},"edges":[{"node":{"__typename":"Course","id":"37750dc6-3ef1-11ea-9791-1b580a556b4a","title":"Java Tutorial for Complete Beginners","slug":"java-tutorial-for-complete-beginners","headline":"Learn to program using the Java programming language","created":"24th January 2020","tags":[{"title":"Development","path":"/tag/Development/"},{"title":"Programming Languages","path":"/tag/Programming%20Languages/"},{"title":"Java","path":"/tag/Java/"}]}},{"node":{"__typename":"Course","id":"37736016-3ef1-11ea-9791-1b580a556b4a","title":"Java Multithreading","slug":"java-multithreading","headline":"Unveiling the mysteries of multithreading in Java. The ultimate Java multithreading course","created":"24th January 2020","tags":[{"title":"Development","path":"/tag/Development/"},{"title":"Programming Languages","path":"/tag/Programming%20Languages/"},{"title":"Java","path":"/tag/Java/"}]}},{"node":{"__typename":"Course","id":"37738721-3ef1-11ea-9791-1b580a556b4a","title":"Easy PHPeasy - PHP & MySQL for code-phobes!","slug":"easy-ph-peasy-php-and-my-sql-for-code-phobes","headline":"An introduction to the programming world through PHP for complete newbies. Learn the foundation & build your own Blog!","created":"24th January 2020","tags":[{"title":"Development","path":"/tag/Development/"},{"title":"Programming Languages","path":"/tag/Programming%20Languages/"},{"title":"MySQL","path":"/tag/MySQL/"}]}},{"node":{"__typename":"Course","id":"37738723-3ef1-11ea-9791-1b580a556b4a","title":"Advanced C++ Programming Training Course","slug":"advanced-c-programming-training-course","headline":"Take your C++ Programming Training Course Will Take Your Skills To The Next Level.","created":"24th January 2020","tags":[{"title":"Development","path":"/tag/Development/"},{"title":"Programming Languages","path":"/tag/Programming%20Languages/"},{"title":"C","path":"/tag/C/"}]}},{"node":{"__typename":"Course","id":"37736010-3ef1-11ea-9791-1b580a556b4a","title":"Break Into The Programming Business","slug":"break-into-the-programming-business","headline":"The world of programming for entrepreneurs and startups","created":"24th January 2020","tags":[{"title":"Development","path":"/tag/Development/"},{"title":"Programming Languages","path":"/tag/Programming%20Languages/"},{"title":"Business Strategy","path":"/tag/Business%20Strategy/"}]}},{"node":{"__typename":"Course","id":"3772c3d8-3ef1-11ea-9791-1b580a556b4a","title":"Mastering Android Programming","slug":"mastering-android-programming","headline":"Learn the Android programming with Android SDK, Advance Java Concepts, OpenGL and SQLlite","created":"24th January 2020","tags":[{"title":"Development","path":"/tag/Development/"},{"title":"Programming Languages","path":"/tag/Programming%20Languages/"},{"title":"Android Development","path":"/tag/Android%20Development/"}]}},{"node":{"__typename":"Course","id":"3772c3d9-3ef1-11ea-9791-1b580a556b4a","title":"Pythonic Python Part I: The Basics","slug":"pythonic-python-part-i-the-basics","headline":"Fast and fun python lectures for programmers, with tons of example code; plenty of exercises, and explained solutions.","created":"24th January 2020","tags":[{"title":"Development","path":"/tag/Development/"},{"title":"Programming Languages","path":"/tag/Programming%20Languages/"},{"title":"Python","path":"/tag/Python/"}]}},{"node":{"__typename":"Course","id":"3772eae1-3ef1-11ea-9791-1b580a556b4a","title":"The Ultimate Python Programming Tutorial","slug":"the-ultimate-python-programming-tutorial","headline":"Python Programming tutorial for beginners. This Python Training Course Comes with Certification of Completion","created":"24th January 2020","tags":[{"title":"Development","path":"/tag/Development/"},{"title":"Programming Languages","path":"/tag/Programming%20Languages/"},{"title":"Python","path":"/tag/Python/"}]}},{"node":{"__typename":"Course","id":"37729cc4-3ef1-11ea-9791-1b580a556b4a","title":"Scala for Java Developers: Transition Up!","slug":"scala-for-java-developers-transition-up","headline":"Scala for Java Developers: Transition Up!","created":"24th January 2020","tags":[{"title":"Development","path":"/tag/Development/"},{"title":"Programming Languages","path":"/tag/Programming%20Languages/"},{"title":"Java","path":"/tag/Java/"}]}}]}}},"context":{}}