{"hash":"6d1e7dd52e8c17cf4930f349c6afc1a78b2e1c5e","data":{"records":{"id":"Graphic Design","title":"Graphic Design","belongsTo":{"totalCount":12,"pageInfo":{"totalPages":2,"currentPage":1},"edges":[{"node":{"__typename":"Course","id":"37797a97-3ef1-11ea-9791-1b580a556b4a","title":"Repair damaged and old photos in a Photoshop","slug":"repair-damaged-and-old-photos-in-a-photoshop","headline":"Learn the tools and techniques for restoring old photos that have faded over time and how to bring back original parts.","created":"24th January 2020","tags":[{"title":"Design","path":"/tag/Design/"},{"title":"Graphic Design","path":"/tag/Graphic%20Design/"},{"title":"Photoshop","path":"/tag/Photoshop/"}]}},{"node":{"__typename":"Course","id":"3778b746-3ef1-11ea-9791-1b580a556b4a","title":"Photoshop dla każdego","slug":"photoshop-dla-kazdego","headline":"Podstawy Photoshopa","created":"24th January 2020","tags":[{"title":"Design","path":"/tag/Design/"},{"title":"Graphic Design","path":"/tag/Graphic%20Design/"},{"title":"Photoshop","path":"/tag/Photoshop/"}]}},{"node":{"__typename":"Course","id":"3778b742-3ef1-11ea-9791-1b580a556b4a","title":"Blending Traditional & Digital Techniques in Pattern Making","slug":"blending-traditional-and-digital-techniques-in-pattern-making","headline":"Finish a Hand Drawn Pattern by Image Tracing in Illustrator, then testing the fit and colonizing","created":"24th January 2020","tags":[{"title":"Design","path":"/tag/Design/"},{"title":"Graphic Design","path":"/tag/Graphic%20Design/"},{"title":"Surface Pattern Design","path":"/tag/Surface%20Pattern%20Design/"}]}},{"node":{"__typename":"Course","id":"37770996-3ef1-11ea-9791-1b580a556b4a","title":"Discover How to Draw and paint Comics","slug":"discover-how-to-draw-and-paint-comics","headline":"Learn to draw and paint; from your imagination, guaranteed.","created":"24th January 2020","tags":[{"title":"Design","path":"/tag/Design/"},{"title":"Graphic Design","path":"/tag/Graphic%20Design/"},{"title":"Drawing","path":"/tag/Drawing/"}]}},{"node":{"__typename":"Course","id":"3773872a-3ef1-11ea-9791-1b580a556b4a","title":"Learn to Design a Letterhead - A Beginners Course","slug":"learn-to-design-a-letterhead-a-beginners-course","headline":"Learn how to design a letterhead from rough sketch through to setting your document up ready to go to print.","created":"24th January 2020","tags":[{"title":"Design","path":"/tag/Design/"},{"title":"Graphic Design","path":"/tag/Graphic%20Design/"}]}},{"node":{"__typename":"Course","id":"37724ea3-3ef1-11ea-9791-1b580a556b4a","title":"How to Design a Logo - a Beginners Course","slug":"how-to-design-a-logo-a-beginners-course","headline":"Learn how to design a logo from client brief to finished design.","created":"24th January 2020","tags":[{"title":"Design","path":"/tag/Design/"},{"title":"Graphic Design","path":"/tag/Graphic%20Design/"},{"title":"Logo Design","path":"/tag/Logo%20Design/"}]}},{"node":{"__typename":"Course","id":"37722791-3ef1-11ea-9791-1b580a556b4a","title":"iPhone icons gone awesome","slug":"i-phone-icons-gone-awesome","headline":"Learn the fastest, easiest and funnest way of making your iPhone, iPad icons stand out from the crowd","created":"24th January 2020","tags":[{"title":"Design","path":"/tag/Design/"},{"title":"Graphic Design","path":"/tag/Graphic%20Design/"},{"title":"iOS Development","path":"/tag/iOS%20Development/"}]}},{"node":{"__typename":"Course","id":"37718b59-3ef1-11ea-9791-1b580a556b4a","title":"Graphic Design For Real Beginners","slug":"graphic-design-for-real-beginners","headline":"Sharpen your design skills and start designing like a pro instantly by learning these simple principles and techniques.","created":"24th January 2020","tags":[{"title":"Design","path":"/tag/Design/"},{"title":"Graphic Design","path":"/tag/Graphic%20Design/"}]}},{"node":{"__typename":"Course","id":"3770a0f2-3ef1-11ea-9791-1b580a556b4a","title":"Figure Drawing From Life Using The Reilly Technique.","slug":"figure-drawing-from-life-using-the-reilly-technique","headline":"Learn to draw the figure from life in less than 45 minutes.","created":"24th January 2020","tags":[{"title":"Design","path":"/tag/Design/"},{"title":"Graphic Design","path":"/tag/Graphic%20Design/"},{"title":"Drawing","path":"/tag/Drawing/"}]}}]}}},"context":{}}