{"hash":"6d1e7dd52e8c17cf4930f349c6afc1a78b2e1c5e","data":{"records":{"id":"IT & Software","title":"IT & Software","belongsTo":{"totalCount":122,"pageInfo":{"totalPages":14,"currentPage":8},"edges":[{"node":{"__typename":"Course","id":"3778421a-3ef1-11ea-9791-1b580a556b4a","title":"OFFICIAL SolarWinds Certified Professional (SCP-500)","slug":"official-solar-winds-certified-professional-scp-500","headline":"The most complete SCP-500 (SolarWinds Certified Professional) certification preparation you've ever seen!","created":"24th January 2020","tags":[{"title":"IT & Software","path":"/tag/IT%20%26%20Software/"},{"title":"IT Certification","path":"/tag/IT%20Certification/"},{"title":"Solarwinds Certification","path":"/tag/Solarwinds%20Certification/"}]}},{"node":{"__typename":"Course","id":"3778421b-3ef1-11ea-9791-1b580a556b4a","title":"OFFICIAL Upgrading to MCSA Windows Server 2016 (70-743)","slug":"official-upgrading-to-mcsa-windows-server-2016-70-743","headline":"The most complete Upgrading to MCSA Windows Server 2016 (70-743) certification preparation you've ever seen!","created":"24th January 2020","tags":[{"title":"IT & Software","path":"/tag/IT%20%26%20Software/"},{"title":"IT Certification","path":"/tag/IT%20Certification/"},{"title":"Windows Server","path":"/tag/Windows%20Server/"}]}},{"node":{"__typename":"Course","id":"37786923-3ef1-11ea-9791-1b580a556b4a","title":"ServiceNow Implementation Specialist -ITSM NewYork Mock Test","slug":"service-now-implementation-specialist-itsm-new-york-mock-test","headline":"ServiceNow Implementation Specialist - ITSM NewYork Delta exam Mock Test","created":"24th January 2020","tags":[{"title":"IT & Software","path":"/tag/IT%20%26%20Software/"},{"title":"IT Certification","path":"/tag/IT%20Certification/"},{"title":"ServiceNow Certified Implementation Specialist - IT Service Management (ITSM)","path":"/tag/ServiceNow%20Certified%20Implementation%20Specialist%20-%20IT%20Service%20Management%20(ITSM)/"}]}},{"node":{"__typename":"Course","id":"37786924-3ef1-11ea-9791-1b580a556b4a","title":"安装和配置 Windows Server 2012 DHCP 服务","slug":"windows-server-2012-dhcp","headline":"Windows Server 2012 系列课程","created":"24th January 2020","tags":[{"title":"IT & Software","path":"/tag/IT%20%26%20Software/"},{"title":"Operating Systems","path":"/tag/Operating%20Systems/"},{"title":"Windows Server","path":"/tag/Windows%20Server/"}]}},{"node":{"__typename":"Course","id":"37786925-3ef1-11ea-9791-1b580a556b4a","title":"安装和配置 Windows Server 2012 R2 DHCP 服务","slug":"windows-server-2012-r2-dhcp","headline":"Windows Server 2012 R2 系列课程","created":"24th January 2020","tags":[{"title":"IT & Software","path":"/tag/IT%20%26%20Software/"},{"title":"Operating Systems","path":"/tag/Operating%20Systems/"},{"title":"Windows Server","path":"/tag/Windows%20Server/"}]}},{"node":{"__typename":"Course","id":"37786926-3ef1-11ea-9791-1b580a556b4a","title":"156-215.13 Check Point Certified Security Administrator Exam","slug":"156-215-13-check-point-certified-security-administrator-exam","headline":"156-215.13 Check Point Certified Security Administrator Practice Exam || Get Certification","created":"24th January 2020","tags":[{"title":"IT & Software","path":"/tag/IT%20%26%20Software/"},{"title":"IT Certification","path":"/tag/IT%20Certification/"},{"title":"Check Point Certified Security Administrator (CCSA)","path":"/tag/Check%20Point%20Certified%20Security%20Administrator%20(CCSA)/"}]}},{"node":{"__typename":"Course","id":"3777f3f0-3ef1-11ea-9791-1b580a556b4a","title":"Veeam Certified Engineer (VMCE) Certification","slug":"veeam-certified-engineer-vmce-certification","headline":"Pass Veeam Certified Engineer (VMCE) Certification by Practicing on High Quality Questions.","created":"24th January 2020","tags":[{"title":"IT & Software","path":"/tag/IT%20%26%20Software/"},{"title":"IT Certification","path":"/tag/IT%20Certification/"}]}},{"node":{"__typename":"Course","id":"3777f3f1-3ef1-11ea-9791-1b580a556b4a","title":"CIW Site Development Associate | 1D0-61B","slug":"ciw-site-development-associate-1-d0-61-b","headline":"Pass CIW Site Development Associate | 1D0-61B exam on the first attempt.","created":"24th January 2020","tags":[{"title":"IT & Software","path":"/tag/IT%20%26%20Software/"},{"title":"IT Certification","path":"/tag/IT%20Certification/"}]}},{"node":{"__typename":"Course","id":"3777f3f2-3ef1-11ea-9791-1b580a556b4a","title":"CIW Web Foundations Associate | 1D0-610","slug":"ciw-web-foundations-associate-1-d0-610","headline":"Pass CIW Web Foundations Associate | 1D0-610 on the first attempt. 2 practice test with 150+ unique questions.","created":"24th January 2020","tags":[{"title":"IT & Software","path":"/tag/IT%20%26%20Software/"},{"title":"IT Certification","path":"/tag/IT%20Certification/"}]}}]}}},"context":{}}