{"hash":"6d1e7dd52e8c17cf4930f349c6afc1a78b2e1c5e","data":{"records":{"id":"Teaching & Academics","title":"Teaching & Academics","belongsTo":{"totalCount":57,"pageInfo":{"totalPages":7,"currentPage":1},"edges":[{"node":{"__typename":"Course","id":"377a64f3-3ef1-11ea-9791-1b580a556b4a","title":"Russian Architecture and Design","slug":"russian-architecture-and-design","headline":"The form, function and beauty of Russian Architecture and Design","created":"24th January 2020","tags":[{"title":"Teaching & Academics","path":"/tag/Teaching%20%26%20Academics/"},{"title":"Humanities","path":"/tag/Humanities/"},{"title":"Architectural History","path":"/tag/Architectural%20History/"}]}},{"node":{"__typename":"Course","id":"377a3de5-3ef1-11ea-9791-1b580a556b4a","title":"Física - Dinâmica-Módulo 6: Conservação da Energia Mecânica","slug":"fisica-dinamica-modulo-6-conservacao-da-energia-mecanica","headline":"Neste curso o (a) aluno(a) aprenderá sobre o teorema da conservação da energia mecânica","created":"24th January 2020","tags":[{"title":"Teaching & Academics","path":"/tag/Teaching%20%26%20Academics/"},{"title":"Science","path":"/tag/Science/"},{"title":"Physics","path":"/tag/Physics/"}]}},{"node":{"__typename":"Course","id":"3779c8b3-3ef1-11ea-9791-1b580a556b4a","title":"A Complete guide to Solar Installation & Maintenance","slug":"a-complete-guide-to-solar-installation-and-maintenance","headline":"Rooftop and Grid connected Solar pv Installation","created":"24th January 2020","tags":[{"title":"Teaching & Academics","path":"/tag/Teaching%20%26%20Academics/"},{"title":"Engineering","path":"/tag/Engineering/"},{"title":"Engineering Instruction","path":"/tag/Engineering%20Instruction/"}]}},{"node":{"__typename":"Course","id":"3779c8ba-3ef1-11ea-9791-1b580a556b4a","title":"Forensic Science","slug":"forensic-science","headline":"Forensic science practice test","created":"24th January 2020","tags":[{"title":"Teaching & Academics","path":"/tag/Teaching%20%26%20Academics/"},{"title":"Test Prep","path":"/tag/Test%20Prep/"}]}},{"node":{"__typename":"Course","id":"37795383-3ef1-11ea-9791-1b580a556b4a","title":"Learn portfolio dashboard from scratch","slug":"learn-portfolio-dashboard-from-scratch","headline":"understand how to create portfolio dashboard using Microsoft excel in an easily way","created":"24th January 2020","tags":[{"title":"Teaching & Academics","path":"/tag/Teaching%20%26%20Academics/"},{"title":"Engineering","path":"/tag/Engineering/"},{"title":"Excel Dashboard","path":"/tag/Excel%20Dashboard/"}]}},{"node":{"__typename":"Course","id":"37795386-3ef1-11ea-9791-1b580a556b4a","title":"德国留学DIY自助向导系列课程","slug":"diy","headline":"只需8节课的时间，你就能从留学小白变成有方向和目的地自助准备留德达人","created":"24th January 2020","tags":[{"title":"Teaching & Academics","path":"/tag/Teaching%20%26%20Academics/"},{"title":"Other Teaching & Academics","path":"/tag/Other%20Teaching%20%26%20Academics/"},{"title":"Studying Abroad","path":"/tag/Studying%20Abroad/"}]}},{"node":{"__typename":"Course","id":"3778de51-3ef1-11ea-9791-1b580a556b4a","title":"Deutsch Für Mediziner | German For Doctors","slug":"deutsch-fuer-mediziner-german-for-doctors","headline":"Improve Your German Skills And Prepare For The German Medical Language Exam.","created":"24th January 2020","tags":[{"title":"Teaching & Academics","path":"/tag/Teaching%20%26%20Academics/"},{"title":"Language","path":"/tag/Language/"},{"title":"German Language","path":"/tag/German%20Language/"}]}},{"node":{"__typename":"Course","id":"3778de57-3ef1-11ea-9791-1b580a556b4a","title":"Técnicas de estudio de un Super Estudiante","slug":"tecnicas-de-estudio-de-un-super-estudiante","headline":"Aprende las mejores estrategias y técnicas de estudio para ser un Super estudiante.","created":"24th January 2020","tags":[{"title":"Teaching & Academics","path":"/tag/Teaching%20%26%20Academics/"},{"title":"Other Teaching & Academics","path":"/tag/Other%20Teaching%20%26%20Academics/"},{"title":"Study Skills","path":"/tag/Study%20Skills/"}]}},{"node":{"__typename":"Course","id":"37790563-3ef1-11ea-9791-1b580a556b4a","title":"Основы построения и начертательной геометрии. Ваза Боргезе","slug":"osnovy-postroeniya-i-nachertatelnoj-geometrii-vaza-borgeze","headline":"Супер-объем 3D в рисунке. Императивный метод.","created":"24th January 2020","tags":[{"title":"Teaching & Academics","path":"/tag/Teaching%20%26%20Academics/"},{"title":"Online Education","path":"/tag/Online%20Education/"},{"title":"Graphics","path":"/tag/Graphics/"}]}}]}}},"context":{}}