{"hash":"6d1e7dd52e8c17cf4930f349c6afc1a78b2e1c5e","data":{"records":{"id":"Yoga","title":"Yoga","belongsTo":{"totalCount":16,"pageInfo":{"totalPages":2,"currentPage":2},"edges":[{"node":{"__typename":"Course","id":"3772279a-3ef1-11ea-9791-1b580a556b4a","title":"Authentic Yoga Experience Series 1","slug":"authentic-yoga-experience-series-1","headline":"Immerse Yourself, FROM SCRATCH, into the most authentic Yoga Experience","created":"24th January 2020","tags":[{"title":"Health & Fitness","path":"/tag/Health%20%26%20Fitness/"},{"title":"Yoga","path":"/tag/Yoga/"}]}},{"node":{"__typename":"Course","id":"37722794-3ef1-11ea-9791-1b580a556b4a","title":"Prenatal Yoga - Basic Class","slug":"prenatal-yoga-basic-class","headline":"A step-by-step approach to teach you the basics of Prenatal Yoga and Prenatal Yoga Poses.","created":"24th January 2020","tags":[{"title":"Health & Fitness","path":"/tag/Health%20%26%20Fitness/"},{"title":"Yoga","path":"/tag/Yoga/"},{"title":"Prenatal Yoga","path":"/tag/Prenatal%20Yoga/"}]}},{"node":{"__typename":"Course","id":"37718b52-3ef1-11ea-9791-1b580a556b4a","title":"Authentic Yoga Experience Series 1 - 3","slug":"authentic-yoga-experience-series-1-3","headline":"Immerse Yourself, Learn Yoga Online FROM SCRATCH, into the most authentic Yoga Experience","created":"24th January 2020","tags":[{"title":"Health & Fitness","path":"/tag/Health%20%26%20Fitness/"},{"title":"Yoga","path":"/tag/Yoga/"}]}},{"node":{"__typename":"Course","id":"37713d34-3ef1-11ea-9791-1b580a556b4a","title":"7 Day Yoga Routine: Increase Energy & Balance Your Chakras","slug":"7-day-yoga-routine-increase-energy-and-balance-your-chakras","headline":"Chakras for beginners course, 7 days of Study, Yoga Practice, and Meditation for chakra balancing and raising energy.","created":"24th January 2020","tags":[{"title":"Health & Fitness","path":"/tag/Health%20%26%20Fitness/"},{"title":"Yoga","path":"/tag/Yoga/"}]}},{"node":{"__typename":"Course","id":"37711620-3ef1-11ea-9791-1b580a556b4a","title":"The Yoga Of Laughter: From Stressed Out To Blissed Out!","slug":"the-yoga-of-laughter-from-stressed-out-to-blissed-out","headline":"This simple, fun and laughter-filled Yogic practice will help you achieve emotional detox and personal empowerment.","created":"24th January 2020","tags":[{"title":"Health & Fitness","path":"/tag/Health%20%26%20Fitness/"},{"title":"Yoga","path":"/tag/Yoga/"}]}},{"node":{"__typename":"Course","id":"376b70d3-3ef1-11ea-9791-1b580a556b4a","title":"Kundalini Yoga to Heal Stress and Anxiety by Valinda~Viriam","slug":"kundalini-yoga-to-heal-stress-and-anxiety-by-valinda-viriam","headline":"Kundalini Yoga is an ancient & highly effective yoga that transforms a person quickly & effectively in just 30 minutes!","created":"24th January 2020","tags":[{"title":"Health & Fitness","path":"/tag/Health%20%26%20Fitness/"},{"title":"Yoga","path":"/tag/Yoga/"},{"title":"Kundalini","path":"/tag/Kundalini/"}]}},{"node":{"__typename":"Course","id":"376ad490-3ef1-11ea-9791-1b580a556b4a","title":"14-Day Yoga Detox and Empowerment Course","slug":"14-day-yoga-detox-and-empowerment-course","headline":"Lose weight, get healthier and fit on all levels in just 14 days with Sadie Nardini","created":"24th January 2020","tags":[{"title":"Health & Fitness","path":"/tag/Health%20%26%20Fitness/"},{"title":"Yoga","path":"/tag/Yoga/"},{"title":"Detox","path":"/tag/Detox/"}]}}]}}},"context":{}}