{"hash":"6d1e7dd52e8c17cf4930f349c6afc1a78b2e1c5e","data":{"records":{"id":"IT & Software","title":"IT & Software","belongsTo":{"totalCount":122,"pageInfo":{"totalPages":14,"currentPage":3},"edges":[{"node":{"__typename":"Course","id":"37797a98-3ef1-11ea-9791-1b580a556b4a","title":"Watchguard Fireware Essentials","slug":"watchguard-fireware-essentials","headline":"Pass Watchguard Fireware Essentials from first attempt.","created":"24th January 2020","tags":[{"title":"IT & Software","path":"/tag/IT%20%26%20Software/"},{"title":"IT Certification","path":"/tag/IT%20Certification/"}]}},{"node":{"__typename":"Course","id":"3779a1a0-3ef1-11ea-9791-1b580a556b4a","title":"200-125 Cisco Certify Network Associate (CCNA) Practice Exam","slug":"200-125-cisco-certify-network-associate-ccna-practice-exam","headline":"200-125 Cisco Certify Network Associate (CCNA) Practice Exam || Get Certification","created":"24th January 2020","tags":[{"title":"IT & Software","path":"/tag/IT%20%26%20Software/"},{"title":"IT Certification","path":"/tag/IT%20Certification/"},{"title":"Cisco CCNA","path":"/tag/Cisco%20CCNA/"}]}},{"node":{"__typename":"Course","id":"3779a1a1-3ef1-11ea-9791-1b580a556b4a","title":"400-101 CCIE Routing and Switching Written Practice Exam","slug":"400-101-ccie-routing-and-switching-written-practice-exam","headline":"400-101 CCIE Routing and Switching Written Practice Exam || Get Certification","created":"24th January 2020","tags":[{"title":"IT & Software","path":"/tag/IT%20%26%20Software/"},{"title":"IT Certification","path":"/tag/IT%20Certification/"},{"title":"CCIE Routing and Switching","path":"/tag/CCIE%20Routing%20and%20Switching/"}]}},{"node":{"__typename":"Course","id":"3779a1a4-3ef1-11ea-9791-1b580a556b4a","title":"Oracle RightNow Cloud Service Implementation Essentials","slug":"oracle-right-now-cloud-service-implementation-essentials","headline":"Pass Oracle RightNow Cloud Service Implementation Essentials | 1Z0-325 exam on the first attempt.","created":"24th January 2020","tags":[{"title":"IT & Software","path":"/tag/IT%20%26%20Software/"},{"title":"IT Certification","path":"/tag/IT%20Certification/"}]}},{"node":{"__typename":"Course","id":"3779a1a5-3ef1-11ea-9791-1b580a556b4a","title":"ST0-237 Symantec Data Prevention Technical Assessment Exam","slug":"s-t0-237-symantec-data-prevention-technical-assessment-exam","headline":"ST0-237 Symantec Data Prevention Technical Assessment Practice Exam || Get Certification","created":"24th January 2020","tags":[{"title":"IT & Software","path":"/tag/IT%20%26%20Software/"},{"title":"IT Certification","path":"/tag/IT%20Certification/"},{"title":"Data Storage","path":"/tag/Data%20Storage/"}]}},{"node":{"__typename":"Course","id":"3779a1a7-3ef1-11ea-9791-1b580a556b4a","title":"A Guide to Security Information and Event Management - SIEM","slug":"a-guide-to-security-information-and-event-management-siem","headline":"An Introduction to SIEM","created":"24th January 2020","tags":[{"title":"IT & Software","path":"/tag/IT%20%26%20Software/"},{"title":"Network & Security","path":"/tag/Network%20%26%20Security/"},{"title":"Network Security","path":"/tag/Network%20Security/"}]}},{"node":{"__typename":"Course","id":"3779a1a8-3ef1-11ea-9791-1b580a556b4a","title":"AWS Machine Learning Certification practice exams 2020","slug":"aws-machine-learning-certification-practice-exams-2020","headline":"NEW 2020 AWS CertifiedMachine Learning Practice Exams | Full multiple practice tests |MLS-C01","created":"24th January 2020","tags":[{"title":"IT & Software","path":"/tag/IT%20%26%20Software/"},{"title":"IT Certification","path":"/tag/IT%20Certification/"},{"title":"AWS Certified Machine Learning - Specialty","path":"/tag/AWS%20Certified%20Machine%20Learning%20-%20Specialty/"}]}},{"node":{"__typename":"Course","id":"3779a1aa-3ef1-11ea-9791-1b580a556b4a","title":"Curso Básico de Linux - Debian 10","slug":"curso-basico-de-linux-debian-10","headline":"Interface de linha de comando do linux de uma forma descomplicada","created":"24th January 2020","tags":[{"title":"IT & Software","path":"/tag/IT%20%26%20Software/"},{"title":"Operating Systems","path":"/tag/Operating%20Systems/"},{"title":"Linux","path":"/tag/Linux/"}]}},{"node":{"__typename":"Course","id":"37792c7c-3ef1-11ea-9791-1b580a556b4a","title":"Oracle Communications Session Border Controller 7 | 1Z0-404","slug":"oracle-communications-session-border-controller-7-1-z0-404","headline":"Pass Oracle Communications Session Border Controller 7 Basic Implementation Essentials Exam on the first attempt.","created":"24th January 2020","tags":[{"title":"IT & Software","path":"/tag/IT%20%26%20Software/"},{"title":"IT Certification","path":"/tag/IT%20Certification/"},{"title":"Oracle Certification","path":"/tag/Oracle%20Certification/"}]}}]}}},"context":{}}