{"hash":"6d1e7dd52e8c17cf4930f349c6afc1a78b2e1c5e","data":{"records":{"id":"Personal Development","title":"Personal Development","belongsTo":{"totalCount":58,"pageInfo":{"totalPages":7,"currentPage":6},"edges":[{"node":{"__typename":"Course","id":"3772279b-3ef1-11ea-9791-1b580a556b4a","title":"7 Rules of Bible Interpretation EVERY Christian Should Know","slug":"7-rules-of-bible-interpretation-every-christian-should-know","headline":"Draw nearer to God with these advanced Bible study techniques. For small group leaders and members!","created":"24th January 2020","tags":[{"title":"Personal Development","path":"/tag/Personal%20Development/"},{"title":"Religion & Spirituality","path":"/tag/Religion%20%26%20Spirituality/"},{"title":"The Bible","path":"/tag/The%20Bible/"}]}},{"node":{"__typename":"Course","id":"37720081-3ef1-11ea-9791-1b580a556b4a","title":"Pitch Yourself! Learn to Ignite Curiosity + Inspire Action.","slug":"pitch-yourself-learn-to-ignite-curiosity-inspire-action","headline":"Learn to speak about your work with clarity, ease and authenticity. Never fear the question, \"What do you do?\" again!","created":"24th January 2020","tags":[{"title":"Personal Development","path":"/tag/Personal%20Development/"},{"title":"Influence","path":"/tag/Influence/"},{"title":"Personal Networking","path":"/tag/Personal%20Networking/"}]}},{"node":{"__typename":"Course","id":"37718b53-3ef1-11ea-9791-1b580a556b4a","title":"Career Mind Mastery: Learn How To Get Your Dream Job","slug":"career-mind-mastery-learn-how-to-get-your-dream-job","headline":"A Simple, Science-Based Approach to Getting The Career You Deserve.","created":"24th January 2020","tags":[{"title":"Personal Development","path":"/tag/Personal%20Development/"},{"title":"Career Development","path":"/tag/Career%20Development/"}]}},{"node":{"__typename":"Course","id":"3770ef14-3ef1-11ea-9791-1b580a556b4a","title":"Everyday Mind Mastery","slug":"everyday-mind-mastery","headline":"Learn the easiest way to master your mind and control your life with Ben Franklin's 13x4 and some neat algorithms.","created":"24th January 2020","tags":[{"title":"Personal Development","path":"/tag/Personal%20Development/"},{"title":"Personal Transformation","path":"/tag/Personal%20Transformation/"},{"title":"Mindset","path":"/tag/Mindset/"}]}},{"node":{"__typename":"Course","id":"377079e3-3ef1-11ea-9791-1b580a556b4a","title":"The 7 Essential Steps To Getting Your Dream Career","slug":"the-7-essential-steps-to-getting-your-dream-career","headline":"A system based on the conclusions of science. Simple but not easy, effective for everybody and a lot of fun.","created":"24th January 2020","tags":[{"title":"Personal Development","path":"/tag/Personal%20Development/"},{"title":"Career Development","path":"/tag/Career%20Development/"}]}},{"node":{"__typename":"Course","id":"377052d9-3ef1-11ea-9791-1b580a556b4a","title":"Get Job Interviews using Social Media (Self-Branding Studio)","slug":"get-job-interviews-using-social-media-self-branding-studio","headline":"Get your next job interview using the personal branding tips you will learn in this couse.","created":"24th January 2020","tags":[{"title":"Personal Development","path":"/tag/Personal%20Development/"},{"title":"Personal Brand Building","path":"/tag/Personal%20Brand%20Building/"},{"title":"Interviewing Skills","path":"/tag/Interviewing%20Skills/"}]}},{"node":{"__typename":"Course","id":"377052d5-3ef1-11ea-9791-1b580a556b4a","title":"Developing Kids Motor Skills and Coordination from 0-6 years","slug":"developing-kids-motor-skills-and-coordination-from-0-6-years","headline":"Amazing Motor Skills course that will help you understand what you can do to get kids ready to play and learn sport","created":"24th January 2020","tags":[{"title":"Personal Development","path":"/tag/Personal%20Development/"},{"title":"Parenting & Relationships","path":"/tag/Parenting%20%26%20Relationships/"},{"title":"Art for Kids","path":"/tag/Art%20for%20Kids/"}]}},{"node":{"__typename":"Course","id":"376fdda0-3ef1-11ea-9791-1b580a556b4a","title":"LinkedIn Profile SEO - Rank #1 in People Search","slug":"linked-in-profile-seo-rank-1-in-people-search","headline":"Be findable on Linkedin. Learn how to rank in the top of your industry in Linkedin People Search.","created":"24th January 2020","tags":[{"title":"Personal Development","path":"/tag/Personal%20Development/"},{"title":"Career Development","path":"/tag/Career%20Development/"},{"title":"LinkedIn","path":"/tag/LinkedIn/"}]}},{"node":{"__typename":"Course","id":"376ea525-3ef1-11ea-9791-1b580a556b4a","title":"Create a Killer Personal Brand","slug":"create-a-killer-personal-brand","headline":"It's not who you know, it's who knows you that counts. Learn how to brand yourself.","created":"24th January 2020","tags":[{"title":"Personal Development","path":"/tag/Personal%20Development/"},{"title":"Personal Brand Building","path":"/tag/Personal%20Brand%20Building/"},{"title":"Personal Branding","path":"/tag/Personal%20Branding/"}]}}]}}},"context":{}}