{"hash":"6d1e7dd52e8c17cf4930f349c6afc1a78b2e1c5e","data":{"records":{"id":"IT & Software","title":"IT & Software","belongsTo":{"totalCount":122,"pageInfo":{"totalPages":14,"currentPage":12},"edges":[{"node":{"__typename":"Course","id":"3775d117-3ef1-11ea-9791-1b580a556b4a","title":"Whitehat Hacking and Penetration Testing Tutorial Video","slug":"whitehat-hacking-and-penetration-testing-tutorial-video","headline":"Learn how to test and protect your network using Ethical Hacking and Penetration Testing Techniques.","created":"24th January 2020","tags":[{"title":"IT & Software","path":"/tag/IT%20%26%20Software/"},{"title":"Network & Security","path":"/tag/Network%20%26%20Security/"},{"title":"Ethical Hacking","path":"/tag/Ethical%20Hacking/"}]}},{"node":{"__typename":"Course","id":"377582f4-3ef1-11ea-9791-1b580a556b4a","title":"Introducción al cloud computing (IaaS)","slug":"introduccion-al-cloud-computing-iaa-s","headline":"Entiende que es \"cloud computing\" y aprende a utilizar servicios de Amazon AWS...","created":"24th January 2020","tags":[{"title":"IT & Software","path":"/tag/IT%20%26%20Software/"},{"title":"Other","path":"/tag/Other/"},{"title":"Cloud Computing","path":"/tag/Cloud%20Computing/"}]}},{"node":{"__typename":"Course","id":"3774bfa5-3ef1-11ea-9791-1b580a556b4a","title":"UNIX/Linux Operating system - Beginner to Advanced","slug":"unix-linux-operating-system-beginner-to-advanced","headline":"Complete Unix/Linux OS learning with BASH","created":"24th January 2020","tags":[{"title":"IT & Software","path":"/tag/IT%20%26%20Software/"},{"title":"Operating Systems","path":"/tag/Operating%20Systems/"},{"title":"Unix","path":"/tag/Unix/"}]}},{"node":{"__typename":"Course","id":"37744a79-3ef1-11ea-9791-1b580a556b4a","title":"How to Ace Your IT Exams","slug":"how-to-ace-your-it-exams","headline":"Exam tips, tools and strategies to help you finally master the content, retain the information and ace your IT exams.","created":"24th January 2020","tags":[{"title":"IT & Software","path":"/tag/IT%20%26%20Software/"},{"title":"IT Certification","path":"/tag/IT%20Certification/"},{"title":"Test Taking Skills","path":"/tag/Test%20Taking%20Skills/"}]}},{"node":{"__typename":"Course","id":"37747180-3ef1-11ea-9791-1b580a556b4a","title":"Building Online Help for Beginners Using Adobe RoboHelp 11","slug":"building-online-help-for-beginners-using-adobe-robo-help-11","headline":"Learn how to use Adobe RoboHelp 11 to create effective online help and support users of your software or web app.","created":"24th January 2020","tags":[{"title":"IT & Software","path":"/tag/IT%20%26%20Software/"},{"title":"Other","path":"/tag/Other/"},{"title":"Technical Writing","path":"/tag/Technical%20Writing/"}]}},{"node":{"__typename":"Course","id":"37742361-3ef1-11ea-9791-1b580a556b4a","title":"The Cloud and You","slug":"the-cloud-and-you","headline":"The Cloud explained - exploit the benefits, avoid the pitfalls","created":"24th January 2020","tags":[{"title":"IT & Software","path":"/tag/IT%20%26%20Software/"},{"title":"Network & Security","path":"/tag/Network%20%26%20Security/"},{"title":"Computer Skills","path":"/tag/Computer%20Skills/"}]}},{"node":{"__typename":"Course","id":"3773fc55-3ef1-11ea-9791-1b580a556b4a","title":"Thermal Modeling of Solar Energy Systems","slug":"thermal-modeling-of-solar-energy-systems","headline":"Learn to model thermal systems with solar heating and realistic worldwide weather data","created":"24th January 2020","tags":[{"title":"IT & Software","path":"/tag/IT%20%26%20Software/"},{"title":"Hardware","path":"/tag/Hardware/"},{"title":"Solar Energy","path":"/tag/Solar%20Energy/"}]}},{"node":{"__typename":"Course","id":"37738728-3ef1-11ea-9791-1b580a556b4a","title":"Introduction To Fiber Optic Cabling","slug":"introduction-to-fiber-optic-cabling","headline":"Welcome! This course is designed to give you a good understand of fiber optics and fiber data transmission.","created":"24th January 2020","tags":[{"title":"IT & Software","path":"/tag/IT%20%26%20Software/"},{"title":"Network & Security","path":"/tag/Network%20%26%20Security/"},{"title":"Telecom","path":"/tag/Telecom/"}]}},{"node":{"__typename":"Course","id":"37724ea2-3ef1-11ea-9791-1b580a556b4a","title":"Computer and Network Hacking Mastery: Practical Techniques","slug":"computer-and-network-hacking-mastery-practical-techniques","headline":"Ethical Hacking Unleashed! How to Get to Know Proven Hacking Techniques... Fast","created":"24th January 2020","tags":[{"title":"IT & Software","path":"/tag/IT%20%26%20Software/"},{"title":"Network & Security","path":"/tag/Network%20%26%20Security/"},{"title":"Ethical Hacking","path":"/tag/Ethical%20Hacking/"}]}}]}}},"context":{}}