{"hash":"6d1e7dd52e8c17cf4930f349c6afc1a78b2e1c5e","data":{"records":{"id":"Development","title":"Development","belongsTo":{"totalCount":129,"pageInfo":{"totalPages":15,"currentPage":13},"edges":[{"node":{"__typename":"Course","id":"376e08e1-3ef1-11ea-9791-1b580a556b4a","title":"Oracle Veritabanı Programlama : SQL, PL/SQL, Oracle Mimarisi","slug":"oracle-veritabani-programlama-sql-pl-sql-oracle-mimarisi","headline":"Türkiye'nin ilk ve en kapsamlı PL/SQL ile Oracle veritabanı programlama eğitimidir.","created":"24th January 2020","tags":[{"title":"Development","path":"/tag/Development/"},{"title":"Databases","path":"/tag/Databases/"},{"title":"Pl/SQL","path":"/tag/Pl%2FSQL/"}]}},{"node":{"__typename":"Course","id":"376dbac2-3ef1-11ea-9791-1b580a556b4a","title":"Learn to make HTML 5, Facebook, Chrome Store games and more!","slug":"learn-to-make-html-5-facebook-chrome-store-games-and-more","headline":"Learn how to make games without coding! This course is on sale for 99 dollars act now!","created":"24th January 2020","tags":[{"title":"Development","path":"/tag/Development/"},{"title":"Game Development","path":"/tag/Game%20Development/"},{"title":"Game Development Fundamentals","path":"/tag/Game%20Development%20Fundamentals/"}]}},{"node":{"__typename":"Course","id":"376dbac4-3ef1-11ea-9791-1b580a556b4a","title":"PHP Tutorial: PHP/MySQL for Beginners","slug":"php-tutorial-php-my-sql-for-beginners","headline":"Learn PHP online with MySQL and Start Developing Web Apps like a Pro!","created":"24th January 2020","tags":[{"title":"Development","path":"/tag/Development/"},{"title":"Programming Languages","path":"/tag/Programming%20Languages/"},{"title":"MySQL","path":"/tag/MySQL/"}]}},{"node":{"__typename":"Course","id":"376dbac5-3ef1-11ea-9791-1b580a556b4a","title":"Introducción a JavaScript","slug":"introduccion-a-java-script","headline":"Dale vida a tus sitios HTML5 con JavaScript! Aprende desde cero el lenguaje que le da interactividad a toda la web.","created":"24th January 2020","tags":[{"title":"Development","path":"/tag/Development/"},{"title":"Web Development","path":"/tag/Web%20Development/"},{"title":"HTML","path":"/tag/HTML/"}]}},{"node":{"__typename":"Course","id":"376dbac6-3ef1-11ea-9791-1b580a556b4a","title":"Become a Certified Web Developer","slug":"become-a-certified-web-developer","headline":"Complete coverage of HTML, CSS, Javascript and PHP while you Earn Four Respected Certificatons","created":"24th January 2020","tags":[{"title":"Development","path":"/tag/Development/"},{"title":"Web Development","path":"/tag/Web%20Development/"}]}},{"node":{"__typename":"Course","id":"376cd064-3ef1-11ea-9791-1b580a556b4a","title":"Learning C# .NET - Programming for Beginners.","slug":"learning-c-net-programming-for-beginners","headline":"Learn to Program in C# .NET from an Expert. Over 100 Lessons that allow you to learn C# Programming at your own pace.","created":"24th January 2020","tags":[{"title":"Development","path":"/tag/Development/"},{"title":"Programming Languages","path":"/tag/Programming%20Languages/"},{"title":"C#","path":"/tag/C%23/"}]}},{"node":{"__typename":"Course","id":"376cd066-3ef1-11ea-9791-1b580a556b4a","title":"Getting Started with Ruby on Rails","slug":"getting-started-with-ruby-on-rails","headline":"Foundations for Building Web Apps with Ruby on Rails","created":"24th January 2020","tags":[{"title":"Development","path":"/tag/Development/"},{"title":"Programming Languages","path":"/tag/Programming%20Languages/"},{"title":"Ruby on Rails","path":"/tag/Ruby%20on%20Rails/"}]}},{"node":{"__typename":"Course","id":"376cf770-3ef1-11ea-9791-1b580a556b4a","title":"Become a Web Developer from Scratch","slug":"become-a-web-developer-from-scratch","headline":"This course covers all you need to know about becoming a top skilled web developer even if you never programmed before!","created":"24th January 2020","tags":[{"title":"Development","path":"/tag/Development/"},{"title":"Web Development","path":"/tag/Web%20Development/"}]}},{"node":{"__typename":"Course","id":"376d93b0-3ef1-11ea-9791-1b580a556b4a","title":"Learn jQuery: An In-depth Course For Beginners","slug":"learn-j-query-an-in-depth-course-for-beginners","headline":"Master jQuery at your own Pace. Learn Everything you need to know about jQuery!","created":"24th January 2020","tags":[{"title":"Development","path":"/tag/Development/"},{"title":"Web Development","path":"/tag/Web%20Development/"},{"title":"jQuery","path":"/tag/jQuery/"}]}}]}}},"context":{}}