{"hash":"6d1e7dd52e8c17cf4930f349c6afc1a78b2e1c5e","data":{"records":{"id":"Business","title":"Business","belongsTo":{"totalCount":119,"pageInfo":{"totalPages":14,"currentPage":14},"edges":[{"node":{"__typename":"Course","id":"376a8673-3ef1-11ea-9791-1b580a556b4a","title":"The Lean Startup Talk at Stanford E-Corner","slug":"the-lean-startup-talk-at-stanford-e-corner","headline":"Debunking Myths of Entrepreneurship A startup is not a \"doll house\" version of a larger enterprise.","created":"24th January 2020","tags":[{"title":"Business","path":"/tag/Business/"},{"title":"Entrepreneurship","path":"/tag/Entrepreneurship/"},{"title":"Lean Startup","path":"/tag/Lean%20Startup/"}]}},{"node":{"__typename":"Course","id":"376a5f61-3ef1-11ea-9791-1b580a556b4a","title":"How to Create an Awesome Demo Video for Your Business","slug":"how-to-create-an-awesome-demo-video-for-your-business","headline":"You don't need to spend $10K in order to have a professional video produced. Learn to make one yourself the easy way!","created":"24th January 2020","tags":[{"title":"Business","path":"/tag/Business/"},{"title":"Media","path":"/tag/Media/"},{"title":"Demo Video","path":"/tag/Demo%20Video/"}]}}]}}},"context":{}}