{"hash":"6d1e7dd52e8c17cf4930f349c6afc1a78b2e1c5e","data":{"records":{"id":"Web Development","title":"Web Development","belongsTo":{"totalCount":55,"pageInfo":{"totalPages":7,"currentPage":3},"edges":[{"node":{"__typename":"Course","id":"37744a76-3ef1-11ea-9791-1b580a556b4a","title":"Servlets and JSPs Tutorial: Learn Web Applications With Java","slug":"servlets-and-js-ps-tutorial-learn-web-applications-with-java","headline":"Learn how to create dynamic websites using the Java programming language with this java web application tutorial","created":"24th January 2020","tags":[{"title":"Development","path":"/tag/Development/"},{"title":"Web Development","path":"/tag/Web%20Development/"},{"title":"Servlet","path":"/tag/Servlet/"}]}},{"node":{"__typename":"Course","id":"37742364-3ef1-11ea-9791-1b580a556b4a","title":"Advanced JavaScript Programming","slug":"advanced-java-script-programming","headline":"Learn advanced JavaScript techniques and good standard coding conventions from the experts at Webucator Training.","created":"24th January 2020","tags":[{"title":"Development","path":"/tag/Development/"},{"title":"Web Development","path":"/tag/Web%20Development/"},{"title":"JavaScript","path":"/tag/JavaScript/"}]}},{"node":{"__typename":"Course","id":"37744a71-3ef1-11ea-9791-1b580a556b4a","title":"Aprende Javascript, HTML5 y CSS3","slug":"aprende-javascript-htm-l5-y-cs-s3","headline":"Aprende los principales lenguajes que dominan internet: JavaScript, HTML5 y CSS3","created":"24th January 2020","tags":[{"title":"Development","path":"/tag/Development/"},{"title":"Web Development","path":"/tag/Web%20Development/"},{"title":"CSS","path":"/tag/CSS/"}]}},{"node":{"__typename":"Course","id":"3773fc52-3ef1-11ea-9791-1b580a556b4a","title":"Learn How To Build A Corporate Website Using Joomla! 2.5","slug":"learn-how-to-build-a-corporate-website-using-joomla-2-5","headline":"THIS COURSE USES JOOMLA 2.5. You should only use this course if you are maintaining a Joomla 2.5 website.","created":"24th January 2020","tags":[{"title":"Development","path":"/tag/Development/"},{"title":"Web Development","path":"/tag/Web%20Development/"},{"title":"Joomla","path":"/tag/Joomla/"}]}},{"node":{"__typename":"Course","id":"3773ae33-3ef1-11ea-9791-1b580a556b4a","title":"「世界で7万人が受講！未経験からWebプログラマーになるための全て」2018年最新版","slug":"7-web-2018","headline":"Masaaki Hatano 監修、2018年の最新版へupdate済み（初心者向け・日本語吹き替え版）","created":"24th January 2020","tags":[{"title":"Development","path":"/tag/Development/"},{"title":"Web Development","path":"/tag/Web%20Development/"}]}},{"node":{"__typename":"Course","id":"3773d545-3ef1-11ea-9791-1b580a556b4a","title":"Todo jQuery... de novato a experto","slug":"todo-j-query-de-novato-a-experto","headline":"Aprende desde lo básico de jQuery hasta hacer aplicaciones con esta sorprendente librería","created":"24th January 2020","tags":[{"title":"Development","path":"/tag/Development/"},{"title":"Web Development","path":"/tag/Web%20Development/"},{"title":"JavaScript","path":"/tag/JavaScript/"}]}},{"node":{"__typename":"Course","id":"377311f4-3ef1-11ea-9791-1b580a556b4a","title":"JQuery For Mobile Tutorial - Learning Made Easy","slug":"j-query-for-mobile-tutorial-learning-made-easy","headline":"Learn how to use JQuery effectively on Mobile Devices. Everything you need to know in one course.","created":"24th January 2020","tags":[{"title":"Development","path":"/tag/Development/"},{"title":"Web Development","path":"/tag/Web%20Development/"},{"title":"jQuery","path":"/tag/jQuery/"}]}},{"node":{"__typename":"Course","id":"37733906-3ef1-11ea-9791-1b580a556b4a","title":"Beginner Photoshop to HTML5 and CSS3","slug":"beginner-photoshop-to-htm-l5-and-cs-s3","headline":"Learn how to convert a Photoshop design into HTML5/CSS3 using Dreamweaver.","created":"24th January 2020","tags":[{"title":"Development","path":"/tag/Development/"},{"title":"Web Development","path":"/tag/Web%20Development/"},{"title":"Dreamweaver","path":"/tag/Dreamweaver/"}]}},{"node":{"__typename":"Course","id":"3772c3d6-3ef1-11ea-9791-1b580a556b4a","title":"Learning CSS","slug":"learning-css","headline":"Learn how to use Cascading Style Sheets to create beautiful webpages.","created":"24th January 2020","tags":[{"title":"Development","path":"/tag/Development/"},{"title":"Web Development","path":"/tag/Web%20Development/"},{"title":"CSS","path":"/tag/CSS/"}]}}]}}},"context":{}}