{"hash":"6d1e7dd52e8c17cf4930f349c6afc1a78b2e1c5e","data":{"records":{"id":"Lifestyle","title":"Lifestyle","belongsTo":{"totalCount":28,"pageInfo":{"totalPages":4,"currentPage":1},"edges":[{"node":{"__typename":"Course","id":"377a64f1-3ef1-11ea-9791-1b580a556b4a","title":"Learn to Preach","slug":"learn-to-preach","headline":"Becoming More Effective In Your Sermons","created":"24th January 2020","tags":[{"title":"Lifestyle","path":"/tag/Lifestyle/"},{"title":"Other","path":"/tag/Other/"},{"title":"Public Speaking","path":"/tag/Public%20Speaking/"}]}},{"node":{"__typename":"Course","id":"3779c8b1-3ef1-11ea-9791-1b580a556b4a","title":"Aprende y domina el mejor deporte mental: Ajedrez","slug":"aprende-y-domina-el-mejor-deporte-mental-ajedrez","headline":"Seis vídeos garantizados para transformarte de un principiante completo a un jugador de ajedrez tácticamente consciente.","created":"24th January 2020","tags":[{"title":"Lifestyle","path":"/tag/Lifestyle/"},{"title":"Gaming","path":"/tag/Gaming/"},{"title":"Chess","path":"/tag/Chess/"}]}},{"node":{"__typename":"Course","id":"37792c76-3ef1-11ea-9791-1b580a556b4a","title":"Curso de Maquiagem com Nanny Faria","slug":"curso-de-maquiagem-com-nanny-faria","headline":"Do Iniciante ao Profissional","created":"24th January 2020","tags":[{"title":"Lifestyle","path":"/tag/Lifestyle/"},{"title":"Beauty & Makeup","path":"/tag/Beauty%20%26%20Makeup/"}]}},{"node":{"__typename":"Course","id":"3778de5a-3ef1-11ea-9791-1b580a556b4a","title":"How to Dye and Stain Baskets for Beginners","slug":"how-to-dye-and-stain-baskets-for-beginners","headline":"Learn fiber dyeing with this Fiber Reactive Dye Tutorial Course!","created":"24th January 2020","tags":[{"title":"Lifestyle","path":"/tag/Lifestyle/"},{"title":"Arts & Crafts","path":"/tag/Arts%20%26%20Crafts/"},{"title":"Coloring","path":"/tag/Coloring/"}]}},{"node":{"__typename":"Course","id":"37784211-3ef1-11ea-9791-1b580a556b4a","title":"Curso sobre Vinos, Licores y Cerveza","slug":"curso-sobre-vinos-licores-y-cerveza","headline":"Todo acerca de vinos, licores y cerveza, desde el origen, el proceso hasta cómo servirlos.","created":"24th January 2020","tags":[{"title":"Lifestyle","path":"/tag/Lifestyle/"},{"title":"Food & Beverage","path":"/tag/Food%20%26%20Beverage/"},{"title":"Wine","path":"/tag/Wine/"}]}},{"node":{"__typename":"Course","id":"377757b7-3ef1-11ea-9791-1b580a556b4a","title":"POKER - CURSO AUTOREVISIÓN BASE DE DATOS HOLDEM MANAGER 2","slug":"poker-curso-autorevision-base-de-datos-holdem-manager-2","headline":"¿SABES DONDE HAY FUGAS DE DINERO EN TU JUEGO?","created":"24th January 2020","tags":[{"title":"Lifestyle","path":"/tag/Lifestyle/"},{"title":"Gaming","path":"/tag/Gaming/"},{"title":"Poker","path":"/tag/Poker/"}]}},{"node":{"__typename":"Course","id":"377730a3-3ef1-11ea-9791-1b580a556b4a","title":"The No 1. Facial Yoga - Naturally Look More Attractive","slug":"the-no-1-facial-yoga-naturally-look-more-attractive","headline":"Beautifies Your Face, Tone and Relax Your Facial Muscle, Eliminate Acne, Reduce Wrinkle, Powerful Detox","created":"24th January 2020","tags":[{"title":"Lifestyle","path":"/tag/Lifestyle/"},{"title":"Beauty & Makeup","path":"/tag/Beauty%20%26%20Makeup/"},{"title":"Face Yoga","path":"/tag/Face%20Yoga/"}]}},{"node":{"__typename":"Course","id":"37761f35-3ef1-11ea-9791-1b580a556b4a","title":"Cake Decorating For Fun and Profit","slug":"cake-decorating-for-fun-and-profit","headline":"Cake Decorating Course from a National Award Winning baker with over 30 years of cake decorating experience!","created":"24th January 2020","tags":[{"title":"Lifestyle","path":"/tag/Lifestyle/"},{"title":"Arts & Crafts","path":"/tag/Arts%20%26%20Crafts/"},{"title":"Cake Decorating","path":"/tag/Cake%20Decorating/"}]}},{"node":{"__typename":"Course","id":"3775d110-3ef1-11ea-9791-1b580a556b4a","title":"Happy Vegetarian Kids Cooking Healthy","slug":"happy-vegetarian-kids-cooking-healthy","headline":"Children learn how to be healthy and cook some tasty dishes with 'chef' Jordan. From a Christian Vegetarian perspective.","created":"24th January 2020","tags":[{"title":"Lifestyle","path":"/tag/Lifestyle/"},{"title":"Food & Beverage","path":"/tag/Food%20%26%20Beverage/"},{"title":"Cooking","path":"/tag/Cooking/"}]}}]}}},"context":{}}