{"hash":"6d1e7dd52e8c17cf4930f349c6afc1a78b2e1c5e","data":{"records":{"id":"IT Certification","title":"IT Certification","belongsTo":{"totalCount":88,"pageInfo":{"totalPages":10,"currentPage":10},"edges":[{"node":{"__typename":"Course","id":"37713d3c-3ef1-11ea-9791-1b580a556b4a","title":"BGP Mastery For The CCNP ROUTE And TSHOOT Exams","slug":"bgp-mastery-for-the-ccnp-route-and-tshoot-exams","headline":"BGP is the toughest subject on the CCNP exams. Master it with Chris Bryant, CCIE #12933!","created":"24th January 2020","tags":[{"title":"IT & Software","path":"/tag/IT%20%26%20Software/"},{"title":"IT Certification","path":"/tag/IT%20Certification/"},{"title":"CCNP Routing and Switching","path":"/tag/CCNP%20Routing%20and%20Switching/"}]}},{"node":{"__typename":"Course","id":"376ea524-3ef1-11ea-9791-1b580a556b4a","title":"Free CCNA Security 210-260 Course: All About VPNs","slug":"free-ccna-security-210-260-course-all-about-vp-ns","headline":"This course is live! New videos every day until completed. Join today and be automatically notified when videos go up!","created":"24th January 2020","tags":[{"title":"IT & Software","path":"/tag/IT%20%26%20Software/"},{"title":"IT Certification","path":"/tag/IT%20Certification/"},{"title":"Cisco CCNA","path":"/tag/Cisco%20CCNA/"}]}},{"node":{"__typename":"Course","id":"376cd065-3ef1-11ea-9791-1b580a556b4a","title":"CCNA 2019 200-125 Video Boot Camp With Chris Bryant","slug":"ccna-2019-200-125-video-boot-camp-with-chris-bryant","headline":"Join The 90,000+ Students Who Are Learning Real-World Skills AND Earning Their CCNA!","created":"24th January 2020","tags":[{"title":"IT & Software","path":"/tag/IT%20%26%20Software/"},{"title":"IT Certification","path":"/tag/IT%20Certification/"},{"title":"Cisco CCNA","path":"/tag/Cisco%20CCNA/"}]}},{"node":{"__typename":"Course","id":"376be600-3ef1-11ea-9791-1b580a556b4a","title":"CCNP ROUTE 2018 Free Video Boot Camp: BGP Success","slug":"ccnp-route-2018-free-video-boot-camp-bgp-success","headline":"Get Ready For CCNP ROUTE And TSHOOT Exam Success With This 100%-Free Video Boot Camp From Chris Bryant!","created":"24th January 2020","tags":[{"title":"IT & Software","path":"/tag/IT%20%26%20Software/"},{"title":"IT Certification","path":"/tag/IT%20Certification/"},{"title":"CCNP Routing and Switching","path":"/tag/CCNP%20Routing%20and%20Switching/"}]}},{"node":{"__typename":"Course","id":"376be601-3ef1-11ea-9791-1b580a556b4a","title":"CCNP TSHOOT 300-135 2019 Video Boot Camp with Chris Bryant","slug":"ccnp-tshoot-300-135-2019-video-boot-camp-with-chris-bryant","headline":"Pass The CCNP TSHOOT Exam With Chris Bryant -- AND Prepare For Real-World Network Troubleshooting Success!","created":"24th January 2020","tags":[{"title":"IT & Software","path":"/tag/IT%20%26%20Software/"},{"title":"IT Certification","path":"/tag/IT%20Certification/"},{"title":"CCNP Routing and Switching","path":"/tag/CCNP%20Routing%20and%20Switching/"}]}},{"node":{"__typename":"Course","id":"376b49c0-3ef1-11ea-9791-1b580a556b4a","title":"CCNP ROUTE 300-101 Video Boot Camp With Chris Bryant","slug":"ccnp-route-300-101-video-boot-camp-with-chris-bryant","headline":"Pass The CCNP ROUTE 300-101 Exam With Chris Bryant -- AND Prepare For Real-World Networking Success!","created":"24th January 2020","tags":[{"title":"IT & Software","path":"/tag/IT%20%26%20Software/"},{"title":"IT Certification","path":"/tag/IT%20Certification/"},{"title":"CCNP Routing and Switching","path":"/tag/CCNP%20Routing%20and%20Switching/"}]}},{"node":{"__typename":"Course","id":"376b49c1-3ef1-11ea-9791-1b580a556b4a","title":"CCNP SWITCH 300-115 Video Boot Camp With Chris Bryant","slug":"ccnp-switch-300-115-video-boot-camp-with-chris-bryant","headline":"Pass The CCNP SWITCH 300-115 Exam With Chris Bryant -- AND Prepare For Real-World Networking Success!","created":"24th January 2020","tags":[{"title":"IT & Software","path":"/tag/IT%20%26%20Software/"},{"title":"IT Certification","path":"/tag/IT%20Certification/"},{"title":"CCNP Routing and Switching","path":"/tag/CCNP%20Routing%20and%20Switching/"}]}}]}}},"context":{}}