{"hash":"6d1e7dd52e8c17cf4930f349c6afc1a78b2e1c5e","data":{"records":{"id":"IT Certification","title":"IT Certification","belongsTo":{"totalCount":88,"pageInfo":{"totalPages":10,"currentPage":2},"edges":[{"node":{"__typename":"Course","id":"377a64fd-3ef1-11ea-9791-1b580a556b4a","title":"CompTIA Network + JK0-019 E2C Media Topology Practice Exam","slug":"comp-tia-network-j-k0-019-e2-c-media-topology-practice-exam","headline":"Attend this CompTIA Network + JK0-019 E2C Media Topology Practice Exam will get a Good Score 80% on Main Exam","created":"24th January 2020","tags":[{"title":"IT & Software","path":"/tag/IT%20%26%20Software/"},{"title":"IT Certification","path":"/tag/IT%20Certification/"},{"title":"CompTIA Network+","path":"/tag/CompTIA%20Network%2B/"}]}},{"node":{"__typename":"Course","id":"377a64fe-3ef1-11ea-9791-1b580a556b4a","title":"CompTIA SY0-401 Security+ Cryptography Certify Practice Exam","slug":"comp-tia-s-y0-401-security-cryptography-certify-practice-exam","headline":"Attend this CompTIA SY0-401 Security+ Cryptography Certify Practice Exam will get a Good Score 80% on Main Exam","created":"24th January 2020","tags":[{"title":"IT & Software","path":"/tag/IT%20%26%20Software/"},{"title":"IT Certification","path":"/tag/IT%20Certification/"},{"title":"CompTIA Security+","path":"/tag/CompTIA%20Security%2B/"}]}},{"node":{"__typename":"Course","id":"377a8c00-3ef1-11ea-9791-1b580a556b4a","title":"EC0-232 EC-Council E-Commerce Architect Practice Exam","slug":"e-c0-232-ec-council-e-commerce-architect-practice-exam","headline":"Attend this EC0-232 EC-Council E-Commerce Architect Practice Exam will get a Good Score 80% on Main Exam","created":"24th January 2020","tags":[{"title":"IT & Software","path":"/tag/IT%20%26%20Software/"},{"title":"IT Certification","path":"/tag/IT%20Certification/"},{"title":"Security Certification","path":"/tag/Security%20Certification/"}]}},{"node":{"__typename":"Course","id":"377a3de2-3ef1-11ea-9791-1b580a556b4a","title":"Certified Information Systems Security Pro - Mock Test","slug":"certified-information-systems-security-pro-mock-test","headline":"ISC-CISSP Certification Exam | Latest & Unique Questionnaires","created":"24th January 2020","tags":[{"title":"IT & Software","path":"/tag/IT%20%26%20Software/"},{"title":"IT Certification","path":"/tag/IT%20Certification/"},{"title":"CISSP - Certified Information Systems Security Professional","path":"/tag/CISSP%20-%20Certified%20Information%20Systems%20Security%20Professional/"}]}},{"node":{"__typename":"Course","id":"3779c8b2-3ef1-11ea-9791-1b580a556b4a","title":"AWS Certified Big Data Practice Exam 100% Pass Guarantee NEW","slug":"aws-certified-big-data-practice-exam-100-pass-guarantee-new","headline":"AWS Certified Big Data Specialty (BDS-C00) Practice Exam 100% Pass Guarantee NEW","created":"24th January 2020","tags":[{"title":"IT & Software","path":"/tag/IT%20%26%20Software/"},{"title":"IT Certification","path":"/tag/IT%20Certification/"},{"title":"AWS Certified Big Data - Specialty","path":"/tag/AWS%20Certified%20Big%20Data%20-%20Specialty/"}]}},{"node":{"__typename":"Course","id":"37797a98-3ef1-11ea-9791-1b580a556b4a","title":"Watchguard Fireware Essentials","slug":"watchguard-fireware-essentials","headline":"Pass Watchguard Fireware Essentials from first attempt.","created":"24th January 2020","tags":[{"title":"IT & Software","path":"/tag/IT%20%26%20Software/"},{"title":"IT Certification","path":"/tag/IT%20Certification/"}]}},{"node":{"__typename":"Course","id":"3779a1a0-3ef1-11ea-9791-1b580a556b4a","title":"200-125 Cisco Certify Network Associate (CCNA) Practice Exam","slug":"200-125-cisco-certify-network-associate-ccna-practice-exam","headline":"200-125 Cisco Certify Network Associate (CCNA) Practice Exam || Get Certification","created":"24th January 2020","tags":[{"title":"IT & Software","path":"/tag/IT%20%26%20Software/"},{"title":"IT Certification","path":"/tag/IT%20Certification/"},{"title":"Cisco CCNA","path":"/tag/Cisco%20CCNA/"}]}},{"node":{"__typename":"Course","id":"3779a1a1-3ef1-11ea-9791-1b580a556b4a","title":"400-101 CCIE Routing and Switching Written Practice Exam","slug":"400-101-ccie-routing-and-switching-written-practice-exam","headline":"400-101 CCIE Routing and Switching Written Practice Exam || Get Certification","created":"24th January 2020","tags":[{"title":"IT & Software","path":"/tag/IT%20%26%20Software/"},{"title":"IT Certification","path":"/tag/IT%20Certification/"},{"title":"CCIE Routing and Switching","path":"/tag/CCIE%20Routing%20and%20Switching/"}]}},{"node":{"__typename":"Course","id":"3779a1a4-3ef1-11ea-9791-1b580a556b4a","title":"Oracle RightNow Cloud Service Implementation Essentials","slug":"oracle-right-now-cloud-service-implementation-essentials","headline":"Pass Oracle RightNow Cloud Service Implementation Essentials | 1Z0-325 exam on the first attempt.","created":"24th January 2020","tags":[{"title":"IT & Software","path":"/tag/IT%20%26%20Software/"},{"title":"IT Certification","path":"/tag/IT%20Certification/"}]}}]}}},"context":{}}