{"hash":"6d1e7dd52e8c17cf4930f349c6afc1a78b2e1c5e","data":{"records":{"id":"Office Productivity","title":"Office Productivity","belongsTo":{"totalCount":49,"pageInfo":{"totalPages":6,"currentPage":6},"edges":[{"node":{"__typename":"Course","id":"376fdda1-3ef1-11ea-9791-1b580a556b4a","title":"Learn Microsoft Excel 2010 by Example","slug":"learn-microsoft-excel-2010-by-example","headline":"Spend less time in Excel and get more from your data. Learn Excel 2010 (Formulas, Macros, Charts & more). Start Now!","created":"24th January 2020","tags":[{"title":"Office Productivity","path":"/tag/Office%20Productivity/"},{"title":"Microsoft","path":"/tag/Microsoft/"},{"title":"Excel","path":"/tag/Excel/"}]}},{"node":{"__typename":"Course","id":"376e2ff0-3ef1-11ea-9791-1b580a556b4a","title":"Google Local Optimization","slug":"google-local-optimization","headline":"How To Rank #1 In Your City In 30 Days with Google Local:","created":"24th January 2020","tags":[{"title":"Office Productivity","path":"/tag/Office%20Productivity/"},{"title":"Google","path":"/tag/Google/"},{"title":"SEO","path":"/tag/SEO/"}]}},{"node":{"__typename":"Course","id":"376be603-3ef1-11ea-9791-1b580a556b4a","title":"Microsoft Excel 2010 Course Beginners/ Intermediate Training","slug":"microsoft-excel-2010-course-beginners-intermediate-training","headline":"Learn to Invoke the Power of Microsoft Excel in easy to follow stages","created":"24th January 2020","tags":[{"title":"Office Productivity","path":"/tag/Office%20Productivity/"},{"title":"Microsoft","path":"/tag/Microsoft/"},{"title":"Excel","path":"/tag/Excel/"}]}},{"node":{"__typename":"Course","id":"376bbef1-3ef1-11ea-9791-1b580a556b4a","title":"Microsoft Excel 2010: Advanced Training","slug":"microsoft-excel-2010-advanced-training","headline":"Master Advanced Excel 2010 Features. Become A Expert And Learn To Use Excel Like A Pro With This Advanced Excel Training","created":"24th January 2020","tags":[{"title":"Office Productivity","path":"/tag/Office%20Productivity/"},{"title":"Microsoft","path":"/tag/Microsoft/"},{"title":"Excel","path":"/tag/Excel/"}]}}]}}},"context":{}}