{"hash":"6d1e7dd52e8c17cf4930f349c6afc1a78b2e1c5e","data":{"records":{"id":"Web Design","title":"Web Design","belongsTo":{"totalCount":23,"pageInfo":{"totalPages":3,"currentPage":1},"edges":[{"node":{"__typename":"Course","id":"3779c8b4-3ef1-11ea-9791-1b580a556b4a","title":"UX UI Дизайнер. Получи одну из самых прибыльных профессий.","slug":"ux-ui-dizajner-poluchi-odnu-iz-samyh-pribylnyh-professij","headline":"Данный курс позволит вам получить одну из самых прибыльных профессий UX UI дизанера и работать из любой точки планеты.","created":"24th January 2020","tags":[{"title":"Design","path":"/tag/Design/"},{"title":"Web Design","path":"/tag/Web%20Design/"},{"title":"User Experience Design","path":"/tag/User%20Experience%20Design/"}]}},{"node":{"__typename":"Course","id":"377730a6-3ef1-11ea-9791-1b580a556b4a","title":"How to Build a WordPress Form Using the Gravity Forms Plugin","slug":"how-to-build-a-word-press-form-using-the-gravity-forms-plugin","headline":"Learn Exactly How to Unleash the Power of the Gravity Forms Plugin for WordPress with Our Advanced Video Training Course","created":"24th January 2020","tags":[{"title":"Design","path":"/tag/Design/"},{"title":"Web Design","path":"/tag/Web%20Design/"},{"title":"WordPress","path":"/tag/WordPress/"}]}},{"node":{"__typename":"Course","id":"37742362-3ef1-11ea-9791-1b580a556b4a","title":"WordPress for Your Wedding Business","slug":"word-press-for-your-wedding-business","headline":"Learn How to create a wedding website using WordPress for your Wedding Business","created":"24th January 2020","tags":[{"title":"Design","path":"/tag/Design/"},{"title":"Web Design","path":"/tag/Web%20Design/"},{"title":"WordPress","path":"/tag/WordPress/"}]}},{"node":{"__typename":"Course","id":"3773d54b-3ef1-11ea-9791-1b580a556b4a","title":"WordPress For Beginners","slug":"word-press-for-beginners","headline":"A complete beginners training course for learning to build a blog using WordPress","created":"24th January 2020","tags":[{"title":"Design","path":"/tag/Design/"},{"title":"Web Design","path":"/tag/Web%20Design/"},{"title":"WordPress","path":"/tag/WordPress/"}]}},{"node":{"__typename":"Course","id":"3773d54c-3ef1-11ea-9791-1b580a556b4a","title":"WordPress for Wedding Photographers","slug":"word-press-for-wedding-photographers","headline":"Build Your Own Photography Website With WordPress","created":"24th January 2020","tags":[{"title":"Design","path":"/tag/Design/"},{"title":"Web Design","path":"/tag/Web%20Design/"},{"title":"WordPress","path":"/tag/WordPress/"}]}},{"node":{"__typename":"Course","id":"3773ae37-3ef1-11ea-9791-1b580a556b4a","title":"A Beginners Guide To Setting Up A WordPress Blog","slug":"a-beginners-guide-to-setting-up-a-word-press-blog","headline":"Learn the A to Z process of creating and setting up a wordpress blog","created":"24th January 2020","tags":[{"title":"Design","path":"/tag/Design/"},{"title":"Web Design","path":"/tag/Web%20Design/"},{"title":"WordPress","path":"/tag/WordPress/"}]}},{"node":{"__typename":"Course","id":"3773d541-3ef1-11ea-9791-1b580a556b4a","title":"Cómo tener una Web Efectiva en tu Empresa y Posicionarla","slug":"como-tener-una-web-efectiva-en-tu-empresa-y-posicionarla","headline":"Curso de 1 hora para aprender a tener una web efectivapara tu negocio","created":"24th January 2020","tags":[{"title":"Marketing","path":"/tag/Marketing/"},{"title":"Digital Marketing","path":"/tag/Digital%20Marketing/"},{"title":"Web Design","path":"/tag/Web%20Design/"}]}},{"node":{"__typename":"Course","id":"3773d543-3ef1-11ea-9791-1b580a556b4a","title":"How To Build An Online Business Using Wordpress","slug":"how-to-build-an-online-business-using-wordpress","headline":"Wordpress Tutorial Series On How To Start & Build Your Online Business","created":"24th January 2020","tags":[{"title":"Design","path":"/tag/Design/"},{"title":"Web Design","path":"/tag/Web%20Design/"},{"title":"Business Strategy","path":"/tag/Business%20Strategy/"}]}},{"node":{"__typename":"Course","id":"37738722-3ef1-11ea-9791-1b580a556b4a","title":"WordPress Social Media Automation","slug":"word-press-social-media-automation","headline":"Automated content sharing tricks -WordPress not required.","created":"24th January 2020","tags":[{"title":"Design","path":"/tag/Design/"},{"title":"Web Design","path":"/tag/Web%20Design/"},{"title":"WordPress","path":"/tag/WordPress/"}]}}]}}},"context":{}}