{"hash":"6d1e7dd52e8c17cf4930f349c6afc1a78b2e1c5e","data":{"records":{"id":"Teaching & Academics","title":"Teaching & Academics","belongsTo":{"totalCount":57,"pageInfo":{"totalPages":7,"currentPage":4},"edges":[{"node":{"__typename":"Course","id":"3775aa04-3ef1-11ea-9791-1b580a556b4a","title":"Become a Paid Life Coach Online","slug":"become-a-paid-life-coach-online","headline":"A Step-by-Step Life Coaching Training For Becoming a Life Coach and Starting Your Own Coaching Business","created":"24th January 2020","tags":[{"title":"Teaching & Academics","path":"/tag/Teaching%20%26%20Academics/"},{"title":"Teacher Training","path":"/tag/Teacher%20Training/"},{"title":"Life Coaching","path":"/tag/Life%20Coaching/"}]}},{"node":{"__typename":"Course","id":"377582fa-3ef1-11ea-9791-1b580a556b4a","title":"Physical Metallurgy I","slug":"physical-metallurgy-i","headline":"Chemistry for Physical Metallurgy. Chemistry focused on metals to lay the foundation for physical metallurgy.","created":"24th January 2020","tags":[{"title":"Teaching & Academics","path":"/tag/Teaching%20%26%20Academics/"},{"title":"Science","path":"/tag/Science/"},{"title":"Physical Chemistry","path":"/tag/Physical%20Chemistry/"}]}},{"node":{"__typename":"Course","id":"37750dcb-3ef1-11ea-9791-1b580a556b4a","title":"The Psychology of Learning","slug":"the-psychology-of-learning","headline":"It's a world full of \"stimuli\" and \"responses\". How do we make connections among them? How do we...learn?","created":"24th January 2020","tags":[{"title":"Teaching & Academics","path":"/tag/Teaching%20%26%20Academics/"},{"title":"Social Science","path":"/tag/Social%20Science/"},{"title":"Psychology","path":"/tag/Psychology/"}]}},{"node":{"__typename":"Course","id":"37750dca-3ef1-11ea-9791-1b580a556b4a","title":"Social Psychology","slug":"social-psychology","headline":"What being around people does to YOU.","created":"24th January 2020","tags":[{"title":"Teaching & Academics","path":"/tag/Teaching%20%26%20Academics/"},{"title":"Social Science","path":"/tag/Social%20Science/"},{"title":"Psychology","path":"/tag/Psychology/"}]}},{"node":{"__typename":"Course","id":"3774e6b4-3ef1-11ea-9791-1b580a556b4a","title":"How To Choose a College or University","slug":"how-to-choose-a-college-or-university","headline":"Wondering which college is for you? Don't believe the hype. Find out what you really need to know.","created":"24th January 2020","tags":[{"title":"Teaching & Academics","path":"/tag/Teaching%20%26%20Academics/"},{"title":"Teacher Training","path":"/tag/Teacher%20Training/"},{"title":"College Admissions","path":"/tag/College%20Admissions/"}]}},{"node":{"__typename":"Course","id":"37747182-3ef1-11ea-9791-1b580a556b4a","title":"Breakthrough to Exam Excellence","slug":"breakthrough-to-exam-excellence","headline":"Hot Exam Tips That Can Take Your Results to a Whole New Level !","created":"24th January 2020","tags":[{"title":"Teaching & Academics","path":"/tag/Teaching%20%26%20Academics/"},{"title":"Test Prep","path":"/tag/Test%20Prep/"},{"title":"Test Taking Skills","path":"/tag/Test%20Taking%20Skills/"}]}},{"node":{"__typename":"Course","id":"37742365-3ef1-11ea-9791-1b580a556b4a","title":"Aprende a Crear un Curso Online","slug":"aprende-a-crear-un-curso-online","headline":"Miguel uno de los más exitosos instructores en Udemy te enseñará como hacer tu propio curso, promocionarlo y venderlo","created":"24th January 2020","tags":[{"title":"Teaching & Academics","path":"/tag/Teaching%20%26%20Academics/"},{"title":"Online Education","path":"/tag/Online%20Education/"},{"title":"Online Course Creation","path":"/tag/Online%20Course%20Creation/"}]}},{"node":{"__typename":"Course","id":"37738724-3ef1-11ea-9791-1b580a556b4a","title":"American Accent Training for IT Professionals","slug":"american-accent-training-for-it-professionals","headline":"This course teaches Information Technology professionals how to communicate clearly and effectively in American English.","created":"24th January 2020","tags":[{"title":"Teaching & Academics","path":"/tag/Teaching%20%26%20Academics/"},{"title":"Language","path":"/tag/Language/"},{"title":"American Accent","path":"/tag/American%20Accent/"}]}},{"node":{"__typename":"Course","id":"37736013-3ef1-11ea-9791-1b580a556b4a","title":"English Pronunciation I: Consonant Sounds","slug":"english-pronunciation-i-consonant-sounds","headline":"Learn how to pronounce the [Th], [S], [Z], [F], [V], and [P] English consonant sounds. No more pronunciation mistakes!","created":"24th January 2020","tags":[{"title":"Teaching & Academics","path":"/tag/Teaching%20%26%20Academics/"},{"title":"Language","path":"/tag/Language/"},{"title":"English Pronunciation","path":"/tag/English%20Pronunciation/"}]}}]}}},"context":{}}