{"hash":"6d1e7dd52e8c17cf4930f349c6afc1a78b2e1c5e","data":{"records":{"id":"Personal Development","title":"Personal Development","belongsTo":{"totalCount":58,"pageInfo":{"totalPages":7,"currentPage":7},"edges":[{"node":{"__typename":"Course","id":"376e7e13-3ef1-11ea-9791-1b580a556b4a","title":"Feeding your Little One: Nutrition for Infants & Toddlers","slug":"feeding-your-little-one-nutrition-for-infants-and-toddlers","headline":"Feeding your little ones doesn't have to be difficult. Learn how to wind up with healthy eaters and sane parents.","created":"24th January 2020","tags":[{"title":"Personal Development","path":"/tag/Personal%20Development/"},{"title":"Parenting & Relationships","path":"/tag/Parenting%20%26%20Relationships/"},{"title":"Nutrition","path":"/tag/Nutrition/"}]}},{"node":{"__typename":"Course","id":"376e2ff7-3ef1-11ea-9791-1b580a556b4a","title":"A Journey through Medicine: How to Get into Medical School","slug":"a-journey-through-medicine-how-to-get-into-medical-school","headline":"A tested and proven blueprint to approach the daunting admissions process to get into medical school","created":"24th January 2020","tags":[{"title":"Personal Development","path":"/tag/Personal%20Development/"},{"title":"Career Development","path":"/tag/Career%20Development/"},{"title":"College Admissions","path":"/tag/College%20Admissions/"}]}},{"node":{"__typename":"Course","id":"376cd062-3ef1-11ea-9791-1b580a556b4a","title":"Men's Best Secrets To Making Friends and Attracting Lovers","slug":"men-s-best-secrets-to-making-friends-and-attracting-lovers","headline":"5 Big Mistakes That Professional, Eligible Men Make That Keep Them Single, Lonely and Frustrated!","created":"24th January 2020","tags":[{"title":"Personal Development","path":"/tag/Personal%20Development/"},{"title":"Parenting & Relationships","path":"/tag/Parenting%20%26%20Relationships/"},{"title":"Dating","path":"/tag/Dating/"}]}},{"node":{"__typename":"Course","id":"376c0d10-3ef1-11ea-9791-1b580a556b4a","title":"Hacking Online Dating","slug":"hacking-online-dating","headline":"Find a great woman in 60 days using your brain instead of your gonads","created":"24th January 2020","tags":[{"title":"Personal Development","path":"/tag/Personal%20Development/"},{"title":"Parenting & Relationships","path":"/tag/Parenting%20%26%20Relationships/"},{"title":"Dating","path":"/tag/Dating/"}]}}]}}},"context":{}}