{"hash":"6d1e7dd52e8c17cf4930f349c6afc1a78b2e1c5e","data":{"records":{"id":"Development","title":"Development","belongsTo":{"totalCount":129,"pageInfo":{"totalPages":15,"currentPage":10},"edges":[{"node":{"__typename":"Course","id":"37718b56-3ef1-11ea-9791-1b580a556b4a","title":"Beginners Guide to Codeigniter","slug":"beginners-guide-to-codeigniter","headline":"Learn Codeigniter starting from the basics correctly with this Codeigniter tutorial for beginners.","created":"24th January 2020","tags":[{"title":"Development","path":"/tag/Development/"},{"title":"Web Development","path":"/tag/Web%20Development/"},{"title":"CodeIgniter","path":"/tag/CodeIgniter/"}]}},{"node":{"__typename":"Course","id":"37716446-3ef1-11ea-9791-1b580a556b4a","title":"Learning CSS3 - A Comprehensive Tutorial For Web Developers","slug":"learning-cs-s3-a-comprehensive-tutorial-for-web-developers","headline":"Master CSS3 and learn how to engage your users with fast loading compliant web pages across all browsers.","created":"24th January 2020","tags":[{"title":"Development","path":"/tag/Development/"},{"title":"Web Development","path":"/tag/Web%20Development/"},{"title":"CSS","path":"/tag/CSS/"}]}},{"node":{"__typename":"Course","id":"37716447-3ef1-11ea-9791-1b580a556b4a","title":"Mastering iPhone Programming","slug":"mastering-i-phone-programming","headline":"Complete guide to learn iOS7 iphone Programming with Objective C and Xcode, Cocoa and MVC, Sqlite, OpenGL ES and more.","created":"24th January 2020","tags":[{"title":"Development","path":"/tag/Development/"},{"title":"Mobile Apps","path":"/tag/Mobile%20Apps/"},{"title":"iOS Development","path":"/tag/iOS%20Development/"}]}},{"node":{"__typename":"Course","id":"37713d39-3ef1-11ea-9791-1b580a556b4a","title":"Java Programming using Eclipse: An Introduction","slug":"java-programming-using-eclipse-an-introduction","headline":"Learn to Write Java Code using the free Eclipse IDE with this Java Online training course for beginners.","created":"24th January 2020","tags":[{"title":"Development","path":"/tag/Development/"},{"title":"Programming Languages","path":"/tag/Programming%20Languages/"},{"title":"Eclipse IDE","path":"/tag/Eclipse%20IDE/"}]}},{"node":{"__typename":"Course","id":"37716441-3ef1-11ea-9791-1b580a556b4a","title":"Create a HTML5 Game from Scratch","slug":"create-a-htm-l5-game-from-scratch","headline":"Learn how to make html5 games with this HTML5 game development tutorial.","created":"24th January 2020","tags":[{"title":"Development","path":"/tag/Development/"},{"title":"Game Development","path":"/tag/Game%20Development/"},{"title":"Game Development Fundamentals","path":"/tag/Game%20Development%20Fundamentals/"}]}},{"node":{"__typename":"Course","id":"37713d35-3ef1-11ea-9791-1b580a556b4a","title":"Java Swing (GUI) Programming: From Beginner to Expert","slug":"java-swing-gui-programming-from-beginner-to-expert","headline":"Learn how to create desktop and Internet GUI Java programs and take your Java programming to the next level.","created":"24th January 2020","tags":[{"title":"Development","path":"/tag/Development/"},{"title":"Programming Languages","path":"/tag/Programming%20Languages/"},{"title":"Java Swing","path":"/tag/Java%20Swing/"}]}},{"node":{"__typename":"Course","id":"3770ef18-3ef1-11ea-9791-1b580a556b4a","title":"Introduction to SQL Training","slug":"introduction-to-sql-training","headline":"This SQL training course is designed for students new to writing SQL queries. Build applications and generate reports.","created":"24th January 2020","tags":[{"title":"Development","path":"/tag/Development/"},{"title":"Databases","path":"/tag/Databases/"},{"title":"SQL","path":"/tag/SQL/"}]}},{"node":{"__typename":"Course","id":"3770ef12-3ef1-11ea-9791-1b580a556b4a","title":"Beginner's Guide to PostgreSQL","slug":"beginner-s-guide-to-postgre-sql","headline":"PostgreSQL Tutorial: What you need to know to get started with relational databases in PostgreSQL","created":"24th January 2020","tags":[{"title":"Development","path":"/tag/Development/"},{"title":"Databases","path":"/tag/Databases/"},{"title":"PostgreSQL","path":"/tag/PostgreSQL/"}]}},{"node":{"__typename":"Course","id":"3770ef13-3ef1-11ea-9791-1b580a556b4a","title":"C++, Short and Sweet, Part 1","slug":"c-short-and-sweet-part-1","headline":"A first course on C++ based on the book Accelerated C++.","created":"24th January 2020","tags":[{"title":"Development","path":"/tag/Development/"},{"title":"Programming Languages","path":"/tag/Programming%20Languages/"},{"title":"C++","path":"/tag/C%2B%2B/"}]}}]}}},"context":{}}