{"hash":"6d1e7dd52e8c17cf4930f349c6afc1a78b2e1c5e","data":{"records":{"id":"Microsoft","title":"Microsoft","belongsTo":{"totalCount":38,"pageInfo":{"totalPages":5,"currentPage":4},"edges":[{"node":{"__typename":"Course","id":"3770a0f7-3ef1-11ea-9791-1b580a556b4a","title":"Microsoft Excel 2011 for Mac Tutorial - Learn The Easy Way.","slug":"microsoft-excel-2011-for-mac-tutorial-learn-the-easy-way","headline":"Learn Microsoft Excel 2011 for Mac at your own pace. Comes with Certificate of Completion","created":"24th January 2020","tags":[{"title":"Office Productivity","path":"/tag/Office%20Productivity/"},{"title":"Microsoft","path":"/tag/Microsoft/"},{"title":"Excel","path":"/tag/Excel/"}]}},{"node":{"__typename":"Course","id":"3770a0f8-3ef1-11ea-9791-1b580a556b4a","title":"Microsoft Outlook 2010 Tutorial - Learning Made Easy","slug":"microsoft-outlook-2010-tutorial-learning-made-easy","headline":"Taught by leading Microsoft trainer this Outlook 2010 tutorial breaks learning down in to simple step-by-step stages","created":"24th January 2020","tags":[{"title":"Office Productivity","path":"/tag/Office%20Productivity/"},{"title":"Microsoft","path":"/tag/Microsoft/"},{"title":"Microsoft Outlook","path":"/tag/Microsoft%20Outlook/"}]}},{"node":{"__typename":"Course","id":"3770c800-3ef1-11ea-9791-1b580a556b4a","title":"Microsoft Outlook 2011 for Mac Tutorial","slug":"microsoft-outlook-2011-for-mac-tutorial","headline":"An in-depth Microsoft Outlook 2011 tutorial aimed at the Mac user. Taught by leading Microsoft trainer","created":"24th January 2020","tags":[{"title":"Office Productivity","path":"/tag/Office%20Productivity/"},{"title":"Microsoft","path":"/tag/Microsoft/"},{"title":"Microsoft Outlook","path":"/tag/Microsoft%20Outlook/"}]}},{"node":{"__typename":"Course","id":"3770c801-3ef1-11ea-9791-1b580a556b4a","title":"Microsoft Powerpoint 2011 for Mac Tutorial","slug":"microsoft-powerpoint-2011-for-mac-tutorial","headline":"An in-depth Microsoft Powerpoint 2011 tutorial aimed at the Mac user. Taught by leading Microsoft trainer","created":"24th January 2020","tags":[{"title":"Office Productivity","path":"/tag/Office%20Productivity/"},{"title":"Microsoft","path":"/tag/Microsoft/"},{"title":"PowerPoint","path":"/tag/PowerPoint/"}]}},{"node":{"__typename":"Course","id":"3770c802-3ef1-11ea-9791-1b580a556b4a","title":"Microsoft Word 2010 Tutorial - Learning Made Easy","slug":"microsoft-word-2010-tutorial-learning-made-easy","headline":"Microsoft Word 2010 tutorial - Taught by Leading Microsoft Expert. A comprehensive guide to using Microsoft Word","created":"24th January 2020","tags":[{"title":"Office Productivity","path":"/tag/Office%20Productivity/"},{"title":"Microsoft","path":"/tag/Microsoft/"},{"title":"Microsoft Word","path":"/tag/Microsoft%20Word/"}]}},{"node":{"__typename":"Course","id":"3770a0f1-3ef1-11ea-9791-1b580a556b4a","title":"Advanced Microsoft Access 2010 Tutorial","slug":"advanced-microsoft-access-2010-tutorial","headline":"Take your Microsoft Access skills to the next level with this Advance Access Tutorial.","created":"24th January 2020","tags":[{"title":"Office Productivity","path":"/tag/Office%20Productivity/"},{"title":"Microsoft","path":"/tag/Microsoft/"},{"title":"Microsoft Access","path":"/tag/Microsoft%20Access/"}]}},{"node":{"__typename":"Course","id":"3770a0f4-3ef1-11ea-9791-1b580a556b4a","title":"Getting Started With Microsoft Office 2010 Tutorial","slug":"getting-started-with-microsoft-office-2010-tutorial","headline":"This Microsoft Office 2010 tutorial will quickly get you up to speed. Taught by an expert trainer.","created":"24th January 2020","tags":[{"title":"Office Productivity","path":"/tag/Office%20Productivity/"},{"title":"Microsoft","path":"/tag/Microsoft/"},{"title":"Microsoft Office","path":"/tag/Microsoft%20Office/"}]}},{"node":{"__typename":"Course","id":"3770a0f6-3ef1-11ea-9791-1b580a556b4a","title":"Microsoft Access 2010 Tutorial - Learn At Your Own Pace","slug":"microsoft-access-2010-tutorial-learn-at-your-own-pace","headline":"A practical Microsoft Access 2010 tutorial that allows you to learn at your own pace using hands-on lessons.","created":"24th January 2020","tags":[{"title":"Office Productivity","path":"/tag/Office%20Productivity/"},{"title":"Microsoft","path":"/tag/Microsoft/"},{"title":"Microsoft Access","path":"/tag/Microsoft%20Access/"}]}},{"node":{"__typename":"Course","id":"376fdda1-3ef1-11ea-9791-1b580a556b4a","title":"Learn Microsoft Excel 2010 by Example","slug":"learn-microsoft-excel-2010-by-example","headline":"Spend less time in Excel and get more from your data. Learn Excel 2010 (Formulas, Macros, Charts & more). Start Now!","created":"24th January 2020","tags":[{"title":"Office Productivity","path":"/tag/Office%20Productivity/"},{"title":"Microsoft","path":"/tag/Microsoft/"},{"title":"Excel","path":"/tag/Excel/"}]}}]}}},"context":{}}