{"hash":"6d1e7dd52e8c17cf4930f349c6afc1a78b2e1c5e","data":{"records":{"id":"Marketing","title":"Marketing","belongsTo":{"totalCount":72,"pageInfo":{"totalPages":8,"currentPage":8},"edges":[{"node":{"__typename":"Course","id":"376e7e14-3ef1-11ea-9791-1b580a556b4a","title":"Online Marketing Excellence","slug":"online-marketing-excellence","headline":"Learn Online Marketing With Our Video Training Course","created":"24th January 2020","tags":[{"title":"Marketing","path":"/tag/Marketing/"},{"title":"Search Engine Optimization","path":"/tag/Search%20Engine%20Optimization/"},{"title":"Marketing Strategy","path":"/tag/Marketing%20Strategy/"}]}},{"node":{"__typename":"Course","id":"376ea520-3ef1-11ea-9791-1b580a556b4a","title":"Quickly and Easily Create Content For the Web!","slug":"quickly-and-easily-create-content-for-the-web","headline":"Learn how to write powerful content that will get you traffic, fans, followers, subscribers and yes, more sales.","created":"24th January 2020","tags":[{"title":"Marketing","path":"/tag/Marketing/"},{"title":"Content Marketing","path":"/tag/Content%20Marketing/"},{"title":"Content Writing","path":"/tag/Content%20Writing/"}]}},{"node":{"__typename":"Course","id":"376e08e2-3ef1-11ea-9791-1b580a556b4a","title":"SEO beginners : how I get 1,000 visitors a day with SEO","slug":"seo-beginners-how-i-get-1-000-visitors-a-day-with-seo","headline":"Search Engine Optimization, SEO. Learn how, as a freelancer working from home, I get 1,000 visitors a day. SEO easy!","created":"24th January 2020","tags":[{"title":"Marketing","path":"/tag/Marketing/"},{"title":"Search Engine Optimization","path":"/tag/Search%20Engine%20Optimization/"},{"title":"SEO","path":"/tag/SEO/"}]}},{"node":{"__typename":"Course","id":"376e08e3-3ef1-11ea-9791-1b580a556b4a","title":"Selling Social Media to Your Boss","slug":"selling-social-media-to-your-boss","headline":"Win Buy-In and Resources from Senior Business Decision Makers and Potential Clients","created":"24th January 2020","tags":[{"title":"Marketing","path":"/tag/Marketing/"},{"title":"Social Media Marketing","path":"/tag/Social%20Media%20Marketing/"}]}},{"node":{"__typename":"Course","id":"376e2ff1-3ef1-11ea-9791-1b580a556b4a","title":"SEO Training Course by Moz","slug":"seo-training-course-by-moz","headline":"Learn SEO tips and tricks in this SEO training course from Moz","created":"24th January 2020","tags":[{"title":"Marketing","path":"/tag/Marketing/"},{"title":"Search Engine Optimization","path":"/tag/Search%20Engine%20Optimization/"},{"title":"SEO","path":"/tag/SEO/"}]}},{"node":{"__typename":"Course","id":"376de1d3-3ef1-11ea-9791-1b580a556b4a","title":"Copywriting - Become a Freelance Copywriter, your own boss","slug":"copywriting-become-a-freelance-copywriter-your-own-boss","headline":"Build a successful freelance copywriting business - turn basic writing skills into a paycheck.","created":"24th January 2020","tags":[{"title":"Marketing","path":"/tag/Marketing/"},{"title":"Content Marketing","path":"/tag/Content%20Marketing/"},{"title":"Copywriting","path":"/tag/Copywriting/"}]}},{"node":{"__typename":"Course","id":"376cf772-3ef1-11ea-9791-1b580a556b4a","title":"How to Market Your Business","slug":"how-to-market-your-business","headline":"The definitive course for creating a successful marketing plan for your business","created":"24th January 2020","tags":[{"title":"Marketing","path":"/tag/Marketing/"},{"title":"Marketing Fundamentals","path":"/tag/Marketing%20Fundamentals/"},{"title":"Business Strategy","path":"/tag/Business%20Strategy/"}]}},{"node":{"__typename":"Course","id":"376c0d13-3ef1-11ea-9791-1b580a556b4a","title":"Learn How to Get Your First Million Users","slug":"learn-how-to-get-your-first-million-users","headline":"This course will teach you how to find all viral elements in your product and then use them to gain millions of users","created":"24th January 2020","tags":[{"title":"Marketing","path":"/tag/Marketing/"},{"title":"Digital Marketing","path":"/tag/Digital%20Marketing/"},{"title":"Growth Hacking","path":"/tag/Growth%20Hacking/"}]}},{"node":{"__typename":"Course","id":"376a5f60-3ef1-11ea-9791-1b580a556b4a","title":"Curso SEO Online","slug":"curso-seo-online","headline":"Curso SEO práctico. Aprenda a posicionar su sitio web en los primeros puestos de los buscadores","created":"24th January 2020","tags":[{"title":"Marketing","path":"/tag/Marketing/"},{"title":"Search Engine Optimization","path":"/tag/Search%20Engine%20Optimization/"},{"title":"SEO","path":"/tag/SEO/"}]}}]}}},"context":{}}