{"hash":"6d1e7dd52e8c17cf4930f349c6afc1a78b2e1c5e","data":{"records":{"id":"Office Productivity","title":"Office Productivity","belongsTo":{"totalCount":49,"pageInfo":{"totalPages":6,"currentPage":3},"edges":[{"node":{"__typename":"Course","id":"377582f3-3ef1-11ea-9791-1b580a556b4a","title":"Todo sobre Excel - De conocimientos b치sicos a profesionales","slug":"todo-sobre-excel-de-conocimientos-basicos-a-profesionales","headline":"Aprender치s como pasar de los conceptos b치sicos de Excel a las funcionalidades m치s \"pro\" como formulas, macros...","created":"24th January 2020","tags":[{"title":"Office Productivity","path":"/tag/Office%20Productivity/"},{"title":"Microsoft","path":"/tag/Microsoft/"},{"title":"Excel","path":"/tag/Excel/"}]}},{"node":{"__typename":"Course","id":"37750dc8-3ef1-11ea-9791-1b580a556b4a","title":"Oracle Procurement Contracts Fundamentals (Oracle EBS R12i)","slug":"oracle-procurement-contracts-fundamentals-oracle-ebs-r12i","headline":"Oracle Procurement Contracts Tutorial Training - Covers basics to advanced of Procurement Contracts module","created":"24th January 2020","tags":[{"title":"Office Productivity","path":"/tag/Office%20Productivity/"},{"title":"Oracle","path":"/tag/Oracle/"},{"title":"Oracle Certification","path":"/tag/Oracle%20Certification/"}]}},{"node":{"__typename":"Course","id":"3773fc59-3ef1-11ea-9791-1b580a556b4a","title":"QuickBooks Pro 2012 Training the Easy Way","slug":"quick-books-pro-2012-training-the-easy-way","headline":"Learn how to manage the finances for a small business using our drop-dead simple method to mastering QuickBooks Pro.","created":"24th January 2020","tags":[{"title":"Office Productivity","path":"/tag/Office%20Productivity/"},{"title":"Other","path":"/tag/Other/"},{"title":"QuickBooks Pro","path":"/tag/QuickBooks%20Pro/"}]}},{"node":{"__typename":"Course","id":"3773ae32-3ef1-11ea-9791-1b580a556b4a","title":"One on One Apple Personal Training for (MAC)","slug":"one-on-one-apple-personal-training-for-mac","headline":"New to Macintosh? Converting from Windows? Let me put you on the fast track to learning how to use your Mac. (Advance)","created":"24th January 2020","tags":[{"title":"Office Productivity","path":"/tag/Office%20Productivity/"},{"title":"Apple","path":"/tag/Apple/"},{"title":"macOS","path":"/tag/macOS/"}]}},{"node":{"__typename":"Course","id":"37733901-3ef1-11ea-9791-1b580a556b4a","title":"Excel Essentials","slug":"excel-essentials","headline":"Learn Excel the FUN way! By working through exercises along with the video tutorial.","created":"24th January 2020","tags":[{"title":"Office Productivity","path":"/tag/Office%20Productivity/"},{"title":"Microsoft","path":"/tag/Microsoft/"},{"title":"Excel","path":"/tag/Excel/"}]}},{"node":{"__typename":"Course","id":"37733902-3ef1-11ea-9791-1b580a556b4a","title":"Microsoft Project 2010 Advanced Training","slug":"microsoft-project-2010-advanced-training","headline":"The Ultimate Confidence Booster For Microsoft Project 2010 And Your Ticket to A+ Project Manager Status.","created":"24th January 2020","tags":[{"title":"Office Productivity","path":"/tag/Office%20Productivity/"},{"title":"Microsoft","path":"/tag/Microsoft/"},{"title":"Microsoft Project","path":"/tag/Microsoft%20Project/"}]}},{"node":{"__typename":"Course","id":"37733903-3ef1-11ea-9791-1b580a556b4a","title":"Microsoft Project 2010 Beginners/Intermediate Training","slug":"microsoft-project-2010-beginners-intermediate-training","headline":"The Most Convenient Way to Master Microsoft Project 2010 - Fast.","created":"24th January 2020","tags":[{"title":"Office Productivity","path":"/tag/Office%20Productivity/"},{"title":"Microsoft","path":"/tag/Microsoft/"},{"title":"Microsoft Project","path":"/tag/Microsoft%20Project/"}]}},{"node":{"__typename":"Course","id":"377275ba-3ef1-11ea-9791-1b580a556b4a","title":"Visual Basic for Microsoft Access Tutorial","slug":"visual-basic-for-microsoft-access-tutorial","headline":"Supercharge your Microsoft Access by using Visual Basic. A practical tutorial that teaches real world skills","created":"24th January 2020","tags":[{"title":"Office Productivity","path":"/tag/Office%20Productivity/"},{"title":"Microsoft","path":"/tag/Microsoft/"},{"title":"Microsoft Access","path":"/tag/Microsoft%20Access/"}]}},{"node":{"__typename":"Course","id":"377275b2-3ef1-11ea-9791-1b580a556b4a","title":"SAP ABAP Programming For Beginners - Online Training","slug":"sap-abap-programming-for-beginners-online-training","headline":"Learn SAP ABAP Programming With Peter Moxon. Help Study For Certification - Life Time Access + Updates!","created":"24th January 2020","tags":[{"title":"Office Productivity","path":"/tag/Office%20Productivity/"},{"title":"SAP","path":"/tag/SAP/"},{"title":"SAP ABAP","path":"/tag/SAP%20ABAP/"}]}}]}}},"context":{}}