{"hash":"6d1e7dd52e8c17cf4930f349c6afc1a78b2e1c5e","data":{"records":{"id":"Business","title":"Business","belongsTo":{"totalCount":119,"pageInfo":{"totalPages":14,"currentPage":1},"edges":[{"node":{"__typename":"Course","id":"377ab314-3ef1-11ea-9791-1b580a556b4a","title":"Effective Problem Solving & Project Management Power Course","slug":"effective-problem-solving-and-project-management-power-course","headline":"Solve business problems and become an effective project manager - Learn project management skills in this power course","created":"24th January 2020","tags":[{"title":"Business","path":"/tag/Business/"},{"title":"Management","path":"/tag/Management/"},{"title":"Problem Solving","path":"/tag/Problem%20Solving/"}]}},{"node":{"__typename":"Course","id":"377a64f0-3ef1-11ea-9791-1b580a556b4a","title":"How to Start a Content Business that Pays You Passive Income","slug":"how-to-start-a-content-business-that-pays-you-passive-income","headline":"Make Your Videos Work for You","created":"24th January 2020","tags":[{"title":"Business","path":"/tag/Business/"},{"title":"Media","path":"/tag/Media/"},{"title":"Content Creation","path":"/tag/Content%20Creation/"}]}},{"node":{"__typename":"Course","id":"377a64f6-3ef1-11ea-9791-1b580a556b4a","title":"Generate thousands of high-qualified leads with Instagram","slug":"generate-thousands-of-high-qualified-leads-with-instagram","headline":"How to 10X your business in the next 6 months","created":"24th January 2020","tags":[{"title":"Business","path":"/tag/Business/"},{"title":"Sales","path":"/tag/Sales/"},{"title":"Lead Generation","path":"/tag/Lead%20Generation/"}]}},{"node":{"__typename":"Course","id":"377a3de9-3ef1-11ea-9791-1b580a556b4a","title":"How To Start A Side Business: From Idea to Execution in 2020","slug":"how-to-start-a-side-business-from-idea-to-execution-in-2020","headline":"Learn How To Get Out Of Your Head & Take Action On Starting A Business Today. The Psychology Of Entrepreneur Success","created":"24th January 2020","tags":[{"title":"Business","path":"/tag/Business/"},{"title":"Entrepreneurship","path":"/tag/Entrepreneurship/"},{"title":"Business Fundamentals","path":"/tag/Business%20Fundamentals/"}]}},{"node":{"__typename":"Course","id":"377a3de6-3ef1-11ea-9791-1b580a556b4a","title":"Millionaire's Real Estate Playbook","slug":"millionaire-s-real-estate-playbook","headline":"Learn The Real Estate Playbook from a SELF MADE Real Estate Millionare","created":"24th January 2020","tags":[{"title":"Business","path":"/tag/Business/"},{"title":"Real Estate","path":"/tag/Real%20Estate/"},{"title":"Real Estate Investing","path":"/tag/Real%20Estate%20Investing/"}]}},{"node":{"__typename":"Course","id":"3779c8b9-3ef1-11ea-9791-1b580a556b4a","title":"Empreender Transforma - Alavancando seu negócio do 0","slug":"empreender-transforma-alavancando-seu-negocio-do-0","headline":"Criando mais valor para o seu negócio.","created":"24th January 2020","tags":[{"title":"Business","path":"/tag/Business/"},{"title":"Entrepreneurship","path":"/tag/Entrepreneurship/"},{"title":"Business Model","path":"/tag/Business%20Model/"}]}},{"node":{"__typename":"Course","id":"3779efc1-3ef1-11ea-9791-1b580a556b4a","title":"ASANA - Gestão de Tarefas e Projetos","slug":"asana-gestao-de-tarefas-e-projetos","headline":"Aumente sua produtividade e organização com o melhor gerenciador de tarefas e projetos do mercado. Comp. Project / Excel","created":"24th January 2020","tags":[{"title":"Business","path":"/tag/Business/"},{"title":"Project Management","path":"/tag/Project%20Management/"}]}},{"node":{"__typename":"Course","id":"3779a1a2-3ef1-11ea-9791-1b580a556b4a","title":"CAMS: Certified Anti Money Laundering Specialist","slug":"cams-certified-anti-money-laundering-specialist","headline":"Pass CAMS: Certified Anti Money Laundering Specialist Testing by Practicing on High Quality Questions.","created":"24th January 2020","tags":[{"title":"Business","path":"/tag/Business/"},{"title":"Management","path":"/tag/Management/"},{"title":"Anti-Money Laundering","path":"/tag/Anti-Money%20Laundering/"}]}},{"node":{"__typename":"Course","id":"37795385-3ef1-11ea-9791-1b580a556b4a","title":"Formation négociation","slug":"formation-negociation","headline":"Comment négocier pour obtenir plus","created":"24th January 2020","tags":[{"title":"Business","path":"/tag/Business/"},{"title":"Sales","path":"/tag/Sales/"},{"title":"Negotiation","path":"/tag/Negotiation/"}]}}]}}},"context":{}}