{"hash":"6d1e7dd52e8c17cf4930f349c6afc1a78b2e1c5e","data":{"records":{"id":"Mobile Apps","title":"Mobile Apps","belongsTo":{"totalCount":18,"pageInfo":{"totalPages":2,"currentPage":2},"edges":[{"node":{"__typename":"Course","id":"377275b4-3ef1-11ea-9791-1b580a556b4a","title":"Android Programming for the Absolute Beginner","slug":"android-programming-for-the-absolute-beginner","headline":"Want to learn how to write your own Android apps? This Android course for beginners is for you..","created":"24th January 2020","tags":[{"title":"Development","path":"/tag/Development/"},{"title":"Mobile Apps","path":"/tag/Mobile%20Apps/"},{"title":"Android Development","path":"/tag/Android%20Development/"}]}},{"node":{"__typename":"Course","id":"37724ea6-3ef1-11ea-9791-1b580a556b4a","title":"This Is How You Make iPhone Apps - iOS Development Course","slug":"this-is-how-you-make-i-phone-apps-i-os-development-course","headline":"Learn every step in iOS App Development with iOS app development tutorial, from creating to submitting to app store.","created":"24th January 2020","tags":[{"title":"Development","path":"/tag/Development/"},{"title":"Mobile Apps","path":"/tag/Mobile%20Apps/"},{"title":"iOS Development","path":"/tag/iOS%20Development/"}]}},{"node":{"__typename":"Course","id":"37722792-3ef1-11ea-9791-1b580a556b4a","title":"Mastering iPhone programming - Lite","slug":"mastering-i-phone-programming-lite","headline":"Quick introduction to iPhone programming with Objective C, Controls in iOS with MVC, Advance Features in iOS with Cocoa","created":"24th January 2020","tags":[{"title":"Development","path":"/tag/Development/"},{"title":"Mobile Apps","path":"/tag/Mobile%20Apps/"},{"title":"iOS Development","path":"/tag/iOS%20Development/"}]}},{"node":{"__typename":"Course","id":"3771d975-3ef1-11ea-9791-1b580a556b4a","title":"Learn to Make iPhone Apps with Objective C for iOS7","slug":"learn-to-make-i-phone-apps-with-objective-c-for-i-o-s7","headline":"Create apps for iOS7 without any programming experience. Learn how to write Objective C code, design UI, and use Xcode.","created":"24th January 2020","tags":[{"title":"Development","path":"/tag/Development/"},{"title":"Mobile Apps","path":"/tag/Mobile%20Apps/"},{"title":"iOS Development","path":"/tag/iOS%20Development/"}]}},{"node":{"__typename":"Course","id":"3771d977-3ef1-11ea-9791-1b580a556b4a","title":"Objective C for iPhone-iPad App Programming","slug":"objective-c-for-i-phone-i-pad-app-programming","headline":"Learn how to write apps for iPhone and iPad apps with Objective-C.","created":"24th January 2020","tags":[{"title":"Development","path":"/tag/Development/"},{"title":"Mobile Apps","path":"/tag/Mobile%20Apps/"},{"title":"Objective-C","path":"/tag/Objective-C/"}]}},{"node":{"__typename":"Course","id":"37716447-3ef1-11ea-9791-1b580a556b4a","title":"Mastering iPhone Programming","slug":"mastering-i-phone-programming","headline":"Complete guide to learn iOS7 iphone Programming with Objective C and Xcode, Cocoa and MVC, Sqlite, OpenGL ES and more.","created":"24th January 2020","tags":[{"title":"Development","path":"/tag/Development/"},{"title":"Mobile Apps","path":"/tag/Mobile%20Apps/"},{"title":"iOS Development","path":"/tag/iOS%20Development/"}]}},{"node":{"__typename":"Course","id":"376e5707-3ef1-11ea-9791-1b580a556b4a","title":"Create Your Own iPad & Android Publications","slug":"create-your-own-i-pad-and-android-publications","headline":"Design and publish digital magazines & eBooks for iPad Kindle & Nook, with Adobe InDesign & Digital Publishing Suite.","created":"24th January 2020","tags":[{"title":"Development","path":"/tag/Development/"},{"title":"Mobile Apps","path":"/tag/Mobile%20Apps/"},{"title":"Android Development","path":"/tag/Android%20Development/"}]}},{"node":{"__typename":"Course","id":"376e5700-3ef1-11ea-9791-1b580a556b4a","title":"Make iPhone and iPad games in 1 hour without programming","slug":"make-i-phone-and-i-pad-games-in-1-hour-without-programming","headline":"Most of John Bura's courses are on sale for 9 dollars! https://www.udemy.com/u/johnbura/ Sale ends Oct 31 2013! Act now!","created":"24th January 2020","tags":[{"title":"Development","path":"/tag/Development/"},{"title":"Mobile Apps","path":"/tag/Mobile%20Apps/"},{"title":"iOS Game Development","path":"/tag/iOS%20Game%20Development/"}]}},{"node":{"__typename":"Course","id":"376afba1-3ef1-11ea-9791-1b580a556b4a","title":"Beginners - How To Create iPhone And iPad Apps - Zero Coding","slug":"beginners-how-to-create-i-phone-and-i-pad-apps-zero-coding","headline":"Learn How To Create IOS Apps And Never Do A Hard Days Work Again - Zero Coding Needed","created":"24th January 2020","tags":[{"title":"Development","path":"/tag/Development/"},{"title":"Mobile Apps","path":"/tag/Mobile%20Apps/"},{"title":"iOS Development","path":"/tag/iOS%20Development/"}]}}]}}},"context":{}}