{"hash":"6d1e7dd52e8c17cf4930f349c6afc1a78b2e1c5e","data":{"records":{"id":"Personal Development","title":"Personal Development","belongsTo":{"totalCount":58,"pageInfo":{"totalPages":7,"currentPage":1},"edges":[{"node":{"__typename":"Course","id":"377a3de8-3ef1-11ea-9791-1b580a556b4a","title":"Learn The Power Of Self-Discipline","slug":"learn-the-power-of-self-discipline","headline":"How to be self-disciplined in order to gain success in every aspect of your life","created":"24th January 2020","tags":[{"title":"Personal Development","path":"/tag/Personal%20Development/"},{"title":"Personal Transformation","path":"/tag/Personal%20Transformation/"},{"title":"Self-Discipline","path":"/tag/Self-Discipline/"}]}},{"node":{"__typename":"Course","id":"377a3de4-3ef1-11ea-9791-1b580a556b4a","title":"Effective Learning - Learn to Learn","slug":"effective-learning-learn-to-learn","headline":"Learn how to learn effectively","created":"24th January 2020","tags":[{"title":"Personal Development","path":"/tag/Personal%20Development/"},{"title":"Memory & Study Skills","path":"/tag/Memory%20%26%20Study%20Skills/"},{"title":"Learning Strategies","path":"/tag/Learning%20Strategies/"}]}},{"node":{"__typename":"Course","id":"377a16d1-3ef1-11ea-9791-1b580a556b4a","title":"Overcome Shyness & Social Phobia: Unlock Your Full Potential","slug":"overcome-shyness-and-social-phobia-unlock-your-full-potential","headline":"How to beat shyness and social phobia the ultimate self confidence mastery course","created":"24th January 2020","tags":[{"title":"Personal Development","path":"/tag/Personal%20Development/"},{"title":"Self Esteem","path":"/tag/Self%20Esteem/"},{"title":"Motivation","path":"/tag/Motivation/"}]}},{"node":{"__typename":"Course","id":"37790567-3ef1-11ea-9791-1b580a556b4a","title":"Writing Irresistible First Pages: Part I","slug":"writing-irresistible-first-pages-part-i","headline":"Create engaging first novel pages that hook agents, publishers, and readers.","created":"24th January 2020","tags":[{"title":"Personal Development","path":"/tag/Personal%20Development/"},{"title":"Creativity","path":"/tag/Creativity/"},{"title":"Fiction Writing","path":"/tag/Fiction%20Writing/"}]}},{"node":{"__typename":"Course","id":"3778de5d-3ef1-11ea-9791-1b580a556b4a","title":"LIFE COACHING com Marco Meda","slug":"life-coaching-com-marco-meda","headline":"Aprenda técnicas de Life Coaching para trabalhar com Coaching ou para o seu Desenvolvimento Pessoal.","created":"24th January 2020","tags":[{"title":"Personal Development","path":"/tag/Personal%20Development/"},{"title":"Personal Transformation","path":"/tag/Personal%20Transformation/"}]}},{"node":{"__typename":"Course","id":"3778b747-3ef1-11ea-9791-1b580a556b4a","title":"Self Confidence Code 101 - How to Boost Your Confidence Fast","slug":"self-confidence-code-101-how-to-boost-your-confidence-fast","headline":"The Ultimate Confidence-Building Program, Improving Self-Esteem and Unleashing Your Hidden Potential","created":"24th January 2020","tags":[{"title":"Personal Development","path":"/tag/Personal%20Development/"},{"title":"Self Esteem","path":"/tag/Self%20Esteem/"},{"title":"Self-Esteem","path":"/tag/Self-Esteem/"}]}},{"node":{"__typename":"Course","id":"37786929-3ef1-11ea-9791-1b580a556b4a","title":"Smart Goals for a Smart Life","slug":"smart-goals-for-a-smart-life","headline":"Train your brain for success","created":"24th January 2020","tags":[{"title":"Personal Development","path":"/tag/Personal%20Development/"},{"title":"Personal Transformation","path":"/tag/Personal%20Transformation/"},{"title":"Goal Setting","path":"/tag/Goal%20Setting/"}]}},{"node":{"__typename":"Course","id":"3778b743-3ef1-11ea-9791-1b580a556b4a","title":"Claves para superar el miedo a hablar en público","slug":"claves-para-superar-el-miedo-a-hablar-en-publico","headline":"Herramientas prácticas","created":"24th January 2020","tags":[{"title":"Personal Development","path":"/tag/Personal%20Development/"},{"title":"Personal Transformation","path":"/tag/Personal%20Transformation/"},{"title":"Communication Skills","path":"/tag/Communication%20Skills/"}]}},{"node":{"__typename":"Course","id":"377757b0-3ef1-11ea-9791-1b580a556b4a","title":"Snapseed - The Definitive Guide","slug":"snapseed-the-definitive-guide","headline":"Discover your own creativity and learn how to enhance photographs with Snapseed photo editing tutorials.","created":"24th January 2020","tags":[{"title":"Personal Development","path":"/tag/Personal%20Development/"},{"title":"Creativity","path":"/tag/Creativity/"},{"title":"Snapseed","path":"/tag/Snapseed/"}]}}]}}},"context":{}}