{"hash":"6d1e7dd52e8c17cf4930f349c6afc1a78b2e1c5e","data":{"records":{"id":"Media","title":"Media","belongsTo":{"totalCount":17,"pageInfo":{"totalPages":2,"currentPage":1},"edges":[{"node":{"__typename":"Course","id":"377a64f0-3ef1-11ea-9791-1b580a556b4a","title":"How to Start a Content Business that Pays You Passive Income","slug":"how-to-start-a-content-business-that-pays-you-passive-income","headline":"Make Your Videos Work for You","created":"24th January 2020","tags":[{"title":"Business","path":"/tag/Business/"},{"title":"Media","path":"/tag/Media/"},{"title":"Content Creation","path":"/tag/Content%20Creation/"}]}},{"node":{"__typename":"Course","id":"377730a4-3ef1-11ea-9791-1b580a556b4a","title":"Book Marketing in Five - How to get your book noticed fast","slug":"book-marketing-in-five-how-to-get-your-book-noticed-fast","headline":"Learn how to market your book online and boost your visibility credibility, and sales.","created":"24th January 2020","tags":[{"title":"Business","path":"/tag/Business/"},{"title":"Media","path":"/tag/Media/"},{"title":"Book Marketing","path":"/tag/Book%20Marketing/"}]}},{"node":{"__typename":"Course","id":"3776e282-3ef1-11ea-9791-1b580a556b4a","title":"Self Publishing Secrets","slug":"self-publishing-secrets","headline":"How to Self Publish a Print on Demand Book to Amazon For Free Using CreateSpace","created":"24th January 2020","tags":[{"title":"Business","path":"/tag/Business/"},{"title":"Media","path":"/tag/Media/"},{"title":"Self-Publishing","path":"/tag/Self-Publishing/"}]}},{"node":{"__typename":"Course","id":"37766d52-3ef1-11ea-9791-1b580a556b4a","title":"The Book as iPad App","slug":"the-book-as-i-pad-app","headline":"Interactive ebooks and their future for education. Learn how new book formats are enabling better learning experiences.","created":"24th January 2020","tags":[{"title":"Business","path":"/tag/Business/"},{"title":"Media","path":"/tag/Media/"},{"title":"eBook Creation","path":"/tag/eBook%20Creation/"}]}},{"node":{"__typename":"Course","id":"37750dc0-3ef1-11ea-9791-1b580a556b4a","title":"Create Stunning Promo Videos in 30 Minutes or Less","slug":"create-stunning-promo-videos-in-30-minutes-or-less","headline":"Like us on Facebook or Twitter.","created":"24th January 2020","tags":[{"title":"Business","path":"/tag/Business/"},{"title":"Media","path":"/tag/Media/"},{"title":"Promotional Video","path":"/tag/Promotional%20Video/"}]}},{"node":{"__typename":"Course","id":"37749898-3ef1-11ea-9791-1b580a556b4a","title":"How To Publish Your Book on Kindle","slug":"how-to-publish-your-book-on-kindle","headline":"Start to finish guide on how to self publish your book on Kindle. Idea selection, writing through to getting published.","created":"24th January 2020","tags":[{"title":"Business","path":"/tag/Business/"},{"title":"Media","path":"/tag/Media/"},{"title":"Amazon Kindle","path":"/tag/Amazon%20Kindle/"}]}},{"node":{"__typename":"Course","id":"3774bfa0-3ef1-11ea-9791-1b580a556b4a","title":"Kindle Book Promotion: Tips To Promote Your Book Right Now","slug":"kindle-book-promotion-tips-to-promote-your-book-right-now","headline":"Discover little known tips and learn how to promote a book.","created":"24th January 2020","tags":[{"title":"Business","path":"/tag/Business/"},{"title":"Media","path":"/tag/Media/"},{"title":"Amazon Kindle","path":"/tag/Amazon%20Kindle/"}]}},{"node":{"__typename":"Course","id":"37749895-3ef1-11ea-9791-1b580a556b4a","title":"Create an Awesome Book Trailer for Your Fiction Title","slug":"create-an-awesome-book-trailer-for-your-fiction-title","headline":"It's pretty much a fact most Book Trailers are dreadful. Avoid this fate and create an awesome one.","created":"24th January 2020","tags":[{"title":"Business","path":"/tag/Business/"},{"title":"Media","path":"/tag/Media/"},{"title":"Writing a Book","path":"/tag/Writing%20a%20Book/"}]}},{"node":{"__typename":"Course","id":"37747189-3ef1-11ea-9791-1b580a556b4a","title":"Create Better Youtube Videos Learn the Art of Directing","slug":"create-better-youtube-videos-learn-the-art-of-directing","headline":"With Emmy® Nominated Director, Robert Child","created":"24th January 2020","tags":[{"title":"Business","path":"/tag/Business/"},{"title":"Media","path":"/tag/Media/"},{"title":"Video Creation","path":"/tag/Video%20Creation/"}]}}]}}},"context":{}}