{"hash":"6d1e7dd52e8c17cf4930f349c6afc1a78b2e1c5e","data":{"records":{"id":"Web Development","title":"Web Development","belongsTo":{"totalCount":55,"pageInfo":{"totalPages":7,"currentPage":7},"edges":[{"node":{"__typename":"Course","id":"376b22b0-3ef1-11ea-9791-1b580a556b4a","title":"Javascript for Beginners","slug":"javascript-for-beginners","headline":"Learn javascript online and supercharge your web design with this Javascript for beginners training course.","created":"24th January 2020","tags":[{"title":"Development","path":"/tag/Development/"},{"title":"Web Development","path":"/tag/Web%20Development/"},{"title":"JavaScript","path":"/tag/JavaScript/"}]}}]}}},"context":{}}