{"hash":"6d1e7dd52e8c17cf4930f349c6afc1a78b2e1c5e","data":{"records":{"id":"Design Tools","title":"Design Tools","belongsTo":{"totalCount":63,"pageInfo":{"totalPages":7,"currentPage":3},"edges":[{"node":{"__typename":"Course","id":"37749899-3ef1-11ea-9791-1b580a556b4a","title":"How to build a simple Character Rig in Autodesk Maya?","slug":"how-to-build-a-simple-character-rig-in-autodesk-maya","headline":"Rigging Basics in a 3D animation pipeline","created":"24th January 2020","tags":[{"title":"Design","path":"/tag/Design/"},{"title":"Design Tools","path":"/tag/Design%20Tools/"},{"title":"Maya","path":"/tag/Maya/"}]}},{"node":{"__typename":"Course","id":"3774bfa2-3ef1-11ea-9791-1b580a556b4a","title":"Flash CS6 Tutorial - An Essential Guide For Web Developers","slug":"flash-c-s6-tutorial-an-essential-guide-for-web-developers","headline":"Master Flash CS6 and learn how to create truly interactive content that engages visitors with Flash CS6 Tutorials","created":"24th January 2020","tags":[{"title":"Design","path":"/tag/Design/"},{"title":"Design Tools","path":"/tag/Design%20Tools/"},{"title":"Adobe Flash","path":"/tag/Adobe%20Flash/"}]}},{"node":{"__typename":"Course","id":"37749892-3ef1-11ea-9791-1b580a556b4a","title":"Adobe Encore CS6 Tutorial . A Course For Video Professionals","slug":"adobe-encore-c-s6-tutorial-a-course-for-video-professionals","headline":"Learn to create professional DVDs with Interactive Menus, Buttons and Intelligent Navigation.","created":"24th January 2020","tags":[{"title":"Design","path":"/tag/Design/"},{"title":"Design Tools","path":"/tag/Design%20Tools/"},{"title":"Adobe Encore","path":"/tag/Adobe%20Encore/"}]}},{"node":{"__typename":"Course","id":"37744a77-3ef1-11ea-9791-1b580a556b4a","title":"Learning Adobe Audition CS6 The Easy Way","slug":"learning-adobe-audition-c-s6-the-easy-way","headline":"Audio and Video Editors learn the art of audio editing and enhancement from a leading Adobe certified expert","created":"24th January 2020","tags":[{"title":"Design","path":"/tag/Design/"},{"title":"Design Tools","path":"/tag/Design%20Tools/"},{"title":"Adobe Audition","path":"/tag/Adobe%20Audition/"}]}},{"node":{"__typename":"Course","id":"3773fc50-3ef1-11ea-9791-1b580a556b4a","title":"Adobe Premiere Pro CS6 Tutorial - MasterClass Training","slug":"adobe-premiere-pro-c-s6-tutorial-master-class-training","headline":"Adobe Premiere Pro CS6 tutorial for learning at your own pace from a pro. Over 16 hours of high quality training.","created":"24th January 2020","tags":[{"title":"Design","path":"/tag/Design/"},{"title":"Design Tools","path":"/tag/Design%20Tools/"},{"title":"Adobe Premiere","path":"/tag/Adobe%20Premiere/"}]}},{"node":{"__typename":"Course","id":"3773fc54-3ef1-11ea-9791-1b580a556b4a","title":"Dreamweaver CS6 Training - Tutorials Created By Experts","slug":"dreamweaver-c-s6-training-tutorials-created-by-experts","headline":"Master Dreamweaver CS6 At Your Own Pace With This 11 Hour Training Course. Taught By A Leading Expert","created":"24th January 2020","tags":[{"title":"Design","path":"/tag/Design/"},{"title":"Design Tools","path":"/tag/Design%20Tools/"},{"title":"Dreamweaver","path":"/tag/Dreamweaver/"}]}},{"node":{"__typename":"Course","id":"3773fc58-3ef1-11ea-9791-1b580a556b4a","title":"Photoshop Flyer Design Secrets","slug":"photoshop-flyer-design-secrets","headline":"Real World Photoshop Tutorial for Designers and Desktop Publishers. Learn how to make great flyer in Photoshop with Ease","created":"24th January 2020","tags":[{"title":"Design","path":"/tag/Design/"},{"title":"Design Tools","path":"/tag/Design%20Tools/"},{"title":"Photoshop","path":"/tag/Photoshop/"}]}},{"node":{"__typename":"Course","id":"3773fc5a-3ef1-11ea-9791-1b580a556b4a","title":"Smart Object Workflows - Adobe Photoshop","slug":"smart-object-workflows-adobe-photoshop","headline":"Get started with Photoshop Smart Objects Workflow with our Online Photoshop classes.","created":"24th January 2020","tags":[{"title":"Design","path":"/tag/Design/"},{"title":"Design Tools","path":"/tag/Design%20Tools/"},{"title":"Photoshop","path":"/tag/Photoshop/"}]}},{"node":{"__typename":"Course","id":"3773ae30-3ef1-11ea-9791-1b580a556b4a","title":"Photo Restoration with Photoshop Tutorial","slug":"photo-restoration-with-photoshop-tutorial","headline":"Learn how to restore old and damaged photographs using Adobe Photoshop. An easy to follow course that makes learning fun","created":"24th January 2020","tags":[{"title":"Design","path":"/tag/Design/"},{"title":"Design Tools","path":"/tag/Design%20Tools/"},{"title":"Photoshop","path":"/tag/Photoshop/"}]}}]}}},"context":{}}