{"hash":"6d1e7dd52e8c17cf4930f349c6afc1a78b2e1c5e","data":{"records":{"id":"Design","title":"Design","belongsTo":{"totalCount":115,"pageInfo":{"totalPages":13,"currentPage":4},"edges":[{"node":{"__typename":"Course","id":"377534d2-3ef1-11ea-9791-1b580a556b4a","title":"Software Simulations with Adobe Captivate 5.5","slug":"software-simulations-with-adobe-captivate-5-5","headline":"Skip the traditional class, learn Adobe Captivate at your own pace with RJ Jacquez, former Adobe Captivate Evangelist","created":"24th January 2020","tags":[{"title":"Design","path":"/tag/Design/"},{"title":"Design Tools","path":"/tag/Design%20Tools/"},{"title":"Adobe Captivate","path":"/tag/Adobe%20Captivate/"}]}},{"node":{"__typename":"Course","id":"37755be4-3ef1-11ea-9791-1b580a556b4a","title":"Photoshop For Professional Photographers","slug":"photoshop-for-professional-photographers","headline":"Photoshop demystified by a pro portrait photographer with 20 watch-do-learn tutorials so you master the essentials fast!","created":"24th January 2020","tags":[{"title":"Design","path":"/tag/Design/"},{"title":"Design Tools","path":"/tag/Design%20Tools/"},{"title":"Photoshop","path":"/tag/Photoshop/"}]}},{"node":{"__typename":"Course","id":"3774bfa6-3ef1-11ea-9791-1b580a556b4a","title":"Video Production 101","slug":"video-production-101","headline":"Interested in video production as a business venture or simply as hobby? Jump start with this Video Production Training.","created":"24th January 2020","tags":[{"title":"Design","path":"/tag/Design/"},{"title":"Design Tools","path":"/tag/Design%20Tools/"},{"title":"Video Production","path":"/tag/Video%20Production/"}]}},{"node":{"__typename":"Course","id":"37749899-3ef1-11ea-9791-1b580a556b4a","title":"How to build a simple Character Rig in Autodesk Maya?","slug":"how-to-build-a-simple-character-rig-in-autodesk-maya","headline":"Rigging Basics in a 3D animation pipeline","created":"24th January 2020","tags":[{"title":"Design","path":"/tag/Design/"},{"title":"Design Tools","path":"/tag/Design%20Tools/"},{"title":"Maya","path":"/tag/Maya/"}]}},{"node":{"__typename":"Course","id":"3774bfa1-3ef1-11ea-9791-1b580a556b4a","title":"3DS Max Tutorial. Learn The Art of Modelling and Animation","slug":"3-ds-max-tutorial-learn-the-art-of-modelling-and-animation","headline":"Become A 3DS Max Expert with 3ds Max Animation & Modeling Tutorials course. Over 18 Hours of Training","created":"24th January 2020","tags":[{"title":"Design","path":"/tag/Design/"},{"title":"3D & Animation","path":"/tag/3D%20%26%20Animation/"},{"title":"Animation","path":"/tag/Animation/"}]}},{"node":{"__typename":"Course","id":"3774bfa2-3ef1-11ea-9791-1b580a556b4a","title":"Flash CS6 Tutorial - An Essential Guide For Web Developers","slug":"flash-c-s6-tutorial-an-essential-guide-for-web-developers","headline":"Master Flash CS6 and learn how to create truly interactive content that engages visitors with Flash CS6 Tutorials","created":"24th January 2020","tags":[{"title":"Design","path":"/tag/Design/"},{"title":"Design Tools","path":"/tag/Design%20Tools/"},{"title":"Adobe Flash","path":"/tag/Adobe%20Flash/"}]}},{"node":{"__typename":"Course","id":"3774718a-3ef1-11ea-9791-1b580a556b4a","title":"How to Win at IT Freelancing","slug":"how-to-win-at-it-freelancing","headline":"If you have marketable IT skills and want the freedom to choose when and where you work then freelancing may be for you.","created":"24th January 2020","tags":[{"title":"Design","path":"/tag/Design/"},{"title":"Other","path":"/tag/Other/"},{"title":"Freelancing","path":"/tag/Freelancing/"}]}},{"node":{"__typename":"Course","id":"37749892-3ef1-11ea-9791-1b580a556b4a","title":"Adobe Encore CS6 Tutorial . A Course For Video Professionals","slug":"adobe-encore-c-s6-tutorial-a-course-for-video-professionals","headline":"Learn to create professional DVDs with Interactive Menus, Buttons and Intelligent Navigation.","created":"24th January 2020","tags":[{"title":"Design","path":"/tag/Design/"},{"title":"Design Tools","path":"/tag/Design%20Tools/"},{"title":"Adobe Encore","path":"/tag/Adobe%20Encore/"}]}},{"node":{"__typename":"Course","id":"37744a77-3ef1-11ea-9791-1b580a556b4a","title":"Learning Adobe Audition CS6 The Easy Way","slug":"learning-adobe-audition-c-s6-the-easy-way","headline":"Audio and Video Editors learn the art of audio editing and enhancement from a leading Adobe certified expert","created":"24th January 2020","tags":[{"title":"Design","path":"/tag/Design/"},{"title":"Design Tools","path":"/tag/Design%20Tools/"},{"title":"Adobe Audition","path":"/tag/Adobe%20Audition/"}]}}]}}},"context":{}}