{"hash":"6d1e7dd52e8c17cf4930f349c6afc1a78b2e1c5e","data":{"records":{"id":"IT Certification","title":"IT Certification","belongsTo":{"totalCount":88,"pageInfo":{"totalPages":10,"currentPage":9},"edges":[{"node":{"__typename":"Course","id":"3777a5d2-3ef1-11ea-9791-1b580a556b4a","title":"OFFICIAL Microsoft Dynamics 365 for Customer Service -MB-230","slug":"official-microsoft-dynamics-365-for-customer-service-mb-230","headline":"The most complete MB-230 (Microsoft Dynamics 365 for Customer Service) certification preparation you've ever seen!","created":"24th January 2020","tags":[{"title":"IT & Software","path":"/tag/IT%20%26%20Software/"},{"title":"IT Certification","path":"/tag/IT%20Certification/"}]}},{"node":{"__typename":"Course","id":"3777a5d9-3ef1-11ea-9791-1b580a556b4a","title":"AWS Certified Cloud Practitioner(CLF-C01) Practice Exam(MCQ)","slug":"aws-certified-cloud-practitioner-clf-c01-practice-exam-mcq","headline":"Prepare for your AWS Certified Cloud Practitioner (CLF-C01) Exam using the practice test/question bank.","created":"24th January 2020","tags":[{"title":"IT & Software","path":"/tag/IT%20%26%20Software/"},{"title":"IT Certification","path":"/tag/IT%20Certification/"}]}},{"node":{"__typename":"Course","id":"377757b5-3ef1-11ea-9791-1b580a556b4a","title":"Oracle Manufacturing Cloud Implementation Essentials","slug":"oracle-manufacturing-cloud-implementation-essentials","headline":"Pass Oracle Manufacturing Cloud Implementation Essentials | 1Z0-348 exam on the first attempt.","created":"24th January 2020","tags":[{"title":"IT & Software","path":"/tag/IT%20%26%20Software/"},{"title":"IT Certification","path":"/tag/IT%20Certification/"}]}},{"node":{"__typename":"Course","id":"377757b8-3ef1-11ea-9791-1b580a556b4a","title":"LDAP Server Administration in 1 Hour","slug":"ldap-server-administration-in-1-hour","headline":"(Learn Essentials of LDAP and boost your career)","created":"24th January 2020","tags":[{"title":"IT & Software","path":"/tag/IT%20%26%20Software/"},{"title":"IT Certification","path":"/tag/IT%20Certification/"},{"title":"LDAP","path":"/tag/LDAP/"}]}},{"node":{"__typename":"Course","id":"37777ec3-3ef1-11ea-9791-1b580a556b4a","title":"AWS認定 Solutions Architect Associate試験問題(2020)","slug":"aws-solutions-architect-associate-2020","headline":"AWS認定 SAA試験問題に絶対合格","created":"24th January 2020","tags":[{"title":"IT & Software","path":"/tag/IT%20%26%20Software/"},{"title":"IT Certification","path":"/tag/IT%20Certification/"}]}},{"node":{"__typename":"Course","id":"3776bb76-3ef1-11ea-9791-1b580a556b4a","title":"CCNA Security 2019 210-260 Video Boot Camp With Chris Bryant","slug":"ccna-security-2019-210-260-video-boot-camp-with-chris-bryant","headline":"Earn Your CCNA Security 210-260 Certification AND Prepare For Real-World Networking Success!","created":"24th January 2020","tags":[{"title":"IT & Software","path":"/tag/IT%20%26%20Software/"},{"title":"IT Certification","path":"/tag/IT%20Certification/"},{"title":"Cisco CCNA","path":"/tag/Cisco%20CCNA/"}]}},{"node":{"__typename":"Course","id":"37744a79-3ef1-11ea-9791-1b580a556b4a","title":"How to Ace Your IT Exams","slug":"how-to-ace-your-it-exams","headline":"Exam tips, tools and strategies to help you finally master the content, retain the information and ace your IT exams.","created":"24th January 2020","tags":[{"title":"IT & Software","path":"/tag/IT%20%26%20Software/"},{"title":"IT Certification","path":"/tag/IT%20Certification/"},{"title":"Test Taking Skills","path":"/tag/Test%20Taking%20Skills/"}]}},{"node":{"__typename":"Course","id":"37720083-3ef1-11ea-9791-1b580a556b4a","title":"IP Subnetting Masterclass - Learn the Easy Way to Subnet","slug":"ip-subnetting-masterclass-learn-the-easy-way-to-subnet","headline":"Learn subnetting in 15 seconds flat with my subnetting cheat sheet in this subnetting tutorial.","created":"24th January 2020","tags":[{"title":"IT & Software","path":"/tag/IT%20%26%20Software/"},{"title":"IT Certification","path":"/tag/IT%20Certification/"},{"title":"Subnetting","path":"/tag/Subnetting/"}]}},{"node":{"__typename":"Course","id":"37716444-3ef1-11ea-9791-1b580a556b4a","title":"Learn Salesforce in easy steps and get certified!","slug":"learn-salesforce-in-easy-steps-and-get-certified","headline":"This course should prepare you for Salesforce App Developer certification.","created":"24th January 2020","tags":[{"title":"IT & Software","path":"/tag/IT%20%26%20Software/"},{"title":"IT Certification","path":"/tag/IT%20Certification/"},{"title":"Salesforce","path":"/tag/Salesforce/"}]}}]}}},"context":{}}