{"hash":"6d1e7dd52e8c17cf4930f349c6afc1a78b2e1c5e","data":{"records":{"id":"Lifestyle","title":"Lifestyle","belongsTo":{"totalCount":28,"pageInfo":{"totalPages":4,"currentPage":4},"edges":[{"node":{"__typename":"Course","id":"376a3850-3ef1-11ea-9791-1b580a556b4a","title":"How to Train a Puppy","slug":"how-to-train-a-puppy","headline":"Train your puppy the right way with Dr. Ian Dunbar. Includes 13 videos, 4 books, and 16 behavior blueprints.","created":"24th January 2020","tags":[{"title":"Lifestyle","path":"/tag/Lifestyle/"},{"title":"Pet Care & Training","path":"/tag/Pet%20Care%20%26%20Training/"},{"title":"Pet Training","path":"/tag/Pet%20Training/"}]}}]}}},"context":{}}