{"hash":"6d1e7dd52e8c17cf4930f349c6afc1a78b2e1c5e","data":{"records":{"id":"Lifestyle","title":"Lifestyle","belongsTo":{"totalCount":28,"pageInfo":{"totalPages":4,"currentPage":3},"edges":[{"node":{"__typename":"Course","id":"377004b2-3ef1-11ea-9791-1b580a556b4a","title":"Plein Air Essentials - Pastel Supplement","slug":"plein-air-essentials-pastel-supplement","headline":"If you've taken the Plein Air Essentials course and are looking for a course specific to pastel, this is it!","created":"24th January 2020","tags":[{"title":"Lifestyle","path":"/tag/Lifestyle/"},{"title":"Arts & Crafts","path":"/tag/Arts%20%26%20Crafts/"},{"title":"Plein Air Painting","path":"/tag/Plein%20Air%20Painting/"}]}},{"node":{"__typename":"Course","id":"377004b3-3ef1-11ea-9791-1b580a556b4a","title":"Plein Air Essentials - Learn Basics of Plein Air Painting","slug":"plein-air-essentials-learn-basics-of-plein-air-painting","headline":"Learn the essentials of plein air painting in a series of short video lessons.","created":"24th January 2020","tags":[{"title":"Lifestyle","path":"/tag/Lifestyle/"},{"title":"Arts & Crafts","path":"/tag/Arts%20%26%20Crafts/"},{"title":"Plein Air Painting","path":"/tag/Plein%20Air%20Painting/"}]}},{"node":{"__typename":"Course","id":"376ea523-3ef1-11ea-9791-1b580a556b4a","title":"Aquaponic Gardening: Growing Fish and Vegetables Together","slug":"aquaponic-gardening-growing-fish-and-vegetables-together","headline":"Grow an entire dinner right in your backyard with aquaponics! Safe, healthy fish and organic vegetables with no weeds!","created":"24th January 2020","tags":[{"title":"Lifestyle","path":"/tag/Lifestyle/"},{"title":"Home Improvement","path":"/tag/Home%20Improvement/"},{"title":"Aquaculture","path":"/tag/Aquaculture/"}]}},{"node":{"__typename":"Course","id":"376e2ff6-3ef1-11ea-9791-1b580a556b4a","title":"Want to Learn How To Juggle This Week? - Learn How to Juggle","slug":"want-to-learn-how-to-juggle-this-week-learn-how-to-juggle","headline":"Becoming a master juggler is as easy as 1-2-3! In this course you'll learn how to juggle fast.","created":"24th January 2020","tags":[{"title":"Lifestyle","path":"/tag/Lifestyle/"},{"title":"Arts & Crafts","path":"/tag/Arts%20%26%20Crafts/"},{"title":"Juggling","path":"/tag/Juggling/"}]}},{"node":{"__typename":"Course","id":"376c8240-3ef1-11ea-9791-1b580a556b4a","title":"Simple, Healthy Fall Recipes","slug":"simple-healthy-fall-recipes","headline":"Cook Healthy Fall Recipes Easily. Celebrate Fall with Seasonal Salads, Entrees, Desserts, and Cocktails.","created":"24th January 2020","tags":[{"title":"Lifestyle","path":"/tag/Lifestyle/"},{"title":"Food & Beverage","path":"/tag/Food%20%26%20Beverage/"},{"title":"Cooking","path":"/tag/Cooking/"}]}},{"node":{"__typename":"Course","id":"376be604-3ef1-11ea-9791-1b580a556b4a","title":"Become a Wine Connoisseur","slug":"become-a-wine-connoisseur","headline":"Learn about wine from vine to table from the experts at Palate Press.","created":"24th January 2020","tags":[{"title":"Lifestyle","path":"/tag/Lifestyle/"},{"title":"Food & Beverage","path":"/tag/Food%20%26%20Beverage/"},{"title":"Wine","path":"/tag/Wine/"}]}},{"node":{"__typename":"Course","id":"376b70d1-3ef1-11ea-9791-1b580a556b4a","title":"Healthy Cooking Fundamentals","slug":"healthy-cooking-fundamentals","headline":"Cathy Erway, a noted New York based chef, author and foodie, teaches you easy and healthy recipes.","created":"24th January 2020","tags":[{"title":"Lifestyle","path":"/tag/Lifestyle/"},{"title":"Food & Beverage","path":"/tag/Food%20%26%20Beverage/"},{"title":"Cooking","path":"/tag/Cooking/"}]}},{"node":{"__typename":"Course","id":"376a8671-3ef1-11ea-9791-1b580a556b4a","title":"How To Become a Vegan, Vegetarian, or Flexitarian","slug":"how-to-become-a-vegan-vegetarian-or-flexitarian","headline":"Get the tools you need for a lifestyle change that will bring you health and a clear conscience.","created":"24th January 2020","tags":[{"title":"Lifestyle","path":"/tag/Lifestyle/"},{"title":"Other","path":"/tag/Other/"},{"title":"Vegan Cooking","path":"/tag/Vegan%20Cooking/"}]}},{"node":{"__typename":"Course","id":"376aad80-3ef1-11ea-9791-1b580a556b4a","title":"Online Vegan Vegetarian Cooking School","slug":"online-vegan-vegetarian-cooking-school","headline":"Learn to cook delicious vegan recipes and WOW your family with meals the whole family will love.","created":"24th January 2020","tags":[{"title":"Lifestyle","path":"/tag/Lifestyle/"},{"title":"Food & Beverage","path":"/tag/Food%20%26%20Beverage/"},{"title":"Vegan Cooking","path":"/tag/Vegan%20Cooking/"}]}}]}}},"context":{}}