{"hash":"6d1e7dd52e8c17cf4930f349c6afc1a78b2e1c5e","data":{"records":{"id":"IT & Software","title":"IT & Software","belongsTo":{"totalCount":122,"pageInfo":{"totalPages":14,"currentPage":10},"edges":[{"node":{"__typename":"Course","id":"37781b08-3ef1-11ea-9791-1b580a556b4a","title":"Zend-Technologies | Zend Certified PHP Engineer | 200-550","slug":"zend-technologies-zend-certified-php-engineer-200-550","headline":"Pass Zend-Technologies Zend Certified PHP Engineer | 200-550 exam on the first attempt.","created":"24th January 2020","tags":[{"title":"IT & Software","path":"/tag/IT%20%26%20Software/"},{"title":"IT Certification","path":"/tag/IT%20Certification/"}]}},{"node":{"__typename":"Course","id":"3777a5da-3ef1-11ea-9791-1b580a556b4a","title":"OFFICIAL Microsoft Dynamics 365 for Marketing - MB-220","slug":"official-microsoft-dynamics-365-for-marketing-mb-220","headline":"The most complete MB-220 (Microsoft Dynamics 365 for Marketing) certification preparation you've ever seen!","created":"24th January 2020","tags":[{"title":"IT & Software","path":"/tag/IT%20%26%20Software/"},{"title":"IT Certification","path":"/tag/IT%20Certification/"}]}},{"node":{"__typename":"Course","id":"3777cce0-3ef1-11ea-9791-1b580a556b4a","title":"SalesForce Platform Developer II Certification Practice test","slug":"sales-force-platform-developer-ii-certification-practice-test","headline":"Exam questions similar to Sales Force Platform Developer II Certification Exam.","created":"24th January 2020","tags":[{"title":"IT & Software","path":"/tag/IT%20%26%20Software/"},{"title":"IT Certification","path":"/tag/IT%20Certification/"}]}},{"node":{"__typename":"Course","id":"3777cce2-3ef1-11ea-9791-1b580a556b4a","title":"CCIE Routing and Switching | Cisco 400-101","slug":"ccie-routing-and-switching-cisco-400-101","headline":"Pass Cisco 400-101 CCIE Exam on the first attempt.","created":"24th January 2020","tags":[{"title":"IT & Software","path":"/tag/IT%20%26%20Software/"},{"title":"IT Certification","path":"/tag/IT%20Certification/"}]}},{"node":{"__typename":"Course","id":"3777cce3-3ef1-11ea-9791-1b580a556b4a","title":"Experto en Ciberseguridad - Preguntas de Apoyo","slug":"experto-en-ciberseguridad-preguntas-de-apoyo","headline":"Incluye documentación para preparar la certificación: Cybersecurity Foundations Certified Expert – CFCE","created":"24th January 2020","tags":[{"title":"IT & Software","path":"/tag/IT%20%26%20Software/"},{"title":"IT Certification","path":"/tag/IT%20Certification/"}]}},{"node":{"__typename":"Course","id":"37777ec8-3ef1-11ea-9791-1b580a556b4a","title":"Simulated PSM II - With Comments Simulated Exam","slug":"simulated-psm-ii-with-comments-simulated-exam","headline":"Make Sure You Are Ready To Pass Scrum org's PSM II Test - Mock Exam Questions","created":"24th January 2020","tags":[{"title":"IT & Software","path":"/tag/IT%20%26%20Software/"},{"title":"IT Certification","path":"/tag/IT%20Certification/"}]}},{"node":{"__typename":"Course","id":"3777a5d0-3ef1-11ea-9791-1b580a556b4a","title":"Data Analytics - Preguntas de apoyo con selección múltiple","slug":"data-analytics-preguntas-de-apoyo-con-seleccion-multiple","headline":"Incluye documentación para preparar la certificación: Data Analytics Certified Associate (DACA)","created":"24th January 2020","tags":[{"title":"IT & Software","path":"/tag/IT%20%26%20Software/"},{"title":"IT Certification","path":"/tag/IT%20Certification/"}]}},{"node":{"__typename":"Course","id":"3777a5d1-3ef1-11ea-9791-1b580a556b4a","title":"Ethical Hacking: Complete Course of Sniffing","slug":"ethical-hacking-complete-course-of-sniffing","headline":"From the OSI Model & VLANs to Ethical Hacking and Network Security topics & Sniffer Detection methods","created":"24th January 2020","tags":[{"title":"IT & Software","path":"/tag/IT%20%26%20Software/"},{"title":"Network & Security","path":"/tag/Network%20%26%20Security/"},{"title":"Ethical Hacking","path":"/tag/Ethical%20Hacking/"}]}},{"node":{"__typename":"Course","id":"3777a5d2-3ef1-11ea-9791-1b580a556b4a","title":"OFFICIAL Microsoft Dynamics 365 for Customer Service -MB-230","slug":"official-microsoft-dynamics-365-for-customer-service-mb-230","headline":"The most complete MB-230 (Microsoft Dynamics 365 for Customer Service) certification preparation you've ever seen!","created":"24th January 2020","tags":[{"title":"IT & Software","path":"/tag/IT%20%26%20Software/"},{"title":"IT Certification","path":"/tag/IT%20Certification/"}]}}]}}},"context":{}}