{"hash":"6d1e7dd52e8c17cf4930f349c6afc1a78b2e1c5e","data":{"records":{"id":"Office Productivity","title":"Office Productivity","belongsTo":{"totalCount":49,"pageInfo":{"totalPages":6,"currentPage":2},"edges":[{"node":{"__typename":"Course","id":"3776e286-3ef1-11ea-9791-1b580a556b4a","title":"Windows 8 For Dummies Video Training","slug":"windows-8-for-dummies-video-training","headline":"Online Video Windows 8 Training Course","created":"24th January 2020","tags":[{"title":"Office Productivity","path":"/tag/Office%20Productivity/"},{"title":"Microsoft","path":"/tag/Microsoft/"},{"title":"Microsoft Windows","path":"/tag/Microsoft%20Windows/"}]}},{"node":{"__typename":"Course","id":"3776bb7a-3ef1-11ea-9791-1b580a556b4a","title":"MICROSOFT EXCEL 2010 EN ESPAÑOL","slug":"microsoft-excel-2010-en-espanol","headline":"MICROSOFT EXCEL 2010 EN ESPAÑOL","created":"24th January 2020","tags":[{"title":"Office Productivity","path":"/tag/Office%20Productivity/"},{"title":"Microsoft","path":"/tag/Microsoft/"},{"title":"Excel","path":"/tag/Excel/"}]}},{"node":{"__typename":"Course","id":"37761f38-3ef1-11ea-9791-1b580a556b4a","title":"Microsoft Project: The Five Keys - Key 1 Navigation","slug":"microsoft-project-the-five-keys-key-1-navigation","headline":"To be able to use MS Project you have to know the essentials on how to navigate the user interface.That is covered here","created":"24th January 2020","tags":[{"title":"Office Productivity","path":"/tag/Office%20Productivity/"},{"title":"Microsoft","path":"/tag/Microsoft/"},{"title":"Microsoft Project","path":"/tag/Microsoft%20Project/"}]}},{"node":{"__typename":"Course","id":"3775d11b-3ef1-11ea-9791-1b580a556b4a","title":"Microsoft Project 2010 Tutorial Video - Beginners - Advanced","slug":"microsoft-project-2010-tutorial-video-beginners-advanced","headline":"Learn Microsoft Project At Your Own Pace. A Practical Hands-on Tutorial Aimed At All Levels Of Microsoft Project Users.","created":"24th January 2020","tags":[{"title":"Office Productivity","path":"/tag/Office%20Productivity/"},{"title":"Microsoft","path":"/tag/Microsoft/"},{"title":"Microsoft Project","path":"/tag/Microsoft%20Project/"}]}},{"node":{"__typename":"Course","id":"3775d113-3ef1-11ea-9791-1b580a556b4a","title":"Office 2013 New Features - Learn Now!","slug":"office-2013-new-features-learn-now","headline":"Explore the innovative new features of Microsoft’s Office 2013.","created":"24th January 2020","tags":[{"title":"Office Productivity","path":"/tag/Office%20Productivity/"},{"title":"Microsoft","path":"/tag/Microsoft/"},{"title":"Microsoft Office","path":"/tag/Microsoft%20Office/"}]}},{"node":{"__typename":"Course","id":"3775d114-3ef1-11ea-9791-1b580a556b4a","title":"Presenting Financials with Excel and PowerPoint","slug":"presenting-financials-with-excel-and-power-point","headline":"Learn special tricks in Excel and PowerPoint designed specifically for presenting to \"numbers people\".","created":"24th January 2020","tags":[{"title":"Office Productivity","path":"/tag/Office%20Productivity/"},{"title":"Microsoft","path":"/tag/Microsoft/"},{"title":"Excel","path":"/tag/Excel/"}]}},{"node":{"__typename":"Course","id":"377582f8-3ef1-11ea-9791-1b580a556b4a","title":"MS Office - Advanced - Efficiency Training","slug":"ms-office-advanced-efficiency-training","headline":"Learn the most important shortcuts and time saving tools in Outlook, Excel, Word and PowerPoint. WIN at Office!","created":"24th January 2020","tags":[{"title":"Office Productivity","path":"/tag/Office%20Productivity/"},{"title":"Microsoft","path":"/tag/Microsoft/"},{"title":"Microsoft Office","path":"/tag/Microsoft%20Office/"}]}},{"node":{"__typename":"Course","id":"377582f9-3ef1-11ea-9791-1b580a556b4a","title":"Time Management Training with Outlook","slug":"time-management-training-with-outlook","headline":"Outlook can do WAY more than you use it for. Learn tons of efficient workflow tips, tricks, and tools available.","created":"24th January 2020","tags":[{"title":"Office Productivity","path":"/tag/Office%20Productivity/"},{"title":"Microsoft","path":"/tag/Microsoft/"},{"title":"Microsoft Outlook","path":"/tag/Microsoft%20Outlook/"}]}},{"node":{"__typename":"Course","id":"3775aa00-3ef1-11ea-9791-1b580a556b4a","title":"PowerPoint Psychology - Creating Amazing PowerPoint Slides!","slug":"power-point-psychology-creating-amazing-power-point-slides","headline":"How to build a presentation that actually adds to your message instead of repeating common mistakes that everyone makes.","created":"24th January 2020","tags":[{"title":"Office Productivity","path":"/tag/Office%20Productivity/"},{"title":"Microsoft","path":"/tag/Microsoft/"},{"title":"PowerPoint","path":"/tag/PowerPoint/"}]}}]}}},"context":{}}