{"hash":"6d1e7dd52e8c17cf4930f349c6afc1a78b2e1c5e","data":{"records":{"id":"Programming Languages","title":"Programming Languages","belongsTo":{"totalCount":32,"pageInfo":{"totalPages":4,"currentPage":1},"edges":[{"node":{"__typename":"Course","id":"377a8c09-3ef1-11ea-9791-1b580a556b4a","title":"RESTful Services with Delphi","slug":"res-tful-services-with-delphi","headline":"Create RESTFul services with the power of Delphi IDE to solve a practical business problem","created":"24th January 2020","tags":[{"title":"Development","path":"/tag/Development/"},{"title":"Programming Languages","path":"/tag/Programming%20Languages/"},{"title":"Delphi","path":"/tag/Delphi/"}]}},{"node":{"__typename":"Course","id":"3779c8b7-3ef1-11ea-9791-1b580a556b4a","title":"AWS CI/CD CodePipeline,CodeCommit,CodeBuild,CodeDeploy","slug":"aws-ci-cd-code-pipeline-code-commit-code-build-code-deploy","headline":"CI/CD AWS, Automatizaremos Servicio Rest Spring y NodeJS, Aprender치s en corto tiempo, Para Principiantes e intermedio.","created":"24th January 2020","tags":[{"title":"Development","path":"/tag/Development/"},{"title":"Programming Languages","path":"/tag/Programming%20Languages/"}]}},{"node":{"__typename":"Course","id":"3779a1ab-3ef1-11ea-9791-1b580a556b4a","title":"Dart POO Pra quem gosta de aprender","slug":"dart-poo-pra-quem-gosta-de-aprender","headline":"Aprenda a desenvolver um sistema parecido com o sistema banc치rio","created":"24th January 2020","tags":[{"title":"Development","path":"/tag/Development/"},{"title":"Programming Languages","path":"/tag/Programming%20Languages/"},{"title":"Dart Programming Language","path":"/tag/Dart%20Programming%20Language/"}]}},{"node":{"__typename":"Course","id":"3778b749-3ef1-11ea-9791-1b580a556b4a","title":"Mastering CoreData with CloudKit in Swift 5 for iOS","slug":"mastering-core-data-with-cloud-kit-in-swift-5-for-i-os","headline":"Master the Core Data and CloudKit in Swift 5 for iOS 13, and take your iOS development skills to the next level","created":"24th January 2020","tags":[{"title":"Development","path":"/tag/Development/"},{"title":"Programming Languages","path":"/tag/Programming%20Languages/"}]}},{"node":{"__typename":"Course","id":"37786922-3ef1-11ea-9791-1b580a556b4a","title":"Lambda with Functional Programming in Java8","slug":"lambda-with-functional-programming-in-java8","headline":"Lambda expression with Functional Programming Example","created":"24th January 2020","tags":[{"title":"Development","path":"/tag/Development/"},{"title":"Programming Languages","path":"/tag/Programming%20Languages/"},{"title":"Java","path":"/tag/Java/"}]}},{"node":{"__typename":"Course","id":"3776bb74-3ef1-11ea-9791-1b580a556b4a","title":"Advanced Java Programming","slug":"advanced-java-programming","headline":"Take Your Java Programming Skills To The Next Level. Become Proficient In Java Programming","created":"24th January 2020","tags":[{"title":"Development","path":"/tag/Development/"},{"title":"Programming Languages","path":"/tag/Programming%20Languages/"},{"title":"Java","path":"/tag/Java/"}]}},{"node":{"__typename":"Course","id":"37766d50-3ef1-11ea-9791-1b580a556b4a","title":"Programming For Non-Programmers: Fundamentals","slug":"programming-for-non-programmers-fundamentals","headline":"Learn how to speak with developers. Designed for entrepreneurs, businesses, and junior developers.","created":"24th January 2020","tags":[{"title":"Development","path":"/tag/Development/"},{"title":"Programming Languages","path":"/tag/Programming%20Languages/"},{"title":"Programming Fundamentals","path":"/tag/Programming%20Fundamentals/"}]}},{"node":{"__typename":"Course","id":"3774e6b6-3ef1-11ea-9791-1b580a556b4a","title":"Learn To Program with Pascal","slug":"learn-to-program-with-pascal","headline":"Master programming on Windows or Mac OS X with Lazarus & Free Pascal or Delphi","created":"24th January 2020","tags":[{"title":"Development","path":"/tag/Development/"},{"title":"Programming Languages","path":"/tag/Programming%20Languages/"},{"title":"Pascal Programming Language","path":"/tag/Pascal%20Programming%20Language/"}]}},{"node":{"__typename":"Course","id":"37750dc3-3ef1-11ea-9791-1b580a556b4a","title":"Todo PHP7 y MySQL, de b치sico a experto","slug":"todo-ph-p7-y-my-sql-de-basico-a-experto","headline":"Aprende a programar de forma sencilla y amena en el lenguaje de servidor m치s extendido y poderoso del mundo: PHP y MySQL","created":"24th January 2020","tags":[{"title":"Development","path":"/tag/Development/"},{"title":"Programming Languages","path":"/tag/Programming%20Languages/"},{"title":"MySQL","path":"/tag/MySQL/"}]}}]}}},"context":{}}