{"hash":"6d1e7dd52e8c17cf4930f349c6afc1a78b2e1c5e","data":{"records":{"id":"Entrepreneurship","title":"Entrepreneurship","belongsTo":{"totalCount":17,"pageInfo":{"totalPages":2,"currentPage":1},"edges":[{"node":{"__typename":"Course","id":"377a3de9-3ef1-11ea-9791-1b580a556b4a","title":"How To Start A Side Business: From Idea to Execution in 2020","slug":"how-to-start-a-side-business-from-idea-to-execution-in-2020","headline":"Learn How To Get Out Of Your Head & Take Action On Starting A Business Today. The Psychology Of Entrepreneur Success","created":"24th January 2020","tags":[{"title":"Business","path":"/tag/Business/"},{"title":"Entrepreneurship","path":"/tag/Entrepreneurship/"},{"title":"Business Fundamentals","path":"/tag/Business%20Fundamentals/"}]}},{"node":{"__typename":"Course","id":"3779c8b9-3ef1-11ea-9791-1b580a556b4a","title":"Empreender Transforma - Alavancando seu negócio do 0","slug":"empreender-transforma-alavancando-seu-negocio-do-0","headline":"Criando mais valor para o seu negócio.","created":"24th January 2020","tags":[{"title":"Business","path":"/tag/Business/"},{"title":"Entrepreneurship","path":"/tag/Entrepreneurship/"},{"title":"Business Model","path":"/tag/Business%20Model/"}]}},{"node":{"__typename":"Course","id":"3778de53-3ef1-11ea-9791-1b580a556b4a","title":"Mastering the Square Suite for Busy Entrepreneurs","slug":"mastering-the-square-suite-for-busy-entrepreneurs","headline":"Change the way you run your solopreneur business by freeing up time using the Square suite","created":"24th January 2020","tags":[{"title":"Business","path":"/tag/Business/"},{"title":"Entrepreneurship","path":"/tag/Entrepreneurship/"},{"title":"Entrepreneurship Fundamentals","path":"/tag/Entrepreneurship%20Fundamentals/"}]}},{"node":{"__typename":"Course","id":"3775aa01-3ef1-11ea-9791-1b580a556b4a","title":"Successful Crowdfunding: How to Win Backers And Raise Funds","slug":"successful-crowdfunding-how-to-win-backers-and-raise-funds","headline":"An in-depth conversation around crowdfunding, what works and what not when it comes to sourcing money from the crowd.","created":"24th January 2020","tags":[{"title":"Business","path":"/tag/Business/"},{"title":"Entrepreneurship","path":"/tag/Entrepreneurship/"},{"title":"Crowdfunding","path":"/tag/Crowdfunding/"}]}},{"node":{"__typename":"Course","id":"37750dc1-3ef1-11ea-9791-1b580a556b4a","title":"Entrepreneur Success Series","slug":"entrepreneur-success-series","headline":"Learn The Secrets & Stories Of Famous Entrepreneurs. Learn how to become a successful entrepreneur.","created":"24th January 2020","tags":[{"title":"Business","path":"/tag/Business/"},{"title":"Entrepreneurship","path":"/tag/Entrepreneurship/"},{"title":"Entrepreneurship Fundamentals","path":"/tag/Entrepreneurship%20Fundamentals/"}]}},{"node":{"__typename":"Course","id":"37750dc2-3ef1-11ea-9791-1b580a556b4a","title":"Fund Your Creative Startup","slug":"fund-your-creative-startup","headline":"Everyone has a dream to create something. This Start Up Capital course shows you how to fund it and make it a reality.","created":"24th January 2020","tags":[{"title":"Business","path":"/tag/Business/"},{"title":"Entrepreneurship","path":"/tag/Entrepreneurship/"},{"title":"Startup","path":"/tag/Startup/"}]}},{"node":{"__typename":"Course","id":"3771b264-3ef1-11ea-9791-1b580a556b4a","title":"Start A Business You Love. Idea to Income in Thirty Days.","slug":"start-a-business-you-love-idea-to-income-in-thirty-days","headline":"Uncover what you love to do and turn it into a profitable business. Daily actions help you get clarity and stay focused.","created":"24th January 2020","tags":[{"title":"Business","path":"/tag/Business/"},{"title":"Entrepreneurship","path":"/tag/Entrepreneurship/"},{"title":"Business Idea Generation","path":"/tag/Business%20Idea%20Generation/"}]}},{"node":{"__typename":"Course","id":"3770ef10-3ef1-11ea-9791-1b580a556b4a","title":"From Startup to Millions Before 30","slug":"from-startup-to-millions-before-30","headline":"Previously sold as \"A Young Entrepreneur's Guide to Starting and Growing a Business\"","created":"24th January 2020","tags":[{"title":"Business","path":"/tag/Business/"},{"title":"Entrepreneurship","path":"/tag/Entrepreneurship/"},{"title":"Startup","path":"/tag/Startup/"}]}},{"node":{"__typename":"Course","id":"377004b4-3ef1-11ea-9791-1b580a556b4a","title":"From Startup to Millions Before 30: Part 1","slug":"from-startup-to-millions-before-30-part-1","headline":"Part 1 of a comprehensive, in-depth, and fun video that mentors young entrepreneurs to starting and growing a business.","created":"24th January 2020","tags":[{"title":"Business","path":"/tag/Business/"},{"title":"Entrepreneurship","path":"/tag/Entrepreneurship/"},{"title":"Startup","path":"/tag/Startup/"}]}}]}}},"context":{}}