{"hash":"6d1e7dd52e8c17cf4930f349c6afc1a78b2e1c5e","data":{"records":{"id":"Teaching & Academics","title":"Teaching & Academics","belongsTo":{"totalCount":57,"pageInfo":{"totalPages":7,"currentPage":5},"edges":[{"node":{"__typename":"Course","id":"37720080-3ef1-11ea-9791-1b580a556b4a","title":"A mathematical way to think about biology","slug":"a-mathematical-way-to-think-about-biology","headline":"Why \"is\" biology log-normal? Why do some circuits oscillate? See biology from a physical sciences perspective.","created":"24th January 2020","tags":[{"title":"Teaching & Academics","path":"/tag/Teaching%20%26%20Academics/"},{"title":"Math","path":"/tag/Math/"},{"title":"Biology","path":"/tag/Biology/"}]}},{"node":{"__typename":"Course","id":"37718b51-3ef1-11ea-9791-1b580a556b4a","title":"Wheelock's Latin : Chapters 1-15 Lectures","slug":"wheelock-s-latin-chapters-1-15-lectures","headline":"Help for beginning students using the venerable Wheelock grammar book.","created":"24th January 2020","tags":[{"title":"Teaching & Academics","path":"/tag/Teaching%20%26%20Academics/"},{"title":"Language","path":"/tag/Language/"},{"title":"Latin Language","path":"/tag/Latin%20Language/"}]}},{"node":{"__typename":"Course","id":"37718b55-3ef1-11ea-9791-1b580a556b4a","title":"Art History Prehistory to the Renaissance","slug":"art-history-prehistory-to-the-renaissance","headline":"A clear concise history of art since Prehistory until the beginnings of the Italian Renaissance,","created":"24th January 2020","tags":[{"title":"Teaching & Academics","path":"/tag/Teaching%20%26%20Academics/"},{"title":"Humanities","path":"/tag/Humanities/"},{"title":"Art History","path":"/tag/Art%20History/"}]}},{"node":{"__typename":"Course","id":"37713d38-3ef1-11ea-9791-1b580a556b4a","title":"Prepare For the Future - Get the Best Education You Can!","slug":"prepare-for-the-future-get-the-best-education-you-can","headline":"With the future uncertain, prepare now by getting the best education you can get.","created":"24th January 2020","tags":[{"title":"Teaching & Academics","path":"/tag/Teaching%20%26%20Academics/"},{"title":"Teacher Training","path":"/tag/Teacher%20Training/"},{"title":"Education","path":"/tag/Education/"}]}},{"node":{"__typename":"Course","id":"37713d3a-3ef1-11ea-9791-1b580a556b4a","title":"Writing for English Composition: College Essays","slug":"writing-for-english-composition-college-essays","headline":"Help and Advice for College Students","created":"24th January 2020","tags":[{"title":"Teaching & Academics","path":"/tag/Teaching%20%26%20Academics/"},{"title":"Humanities","path":"/tag/Humanities/"},{"title":"Essay Writing","path":"/tag/Essay%20Writing/"}]}},{"node":{"__typename":"Course","id":"37713d3b-3ef1-11ea-9791-1b580a556b4a","title":"Signing Made Fun!","slug":"signing-made-fun","headline":"A beginner American Sign Language communication skills course","created":"24th January 2020","tags":[{"title":"Teaching & Academics","path":"/tag/Teaching%20%26%20Academics/"},{"title":"Language","path":"/tag/Language/"},{"title":"American Sign Language","path":"/tag/American%20Sign%20Language/"}]}},{"node":{"__typename":"Course","id":"37713d3d-3ef1-11ea-9791-1b580a556b4a","title":"Chamilo Course Builder certification prep","slug":"chamilo-course-builder-certification-prep","headline":"Prepare your Chamilo Course Builder (CHACOBU) certification exam by learning with Yannick Warnier, Chamilo founder","created":"24th January 2020","tags":[{"title":"Teaching & Academics","path":"/tag/Teaching%20%26%20Academics/"},{"title":"Teacher Training","path":"/tag/Teacher%20Training/"},{"title":"Software Practices","path":"/tag/Software%20Practices/"}]}},{"node":{"__typename":"Course","id":"37711626-3ef1-11ea-9791-1b580a556b4a","title":"Classroom Management Essentials","slug":"classroom-management-essentials","headline":"Learn how to manage your classroom and spend more time teaching rather than disciplining","created":"24th January 2020","tags":[{"title":"Teaching & Academics","path":"/tag/Teaching%20%26%20Academics/"},{"title":"Teacher Training","path":"/tag/Teacher%20Training/"},{"title":"Classroom Management","path":"/tag/Classroom%20Management/"}]}},{"node":{"__typename":"Course","id":"377079e0-3ef1-11ea-9791-1b580a556b4a","title":"Lectures on Greek History and Culture","slug":"lectures-on-greek-history-and-culture","headline":"A series of lectures for beginners in Greek history, culture, and philosophy.","created":"24th January 2020","tags":[{"title":"Teaching & Academics","path":"/tag/Teaching%20%26%20Academics/"},{"title":"Humanities","path":"/tag/Humanities/"},{"title":"Greek History","path":"/tag/Greek%20History/"}]}}]}}},"context":{}}