{"hash":"6d1e7dd52e8c17cf4930f349c6afc1a78b2e1c5e","data":{"records":{"id":"Development","title":"Development","belongsTo":{"totalCount":129,"pageInfo":{"totalPages":15,"currentPage":4},"edges":[{"node":{"__typename":"Course","id":"37769465-3ef1-11ea-9791-1b580a556b4a","title":"Learn Test Driven Development in Java","slug":"learn-test-driven-development-in-java","headline":"Learn everything you need to know about TDD, Test driven development tutorial for Java through real examples.","created":"24th January 2020","tags":[{"title":"Development","path":"/tag/Development/"},{"title":"Software Testing","path":"/tag/Software%20Testing/"},{"title":"Java","path":"/tag/Java/"}]}},{"node":{"__typename":"Course","id":"37766d50-3ef1-11ea-9791-1b580a556b4a","title":"Programming For Non-Programmers: Fundamentals","slug":"programming-for-non-programmers-fundamentals","headline":"Learn how to speak with developers. Designed for entrepreneurs, businesses, and junior developers.","created":"24th January 2020","tags":[{"title":"Development","path":"/tag/Development/"},{"title":"Programming Languages","path":"/tag/Programming%20Languages/"},{"title":"Programming Fundamentals","path":"/tag/Programming%20Fundamentals/"}]}},{"node":{"__typename":"Course","id":"3775d118-3ef1-11ea-9791-1b580a556b4a","title":"Advanced HTML5 Tutorial for Web Developers","slug":"advanced-htm-l5-tutorial-for-web-developers","headline":"Take Your HTML5 Skills To The Next Level. Master The Advanced Features Of HTML5 With This Practical Hands-on Tutorial","created":"24th January 2020","tags":[{"title":"Development","path":"/tag/Development/"},{"title":"Web Development","path":"/tag/Web%20Development/"},{"title":"HTML5","path":"/tag/HTML5/"}]}},{"node":{"__typename":"Course","id":"3775f821-3ef1-11ea-9791-1b580a556b4a","title":"Profiting From QR Codes - With A Twist","slug":"profiting-from-qr-codes-with-a-twist","headline":"Finally, Discover How to Engage and Presell Your Customers Through An Exploding Mobile Marketing Technology QR Codes..","created":"24th January 2020","tags":[{"title":"Development","path":"/tag/Development/"},{"title":"Mobile Apps","path":"/tag/Mobile%20Apps/"},{"title":"QR Codes","path":"/tag/QR%20Codes/"}]}},{"node":{"__typename":"Course","id":"3775d112-3ef1-11ea-9791-1b580a556b4a","title":"Learn how to make games from scratch with no programming","slug":"learn-how-to-make-games-from-scratch-with-no-programming","headline":"Learn how to make games without writing a single line of code!","created":"24th January 2020","tags":[{"title":"Development","path":"/tag/Development/"},{"title":"Game Development","path":"/tag/Game%20Development/"},{"title":"Game Development Fundamentals","path":"/tag/Game%20Development%20Fundamentals/"}]}},{"node":{"__typename":"Course","id":"377582f0-3ef1-11ea-9791-1b580a556b4a","title":"Aprende a crear SITIOS WEB con PHP y MySql","slug":"aprende-a-crear-sitios-web-con-php-y-my-sql","headline":"curso desarrollado especialmente para NO-PROGRAMADORES, usuarios de MAC y PC!","created":"24th January 2020","tags":[{"title":"Development","path":"/tag/Development/"},{"title":"Web Development","path":"/tag/Web%20Development/"},{"title":"PHP","path":"/tag/PHP/"}]}},{"node":{"__typename":"Course","id":"377582f1-3ef1-11ea-9791-1b580a556b4a","title":"Aprende HTML en 5 simples pasos","slug":"aprende-html-en-5-simples-pasos","headline":"Aprenda utilizar el lenguaje HTML para crear una página web básica con estilos, imágenes y hasta videos!","created":"24th January 2020","tags":[{"title":"Development","path":"/tag/Development/"},{"title":"Web Development","path":"/tag/Web%20Development/"},{"title":"HTML","path":"/tag/HTML/"}]}},{"node":{"__typename":"Course","id":"377582f6-3ef1-11ea-9791-1b580a556b4a","title":"Learn Selenium IDE and Webdriver","slug":"learn-selenium-ide-and-webdriver","headline":"This hands on Selenium training course on Selenium prepares you to automate web and mobile applications with Selenium","created":"24th January 2020","tags":[{"title":"Development","path":"/tag/Development/"},{"title":"Software Testing","path":"/tag/Software%20Testing/"},{"title":"Selenium Testing Framework","path":"/tag/Selenium%20Testing%20Framework/"}]}},{"node":{"__typename":"Course","id":"377534d3-3ef1-11ea-9791-1b580a556b4a","title":"Learn Android 4.0 Programming in Java","slug":"learn-android-4-0-programming-in-java","headline":"Learn to write real, working Android applications quickly and effectively, from the ground up.","created":"24th January 2020","tags":[{"title":"Development","path":"/tag/Development/"},{"title":"Mobile Apps","path":"/tag/Mobile%20Apps/"},{"title":"Android Development","path":"/tag/Android%20Development/"}]}}]}}},"context":{}}