{"hash":"6d1e7dd52e8c17cf4930f349c6afc1a78b2e1c5e","data":{"records":{"id":"Design","title":"Design","belongsTo":{"totalCount":115,"pageInfo":{"totalPages":13,"currentPage":5},"edges":[{"node":{"__typename":"Course","id":"37742362-3ef1-11ea-9791-1b580a556b4a","title":"WordPress for Your Wedding Business","slug":"word-press-for-your-wedding-business","headline":"Learn How to create a wedding website using WordPress for your Wedding Business","created":"24th January 2020","tags":[{"title":"Design","path":"/tag/Design/"},{"title":"Web Design","path":"/tag/Web%20Design/"},{"title":"WordPress","path":"/tag/WordPress/"}]}},{"node":{"__typename":"Course","id":"3773d54b-3ef1-11ea-9791-1b580a556b4a","title":"WordPress For Beginners","slug":"word-press-for-beginners","headline":"A complete beginners training course for learning to build a blog using WordPress","created":"24th January 2020","tags":[{"title":"Design","path":"/tag/Design/"},{"title":"Web Design","path":"/tag/Web%20Design/"},{"title":"WordPress","path":"/tag/WordPress/"}]}},{"node":{"__typename":"Course","id":"3773d54c-3ef1-11ea-9791-1b580a556b4a","title":"WordPress for Wedding Photographers","slug":"word-press-for-wedding-photographers","headline":"Build Your Own Photography Website With WordPress","created":"24th January 2020","tags":[{"title":"Design","path":"/tag/Design/"},{"title":"Web Design","path":"/tag/Web%20Design/"},{"title":"WordPress","path":"/tag/WordPress/"}]}},{"node":{"__typename":"Course","id":"3773fc50-3ef1-11ea-9791-1b580a556b4a","title":"Adobe Premiere Pro CS6 Tutorial - MasterClass Training","slug":"adobe-premiere-pro-c-s6-tutorial-master-class-training","headline":"Adobe Premiere Pro CS6 tutorial for learning at your own pace from a pro. Over 16 hours of high quality training.","created":"24th January 2020","tags":[{"title":"Design","path":"/tag/Design/"},{"title":"Design Tools","path":"/tag/Design%20Tools/"},{"title":"Adobe Premiere","path":"/tag/Adobe%20Premiere/"}]}},{"node":{"__typename":"Course","id":"3773fc54-3ef1-11ea-9791-1b580a556b4a","title":"Dreamweaver CS6 Training - Tutorials Created By Experts","slug":"dreamweaver-c-s6-training-tutorials-created-by-experts","headline":"Master Dreamweaver CS6 At Your Own Pace With This 11 Hour Training Course. Taught By A Leading Expert","created":"24th January 2020","tags":[{"title":"Design","path":"/tag/Design/"},{"title":"Design Tools","path":"/tag/Design%20Tools/"},{"title":"Dreamweaver","path":"/tag/Dreamweaver/"}]}},{"node":{"__typename":"Course","id":"3773fc58-3ef1-11ea-9791-1b580a556b4a","title":"Photoshop Flyer Design Secrets","slug":"photoshop-flyer-design-secrets","headline":"Real World Photoshop Tutorial for Designers and Desktop Publishers. Learn how to make great flyer in Photoshop with Ease","created":"24th January 2020","tags":[{"title":"Design","path":"/tag/Design/"},{"title":"Design Tools","path":"/tag/Design%20Tools/"},{"title":"Photoshop","path":"/tag/Photoshop/"}]}},{"node":{"__typename":"Course","id":"3773fc5a-3ef1-11ea-9791-1b580a556b4a","title":"Smart Object Workflows - Adobe Photoshop","slug":"smart-object-workflows-adobe-photoshop","headline":"Get started with Photoshop Smart Objects Workflow with our Online Photoshop classes.","created":"24th January 2020","tags":[{"title":"Design","path":"/tag/Design/"},{"title":"Design Tools","path":"/tag/Design%20Tools/"},{"title":"Photoshop","path":"/tag/Photoshop/"}]}},{"node":{"__typename":"Course","id":"3773ae30-3ef1-11ea-9791-1b580a556b4a","title":"Photo Restoration with Photoshop Tutorial","slug":"photo-restoration-with-photoshop-tutorial","headline":"Learn how to restore old and damaged photographs using Adobe Photoshop. An easy to follow course that makes learning fun","created":"24th January 2020","tags":[{"title":"Design","path":"/tag/Design/"},{"title":"Design Tools","path":"/tag/Design%20Tools/"},{"title":"Photoshop","path":"/tag/Photoshop/"}]}},{"node":{"__typename":"Course","id":"3773ae37-3ef1-11ea-9791-1b580a556b4a","title":"A Beginners Guide To Setting Up A WordPress Blog","slug":"a-beginners-guide-to-setting-up-a-word-press-blog","headline":"Learn the A to Z process of creating and setting up a wordpress blog","created":"24th January 2020","tags":[{"title":"Design","path":"/tag/Design/"},{"title":"Web Design","path":"/tag/Web%20Design/"},{"title":"WordPress","path":"/tag/WordPress/"}]}}]}}},"context":{}}