{"hash":"6d1e7dd52e8c17cf4930f349c6afc1a78b2e1c5e","data":{"records":{"id":"Personal Development","title":"Personal Development","belongsTo":{"totalCount":58,"pageInfo":{"totalPages":7,"currentPage":3},"edges":[{"node":{"__typename":"Course","id":"3775f820-3ef1-11ea-9791-1b580a556b4a","title":"Parenting Without the Fights","slug":"parenting-without-the-fights","headline":"A step-by-step parenting plan to resolve conflicts with your children","created":"24th January 2020","tags":[{"title":"Personal Development","path":"/tag/Personal%20Development/"},{"title":"Parenting & Relationships","path":"/tag/Parenting%20%26%20Relationships/"},{"title":"Parenting","path":"/tag/Parenting/"}]}},{"node":{"__typename":"Course","id":"3775f823-3ef1-11ea-9791-1b580a556b4a","title":"SELF COACHING \"Saca al Genio que llevas dentro\"","slug":"self-coaching-saca-al-genio-que-llevas-dentro","headline":"Aprende Paso a Paso las Como Hacer para Reinventar tu vida y a Convertirte en la persona que siempre has querido ser.","created":"24th January 2020","tags":[{"title":"Personal Development","path":"/tag/Personal%20Development/"},{"title":"Personal Transformation","path":"/tag/Personal%20Transformation/"}]}},{"node":{"__typename":"Course","id":"3775d116-3ef1-11ea-9791-1b580a556b4a","title":"Reinvent Yourself in 30 Days","slug":"reinvent-yourself-in-30-days","headline":"Stop letting others define you. Learn branding process to build a career of influence & distinction.","created":"24th January 2020","tags":[{"title":"Personal Development","path":"/tag/Personal%20Development/"},{"title":"Personal Transformation","path":"/tag/Personal%20Transformation/"},{"title":"Personal Branding","path":"/tag/Personal%20Branding/"}]}},{"node":{"__typename":"Course","id":"3775aa06-3ef1-11ea-9791-1b580a556b4a","title":"Budget - Save - Win. Simplify your financial life.","slug":"budget-save-win-simplify-your-financial-life","headline":"A unique budgeting solution that will help you learn the core essentials around money management.","created":"24th January 2020","tags":[{"title":"Personal Development","path":"/tag/Personal%20Development/"},{"title":"Personal Finance","path":"/tag/Personal%20Finance/"},{"title":"Finance Fundamentals","path":"/tag/Finance%20Fundamentals/"}]}},{"node":{"__typename":"Course","id":"3775aa09-3ef1-11ea-9791-1b580a556b4a","title":"Frugal Living","slug":"frugal-living","headline":"Find out how to adopt a frugal mindset, select a budget that works for you and learn some savings tips and tricks.","created":"24th January 2020","tags":[{"title":"Personal Development","path":"/tag/Personal%20Development/"},{"title":"Personal Finance","path":"/tag/Personal%20Finance/"},{"title":"Minimalist Lifestyle","path":"/tag/Minimalist%20Lifestyle/"}]}},{"node":{"__typename":"Course","id":"37755be6-3ef1-11ea-9791-1b580a556b4a","title":"Discover The 1 Thing You Were Born To Do In 5 Easy Steps!","slug":"discover-the-1-thing-you-were-born-to-do-in-5-easy-steps","headline":"Steve Olsher, award-winning author/speaker will teach you how to reinvent yourself and make a fortune and a difference.","created":"24th January 2020","tags":[{"title":"Personal Development","path":"/tag/Personal%20Development/"},{"title":"Career Development","path":"/tag/Career%20Development/"}]}},{"node":{"__typename":"Course","id":"377582f2-3ef1-11ea-9791-1b580a556b4a","title":"Create a Budget that Works","slug":"create-a-budget-that-works","headline":"Learn how to make a personal budget a practical, approach in 5 easy steps using tools that are adaptable for life.","created":"24th January 2020","tags":[{"title":"Personal Development","path":"/tag/Personal%20Development/"},{"title":"Personal Finance","path":"/tag/Personal%20Finance/"},{"title":"Business Budgeting","path":"/tag/Business%20Budgeting/"}]}},{"node":{"__typename":"Course","id":"377534d0-3ef1-11ea-9791-1b580a556b4a","title":"Use Your Creative Mindpower To Transform Your Life","slug":"use-your-creative-mindpower-to-transform-your-life","headline":"Learn proven techniques to make the most of your mindpower","created":"24th January 2020","tags":[{"title":"Personal Development","path":"/tag/Personal%20Development/"},{"title":"Creativity","path":"/tag/Creativity/"}]}},{"node":{"__typename":"Course","id":"377534d1-3ef1-11ea-9791-1b580a556b4a","title":"Understanding Yourself","slug":"understanding-yourself","headline":"Using major theories of personality to create a happy and satisfying life","created":"24th January 2020","tags":[{"title":"Personal Development","path":"/tag/Personal%20Development/"},{"title":"Personal Transformation","path":"/tag/Personal%20Transformation/"},{"title":"Psychology","path":"/tag/Psychology/"}]}}]}}},"context":{}}