{"hash":"6d1e7dd52e8c17cf4930f349c6afc1a78b2e1c5e","data":{"records":{"id":"Social Media Marketing","title":"Social Media Marketing","belongsTo":{"totalCount":27,"pageInfo":{"totalPages":3,"currentPage":3},"edges":[{"node":{"__typename":"Course","id":"377275b5-3ef1-11ea-9791-1b580a556b4a","title":"Social Media for Special Events","slug":"social-media-for-special-events","headline":"Essential Tips & Tricks for Using Social Media to Increase Exhibitor ROI. Taught by Best-Selling Author Eric Schwartzman","created":"24th January 2020","tags":[{"title":"Marketing","path":"/tag/Marketing/"},{"title":"Social Media Marketing","path":"/tag/Social%20Media%20Marketing/"}]}},{"node":{"__typename":"Course","id":"377275b7-3ef1-11ea-9791-1b580a556b4a","title":"Facebook Training for Business","slug":"facebook-training-for-business","headline":"Facebook tutorials for effective, responsible use at work from the top-rated social media training provider.","created":"24th January 2020","tags":[{"title":"Marketing","path":"/tag/Marketing/"},{"title":"Social Media Marketing","path":"/tag/Social%20Media%20Marketing/"},{"title":"Business Strategy","path":"/tag/Business%20Strategy/"}]}},{"node":{"__typename":"Course","id":"37722796-3ef1-11ea-9791-1b580a556b4a","title":"Social Media Monitoring","slug":"social-media-monitoring","headline":"Our new course on Social Media Monitoring in a post Google Reader World is coming soon","created":"24th January 2020","tags":[{"title":"Marketing","path":"/tag/Marketing/"},{"title":"Social Media Marketing","path":"/tag/Social%20Media%20Marketing/"}]}},{"node":{"__typename":"Course","id":"37722795-3ef1-11ea-9791-1b580a556b4a","title":"Social Media Management","slug":"social-media-management","headline":"Digital marketing training to Learn How to Use Social Media, Social Media Strategy and Social Media Marketing.","created":"24th January 2020","tags":[{"title":"Marketing","path":"/tag/Marketing/"},{"title":"Social Media Marketing","path":"/tag/Social%20Media%20Marketing/"}]}},{"node":{"__typename":"Course","id":"3770ef17-3ef1-11ea-9791-1b580a556b4a","title":"Introduction to Foursquare for Business","slug":"introduction-to-foursquare-for-business","headline":"Learn what Foursquare is all about and how you can make it work for your business.","created":"24th January 2020","tags":[{"title":"Marketing","path":"/tag/Marketing/"},{"title":"Social Media Marketing","path":"/tag/Social%20Media%20Marketing/"},{"title":"Foursquare","path":"/tag/Foursquare/"}]}},{"node":{"__typename":"Course","id":"37702bc1-3ef1-11ea-9791-1b580a556b4a","title":"How To Use Twitter To Build Authority In Your Market Sector","slug":"how-to-use-twitter-to-build-authority-in-your-market-sector","headline":"Learn how to leverage the power of Twitter to build authority for yourself or your company in your market.","created":"24th January 2020","tags":[{"title":"Marketing","path":"/tag/Marketing/"},{"title":"Social Media Marketing","path":"/tag/Social%20Media%20Marketing/"},{"title":"Twitter Marketing","path":"/tag/Twitter%20Marketing/"}]}},{"node":{"__typename":"Course","id":"376ef341-3ef1-11ea-9791-1b580a556b4a","title":"Facebook Timeline Pages For Business","slug":"facebook-timeline-pages-for-business","headline":"Facebook Has Changed The Format For Page Design! How To Get Your Facebook Page Updated","created":"24th January 2020","tags":[{"title":"Marketing","path":"/tag/Marketing/"},{"title":"Social Media Marketing","path":"/tag/Social%20Media%20Marketing/"},{"title":"Facebook Marketing","path":"/tag/Facebook%20Marketing/"}]}},{"node":{"__typename":"Course","id":"376f1a50-3ef1-11ea-9791-1b580a556b4a","title":"Introduction to Facebook Pages for Businesses and Orgs","slug":"introduction-to-facebook-pages-for-businesses-and-orgs","headline":"Learn how to create and manage a Facebook Business Page. Updated for 2014!","created":"24th January 2020","tags":[{"title":"Marketing","path":"/tag/Marketing/"},{"title":"Social Media Marketing","path":"/tag/Social%20Media%20Marketing/"},{"title":"Facebook Marketing","path":"/tag/Facebook%20Marketing/"}]}},{"node":{"__typename":"Course","id":"376e08e3-3ef1-11ea-9791-1b580a556b4a","title":"Selling Social Media to Your Boss","slug":"selling-social-media-to-your-boss","headline":"Win Buy-In and Resources from Senior Business Decision Makers and Potential Clients","created":"24th January 2020","tags":[{"title":"Marketing","path":"/tag/Marketing/"},{"title":"Social Media Marketing","path":"/tag/Social%20Media%20Marketing/"}]}}]}}},"context":{}}