{"hash":"6d1e7dd52e8c17cf4930f349c6afc1a78b2e1c5e","data":{"records":{"id":"Design","title":"Design","belongsTo":{"totalCount":115,"pageInfo":{"totalPages":13,"currentPage":2},"edges":[{"node":{"__typename":"Course","id":"3778de55-3ef1-11ea-9791-1b580a556b4a","title":"Rhino Grasshopper Architectural Space-frame with Connections","slug":"rhino-grasshopper-architectural-space-frame-with-connections","headline":"Creating an Architectural Space-frame with connections and outer skin","created":"24th January 2020","tags":[{"title":"Design","path":"/tag/Design/"},{"title":"Design Tools","path":"/tag/Design%20Tools/"},{"title":"Grasshopper 3d","path":"/tag/Grasshopper%203d/"}]}},{"node":{"__typename":"Course","id":"3778b746-3ef1-11ea-9791-1b580a556b4a","title":"Photoshop dla każdego","slug":"photoshop-dla-kazdego","headline":"Podstawy Photoshopa","created":"24th January 2020","tags":[{"title":"Design","path":"/tag/Design/"},{"title":"Graphic Design","path":"/tag/Graphic%20Design/"},{"title":"Photoshop","path":"/tag/Photoshop/"}]}},{"node":{"__typename":"Course","id":"3778b741-3ef1-11ea-9791-1b580a556b4a","title":"Arte final para estampas","slug":"arte-final-para-estampas","headline":"Crie arte final para estampas de sublimação, silk digital e serigrafia.","created":"24th January 2020","tags":[{"title":"Design","path":"/tag/Design/"},{"title":"Other","path":"/tag/Other/"},{"title":"Digital Art","path":"/tag/Digital%20Art/"}]}},{"node":{"__typename":"Course","id":"3778b742-3ef1-11ea-9791-1b580a556b4a","title":"Blending Traditional & Digital Techniques in Pattern Making","slug":"blending-traditional-and-digital-techniques-in-pattern-making","headline":"Finish a Hand Drawn Pattern by Image Tracing in Illustrator, then testing the fit and colonizing","created":"24th January 2020","tags":[{"title":"Design","path":"/tag/Design/"},{"title":"Graphic Design","path":"/tag/Graphic%20Design/"},{"title":"Surface Pattern Design","path":"/tag/Surface%20Pattern%20Design/"}]}},{"node":{"__typename":"Course","id":"377730a6-3ef1-11ea-9791-1b580a556b4a","title":"How to Build a WordPress Form Using the Gravity Forms Plugin","slug":"how-to-build-a-word-press-form-using-the-gravity-forms-plugin","headline":"Learn Exactly How to Unleash the Power of the Gravity Forms Plugin for WordPress with Our Advanced Video Training Course","created":"24th January 2020","tags":[{"title":"Design","path":"/tag/Design/"},{"title":"Web Design","path":"/tag/Web%20Design/"},{"title":"WordPress","path":"/tag/WordPress/"}]}},{"node":{"__typename":"Course","id":"377730a1-3ef1-11ea-9791-1b580a556b4a","title":"Master Photoshop Elements 11 the Easy Way - 12 Hours","slug":"master-photoshop-elements-11-the-easy-way-12-hours","headline":"Learn Photoshop Elements 11. Get 12 hours of training tutorials. Make your photos lookamazing!","created":"24th January 2020","tags":[{"title":"Design","path":"/tag/Design/"},{"title":"Design Tools","path":"/tag/Design%20Tools/"},{"title":"Photoshop","path":"/tag/Photoshop/"}]}},{"node":{"__typename":"Course","id":"37770996-3ef1-11ea-9791-1b580a556b4a","title":"Discover How to Draw and paint Comics","slug":"discover-how-to-draw-and-paint-comics","headline":"Learn to draw and paint; from your imagination, guaranteed.","created":"24th January 2020","tags":[{"title":"Design","path":"/tag/Design/"},{"title":"Graphic Design","path":"/tag/Graphic%20Design/"},{"title":"Drawing","path":"/tag/Drawing/"}]}},{"node":{"__typename":"Course","id":"3776e281-3ef1-11ea-9791-1b580a556b4a","title":"Project Photoshop: Automation","slug":"project-photoshop-automation","headline":"Learn how to speed up your work & enhance creativity by taking advantage of built-in automations, actions & much more","created":"24th January 2020","tags":[{"title":"Design","path":"/tag/Design/"},{"title":"Design Tools","path":"/tag/Design%20Tools/"},{"title":"Photoshop","path":"/tag/Photoshop/"}]}},{"node":{"__typename":"Course","id":"3776e283-3ef1-11ea-9791-1b580a556b4a","title":"User Experience (UX): The Ultimate Guide to Usability and UX","slug":"user-experience-ux-the-ultimate-guide-to-usability-and-ux","headline":"Get a job in UX and build your user research and UX design skills with this hands-on user experience training course.","created":"24th January 2020","tags":[{"title":"Design","path":"/tag/Design/"},{"title":"User Experience","path":"/tag/User%20Experience/"},{"title":"User Experience Design","path":"/tag/User%20Experience%20Design/"}]}}]}}},"context":{}}