{"hash":"6d1e7dd52e8c17cf4930f349c6afc1a78b2e1c5e","data":{"records":{"id":"Photoshop","title":"Photoshop","belongsTo":{"totalCount":25,"pageInfo":{"totalPages":3,"currentPage":2},"edges":[{"node":{"__typename":"Course","id":"3773fc5a-3ef1-11ea-9791-1b580a556b4a","title":"Smart Object Workflows - Adobe Photoshop","slug":"smart-object-workflows-adobe-photoshop","headline":"Get started with Photoshop Smart Objects Workflow with our Online Photoshop classes.","created":"24th January 2020","tags":[{"title":"Design","path":"/tag/Design/"},{"title":"Design Tools","path":"/tag/Design%20Tools/"},{"title":"Photoshop","path":"/tag/Photoshop/"}]}},{"node":{"__typename":"Course","id":"3773ae30-3ef1-11ea-9791-1b580a556b4a","title":"Photo Restoration with Photoshop Tutorial","slug":"photo-restoration-with-photoshop-tutorial","headline":"Learn how to restore old and damaged photographs using Adobe Photoshop. An easy to follow course that makes learning fun","created":"24th January 2020","tags":[{"title":"Design","path":"/tag/Design/"},{"title":"Design Tools","path":"/tag/Design%20Tools/"},{"title":"Photoshop","path":"/tag/Photoshop/"}]}},{"node":{"__typename":"Course","id":"37736014-3ef1-11ea-9791-1b580a556b4a","title":"Foundations of Photoshop","slug":"foundations-of-photoshop","headline":"Build a strong foundation of basic Photoshop skills","created":"24th January 2020","tags":[{"title":"Design","path":"/tag/Design/"},{"title":"Design Tools","path":"/tag/Design%20Tools/"},{"title":"Photoshop","path":"/tag/Photoshop/"}]}},{"node":{"__typename":"Course","id":"37738720-3ef1-11ea-9791-1b580a556b4a","title":"Photoshop Secrets & Dirty Tricks - Use These Shortcuts Today","slug":"photoshop-secrets-and-dirty-tricks-use-these-shortcuts-today","headline":"It is so simple anyone can do it! You just need to know these shortcuts! No prior photoshop experience or knowhow needed","created":"24th January 2020","tags":[{"title":"Design","path":"/tag/Design/"},{"title":"Design Tools","path":"/tag/Design%20Tools/"},{"title":"Photoshop","path":"/tag/Photoshop/"}]}},{"node":{"__typename":"Course","id":"37729cc1-3ef1-11ea-9791-1b580a556b4a","title":"Photoshop Explained: The Pen Tool","slug":"photoshop-explained-the-pen-tool","headline":"Learn to use the pen tool and its related tools!","created":"24th January 2020","tags":[{"title":"Design","path":"/tag/Design/"},{"title":"Design Tools","path":"/tag/Design%20Tools/"},{"title":"Photoshop","path":"/tag/Photoshop/"}]}},{"node":{"__typename":"Course","id":"377275b0-3ef1-11ea-9791-1b580a556b4a","title":"Master Photoshop Elements 10 the Easy Way - 12 Hours","slug":"master-photoshop-elements-10-the-easy-way-12-hours","headline":"Learn Photoshop Elements 10 - 12 hours of training tutorials. Make your photos lookmagnificent!","created":"24th January 2020","tags":[{"title":"Design","path":"/tag/Design/"},{"title":"Design Tools","path":"/tag/Design%20Tools/"},{"title":"Photoshop","path":"/tag/Photoshop/"}]}},{"node":{"__typename":"Course","id":"37716445-3ef1-11ea-9791-1b580a556b4a","title":"Adobe Photoshop CS6 Tutorial. Self-Paced and Easy to Follow","slug":"adobe-photoshop-c-s6-tutorial-self-paced-and-easy-to-follow","headline":"175 Lessons that show you all you need to know to master Photoshop CS6. Taught by leading Photoshop Trainer","created":"24th January 2020","tags":[{"title":"Design","path":"/tag/Design/"},{"title":"Design Tools","path":"/tag/Design%20Tools/"},{"title":"Photoshop","path":"/tag/Photoshop/"}]}},{"node":{"__typename":"Course","id":"3770c805-3ef1-11ea-9791-1b580a556b4a","title":"Photoshop Tools - Become An Expert In 10 Super Easy Steps","slug":"photoshop-tools-become-an-expert-in-10-super-easy-steps","headline":"Photoshop Tools - Become an Expert in Photoshop Tools and Rock - With no experience or prior Photoshop knowledge.","created":"24th January 2020","tags":[{"title":"Design","path":"/tag/Design/"},{"title":"Design Tools","path":"/tag/Design%20Tools/"},{"title":"Photoshop","path":"/tag/Photoshop/"}]}},{"node":{"__typename":"Course","id":"377079e2-3ef1-11ea-9791-1b580a556b4a","title":"Photoshop Master Course: From Beginner to Photoshop Pro","slug":"photoshop-master-course-from-beginner-to-photoshop-pro","headline":"This Adobe Photoshop Beginner Course will teach a Beginner Photoshop user all essentials of Adobe Photoshop CC","created":"24th January 2020","tags":[{"title":"Design","path":"/tag/Design/"},{"title":"Design Tools","path":"/tag/Design%20Tools/"},{"title":"Photoshop","path":"/tag/Photoshop/"}]}}]}}},"context":{}}