{"hash":"6d1e7dd52e8c17cf4930f349c6afc1a78b2e1c5e","data":{"records":{"id":"Other","title":"Other","belongsTo":{"totalCount":26,"pageInfo":{"totalPages":3,"currentPage":2},"edges":[{"node":{"__typename":"Course","id":"377757b1-3ef1-11ea-9791-1b580a556b4a","title":"The Definitive Guide For Website Owners","slug":"the-definitive-guide-for-website-owners","headline":"Learn how to understand your Web Designer and how to make the right choices for your website.","created":"24th January 2020","tags":[{"title":"IT & Software","path":"/tag/IT%20%26%20Software/"},{"title":"Other","path":"/tag/Other/"},{"title":"Web Development","path":"/tag/Web%20Development/"}]}},{"node":{"__typename":"Course","id":"377730aa-3ef1-11ea-9791-1b580a556b4a","title":"QuickBooks Pro 2013 Training the Easy Way","slug":"quick-books-pro-2013-training-the-easy-way","headline":"Learn how to manage the finances for a small business using our drop-dead simple method to mastering QuickBooks Pro.","created":"24th January 2020","tags":[{"title":"Office Productivity","path":"/tag/Office%20Productivity/"},{"title":"Other","path":"/tag/Other/"},{"title":"QuickBooks Pro","path":"/tag/QuickBooks%20Pro/"}]}},{"node":{"__typename":"Course","id":"37761f31-3ef1-11ea-9791-1b580a556b4a","title":"Prove It! Testimonials That Sell","slug":"prove-it-testimonials-that-sell","headline":"Earn great testimonials. Collect them. Use your testimonials to gain instant credibility, and close many more sales.","created":"24th January 2020","tags":[{"title":"Marketing","path":"/tag/Marketing/"},{"title":"Other","path":"/tag/Other/"},{"title":"Sales Skills","path":"/tag/Sales%20Skills/"}]}},{"node":{"__typename":"Course","id":"377582f4-3ef1-11ea-9791-1b580a556b4a","title":"Introducción al cloud computing (IaaS)","slug":"introduccion-al-cloud-computing-iaa-s","headline":"Entiende que es \"cloud computing\" y aprende a utilizar servicios de Amazon AWS...","created":"24th January 2020","tags":[{"title":"IT & Software","path":"/tag/IT%20%26%20Software/"},{"title":"Other","path":"/tag/Other/"},{"title":"Cloud Computing","path":"/tag/Cloud%20Computing/"}]}},{"node":{"__typename":"Course","id":"3774718a-3ef1-11ea-9791-1b580a556b4a","title":"How to Win at IT Freelancing","slug":"how-to-win-at-it-freelancing","headline":"If you have marketable IT skills and want the freedom to choose when and where you work then freelancing may be for you.","created":"24th January 2020","tags":[{"title":"Design","path":"/tag/Design/"},{"title":"Other","path":"/tag/Other/"},{"title":"Freelancing","path":"/tag/Freelancing/"}]}},{"node":{"__typename":"Course","id":"37747180-3ef1-11ea-9791-1b580a556b4a","title":"Building Online Help for Beginners Using Adobe RoboHelp 11","slug":"building-online-help-for-beginners-using-adobe-robo-help-11","headline":"Learn how to use Adobe RoboHelp 11 to create effective online help and support users of your software or web app.","created":"24th January 2020","tags":[{"title":"IT & Software","path":"/tag/IT%20%26%20Software/"},{"title":"Other","path":"/tag/Other/"},{"title":"Technical Writing","path":"/tag/Technical%20Writing/"}]}},{"node":{"__typename":"Course","id":"3773fc57-3ef1-11ea-9791-1b580a556b4a","title":"Orthopaedics for Medical Students","slug":"orthopaedics-for-medical-students","headline":"Warrnambool Campus Orthopaedic Course","created":"24th January 2020","tags":[{"title":"Health & Fitness","path":"/tag/Health%20%26%20Fitness/"},{"title":"Other","path":"/tag/Other/"},{"title":"Anatomy","path":"/tag/Anatomy/"}]}},{"node":{"__typename":"Course","id":"3773fc59-3ef1-11ea-9791-1b580a556b4a","title":"QuickBooks Pro 2012 Training the Easy Way","slug":"quick-books-pro-2012-training-the-easy-way","headline":"Learn how to manage the finances for a small business using our drop-dead simple method to mastering QuickBooks Pro.","created":"24th January 2020","tags":[{"title":"Office Productivity","path":"/tag/Office%20Productivity/"},{"title":"Other","path":"/tag/Other/"},{"title":"QuickBooks Pro","path":"/tag/QuickBooks%20Pro/"}]}},{"node":{"__typename":"Course","id":"37733907-3ef1-11ea-9791-1b580a556b4a","title":"The Art of Black and White Photography","slug":"the-art-of-black-and-white-photography","headline":"Learn how to create dramatic and compelling black and white images using a range of powerful Photoshop techniques.","created":"24th January 2020","tags":[{"title":"Photography","path":"/tag/Photography/"},{"title":"Other","path":"/tag/Other/"},{"title":"Black and White Photography","path":"/tag/Black%20and%20White%20Photography/"}]}}]}}},"context":{}}