{"hash":"6d1e7dd52e8c17cf4930f349c6afc1a78b2e1c5e","data":{"records":{"id":"IT Certification","title":"IT Certification","belongsTo":{"totalCount":88,"pageInfo":{"totalPages":10,"currentPage":4},"edges":[{"node":{"__typename":"Course","id":"37797a94-3ef1-11ea-9791-1b580a556b4a","title":"Oracle Essbase 11 Essentials | 1Z0-531","slug":"oracle-essbase-11-essentials-1-z0-531","headline":"Pass Oracle Essbase 11 Essentials exam on the first attempt. 2 Practice test with unique questions and explanation.","created":"24th January 2020","tags":[{"title":"IT & Software","path":"/tag/IT%20%26%20Software/"},{"title":"IT Certification","path":"/tag/IT%20Certification/"}]}},{"node":{"__typename":"Course","id":"37797a95-3ef1-11ea-9791-1b580a556b4a","title":"Oracle Exadata Database Machine and Cloud Service | 1Z0-338","slug":"oracle-exadata-database-machine-and-cloud-service-1-z0-338","headline":"Pass Oracle Exadata Database Machine and Cloud Service 2017 Implementation Essentials Exam on the first attempt.","created":"24th January 2020","tags":[{"title":"IT & Software","path":"/tag/IT%20%26%20Software/"},{"title":"IT Certification","path":"/tag/IT%20Certification/"}]}},{"node":{"__typename":"Course","id":"37797a96-3ef1-11ea-9791-1b580a556b4a","title":"Oracle Fusion Middleware 11g | 1Z0-151","slug":"oracle-fusion-middleware-11g-1-z0-151","headline":"Pass OCP - Oracle Fusion Middleware 11g: Build Applications with Oracle Forms Exam on the first attempt.","created":"24th January 2020","tags":[{"title":"IT & Software","path":"/tag/IT%20%26%20Software/"},{"title":"IT Certification","path":"/tag/IT%20Certification/"}]}},{"node":{"__typename":"Course","id":"37790568-3ef1-11ea-9791-1b580a556b4a","title":"OFFICIAL Adobe Experience Manager Business Pratictioner","slug":"official-adobe-experience-manager-business-pratictioner","headline":"The most complete AD0-E102 (Adobe Experience Manager Business Practitioner) certification preparation you've ever seen!","created":"24th January 2020","tags":[{"title":"IT & Software","path":"/tag/IT%20%26%20Software/"},{"title":"IT Certification","path":"/tag/IT%20Certification/"},{"title":"Adobe Experience Manager","path":"/tag/Adobe%20Experience%20Manager/"}]}},{"node":{"__typename":"Course","id":"37790569-3ef1-11ea-9791-1b580a556b4a","title":"OFFICIAL Microsoft Dynamics 365 Supply Chain Management","slug":"official-microsoft-dynamics-365-supply-chain-management","headline":"The most complete MB-330 (Microsoft Dynamics 365 Supply Chain Management) certification preparation you've ever seen!","created":"24th January 2020","tags":[{"title":"IT & Software","path":"/tag/IT%20%26%20Software/"},{"title":"IT Certification","path":"/tag/IT%20Certification/"},{"title":"Microsoft Dynamics 365","path":"/tag/Microsoft%20Dynamics%20365/"}]}},{"node":{"__typename":"Course","id":"37792c70-3ef1-11ea-9791-1b580a556b4a","title":"OFFICIAL Professional VMware Horizon (ZV0-51.18)","slug":"official-professional-v-mware-horizon-z-v0-51-18","headline":"The most complete 2V0-51.18 (Professional Horizon) certification preparation you've ever seen!","created":"24th January 2020","tags":[{"title":"IT & Software","path":"/tag/IT%20%26%20Software/"},{"title":"IT Certification","path":"/tag/IT%20Certification/"},{"title":"VMware Certified Professional - Data Center Virtualization (VCP-DCV)","path":"/tag/VMware%20Certified%20Professional%20-%20Data%20Center%20Virtualization%20(VCP-DCV)/"}]}},{"node":{"__typename":"Course","id":"37792c71-3ef1-11ea-9791-1b580a556b4a","title":"OFFICIAL VMware Professional - Digital Workspace (ZV0-761)","slug":"official-v-mware-professional-digital-workspace-z-v0-761","headline":"The most complete 2V0-761 (VMware Certified Professional -Digital Workspace 2018) certification preparation you've seen!","created":"24th January 2020","tags":[{"title":"IT & Software","path":"/tag/IT%20%26%20Software/"},{"title":"IT Certification","path":"/tag/IT%20Certification/"},{"title":"VMWare Cloud","path":"/tag/VMWare%20Cloud/"}]}},{"node":{"__typename":"Course","id":"37792c72-3ef1-11ea-9791-1b580a556b4a","title":"OFFICIAL VMware Professional vSphere 6.7 (ZV0-21.19 PSE)","slug":"official-v-mware-professional-v-sphere-6-7-z-v0-21-19-pse","headline":"The most complete 2V0-21.19 PSE (Professional vSphere 6.7 Exam 2019) certification preparation you've ever seen!","created":"24th January 2020","tags":[{"title":"IT & Software","path":"/tag/IT%20%26%20Software/"},{"title":"IT Certification","path":"/tag/IT%20Certification/"},{"title":"VMware Certified Professional - Data Center Virtualization (VCP-DCV)","path":"/tag/VMware%20Certified%20Professional%20-%20Data%20Center%20Virtualization%20(VCP-DCV)/"}]}},{"node":{"__typename":"Course","id":"37792c74-3ef1-11ea-9791-1b580a556b4a","title":"156-215.75 Check Certified Security Administrator R75 Exam","slug":"156-215-75-check-certified-security-administrator-r75-exam","headline":"156-215.75 Check Certified Security Administrator R75 Practice Exam || Get Certification","created":"24th January 2020","tags":[{"title":"IT & Software","path":"/tag/IT%20%26%20Software/"},{"title":"IT Certification","path":"/tag/IT%20Certification/"},{"title":"Check Point Certified Security Administrator (CCSA)","path":"/tag/Check%20Point%20Certified%20Security%20Administrator%20(CCSA)/"}]}}]}}},"context":{}}