{"hash":"6d1e7dd52e8c17cf4930f349c6afc1a78b2e1c5e","data":{"records":{"id":"Marketing","title":"Marketing","belongsTo":{"totalCount":72,"pageInfo":{"totalPages":8,"currentPage":1},"edges":[{"node":{"__typename":"Course","id":"377a64f8-3ef1-11ea-9791-1b580a556b4a","title":"Instagram For Beginners: Fast Track Training 2020","slug":"instagram-for-beginners-fast-track-training-2020","headline":"Learn how to use Instagram quickly and easily for yourself or business","created":"24th January 2020","tags":[{"title":"Marketing","path":"/tag/Marketing/"},{"title":"Social Media Marketing","path":"/tag/Social%20Media%20Marketing/"},{"title":"Instagram Marketing","path":"/tag/Instagram%20Marketing/"}]}},{"node":{"__typename":"Course","id":"377a64f9-3ef1-11ea-9791-1b580a556b4a","title":"Intro to Getresponse - Tutorial for Beginners","slug":"intro-to-getresponse-tutorial-for-beginners","headline":"A Free introduction to Getresponse for beginners. A Getresponse Tutorial for complete beginners","created":"24th January 2020","tags":[{"title":"Marketing","path":"/tag/Marketing/"},{"title":"Digital Marketing","path":"/tag/Digital%20Marketing/"},{"title":"GetResponse","path":"/tag/GetResponse/"}]}},{"node":{"__typename":"Course","id":"377a3de7-3ef1-11ea-9791-1b580a556b4a","title":"The Complete Linkedin Masterclass For Marketing And Careers","slug":"the-complete-linkedin-masterclass-for-marketing-and-careers","headline":"Make thousands of connections, kick-start your career and even become an influencer.","created":"24th January 2020","tags":[{"title":"Marketing","path":"/tag/Marketing/"},{"title":"Social Media Marketing","path":"/tag/Social%20Media%20Marketing/"},{"title":"LinkedIn","path":"/tag/LinkedIn/"}]}},{"node":{"__typename":"Course","id":"3779c8b5-3ef1-11ea-9791-1b580a556b4a","title":"Create A STUNNING Wix Website|Wix Website Tutorial","slug":"create-a-stunning-wix-website-wix-website-tutorial","headline":"Wix Website Design For Complete Beginners | Become a Wix Website Design Pro","created":"24th January 2020","tags":[{"title":"Marketing","path":"/tag/Marketing/"},{"title":"Digital Marketing","path":"/tag/Digital%20Marketing/"},{"title":"Wix","path":"/tag/Wix/"}]}},{"node":{"__typename":"Course","id":"3779c8b6-3ef1-11ea-9791-1b580a556b4a","title":"YouTube (Live) For Beginners: Fast Track Training 2020","slug":"you-tube-live-for-beginners-fast-track-training-2020","headline":"Learn how to use YouTube (Live) quickly and easily for yourself or business","created":"24th January 2020","tags":[{"title":"Marketing","path":"/tag/Marketing/"},{"title":"Social Media Marketing","path":"/tag/Social%20Media%20Marketing/"},{"title":"YouTube Audience Growth","path":"/tag/YouTube%20Audience%20Growth/"}]}},{"node":{"__typename":"Course","id":"3779a1ac-3ef1-11ea-9791-1b580a556b4a","title":"MARKETING SIECIOWY - Jak zarabiać przez internet?","slug":"marketing-sieciowy-jak-zarabiac-przez-internet","headline":"Kompletny kurs marketingu sieciowego! Jak założyć biznes sieciowy bez kapitału i doświadczenia!","created":"24th January 2020","tags":[{"title":"Marketing","path":"/tag/Marketing/"},{"title":"Social Media Marketing","path":"/tag/Social%20Media%20Marketing/"},{"title":"Network Marketing","path":"/tag/Network%20Marketing/"}]}},{"node":{"__typename":"Course","id":"37790566-3ef1-11ea-9791-1b580a556b4a","title":"How to Create a Wordpress Website & Sales Page in 1 Hour","slug":"how-to-create-a-wordpress-website-and-sales-page-in-1-hour","headline":"Creating a professionally designed sales page that can accept credit cards has never been easier thanks to technology!","created":"24th January 2020","tags":[{"title":"Marketing","path":"/tag/Marketing/"},{"title":"Other","path":"/tag/Other/"},{"title":"WordPress","path":"/tag/WordPress/"}]}},{"node":{"__typename":"Course","id":"37789031-3ef1-11ea-9791-1b580a556b4a","title":"TikTok Beginner's Master Course To Grow Followers 2020","slug":"tik-tok-beginner-s-master-course-to-grow-followers-2020","headline":"How to use TikTok, gain a community of loyal followers, become TikTok famous and how to use it as a business for growth","created":"24th January 2020","tags":[{"title":"Marketing","path":"/tag/Marketing/"},{"title":"Social Media Marketing","path":"/tag/Social%20Media%20Marketing/"},{"title":"TikTok Marketing","path":"/tag/TikTok%20Marketing/"}]}},{"node":{"__typename":"Course","id":"3777a5d3-3ef1-11ea-9791-1b580a556b4a","title":"SEO - référencement naturel","slug":"seo-referencement-naturel","headline":"Comment vous placer en tête des moteurs de recherche","created":"24th January 2020","tags":[{"title":"Marketing","path":"/tag/Marketing/"},{"title":"Search Engine Optimization","path":"/tag/Search%20Engine%20Optimization/"},{"title":"SEO","path":"/tag/SEO/"}]}}]}}},"context":{}}