{"hash":"6d1e7dd52e8c17cf4930f349c6afc1a78b2e1c5e","data":{"records":{"id":"Mobile Apps","title":"Mobile Apps","belongsTo":{"totalCount":18,"pageInfo":{"totalPages":2,"currentPage":1},"edges":[{"node":{"__typename":"Course","id":"3779c8b0-3ef1-11ea-9791-1b580a556b4a","title":"Swift 5","slug":"swift-5","headline":"The Language of iOS Development","created":"24th January 2020","tags":[{"title":"Development","path":"/tag/Development/"},{"title":"Mobile Apps","path":"/tag/Mobile%20Apps/"},{"title":"Swift","path":"/tag/Swift/"}]}},{"node":{"__typename":"Course","id":"37790561-3ef1-11ea-9791-1b580a556b4a","title":"Flutter Bottom Navigation Bar","slug":"flutter-bottom-navigation-bar","headline":"make bottom navigation bar and many screens","created":"24th January 2020","tags":[{"title":"Development","path":"/tag/Development/"},{"title":"Mobile Apps","path":"/tag/Mobile%20Apps/"},{"title":"Google Flutter","path":"/tag/Google%20Flutter/"}]}},{"node":{"__typename":"Course","id":"37790562-3ef1-11ea-9791-1b580a556b4a","title":"Flutter Credit Card Number Validator","slug":"flutter-credit-card-number-validator","headline":"A dart package to check if card number is valid and also returns card type as well.","created":"24th January 2020","tags":[{"title":"Development","path":"/tag/Development/"},{"title":"Mobile Apps","path":"/tag/Mobile%20Apps/"}]}},{"node":{"__typename":"Course","id":"3775f821-3ef1-11ea-9791-1b580a556b4a","title":"Profiting From QR Codes - With A Twist","slug":"profiting-from-qr-codes-with-a-twist","headline":"Finally, Discover How to Engage and Presell Your Customers Through An Exploding Mobile Marketing Technology QR Codes..","created":"24th January 2020","tags":[{"title":"Development","path":"/tag/Development/"},{"title":"Mobile Apps","path":"/tag/Mobile%20Apps/"},{"title":"QR Codes","path":"/tag/QR%20Codes/"}]}},{"node":{"__typename":"Course","id":"377534d3-3ef1-11ea-9791-1b580a556b4a","title":"Learn Android 4.0 Programming in Java","slug":"learn-android-4-0-programming-in-java","headline":"Learn to write real, working Android applications quickly and effectively, from the ground up.","created":"24th January 2020","tags":[{"title":"Development","path":"/tag/Development/"},{"title":"Mobile Apps","path":"/tag/Mobile%20Apps/"},{"title":"Android Development","path":"/tag/Android%20Development/"}]}},{"node":{"__typename":"Course","id":"37749896-3ef1-11ea-9791-1b580a556b4a","title":"How to add In App Purchases to your iPhone app the easy way","slug":"how-to-add-in-app-purchases-to-your-i-phone-app-the-easy-way","headline":"The fastest and easiest way to implement MKStoreKit and boost your sales! Learn how to monetize your app now!","created":"24th January 2020","tags":[{"title":"Development","path":"/tag/Development/"},{"title":"Mobile Apps","path":"/tag/Mobile%20Apps/"},{"title":"iOS Development","path":"/tag/iOS%20Development/"}]}},{"node":{"__typename":"Course","id":"37744a70-3ef1-11ea-9791-1b580a556b4a","title":"Developing Mobile Websites","slug":"developing-mobile-websites","headline":"Learn how to use HTML5, CSS, JavaScript, and other tools to create mobile websites from the experts at Webucator.","created":"24th January 2020","tags":[{"title":"Development","path":"/tag/Development/"},{"title":"Mobile Apps","path":"/tag/Mobile%20Apps/"},{"title":"Mobile Web Sites","path":"/tag/Mobile%20Web%20Sites/"}]}},{"node":{"__typename":"Course","id":"3773d548-3ef1-11ea-9791-1b580a556b4a","title":"Become an iOS Developer from Scratch","slug":"become-an-i-os-developer-from-scratch","headline":"A step-by-step iOS development tutorial for aspiring developers with no coding or Objective-C experience.","created":"24th January 2020","tags":[{"title":"Development","path":"/tag/Development/"},{"title":"Mobile Apps","path":"/tag/Mobile%20Apps/"},{"title":"iOS Development","path":"/tag/iOS%20Development/"}]}},{"node":{"__typename":"Course","id":"3773ae31-3ef1-11ea-9791-1b580a556b4a","title":"Beginner Mobile App Development with Appcelerator Titanium","slug":"beginner-mobile-app-development-with-appcelerator-titanium","headline":"Learn to develop native iPhone, Android, Blackberry, and Mobile Web apps with Open Source tools.","created":"24th January 2020","tags":[{"title":"Development","path":"/tag/Development/"},{"title":"Mobile Apps","path":"/tag/Mobile%20Apps/"},{"title":"Appcelerator Titanium","path":"/tag/Appcelerator%20Titanium/"}]}}]}}},"context":{}}