{"hash":"6d1e7dd52e8c17cf4930f349c6afc1a78b2e1c5e","data":{"records":{"id":"Development","title":"Development","belongsTo":{"totalCount":129,"pageInfo":{"totalPages":15,"currentPage":6},"edges":[{"node":{"__typename":"Course","id":"37747184-3ef1-11ea-9791-1b580a556b4a","title":"Aprende CSS3 sin dolor","slug":"aprende-cs-s3-sin-dolor","headline":"Realiza animaciones asombrosas, antes imposibles con HTML con los estilos en cascada nivel 3.","created":"24th January 2020","tags":[{"title":"Development","path":"/tag/Development/"},{"title":"Web Development","path":"/tag/Web%20Development/"},{"title":"CSS","path":"/tag/CSS/"}]}},{"node":{"__typename":"Course","id":"37744a74-3ef1-11ea-9791-1b580a556b4a","title":"Introducción al HTML y CSS","slug":"introduccion-al-html-y-css","headline":"Curso básico para construir páginas web con HTML y CSS","created":"24th January 2020","tags":[{"title":"Development","path":"/tag/Development/"},{"title":"Web Development","path":"/tag/Web%20Development/"},{"title":"CSS","path":"/tag/CSS/"}]}},{"node":{"__typename":"Course","id":"37744a75-3ef1-11ea-9791-1b580a556b4a","title":"Introduction to JavaScript","slug":"introduction-to-java-script","headline":"Learn how to use JavaScript effectively from the experts at Webucator JavaScript Training","created":"24th January 2020","tags":[{"title":"Development","path":"/tag/Development/"},{"title":"Web Development","path":"/tag/Web%20Development/"},{"title":"JavaScript","path":"/tag/JavaScript/"}]}},{"node":{"__typename":"Course","id":"37744a76-3ef1-11ea-9791-1b580a556b4a","title":"Servlets and JSPs Tutorial: Learn Web Applications With Java","slug":"servlets-and-js-ps-tutorial-learn-web-applications-with-java","headline":"Learn how to create dynamic websites using the Java programming language with this java web application tutorial","created":"24th January 2020","tags":[{"title":"Development","path":"/tag/Development/"},{"title":"Web Development","path":"/tag/Web%20Development/"},{"title":"Servlet","path":"/tag/Servlet/"}]}},{"node":{"__typename":"Course","id":"37742364-3ef1-11ea-9791-1b580a556b4a","title":"Advanced JavaScript Programming","slug":"advanced-java-script-programming","headline":"Learn advanced JavaScript techniques and good standard coding conventions from the experts at Webucator Training.","created":"24th January 2020","tags":[{"title":"Development","path":"/tag/Development/"},{"title":"Web Development","path":"/tag/Web%20Development/"},{"title":"JavaScript","path":"/tag/JavaScript/"}]}},{"node":{"__typename":"Course","id":"37744a70-3ef1-11ea-9791-1b580a556b4a","title":"Developing Mobile Websites","slug":"developing-mobile-websites","headline":"Learn how to use HTML5, CSS, JavaScript, and other tools to create mobile websites from the experts at Webucator.","created":"24th January 2020","tags":[{"title":"Development","path":"/tag/Development/"},{"title":"Mobile Apps","path":"/tag/Mobile%20Apps/"},{"title":"Mobile Web Sites","path":"/tag/Mobile%20Web%20Sites/"}]}},{"node":{"__typename":"Course","id":"37744a71-3ef1-11ea-9791-1b580a556b4a","title":"Aprende Javascript, HTML5 y CSS3","slug":"aprende-javascript-htm-l5-y-cs-s3","headline":"Aprende los principales lenguajes que dominan internet: JavaScript, HTML5 y CSS3","created":"24th January 2020","tags":[{"title":"Development","path":"/tag/Development/"},{"title":"Web Development","path":"/tag/Web%20Development/"},{"title":"CSS","path":"/tag/CSS/"}]}},{"node":{"__typename":"Course","id":"3773d548-3ef1-11ea-9791-1b580a556b4a","title":"Become an iOS Developer from Scratch","slug":"become-an-i-os-developer-from-scratch","headline":"A step-by-step iOS development tutorial for aspiring developers with no coding or Objective-C experience.","created":"24th January 2020","tags":[{"title":"Development","path":"/tag/Development/"},{"title":"Mobile Apps","path":"/tag/Mobile%20Apps/"},{"title":"iOS Development","path":"/tag/iOS%20Development/"}]}},{"node":{"__typename":"Course","id":"3773fc52-3ef1-11ea-9791-1b580a556b4a","title":"Learn How To Build A Corporate Website Using Joomla! 2.5","slug":"learn-how-to-build-a-corporate-website-using-joomla-2-5","headline":"THIS COURSE USES JOOMLA 2.5. You should only use this course if you are maintaining a Joomla 2.5 website.","created":"24th January 2020","tags":[{"title":"Development","path":"/tag/Development/"},{"title":"Web Development","path":"/tag/Web%20Development/"},{"title":"Joomla","path":"/tag/Joomla/"}]}}]}}},"context":{}}