{"hash":"6d1e7dd52e8c17cf4930f349c6afc1a78b2e1c5e","data":{"records":{"id":"Web Development","title":"Web Development","belongsTo":{"totalCount":55,"pageInfo":{"totalPages":7,"currentPage":1},"edges":[{"node":{"__typename":"Course","id":"377a3de1-3ef1-11ea-9791-1b580a556b4a","title":"Top Python and Django Web Development Bundle!","slug":"top-python-and-django-web-development-bundle","headline":"Learn Python Programming and The Django Web Framework In One Awesome Bundle! Learn How To Build Websites Fast!","created":"24th January 2020","tags":[{"title":"Development","path":"/tag/Development/"},{"title":"Web Development","path":"/tag/Web%20Development/"},{"title":"Django","path":"/tag/Django/"}]}},{"node":{"__typename":"Course","id":"3779c8bb-3ef1-11ea-9791-1b580a556b4a","title":"Frontend Developer Interview Questions & Answers","slug":"frontend-developer-interview-questions-and-answers","headline":"Javascript, CSS, and HTML Interview Prep","created":"24th January 2020","tags":[{"title":"Development","path":"/tag/Development/"},{"title":"Web Development","path":"/tag/Web%20Development/"},{"title":"Front End Web Development","path":"/tag/Front%20End%20Web%20Development/"}]}},{"node":{"__typename":"Course","id":"3778de59-3ef1-11ea-9791-1b580a556b4a","title":"Criando um Servidor no Amazon EC2","slug":"criando-um-servidor-no-amazon-e-c2","headline":"As instâncias T2 são um tipo de instância do Amazon EC2","created":"24th January 2020","tags":[{"title":"Development","path":"/tag/Development/"},{"title":"Web Development","path":"/tag/Web%20Development/"},{"title":"Amazon AWS","path":"/tag/Amazon%20AWS/"}]}},{"node":{"__typename":"Course","id":"3778b74b-3ef1-11ea-9791-1b580a556b4a","title":"Vue Js 2 Essential: Basics for beginners Vue Js","slug":"vue-js-2-essential-basics-for-beginners-vue-js","headline":"A beginner's guide to learn the basics of the JavaScript Framework Vue.js","created":"24th January 2020","tags":[{"title":"Development","path":"/tag/Development/"},{"title":"Web Development","path":"/tag/Web%20Development/"},{"title":"Vue JS","path":"/tag/Vue%20JS/"}]}},{"node":{"__typename":"Course","id":"37786928-3ef1-11ea-9791-1b580a556b4a","title":"Cómo hacer un sitio web rápido con Wordpress ¡Vende páginas!","slug":"como-hacer-un-sitio-web-rapido-con-wordpress-vende-paginas","headline":"Hacer páginas web profesionales para negocios","created":"24th January 2020","tags":[{"title":"Development","path":"/tag/Development/"},{"title":"Web Development","path":"/tag/Web%20Development/"},{"title":"WordPress","path":"/tag/WordPress/"}]}},{"node":{"__typename":"Course","id":"377757b1-3ef1-11ea-9791-1b580a556b4a","title":"The Definitive Guide For Website Owners","slug":"the-definitive-guide-for-website-owners","headline":"Learn how to understand your Web Designer and how to make the right choices for your website.","created":"24th January 2020","tags":[{"title":"IT & Software","path":"/tag/IT%20%26%20Software/"},{"title":"Other","path":"/tag/Other/"},{"title":"Web Development","path":"/tag/Web%20Development/"}]}},{"node":{"__typename":"Course","id":"3776bb75-3ef1-11ea-9791-1b580a556b4a","title":"Learn Web Designing & HTML5/CSS3 Essentials in 4-Hours","slug":"learn-web-designing-and-htm-l5-cs-s3-essentials-in-4-hours","headline":"Convert Photoshop Designs into Stunning HTML5 & CSS3 websites with confidence. Absolutely no prior experience necessary!","created":"24th January 2020","tags":[{"title":"Development","path":"/tag/Development/"},{"title":"Web Development","path":"/tag/Web%20Development/"},{"title":"CSS","path":"/tag/CSS/"}]}},{"node":{"__typename":"Course","id":"3775d118-3ef1-11ea-9791-1b580a556b4a","title":"Advanced HTML5 Tutorial for Web Developers","slug":"advanced-htm-l5-tutorial-for-web-developers","headline":"Take Your HTML5 Skills To The Next Level. Master The Advanced Features Of HTML5 With This Practical Hands-on Tutorial","created":"24th January 2020","tags":[{"title":"Development","path":"/tag/Development/"},{"title":"Web Development","path":"/tag/Web%20Development/"},{"title":"HTML5","path":"/tag/HTML5/"}]}},{"node":{"__typename":"Course","id":"377582f0-3ef1-11ea-9791-1b580a556b4a","title":"Aprende a crear SITIOS WEB con PHP y MySql","slug":"aprende-a-crear-sitios-web-con-php-y-my-sql","headline":"curso desarrollado especialmente para NO-PROGRAMADORES, usuarios de MAC y PC!","created":"24th January 2020","tags":[{"title":"Development","path":"/tag/Development/"},{"title":"Web Development","path":"/tag/Web%20Development/"},{"title":"PHP","path":"/tag/PHP/"}]}}]}}},"context":{}}