{"hash":"6d1e7dd52e8c17cf4930f349c6afc1a78b2e1c5e","data":{"records":{"id":"Business","title":"Business","belongsTo":{"totalCount":119,"pageInfo":{"totalPages":14,"currentPage":7},"edges":[{"node":{"__typename":"Course","id":"37749890-3ef1-11ea-9791-1b580a556b4a","title":"Take Panic Out of Presenting with Simple Story Skills","slug":"take-panic-out-of-presenting-with-simple-story-skills","headline":"Speaking can be hard, but it doesn't have to be. Learn how basic story telling can make it easy to create a presentation","created":"24th January 2020","tags":[{"title":"Business","path":"/tag/Business/"},{"title":"Communications","path":"/tag/Communications/"},{"title":"Public Speaking","path":"/tag/Public%20Speaking/"}]}},{"node":{"__typename":"Course","id":"37749894-3ef1-11ea-9791-1b580a556b4a","title":"Como Vender una Casa","slug":"como-vender-una-casa","headline":"Todo lo que necesita saber un profesional de ventas de vivienda de interés social.","created":"24th January 2020","tags":[{"title":"Business","path":"/tag/Business/"},{"title":"Real Estate","path":"/tag/Real%20Estate/"}]}},{"node":{"__typename":"Course","id":"37749895-3ef1-11ea-9791-1b580a556b4a","title":"Create an Awesome Book Trailer for Your Fiction Title","slug":"create-an-awesome-book-trailer-for-your-fiction-title","headline":"It's pretty much a fact most Book Trailers are dreadful. Avoid this fate and create an awesome one.","created":"24th January 2020","tags":[{"title":"Business","path":"/tag/Business/"},{"title":"Media","path":"/tag/Media/"},{"title":"Writing a Book","path":"/tag/Writing%20a%20Book/"}]}},{"node":{"__typename":"Course","id":"37747183-3ef1-11ea-9791-1b580a556b4a","title":"Cold Calling: A New Approach","slug":"cold-calling-a-new-approach","headline":"Cold calling leads to failure, fatigue, and more failure - it's time to adopt a new strategy. Start with this course.","created":"24th January 2020","tags":[{"title":"Business","path":"/tag/Business/"},{"title":"Sales","path":"/tag/Sales/"},{"title":"Cold Calling","path":"/tag/Cold%20Calling/"}]}},{"node":{"__typename":"Course","id":"37747185-3ef1-11ea-9791-1b580a556b4a","title":"Deliver Value: A Cash Source Crash Course","slug":"deliver-value-a-cash-source-crash-course","headline":"Staying in touch with customers isn't enough. You must engage them from day one with value -here's the sales techniques.","created":"24th January 2020","tags":[{"title":"Business","path":"/tag/Business/"},{"title":"Sales","path":"/tag/Sales/"},{"title":"Value Investing","path":"/tag/Value%20Investing/"}]}},{"node":{"__typename":"Course","id":"37747186-3ef1-11ea-9791-1b580a556b4a","title":"Differentiate or Die","slug":"differentiate-or-die","headline":"In business and sales, standing out is do or die. This course is your complete how to for differentiation success.","created":"24th January 2020","tags":[{"title":"Business","path":"/tag/Business/"},{"title":"Sales","path":"/tag/Sales/"},{"title":"Business Strategy","path":"/tag/Business%20Strategy/"}]}},{"node":{"__typename":"Course","id":"37747187-3ef1-11ea-9791-1b580a556b4a","title":"How to Ask Powerful, Emotionally Engaging Questions","slug":"how-to-ask-powerful-emotionally-engaging-questions","headline":"Master the science of asking smart, shrewd questions that unlock the mind and motives of you customers to create sales.","created":"24th January 2020","tags":[{"title":"Business","path":"/tag/Business/"},{"title":"Communications","path":"/tag/Communications/"},{"title":"Sales Skills","path":"/tag/Sales%20Skills/"}]}},{"node":{"__typename":"Course","id":"37747189-3ef1-11ea-9791-1b580a556b4a","title":"Create Better Youtube Videos Learn the Art of Directing","slug":"create-better-youtube-videos-learn-the-art-of-directing","headline":"With Emmy® Nominated Director, Robert Child","created":"24th January 2020","tags":[{"title":"Business","path":"/tag/Business/"},{"title":"Media","path":"/tag/Media/"},{"title":"Video Creation","path":"/tag/Video%20Creation/"}]}},{"node":{"__typename":"Course","id":"37744a78-3ef1-11ea-9791-1b580a556b4a","title":"2019 Domain Name & Website Flipping Profits With A Twist","slug":"2019-domain-name-and-website-flipping-profits-with-a-twist","headline":"How To Make Money From Flipping Websites & Domain Names","created":"24th January 2020","tags":[{"title":"Business","path":"/tag/Business/"},{"title":"Strategy","path":"/tag/Strategy/"},{"title":"Domain Trading","path":"/tag/Domain%20Trading/"}]}}]}}},"context":{}}